(Exported by FreeCAD)
(Post Processor: grbl_post)
(Output Time:2020-08-18 13:36:06.413379)
(Begin preamble)
G17 G90
G21
(Begin operation: Fixture)
(Path: Fixture)
G54
(Finish operation: Fixture)
(Begin operation: T37: Two-flute 1mm x 7mm002)
(Path: T37: Two-flute 1mm x 7mm002)
(T37: Two-flute 1mm x 7mm002)
(Begin toolchange)
(M6 T37.0)
M3 S7400.0
(Finish operation: T37: Two-flute 1mm x 7mm002)
(Begin operation: DressupTag002)
(Path: DressupTag002)
G0 Z2.000
G0 X21.354 Y-0.646 Z2.000
G0 X21.354 Y-0.646 Z1.000
G1 X21.354 Y-0.646 Z-0.333 F60.000
G3 X21.000 Y-0.500 Z-0.333 I-0.354 J-0.354 K0.000 F139.800
G1 X16.000 Y-0.500 Z-0.333 F139.800
G3 X15.500 Y-1.000 Z-0.333 I-0.000 J-0.500 K0.000 F139.800
G1 X15.500 Y-2.500 Z-0.333 F139.800
G1 X15.646 Y-2.646 Z-0.333 F139.800
G1 X15.500 Y-2.500 Z-0.333 F139.800
G1 X6.500 Y-2.500 Z-0.333 F139.800
G1 X6.354 Y-2.646 Z-0.333 F139.800
G1 X6.500 Y-2.500 Z-0.333 F139.800
G1 X6.500 Y-1.000 Z-0.333 F139.800
G3 X6.000 Y-0.500 Z-0.333 I-0.500 J0.000 K0.000 F139.800
G1 X1.000 Y-0.500 Z-0.333 F139.800
G3 X0.500 Y-1.000 Z-0.333 I-0.000 J-0.500 K0.000 F139.800
G1 X0.500 Y-17.076 Z-0.333 F139.800
G3 X1.000 Y-17.576 Z-0.333 I0.500 J-0.000 K0.000 F139.800
G1 X6.000 Y-17.576 Z-0.333 F139.800
G3 X6.500 Y-17.076 Z-0.333 I0.000 J0.500 K0.000 F139.800
G1 X6.500 Y-15.576 Z-0.333 F139.800
G1 X6.354 Y-15.430 Z-0.333 F139.800
G1 X6.500 Y-15.576 Z-0.333 F139.800
G1 X9.500 Y-15.576 Z-0.333 F139.800
G3 X10.000 Y-15.076 Z-0.333 I0.000 J0.500 K0.000 F139.800
G1 X10.000 Y-9.538 Z-0.333 F139.800
G1 X9.854 Y-9.392 Z-0.333 F139.800
G1 X10.000 Y-9.538 Z-0.333 F139.800
G1 X12.000 Y-9.538 Z-0.333 F139.800
G1 X12.146 Y-9.392 Z-0.333 F139.800
G1 X12.000 Y-9.538 Z-0.333 F139.800
G1 X12.000 Y-15.076 Z-0.333 F139.800
G3 X12.500 Y-15.576 Z-0.333 I0.500 J-0.000 K0.000 F139.800
G1 X15.500 Y-15.576 Z-0.333 F139.800
G1 X15.646 Y-15.430 Z-0.333 F139.800
G1 X15.500 Y-15.576 Z-0.333 F139.800
G1 X15.500 Y-17.076 Z-0.333 F139.800
G3 X16.000 Y-17.576 Z-0.333 I0.500 J-0.000 K0.000 F139.800
G1 X21.000 Y-17.576 Z-0.333 F139.800
G3 X21.500 Y-17.076 Z-0.333 I0.000 J0.500 K0.000 F139.800
G1 X21.500 Y-1.000 Z-0.333 F139.800
G3 X21.354 Y-0.646 Z-0.333 I-0.500 J0.000 K0.000 F139.800
G1 X21.354 Y-0.646 Z-0.667 F60.000
G3 X21.000 Y-0.500 Z-0.667 I-0.354 J-0.354 K0.000 F139.800
G1 X16.000 Y-0.500 Z-0.667 F139.800
G3 X15.500 Y-1.000 Z-0.667 I-0.000 J-0.500 K0.000 F139.800
G1 X15.500 Y-2.500 Z-0.667 F139.800
G1 X15.646 Y-2.646 Z-0.667 F139.800
G1 X15.500 Y-2.500 Z-0.667 F139.800
G1 X6.500 Y-2.500 Z-0.667 F139.800
G1 X6.354 Y-2.646 Z-0.667 F139.800
G1 X6.500 Y-2.500 Z-0.667 F139.800
G1 X6.500 Y-1.000 Z-0.667 F139.800
G3 X6.000 Y-0.500 Z-0.667 I-0.500 J0.000 K0.000 F139.800
G1 X1.000 Y-0.500 Z-0.667 F139.800
G3 X0.500 Y-1.000 Z-0.667 I-0.000 J-0.500 K0.000 F139.800
G1 X0.500 Y-17.076 Z-0.667 F139.800
G3 X1.000 Y-17.576 Z-0.667 I0.500 J-0.000 K0.000 F139.800
G1 X6.000 Y-17.576 Z-0.667 F139.800
G3 X6.500 Y-17.076 Z-0.667 I0.000 J0.500 K0.000 F139.800
G1 X6.500 Y-15.576 Z-0.667 F139.800
G1 X6.354 Y-15.430 Z-0.667 F139.800
G1 X6.500 Y-15.576 Z-0.667 F139.800
G1 X9.500 Y-15.576 Z-0.667 F139.800
G3 X10.000 Y-15.076 Z-0.667 I0.000 J0.500 K0.000 F139.800
G1 X10.000 Y-9.538 Z-0.667 F139.800
G1 X9.854 Y-9.392 Z-0.667 F139.800
G1 X10.000 Y-9.538 Z-0.667 F139.800
G1 X12.000 Y-9.538 Z-0.667 F139.800
G1 X12.146 Y-9.392 Z-0.667 F139.800
G1 X12.000 Y-9.538 Z-0.667 F139.800
G1 X12.000 Y-15.076 Z-0.667 F139.800
G3 X12.500 Y-15.576 Z-0.667 I0.500 J-0.000 K0.000 F139.800
G1 X15.500 Y-15.576 Z-0.667 F139.800
G1 X15.646 Y-15.430 Z-0.667 F139.800
G1 X15.500 Y-15.576 Z-0.667 F139.800
G1 X15.500 Y-17.076 Z-0.667 F139.800
G3 X16.000 Y-17.576 Z-0.667 I0.500 J-0.000 K0.000 F139.800
G1 X21.000 Y-17.576 Z-0.667 F139.800
G3 X21.500 Y-17.076 Z-0.667 I0.000 J0.500 K0.000 F139.800
G1 X21.500 Y-1.000 Z-0.667 F139.800
G3 X21.354 Y-0.646 Z-0.667 I-0.500 J0.000 K0.000 F139.800
G1 X21.354 Y-0.646 Z-1.000 F60.000
G3 X21.000 Y-0.500 Z-1.000 I-0.354 J-0.354 K0.000 F139.800
G1 X16.000 Y-0.500 Z-1.000 F139.800
G3 X15.500 Y-1.000 Z-1.000 I-0.000 J-0.500 K0.000 F139.800
G1 X15.500 Y-2.500 Z-1.000 F139.800
G1 X15.646 Y-2.646 Z-1.000 F139.800
G1 X15.500 Y-2.500 Z-1.000 F139.800
G1 X6.500 Y-2.500 Z-1.000 F139.800
G1 X6.354 Y-2.646 Z-1.000 F139.800
G1 X6.500 Y-2.500 Z-1.000 F139.800
G1 X6.500 Y-1.000 Z-1.000 F139.800
G3 X6.000 Y-0.500 Z-1.000 I-0.500 J0.000 K0.000 F139.800
G1 X1.000 Y-0.500 Z-1.000 F139.800
G3 X0.500 Y-1.000 Z-1.000 I-0.000 J-0.500 K0.000 F139.800
G1 X0.500 Y-17.076 Z-1.000 F139.800
G3 X1.000 Y-17.576 Z-1.000 I0.500 J-0.000 K0.000 F139.800
G1 X6.000 Y-17.576 Z-1.000 F139.800
G3 X6.500 Y-17.076 Z-1.000 I0.000 J0.500 K0.000 F139.800
G1 X6.500 Y-15.576 Z-1.000 F139.800
G1 X6.354 Y-15.430 Z-1.000 F139.800
G1 X6.500 Y-15.576 Z-1.000 F139.800
G1 X9.500 Y-15.576 Z-1.000 F139.800
G3 X10.000 Y-15.076 Z-1.000 I0.000 J0.500 K0.000 F139.800
G1 X10.000 Y-9.538 Z-1.000 F139.800
G1 X9.854 Y-9.392 Z-1.000 F139.800
G1 X10.000 Y-9.538 Z-1.000 F139.800
G1 X12.000 Y-9.538 Z-1.000 F139.800
G1 X12.146 Y-9.392 Z-1.000 F139.800
G1 X12.000 Y-9.538 Z-1.000 F139.800
G1 X12.000 Y-15.076 Z-1.000 F139.800
G3 X12.500 Y-15.576 Z-1.000 I0.500 J-0.000 K0.000 F139.800
G1 X15.500 Y-15.576 Z-1.000 F139.800
G1 X15.646 Y-15.430 Z-1.000 F139.800
G1 X15.500 Y-15.576 Z-1.000 F139.800
G1 X15.500 Y-17.076 Z-1.000 F139.800
G3 X16.000 Y-17.576 Z-1.000 I0.500 J-0.000 K0.000 F139.800
G1 X21.000 Y-17.576 Z-1.000 F139.800
G3 X21.500 Y-17.076 Z-1.000 I0.000 J0.500 K0.000 F139.800
G1 X21.500 Y-1.000 Z-1.000 F139.800
G3 X21.354 Y-0.646 Z-1.000 I-0.500 J0.000 K0.000 F139.800
G1 X21.354 Y-0.646 Z-1.333 F60.000
G3 X21.000 Y-0.500 Z-1.333 I-0.354 J-0.354 K0.000 F139.800
G1 X16.000 Y-0.500 Z-1.333 F139.800
G3 X15.500 Y-1.000 Z-1.333 I-0.000 J-0.500 K0.000 F139.800
G1 X15.500 Y-2.500 Z-1.333 F139.800
G1 X15.646 Y-2.646 Z-1.333 F139.800
G1 X15.500 Y-2.500 Z-1.333 F139.800
G1 X6.500 Y-2.500 Z-1.333 F139.800
G1 X6.354 Y-2.646 Z-1.333 F139.800
G1 X6.500 Y-2.500 Z-1.333 F139.800
G1 X6.500 Y-1.000 Z-1.333 F139.800
G3 X6.000 Y-0.500 Z-1.333 I-0.500 J0.000 K0.000 F139.800
G1 X1.000 Y-0.500 Z-1.333 F139.800
G3 X0.500 Y-1.000 Z-1.333 I-0.000 J-0.500 K0.000 F139.800
G1 X0.500 Y-17.076 Z-1.333 F139.800
G3 X1.000 Y-17.576 Z-1.333 I0.500 J-0.000 K0.000 F139.800
G1 X6.000 Y-17.576 Z-1.333 F139.800
G3 X6.500 Y-17.076 Z-1.333 I0.000 J0.500 K0.000 F139.800
G1 X6.500 Y-15.576 Z-1.333 F139.800
G1 X6.354 Y-15.430 Z-1.333 F139.800
G1 X6.500 Y-15.576 Z-1.333 F139.800
G1 X9.500 Y-15.576 Z-1.333 F139.800
G3 X10.000 Y-15.076 Z-1.333 I0.000 J0.500 K0.000 F139.800
G1 X10.000 Y-9.538 Z-1.333 F139.800
G1 X9.854 Y-9.392 Z-1.333 F139.800
G1 X10.000 Y-9.538 Z-1.333 F139.800
G1 X12.000 Y-9.538 Z-1.333 F139.800
G1 X12.146 Y-9.392 Z-1.333 F139.800
G1 X12.000 Y-9.538 Z-1.333 F139.800
G1 X12.000 Y-15.076 Z-1.333 F139.800
G3 X12.500 Y-15.576 Z-1.333 I0.500 J-0.000 K0.000 F139.800
G1 X15.500 Y-15.576 Z-1.333 F139.800
G1 X15.646 Y-15.430 Z-1.333 F139.800
G1 X15.500 Y-15.576 Z-1.333 F139.800
G1 X15.500 Y-17.076 Z-1.333 F139.800
G3 X16.000 Y-17.576 Z-1.333 I0.500 J-0.000 K0.000 F139.800
G1 X21.000 Y-17.576 Z-1.333 F139.800
G3 X21.500 Y-17.076 Z-1.333 I0.000 J0.500 K0.000 F139.800
G1 X21.500 Y-1.000 Z-1.333 F139.800
G3 X21.354 Y-0.646 Z-1.333 I-0.500 J0.000 K0.000 F139.800
G1 X21.354 Y-0.646 Z-1.667 F60.000
G3 X21.000 Y-0.500 Z-1.667 I-0.354 J-0.354 K0.000 F139.800
G1 X16.000 Y-0.500 Z-1.667 F139.800
G3 X15.500 Y-1.000 Z-1.667 I-0.000 J-0.500 K0.000 F139.800
G1 X15.500 Y-2.500 Z-1.667 F139.800
G1 X15.646 Y-2.646 Z-1.667 F139.800
G1 X15.500 Y-2.500 Z-1.667 F139.800
G1 X6.500 Y-2.500 Z-1.667 F139.800
G1 X6.354 Y-2.646 Z-1.667 F139.800
G1 X6.500 Y-2.500 Z-1.667 F139.800
G1 X6.500 Y-1.000 Z-1.667 F139.800
G3 X6.000 Y-0.500 Z-1.667 I-0.500 J0.000 K0.000 F139.800
G1 X1.000 Y-0.500 Z-1.667 F139.800
G3 X0.500 Y-1.000 Z-1.667 I-0.000 J-0.500 K0.000 F139.800
G1 X0.500 Y-17.076 Z-1.667 F139.800
G3 X1.000 Y-17.576 Z-1.667 I0.500 J-0.000 K0.000 F139.800
G1 X6.000 Y-17.576 Z-1.667 F139.800
G3 X6.500 Y-17.076 Z-1.667 I0.000 J0.500 K0.000 F139.800
G1 X6.500 Y-15.576 Z-1.667 F139.800
G1 X6.354 Y-15.430 Z-1.667 F139.800
G1 X6.500 Y-15.576 Z-1.667 F139.800
G1 X9.500 Y-15.576 Z-1.667 F139.800
G3 X10.000 Y-15.076 Z-1.667 I0.000 J0.500 K0.000 F139.800
G1 X10.000 Y-9.538 Z-1.667 F139.800
G1 X9.854 Y-9.392 Z-1.667 F139.800
G1 X10.000 Y-9.538 Z-1.667 F139.800
G1 X12.000 Y-9.538 Z-1.667 F139.800
G1 X12.146 Y-9.392 Z-1.667 F139.800
G1 X12.000 Y-9.538 Z-1.667 F139.800
G1 X12.000 Y-15.076 Z-1.667 F139.800
G3 X12.500 Y-15.576 Z-1.667 I0.500 J-0.000 K0.000 F139.800
G1 X15.500 Y-15.576 Z-1.667 F139.800
G1 X15.646 Y-15.430 Z-1.667 F139.800
G1 X15.500 Y-15.576 Z-1.667 F139.800
G1 X15.500 Y-17.076 Z-1.667 F139.800
G3 X16.000 Y-17.576 Z-1.667 I0.500 J-0.000 K0.000 F139.800
G1 X21.000 Y-17.576 Z-1.667 F139.800
G3 X21.500 Y-17.076 Z-1.667 I0.000 J0.500 K0.000 F139.800
G1 X21.500 Y-1.000 Z-1.667 F139.800
G3 X21.354 Y-0.646 Z-1.667 I-0.500 J0.000 K0.000 F139.800
G1 X21.354 Y-0.646 Z-2.000 F60.000
G3 X21.000 Y-0.500 Z-2.000 I-0.354 J-0.354 K0.000 F139.800
G1 X16.000 Y-0.500 Z-2.000 F139.800
G3 X15.500 Y-1.000 Z-2.000 I-0.000 J-0.500 K0.000 F139.800
G1 X15.500 Y-2.500 Z-2.000 F139.800
G1 X15.646 Y-2.646 Z-2.000 F139.800
G1 X15.500 Y-2.500 Z-2.000 F139.800
G1 X6.500 Y-2.500 Z-2.000 F139.800
G1 X6.354 Y-2.646 Z-2.000 F139.800
G1 X6.500 Y-2.500 Z-2.000 F139.800
G1 X6.500 Y-1.000 Z-2.000 F139.800
G3 X6.000 Y-0.500 Z-2.000 I-0.500 J0.000 K0.000 F139.800
G1 X1.000 Y-0.500 Z-2.000 F139.800
G3 X0.500 Y-1.000 Z-2.000 I-0.000 J-0.500 K0.000 F139.800
G1 X0.500 Y-8.737 Z-2.000 F139.800
G1 X0.500 Y-9.038 Z-1.696 F99.647
G1 X0.500 Y-9.339 Z-2.000 F99.647
G1 X0.500 Y-17.076 Z-2.000 F139.800
G3 X1.000 Y-17.576 Z-2.000 I0.500 J-0.000 K0.000 F139.800
G1 X6.000 Y-17.576 Z-2.000 F139.800
G3 X6.500 Y-17.076 Z-2.000 I0.000 J0.500 K0.000 F139.800
G1 X6.500 Y-15.576 Z-2.000 F139.800
G1 X6.354 Y-15.430 Z-2.000 F139.800
G1 X6.500 Y-15.576 Z-2.000 F139.800
G1 X9.500 Y-15.576 Z-2.000 F139.800
G3 X10.000 Y-15.076 Z-2.000 I0.000 J0.500 K0.000 F139.800
G1 X10.000 Y-9.538 Z-2.000 F139.800
G1 X9.854 Y-9.392 Z-2.000 F139.800
G1 X10.000 Y-9.538 Z-2.000 F139.800
G1 X12.000 Y-9.538 Z-2.000 F139.800
G1 X12.146 Y-9.392 Z-2.000 F139.800
G1 X12.000 Y-9.538 Z-2.000 F139.800
G1 X12.000 Y-15.076 Z-2.000 F139.800
G3 X12.500 Y-15.576 Z-2.000 I0.500 J-0.000 K0.000 F139.800
G1 X15.500 Y-15.576 Z-2.000 F139.800
G1 X15.646 Y-15.430 Z-2.000 F139.800
G1 X15.500 Y-15.576 Z-2.000 F139.800
G1 X15.500 Y-17.076 Z-2.000 F139.800
G3 X16.000 Y-17.576 Z-2.000 I0.500 J-0.000 K0.000 F139.800
G1 X21.000 Y-17.576 Z-2.000 F139.800
G3 X21.500 Y-17.076 Z-2.000 I0.000 J0.500 K0.000 F139.800
G1 X21.500 Y-9.339 Z-2.000 F139.800
G1 X21.500 Y-9.038 Z-1.696 F99.647
G1 X21.500 Y-8.737 Z-2.000 F99.647
G1 X21.500 Y-1.000 Z-2.000 F139.800
G3 X21.354 Y-0.646 Z-2.000 I-0.500 J0.000 K0.000 F139.800
G1 X21.354 Y-0.646 Z-2.333 F60.000
G3 X21.000 Y-0.500 Z-2.333 I-0.354 J-0.354 K0.000 F139.800
G1 X16.000 Y-0.500 Z-2.333 F139.800
G3 X15.500 Y-1.000 Z-2.333 I-0.000 J-0.500 K0.000 F139.800
G1 X15.500 Y-2.500 Z-2.333 F139.800
G1 X15.646 Y-2.646 Z-2.333 F139.800
G1 X15.500 Y-2.500 Z-2.333 F139.800
G1 X6.500 Y-2.500 Z-2.333 F139.800
G1 X6.354 Y-2.646 Z-2.333 F139.800
G1 X6.500 Y-2.500 Z-2.333 F139.800
G1 X6.500 Y-1.000 Z-2.333 F139.800
G3 X6.000 Y-0.500 Z-2.333 I-0.500 J0.000 K0.000 F139.800
G1 X1.000 Y-0.500 Z-2.333 F139.800
G3 X0.500 Y-1.000 Z-2.333 I-0.000 J-0.500 K0.000 F139.800
G1 X0.500 Y-8.407 Z-2.333 F139.800
G1 X0.500 Y-9.038 Z-1.696 F99.647
G1 X0.500 Y-9.669 Z-2.333 F99.647
G1 X0.500 Y-17.076 Z-2.333 F139.800
G3 X1.000 Y-17.576 Z-2.333 I0.500 J-0.000 K0.000 F139.800
G1 X6.000 Y-17.576 Z-2.333 F139.800
G3 X6.500 Y-17.076 Z-2.333 I0.000 J0.500 K0.000 F139.800
G1 X6.500 Y-15.576 Z-2.333 F139.800
G1 X6.354 Y-15.430 Z-2.333 F139.800
G1 X6.500 Y-15.576 Z-2.333 F139.800
G1 X9.500 Y-15.576 Z-2.333 F139.800
G3 X10.000 Y-15.076 Z-2.333 I0.000 J0.500 K0.000 F139.800
G1 X10.000 Y-9.538 Z-2.333 F139.800
G1 X9.854 Y-9.392 Z-2.333 F139.800
G1 X10.000 Y-9.538 Z-2.333 F139.800
G1 X12.000 Y-9.538 Z-2.333 F139.800
G1 X12.146 Y-9.392 Z-2.333 F139.800
G1 X12.000 Y-9.538 Z-2.333 F139.800
G1 X12.000 Y-15.076 Z-2.333 F139.800
G3 X12.500 Y-15.576 Z-2.333 I0.500 J-0.000 K0.000 F139.800
G1 X15.500 Y-15.576 Z-2.333 F139.800
G1 X15.646 Y-15.430 Z-2.333 F139.800
G1 X15.500 Y-15.576 Z-2.333 F139.800
G1 X15.500 Y-17.076 Z-2.333 F139.800
G3 X16.000 Y-17.576 Z-2.333 I0.500 J-0.000 K0.000 F139.800
G1 X21.000 Y-17.576 Z-2.333 F139.800
G3 X21.500 Y-17.076 Z-2.333 I0.000 J0.500 K0.000 F139.800
G1 X21.500 Y-9.669 Z-2.333 F139.800
G1 X21.500 Y-9.038 Z-1.696 F99.647
G1 X21.500 Y-8.407 Z-2.333 F99.647
G1 X21.500 Y-1.000 Z-2.333 F139.800
G3 X21.354 Y-0.646 Z-2.333 I-0.500 J0.000 K0.000 F139.800
G1 X21.354 Y-0.646 Z-2.667 F60.000
G3 X21.000 Y-0.500 Z-2.667 I-0.354 J-0.354 K0.000 F139.800
G1 X16.000 Y-0.500 Z-2.667 F139.800
G3 X15.500 Y-1.000 Z-2.667 I-0.000 J-0.500 K0.000 F139.800
G1 X15.500 Y-2.500 Z-2.667 F139.800
G1 X15.646 Y-2.646 Z-2.667 F139.800
G1 X15.500 Y-2.500 Z-2.667 F139.800
G1 X6.500 Y-2.500 Z-2.667 F139.800
G1 X6.354 Y-2.646 Z-2.667 F139.800
G1 X6.500 Y-2.500 Z-2.667 F139.800
G1 X6.500 Y-1.000 Z-2.667 F139.800
G3 X6.000 Y-0.500 Z-2.667 I-0.500 J0.000 K0.000 F139.800
G1 X1.000 Y-0.500 Z-2.667 F139.800
G3 X0.500 Y-1.000 Z-2.667 I-0.000 J-0.500 K0.000 F139.800
G1 X0.500 Y-8.077 Z-2.667 F139.800
G1 X0.500 Y-9.038 Z-1.696 F99.647
G1 X0.500 Y-9.999 Z-2.667 F99.647
G1 X0.500 Y-17.076 Z-2.667 F139.800
G3 X1.000 Y-17.576 Z-2.667 I0.500 J-0.000 K0.000 F139.800
G1 X6.000 Y-17.576 Z-2.667 F139.800
G3 X6.500 Y-17.076 Z-2.667 I0.000 J0.500 K0.000 F139.800
G1 X6.500 Y-15.576 Z-2.667 F139.800
G1 X6.354 Y-15.430 Z-2.667 F139.800
G1 X6.500 Y-15.576 Z-2.667 F139.800
G1 X9.500 Y-15.576 Z-2.667 F139.800
G3 X10.000 Y-15.076 Z-2.667 I0.000 J0.500 K0.000 F139.800
G1 X10.000 Y-9.538 Z-2.667 F139.800
G1 X9.854 Y-9.392 Z-2.667 F139.800
G1 X10.000 Y-9.538 Z-2.667 F139.800
G1 X12.000 Y-9.538 Z-2.667 F139.800
G1 X12.146 Y-9.392 Z-2.667 F139.800
G1 X12.000 Y-9.538 Z-2.667 F139.800
G1 X12.000 Y-15.076 Z-2.667 F139.800
G3 X12.500 Y-15.576 Z-2.667 I0.500 J-0.000 K0.000 F139.800
G1 X15.500 Y-15.576 Z-2.667 F139.800
G1 X15.646 Y-15.430 Z-2.667 F139.800
G1 X15.500 Y-15.576 Z-2.667 F139.800
G1 X15.500 Y-17.076 Z-2.667 F139.800
G3 X16.000 Y-17.576 Z-2.667 I0.500 J-0.000 K0.000 F139.800
G1 X21.000 Y-17.576 Z-2.667 F139.800
G3 X21.500 Y-17.076 Z-2.667 I0.000 J0.500 K0.000 F139.800
G1 X21.500 Y-9.999 Z-2.667 F139.800
G1 X21.500 Y-9.038 Z-1.696 F99.647
G1 X21.500 Y-8.077 Z-2.667 F99.647
G1 X21.500 Y-1.000 Z-2.667 F139.800
G3 X21.354 Y-0.646 Z-2.667 I-0.500 J0.000 K0.000 F139.800
G1 X21.354 Y-0.646 Z-3.000 F60.000
G3 X21.000 Y-0.500 Z-3.000 I-0.354 J-0.354 K0.000 F139.800
G1 X16.000 Y-0.500 Z-3.000 F139.800
G3 X15.500 Y-1.000 Z-3.000 I-0.000 J-0.500 K0.000 F139.800
G1 X15.500 Y-2.500 Z-3.000 F139.800
G1 X15.646 Y-2.646 Z-3.000 F139.800
G1 X15.500 Y-2.500 Z-3.000 F139.800
G1 X6.500 Y-2.500 Z-3.000 F139.800
G1 X6.354 Y-2.646 Z-3.000 F139.800
G1 X6.500 Y-2.500 Z-3.000 F139.800
G1 X6.500 Y-1.000 Z-3.000 F139.800
G3 X6.000 Y-0.500 Z-3.000 I-0.500 J0.000 K0.000 F139.800
G1 X1.000 Y-0.500 Z-3.000 F139.800
G3 X0.500 Y-1.000 Z-3.000 I-0.000 J-0.500 K0.000 F139.800
G1 X0.500 Y-7.747 Z-3.000 F139.800
G1 X0.500 Y-9.038 Z-1.696 F99.647
G1 X0.500 Y-10.329 Z-3.000 F99.647
G1 X0.500 Y-17.076 Z-3.000 F139.800
G3 X1.000 Y-17.576 Z-3.000 I0.500 J-0.000 K0.000 F139.800
G1 X6.000 Y-17.576 Z-3.000 F139.800
G3 X6.500 Y-17.076 Z-3.000 I0.000 J0.500 K0.000 F139.800
G1 X6.500 Y-15.576 Z-3.000 F139.800
G1 X6.354 Y-15.430 Z-3.000 F139.800
G1 X6.500 Y-15.576 Z-3.000 F139.800
G1 X9.500 Y-15.576 Z-3.000 F139.800
G3 X10.000 Y-15.076 Z-3.000 I0.000 J0.500 K0.000 F139.800
G1 X10.000 Y-9.538 Z-3.000 F139.800
G1 X9.854 Y-9.392 Z-3.000 F139.800
G1 X10.000 Y-9.538 Z-3.000 F139.800
G1 X12.000 Y-9.538 Z-3.000 F139.800
G1 X12.146 Y-9.392 Z-3.000 F139.800
G1 X12.000 Y-9.538 Z-3.000 F139.800
G1 X12.000 Y-15.076 Z-3.000 F139.800
G3 X12.500 Y-15.576 Z-3.000 I0.500 J-0.000 K0.000 F139.800
G1 X15.500 Y-15.576 Z-3.000 F139.800
G1 X15.646 Y-15.430 Z-3.000 F139.800
G1 X15.500 Y-15.576 Z-3.000 F139.800
G1 X15.500 Y-17.076 Z-3.000 F139.800
G3 X16.000 Y-17.576 Z-3.000 I0.500 J-0.000 K0.000 F139.800
G1 X21.000 Y-17.576 Z-3.000 F139.800
G3 X21.500 Y-17.076 Z-3.000 I0.000 J0.500 K0.000 F139.800
G1 X21.500 Y-10.329 Z-3.000 F139.800
G1 X21.500 Y-9.038 Z-1.696 F99.647
G1 X21.500 Y-7.747 Z-3.000 F99.647
G1 X21.500 Y-1.000 Z-3.000 F139.800
G3 X21.354 Y-0.646 Z-3.000 I-0.500 J0.000 K0.000 F139.800
G0 X21.354 Y-0.646 Z2.000
(Finish operation: DressupTag002)
(Begin postamble)
M5
G17 G90
M2
