(Exported by FreeCAD)
(Post Processor: grbl_post)
(Output Time:2020-08-18 16:58:54.439136)
(Begin preamble)
G17 G90
G21
(Begin operation: Fixture)
(Path: Fixture)
G54
(Finish operation: Fixture)
(Begin operation: T37: Two-flute 1mm x 7mm)
(Path: T37: Two-flute 1mm x 7mm)
(T37: Two-flute 1mm x 7mm)
(Begin toolchange)
(M6 T37.0)
M3 S7400.0
(Finish operation: T37: Two-flute 1mm x 7mm)
(Begin operation: DogboneDressup)
(Path: DogboneDressup)
(Profile)
(Compensated Tool Path. Diameter: 1.0)
G0 Z2.000
G0 X-2.389 Y16.111
G0 Z1.000
G1 X-2.389 Y16.111 Z-0.333 F60.000
G1 X-1.682 Y15.404 Z-0.333 F138.000
G1 X-1.475 Y15.404 Z-0.333 F138.000
G1 X-1.682 Y15.404 Z-0.333 F138.000
G1 X-4.510 Y12.575 Z-0.333 F138.000
G1 X-4.510 Y12.575 Z-0.333 F138.000
G1 X-4.510 Y12.368 Z-0.333 F138.000
G1 X-4.510 Y12.575 Z-0.333 F138.000
G1 X-5.925 Y13.990 Z-0.333 F138.000
G1 X-5.925 Y13.990 Z-0.333 F138.000
G1 X-6.132 Y13.990 Z-0.333 F138.000
G1 X-5.925 Y13.990 Z-0.333 F138.000
G1 X-3.096 Y16.818 Z-0.333 F138.000
G1 X-3.096 Y16.818 Z-0.333 F138.000
G1 X-3.096 Y17.025 Z-0.333 F138.000
G1 X-3.096 Y16.818 Z-0.333 F138.000
G1 X-2.389 Y16.111 Z-0.333 F138.000
G1 X-2.389 Y16.111 Z-0.667 F60.000
G1 X-1.682 Y15.404 Z-0.667 F138.000
G1 X-1.475 Y15.404 Z-0.667 F138.000
G1 X-1.682 Y15.404 Z-0.667 F138.000
G1 X-4.510 Y12.575 Z-0.667 F138.000
G1 X-4.510 Y12.575 Z-0.667 F138.000
G1 X-4.510 Y12.368 Z-0.667 F138.000
G1 X-4.510 Y12.575 Z-0.667 F138.000
G1 X-5.925 Y13.990 Z-0.667 F138.000
G1 X-5.925 Y13.990 Z-0.667 F138.000
G1 X-6.132 Y13.990 Z-0.667 F138.000
G1 X-5.925 Y13.990 Z-0.667 F138.000
G1 X-3.096 Y16.818 Z-0.667 F138.000
G1 X-3.096 Y16.818 Z-0.667 F138.000
G1 X-3.096 Y17.025 Z-0.667 F138.000
G1 X-3.096 Y16.818 Z-0.667 F138.000
G1 X-2.389 Y16.111 Z-0.667 F138.000
G1 X-2.389 Y16.111 Z-1.000 F60.000
G1 X-1.682 Y15.404 Z-1.000 F138.000
G1 X-1.475 Y15.404 Z-1.000 F138.000
G1 X-1.682 Y15.404 Z-1.000 F138.000
G1 X-4.510 Y12.575 Z-1.000 F138.000
G1 X-4.510 Y12.575 Z-1.000 F138.000
G1 X-4.510 Y12.368 Z-1.000 F138.000
G1 X-4.510 Y12.575 Z-1.000 F138.000
G1 X-5.925 Y13.990 Z-1.000 F138.000
G1 X-5.925 Y13.990 Z-1.000 F138.000
G1 X-6.132 Y13.990 Z-1.000 F138.000
G1 X-5.925 Y13.990 Z-1.000 F138.000
G1 X-3.096 Y16.818 Z-1.000 F138.000
G1 X-3.096 Y16.818 Z-1.000 F138.000
G1 X-3.096 Y17.025 Z-1.000 F138.000
G1 X-3.096 Y16.818 Z-1.000 F138.000
G1 X-2.389 Y16.111 Z-1.000 F138.000
G1 X-2.389 Y16.111 Z-1.333 F60.000
G1 X-1.682 Y15.404 Z-1.333 F138.000
G1 X-1.475 Y15.404 Z-1.333 F138.000
G1 X-1.682 Y15.404 Z-1.333 F138.000
G1 X-4.510 Y12.575 Z-1.333 F138.000
G1 X-4.510 Y12.575 Z-1.333 F138.000
G1 X-4.510 Y12.368 Z-1.333 F138.000
G1 X-4.510 Y12.575 Z-1.333 F138.000
G1 X-5.925 Y13.990 Z-1.333 F138.000
G1 X-5.925 Y13.990 Z-1.333 F138.000
G1 X-6.132 Y13.990 Z-1.333 F138.000
G1 X-5.925 Y13.990 Z-1.333 F138.000
G1 X-3.096 Y16.818 Z-1.333 F138.000
G1 X-3.096 Y16.818 Z-1.333 F138.000
G1 X-3.096 Y17.025 Z-1.333 F138.000
G1 X-3.096 Y16.818 Z-1.333 F138.000
G1 X-2.389 Y16.111 Z-1.333 F138.000
G1 X-2.389 Y16.111 Z-1.667 F60.000
G1 X-1.682 Y15.404 Z-1.667 F138.000
G1 X-1.475 Y15.404 Z-1.667 F138.000
G1 X-1.682 Y15.404 Z-1.667 F138.000
G1 X-4.510 Y12.575 Z-1.667 F138.000
G1 X-4.510 Y12.575 Z-1.667 F138.000
G1 X-4.510 Y12.368 Z-1.667 F138.000
G1 X-4.510 Y12.575 Z-1.667 F138.000
G1 X-5.925 Y13.990 Z-1.667 F138.000
G1 X-5.925 Y13.990 Z-1.667 F138.000
G1 X-6.132 Y13.990 Z-1.667 F138.000
G1 X-5.925 Y13.990 Z-1.667 F138.000
G1 X-3.096 Y16.818 Z-1.667 F138.000
G1 X-3.096 Y16.818 Z-1.667 F138.000
G1 X-3.096 Y17.025 Z-1.667 F138.000
G1 X-3.096 Y16.818 Z-1.667 F138.000
G1 X-2.389 Y16.111 Z-1.667 F138.000
G1 X-2.389 Y16.111 Z-2.000 F60.000
G1 X-1.682 Y15.404 Z-2.000 F138.000
G1 X-1.475 Y15.404 Z-2.000 F138.000
G1 X-1.682 Y15.404 Z-2.000 F138.000
G1 X-4.510 Y12.575 Z-2.000 F138.000
G1 X-4.510 Y12.575 Z-2.000 F138.000
G1 X-4.510 Y12.368 Z-2.000 F138.000
G1 X-4.510 Y12.575 Z-2.000 F138.000
G1 X-5.925 Y13.990 Z-2.000 F138.000
G1 X-5.925 Y13.990 Z-2.000 F138.000
G1 X-6.132 Y13.990 Z-2.000 F138.000
G1 X-5.925 Y13.990 Z-2.000 F138.000
G1 X-3.096 Y16.818 Z-2.000 F138.000
G1 X-3.096 Y16.818 Z-2.000 F138.000
G1 X-3.096 Y17.025 Z-2.000 F138.000
G1 X-3.096 Y16.818 Z-2.000 F138.000
G1 X-2.389 Y16.111 Z-2.000 F138.000
G1 X-2.389 Y16.111 Z-2.333 F60.000
G1 X-1.682 Y15.404 Z-2.333 F138.000
G1 X-1.475 Y15.404 Z-2.333 F138.000
G1 X-1.682 Y15.404 Z-2.333 F138.000
G1 X-4.510 Y12.575 Z-2.333 F138.000
G1 X-4.510 Y12.575 Z-2.333 F138.000
G1 X-4.510 Y12.368 Z-2.333 F138.000
G1 X-4.510 Y12.575 Z-2.333 F138.000
G1 X-5.925 Y13.990 Z-2.333 F138.000
G1 X-5.925 Y13.990 Z-2.333 F138.000
G1 X-6.132 Y13.990 Z-2.333 F138.000
G1 X-5.925 Y13.990 Z-2.333 F138.000
G1 X-3.096 Y16.818 Z-2.333 F138.000
G1 X-3.096 Y16.818 Z-2.333 F138.000
G1 X-3.096 Y17.025 Z-2.333 F138.000
G1 X-3.096 Y16.818 Z-2.333 F138.000
G1 X-2.389 Y16.111 Z-2.333 F138.000
G1 X-2.389 Y16.111 Z-2.667 F60.000
G1 X-1.682 Y15.404 Z-2.667 F138.000
G1 X-1.475 Y15.404 Z-2.667 F138.000
G1 X-1.682 Y15.404 Z-2.667 F138.000
G1 X-4.510 Y12.575 Z-2.667 F138.000
G1 X-4.510 Y12.575 Z-2.667 F138.000
G1 X-4.510 Y12.368 Z-2.667 F138.000
G1 X-4.510 Y12.575 Z-2.667 F138.000
G1 X-5.925 Y13.990 Z-2.667 F138.000
G1 X-5.925 Y13.990 Z-2.667 F138.000
G1 X-6.132 Y13.990 Z-2.667 F138.000
G1 X-5.925 Y13.990 Z-2.667 F138.000
G1 X-3.096 Y16.818 Z-2.667 F138.000
G1 X-3.096 Y16.818 Z-2.667 F138.000
G1 X-3.096 Y17.025 Z-2.667 F138.000
G1 X-3.096 Y16.818 Z-2.667 F138.000
G1 X-2.389 Y16.111 Z-2.667 F138.000
G1 X-2.389 Y16.111 Z-2.900 F60.000
G1 X-1.682 Y15.404 Z-2.900 F138.000
G1 X-1.475 Y15.404 Z-2.900 F138.000
G1 X-1.682 Y15.404 Z-2.900 F138.000
G1 X-4.510 Y12.575 Z-2.900 F138.000
G1 X-4.510 Y12.575 Z-2.900 F138.000
G1 X-4.510 Y12.368 Z-2.900 F138.000
G1 X-4.510 Y12.575 Z-2.900 F138.000
G1 X-5.925 Y13.990 Z-2.900 F138.000
G1 X-5.925 Y13.990 Z-2.900 F138.000
G1 X-6.132 Y13.990 Z-2.900 F138.000
G1 X-5.925 Y13.990 Z-2.900 F138.000
G1 X-3.096 Y16.818 Z-2.900 F138.000
G1 X-3.096 Y16.818 Z-2.900 F138.000
G1 X-3.096 Y17.025 Z-2.900 F138.000
G1 X-3.096 Y16.818 Z-2.900 F138.000
G1 X-2.389 Y16.111 Z-2.900 F138.000
G0 Z2.000
G0 Z2.000
G0 X-3.096 Y23.182
G0 X-3.096 Y23.182 Z1.000
G1 X-3.096 Y23.182 Z-0.333 F60.000
G1 X-5.925 Y26.010 Z-0.333 F138.000
G1 X-6.132 Y26.010 Z-0.333 F138.000
G1 X-5.925 Y26.010 Z-0.333 F138.000
G1 X-4.510 Y27.425 Z-0.333 F138.000
G1 X-4.510 Y27.425 Z-0.333 F138.000
G1 X-4.510 Y27.632 Z-0.333 F138.000
G1 X-4.510 Y27.425 Z-0.333 F138.000
G1 X-1.682 Y24.596 Z-0.333 F138.000
G1 X-1.682 Y24.596 Z-0.333 F138.000
G1 X-1.475 Y24.596 Z-0.333 F138.000
G1 X-1.682 Y24.596 Z-0.333 F138.000
G1 X-3.096 Y23.182 Z-0.333 F138.000
G1 X-3.096 Y23.182 Z-0.333 F138.000
G1 X-3.096 Y22.975 Z-0.333 F138.000
G1 X-3.096 Y23.182 Z-0.333 F138.000
G1 X-3.096 Y23.182 Z-0.667 F60.000
G1 X-5.925 Y26.010 Z-0.667 F138.000
G1 X-6.132 Y26.010 Z-0.667 F138.000
G1 X-5.925 Y26.010 Z-0.667 F138.000
G1 X-4.510 Y27.425 Z-0.667 F138.000
G1 X-4.510 Y27.425 Z-0.667 F138.000
G1 X-4.510 Y27.632 Z-0.667 F138.000
G1 X-4.510 Y27.425 Z-0.667 F138.000
G1 X-1.682 Y24.596 Z-0.667 F138.000
G1 X-1.682 Y24.596 Z-0.667 F138.000
G1 X-1.475 Y24.596 Z-0.667 F138.000
G1 X-1.682 Y24.596 Z-0.667 F138.000
G1 X-3.096 Y23.182 Z-0.667 F138.000
G1 X-3.096 Y23.182 Z-0.667 F138.000
G1 X-3.096 Y22.975 Z-0.667 F138.000
G1 X-3.096 Y23.182 Z-0.667 F138.000
G1 X-3.096 Y23.182 Z-1.000 F60.000
G1 X-5.925 Y26.010 Z-1.000 F138.000
G1 X-6.132 Y26.010 Z-1.000 F138.000
G1 X-5.925 Y26.010 Z-1.000 F138.000
G1 X-4.510 Y27.425 Z-1.000 F138.000
G1 X-4.510 Y27.425 Z-1.000 F138.000
G1 X-4.510 Y27.632 Z-1.000 F138.000
G1 X-4.510 Y27.425 Z-1.000 F138.000
G1 X-1.682 Y24.596 Z-1.000 F138.000
G1 X-1.682 Y24.596 Z-1.000 F138.000
G1 X-1.475 Y24.596 Z-1.000 F138.000
G1 X-1.682 Y24.596 Z-1.000 F138.000
G1 X-3.096 Y23.182 Z-1.000 F138.000
G1 X-3.096 Y23.182 Z-1.000 F138.000
G1 X-3.096 Y22.975 Z-1.000 F138.000
G1 X-3.096 Y23.182 Z-1.000 F138.000
G1 X-3.096 Y23.182 Z-1.333 F60.000
G1 X-5.925 Y26.010 Z-1.333 F138.000
G1 X-6.132 Y26.010 Z-1.333 F138.000
G1 X-5.925 Y26.010 Z-1.333 F138.000
G1 X-4.510 Y27.425 Z-1.333 F138.000
G1 X-4.510 Y27.425 Z-1.333 F138.000
G1 X-4.510 Y27.632 Z-1.333 F138.000
G1 X-4.510 Y27.425 Z-1.333 F138.000
G1 X-1.682 Y24.596 Z-1.333 F138.000
G1 X-1.682 Y24.596 Z-1.333 F138.000
G1 X-1.475 Y24.596 Z-1.333 F138.000
G1 X-1.682 Y24.596 Z-1.333 F138.000
G1 X-3.096 Y23.182 Z-1.333 F138.000
G1 X-3.096 Y23.182 Z-1.333 F138.000
G1 X-3.096 Y22.975 Z-1.333 F138.000
G1 X-3.096 Y23.182 Z-1.333 F138.000
G1 X-3.096 Y23.182 Z-1.667 F60.000
G1 X-5.925 Y26.010 Z-1.667 F138.000
G1 X-6.132 Y26.010 Z-1.667 F138.000
G1 X-5.925 Y26.010 Z-1.667 F138.000
G1 X-4.510 Y27.425 Z-1.667 F138.000
G1 X-4.510 Y27.425 Z-1.667 F138.000
G1 X-4.510 Y27.632 Z-1.667 F138.000
G1 X-4.510 Y27.425 Z-1.667 F138.000
G1 X-1.682 Y24.596 Z-1.667 F138.000
G1 X-1.682 Y24.596 Z-1.667 F138.000
G1 X-1.475 Y24.596 Z-1.667 F138.000
G1 X-1.682 Y24.596 Z-1.667 F138.000
G1 X-3.096 Y23.182 Z-1.667 F138.000
G1 X-3.096 Y23.182 Z-1.667 F138.000
G1 X-3.096 Y22.975 Z-1.667 F138.000
G1 X-3.096 Y23.182 Z-1.667 F138.000
G1 X-3.096 Y23.182 Z-2.000 F60.000
G1 X-5.925 Y26.010 Z-2.000 F138.000
G1 X-6.132 Y26.010 Z-2.000 F138.000
G1 X-5.925 Y26.010 Z-2.000 F138.000
G1 X-4.510 Y27.425 Z-2.000 F138.000
G1 X-4.510 Y27.425 Z-2.000 F138.000
G1 X-4.510 Y27.632 Z-2.000 F138.000
G1 X-4.510 Y27.425 Z-2.000 F138.000
G1 X-1.682 Y24.596 Z-2.000 F138.000
G1 X-1.682 Y24.596 Z-2.000 F138.000
G1 X-1.475 Y24.596 Z-2.000 F138.000
G1 X-1.682 Y24.596 Z-2.000 F138.000
G1 X-3.096 Y23.182 Z-2.000 F138.000
G1 X-3.096 Y23.182 Z-2.000 F138.000
G1 X-3.096 Y22.975 Z-2.000 F138.000
G1 X-3.096 Y23.182 Z-2.000 F138.000
G1 X-3.096 Y23.182 Z-2.333 F60.000
G1 X-5.925 Y26.010 Z-2.333 F138.000
G1 X-6.132 Y26.010 Z-2.333 F138.000
G1 X-5.925 Y26.010 Z-2.333 F138.000
G1 X-4.510 Y27.425 Z-2.333 F138.000
G1 X-4.510 Y27.425 Z-2.333 F138.000
G1 X-4.510 Y27.632 Z-2.333 F138.000
G1 X-4.510 Y27.425 Z-2.333 F138.000
G1 X-1.682 Y24.596 Z-2.333 F138.000
G1 X-1.682 Y24.596 Z-2.333 F138.000
G1 X-1.475 Y24.596 Z-2.333 F138.000
G1 X-1.682 Y24.596 Z-2.333 F138.000
G1 X-3.096 Y23.182 Z-2.333 F138.000
G1 X-3.096 Y23.182 Z-2.333 F138.000
G1 X-3.096 Y22.975 Z-2.333 F138.000
G1 X-3.096 Y23.182 Z-2.333 F138.000
G1 X-3.096 Y23.182 Z-2.667 F60.000
G1 X-5.925 Y26.010 Z-2.667 F138.000
G1 X-6.132 Y26.010 Z-2.667 F138.000
G1 X-5.925 Y26.010 Z-2.667 F138.000
G1 X-4.510 Y27.425 Z-2.667 F138.000
G1 X-4.510 Y27.425 Z-2.667 F138.000
G1 X-4.510 Y27.632 Z-2.667 F138.000
G1 X-4.510 Y27.425 Z-2.667 F138.000
G1 X-1.682 Y24.596 Z-2.667 F138.000
G1 X-1.682 Y24.596 Z-2.667 F138.000
G1 X-1.475 Y24.596 Z-2.667 F138.000
G1 X-1.682 Y24.596 Z-2.667 F138.000
G1 X-3.096 Y23.182 Z-2.667 F138.000
G1 X-3.096 Y23.182 Z-2.667 F138.000
G1 X-3.096 Y22.975 Z-2.667 F138.000
G1 X-3.096 Y23.182 Z-2.667 F138.000
G1 X-3.096 Y23.182 Z-2.900 F60.000
G1 X-5.925 Y26.010 Z-2.900 F138.000
G1 X-6.132 Y26.010 Z-2.900 F138.000
G1 X-5.925 Y26.010 Z-2.900 F138.000
G1 X-4.510 Y27.425 Z-2.900 F138.000
G1 X-4.510 Y27.425 Z-2.900 F138.000
G1 X-4.510 Y27.632 Z-2.900 F138.000
G1 X-4.510 Y27.425 Z-2.900 F138.000
G1 X-1.682 Y24.596 Z-2.900 F138.000
G1 X-1.682 Y24.596 Z-2.900 F138.000
G1 X-1.475 Y24.596 Z-2.900 F138.000
G1 X-1.682 Y24.596 Z-2.900 F138.000
G1 X-3.096 Y23.182 Z-2.900 F138.000
G1 X-3.096 Y23.182 Z-2.900 F138.000
G1 X-3.096 Y22.975 Z-2.900 F138.000
G1 X-3.096 Y23.182 Z-2.900 F138.000
G0 Z2.000
G0 Z2.000
G0 X4.682 Y24.596
G0 X4.682 Y24.596 Z1.000
G1 X4.682 Y24.596 Z-0.333 F60.000
G1 X7.510 Y27.425 Z-0.333 F138.000
G1 X7.510 Y27.632 Z-0.333 F138.000
G1 X7.510 Y27.425 Z-0.333 F138.000
G1 X8.925 Y26.010 Z-0.333 F138.000
G1 X8.925 Y26.010 Z-0.333 F138.000
G1 X9.132 Y26.010 Z-0.333 F138.000
G1 X8.925 Y26.010 Z-0.333 F138.000
G1 X6.096 Y23.182 Z-0.333 F138.000
G1 X6.096 Y23.182 Z-0.333 F138.000
G1 X6.096 Y22.975 Z-0.333 F138.000
G1 X6.096 Y23.182 Z-0.333 F138.000
G1 X4.682 Y24.596 Z-0.333 F138.000
G1 X4.682 Y24.596 Z-0.333 F138.000
G1 X4.475 Y24.596 Z-0.333 F138.000
G1 X4.682 Y24.596 Z-0.333 F138.000
G1 X4.682 Y24.596 Z-0.667 F60.000
G1 X7.510 Y27.425 Z-0.667 F138.000
G1 X7.510 Y27.632 Z-0.667 F138.000
G1 X7.510 Y27.425 Z-0.667 F138.000
G1 X8.925 Y26.010 Z-0.667 F138.000
G1 X8.925 Y26.010 Z-0.667 F138.000
G1 X9.132 Y26.010 Z-0.667 F138.000
G1 X8.925 Y26.010 Z-0.667 F138.000
G1 X6.096 Y23.182 Z-0.667 F138.000
G1 X6.096 Y23.182 Z-0.667 F138.000
G1 X6.096 Y22.975 Z-0.667 F138.000
G1 X6.096 Y23.182 Z-0.667 F138.000
G1 X4.682 Y24.596 Z-0.667 F138.000
G1 X4.682 Y24.596 Z-0.667 F138.000
G1 X4.475 Y24.596 Z-0.667 F138.000
G1 X4.682 Y24.596 Z-0.667 F138.000
G1 X4.682 Y24.596 Z-1.000 F60.000
G1 X7.510 Y27.425 Z-1.000 F138.000
G1 X7.510 Y27.632 Z-1.000 F138.000
G1 X7.510 Y27.425 Z-1.000 F138.000
G1 X8.925 Y26.010 Z-1.000 F138.000
G1 X8.925 Y26.010 Z-1.000 F138.000
G1 X9.132 Y26.010 Z-1.000 F138.000
G1 X8.925 Y26.010 Z-1.000 F138.000
G1 X6.096 Y23.182 Z-1.000 F138.000
G1 X6.096 Y23.182 Z-1.000 F138.000
G1 X6.096 Y22.975 Z-1.000 F138.000
G1 X6.096 Y23.182 Z-1.000 F138.000
G1 X4.682 Y24.596 Z-1.000 F138.000
G1 X4.682 Y24.596 Z-1.000 F138.000
G1 X4.475 Y24.596 Z-1.000 F138.000
G1 X4.682 Y24.596 Z-1.000 F138.000
G1 X4.682 Y24.596 Z-1.333 F60.000
G1 X7.510 Y27.425 Z-1.333 F138.000
G1 X7.510 Y27.632 Z-1.333 F138.000
G1 X7.510 Y27.425 Z-1.333 F138.000
G1 X8.925 Y26.010 Z-1.333 F138.000
G1 X8.925 Y26.010 Z-1.333 F138.000
G1 X9.132 Y26.010 Z-1.333 F138.000
G1 X8.925 Y26.010 Z-1.333 F138.000
G1 X6.096 Y23.182 Z-1.333 F138.000
G1 X6.096 Y23.182 Z-1.333 F138.000
G1 X6.096 Y22.975 Z-1.333 F138.000
G1 X6.096 Y23.182 Z-1.333 F138.000
G1 X4.682 Y24.596 Z-1.333 F138.000
G1 X4.682 Y24.596 Z-1.333 F138.000
G1 X4.475 Y24.596 Z-1.333 F138.000
G1 X4.682 Y24.596 Z-1.333 F138.000
G1 X4.682 Y24.596 Z-1.667 F60.000
G1 X7.510 Y27.425 Z-1.667 F138.000
G1 X7.510 Y27.632 Z-1.667 F138.000
G1 X7.510 Y27.425 Z-1.667 F138.000
G1 X8.925 Y26.010 Z-1.667 F138.000
G1 X8.925 Y26.010 Z-1.667 F138.000
G1 X9.132 Y26.010 Z-1.667 F138.000
G1 X8.925 Y26.010 Z-1.667 F138.000
G1 X6.096 Y23.182 Z-1.667 F138.000
G1 X6.096 Y23.182 Z-1.667 F138.000
G1 X6.096 Y22.975 Z-1.667 F138.000
G1 X6.096 Y23.182 Z-1.667 F138.000
G1 X4.682 Y24.596 Z-1.667 F138.000
G1 X4.682 Y24.596 Z-1.667 F138.000
G1 X4.475 Y24.596 Z-1.667 F138.000
G1 X4.682 Y24.596 Z-1.667 F138.000
G1 X4.682 Y24.596 Z-2.000 F60.000
G1 X7.510 Y27.425 Z-2.000 F138.000
G1 X7.510 Y27.632 Z-2.000 F138.000
G1 X7.510 Y27.425 Z-2.000 F138.000
G1 X8.925 Y26.010 Z-2.000 F138.000
G1 X8.925 Y26.010 Z-2.000 F138.000
G1 X9.132 Y26.010 Z-2.000 F138.000
G1 X8.925 Y26.010 Z-2.000 F138.000
G1 X6.096 Y23.182 Z-2.000 F138.000
G1 X6.096 Y23.182 Z-2.000 F138.000
G1 X6.096 Y22.975 Z-2.000 F138.000
G1 X6.096 Y23.182 Z-2.000 F138.000
G1 X4.682 Y24.596 Z-2.000 F138.000
G1 X4.682 Y24.596 Z-2.000 F138.000
G1 X4.475 Y24.596 Z-2.000 F138.000
G1 X4.682 Y24.596 Z-2.000 F138.000
G1 X4.682 Y24.596 Z-2.333 F60.000
G1 X7.510 Y27.425 Z-2.333 F138.000
G1 X7.510 Y27.632 Z-2.333 F138.000
G1 X7.510 Y27.425 Z-2.333 F138.000
G1 X8.925 Y26.010 Z-2.333 F138.000
G1 X8.925 Y26.010 Z-2.333 F138.000
G1 X9.132 Y26.010 Z-2.333 F138.000
G1 X8.925 Y26.010 Z-2.333 F138.000
G1 X6.096 Y23.182 Z-2.333 F138.000
G1 X6.096 Y23.182 Z-2.333 F138.000
G1 X6.096 Y22.975 Z-2.333 F138.000
G1 X6.096 Y23.182 Z-2.333 F138.000
G1 X4.682 Y24.596 Z-2.333 F138.000
G1 X4.682 Y24.596 Z-2.333 F138.000
G1 X4.475 Y24.596 Z-2.333 F138.000
G1 X4.682 Y24.596 Z-2.333 F138.000
G1 X4.682 Y24.596 Z-2.667 F60.000
G1 X7.510 Y27.425 Z-2.667 F138.000
G1 X7.510 Y27.632 Z-2.667 F138.000
G1 X7.510 Y27.425 Z-2.667 F138.000
G1 X8.925 Y26.010 Z-2.667 F138.000
G1 X8.925 Y26.010 Z-2.667 F138.000
G1 X9.132 Y26.010 Z-2.667 F138.000
G1 X8.925 Y26.010 Z-2.667 F138.000
G1 X6.096 Y23.182 Z-2.667 F138.000
G1 X6.096 Y23.182 Z-2.667 F138.000
G1 X6.096 Y22.975 Z-2.667 F138.000
G1 X6.096 Y23.182 Z-2.667 F138.000
G1 X4.682 Y24.596 Z-2.667 F138.000
G1 X4.682 Y24.596 Z-2.667 F138.000
G1 X4.475 Y24.596 Z-2.667 F138.000
G1 X4.682 Y24.596 Z-2.667 F138.000
G1 X4.682 Y24.596 Z-2.900 F60.000
G1 X7.510 Y27.425 Z-2.900 F138.000
G1 X7.510 Y27.632 Z-2.900 F138.000
G1 X7.510 Y27.425 Z-2.900 F138.000
G1 X8.925 Y26.010 Z-2.900 F138.000
G1 X8.925 Y26.010 Z-2.900 F138.000
G1 X9.132 Y26.010 Z-2.900 F138.000
G1 X8.925 Y26.010 Z-2.900 F138.000
G1 X6.096 Y23.182 Z-2.900 F138.000
G1 X6.096 Y23.182 Z-2.900 F138.000
G1 X6.096 Y22.975 Z-2.900 F138.000
G1 X6.096 Y23.182 Z-2.900 F138.000
G1 X4.682 Y24.596 Z-2.900 F138.000
G1 X4.682 Y24.596 Z-2.900 F138.000
G1 X4.475 Y24.596 Z-2.900 F138.000
G1 X4.682 Y24.596 Z-2.900 F138.000
G0 Z2.000
G0 Z2.000
G0 X6.096 Y16.818
G0 X6.096 Y16.818 Z1.000
G1 X6.096 Y16.818 Z-0.333 F60.000
G1 X8.925 Y13.990 Z-0.333 F138.000
G1 X9.132 Y13.990 Z-0.333 F138.000
G1 X8.925 Y13.990 Z-0.333 F138.000
G1 X7.510 Y12.575 Z-0.333 F138.000
G1 X7.510 Y12.575 Z-0.333 F138.000
G1 X7.510 Y12.368 Z-0.333 F138.000
G1 X7.510 Y12.575 Z-0.333 F138.000
G1 X4.682 Y15.404 Z-0.333 F138.000
G1 X4.682 Y15.404 Z-0.333 F138.000
G1 X4.475 Y15.404 Z-0.333 F138.000
G1 X4.682 Y15.404 Z-0.333 F138.000
G1 X6.096 Y16.818 Z-0.333 F138.000
G1 X6.096 Y16.818 Z-0.333 F138.000
G1 X6.096 Y17.025 Z-0.333 F138.000
G1 X6.096 Y16.818 Z-0.333 F138.000
G1 X6.096 Y16.818 Z-0.667 F60.000
G1 X8.925 Y13.990 Z-0.667 F138.000
G1 X9.132 Y13.990 Z-0.667 F138.000
G1 X8.925 Y13.990 Z-0.667 F138.000
G1 X7.510 Y12.575 Z-0.667 F138.000
G1 X7.510 Y12.575 Z-0.667 F138.000
G1 X7.510 Y12.368 Z-0.667 F138.000
G1 X7.510 Y12.575 Z-0.667 F138.000
G1 X4.682 Y15.404 Z-0.667 F138.000
G1 X4.682 Y15.404 Z-0.667 F138.000
G1 X4.475 Y15.404 Z-0.667 F138.000
G1 X4.682 Y15.404 Z-0.667 F138.000
G1 X6.096 Y16.818 Z-0.667 F138.000
G1 X6.096 Y16.818 Z-0.667 F138.000
G1 X6.096 Y17.025 Z-0.667 F138.000
G1 X6.096 Y16.818 Z-0.667 F138.000
G1 X6.096 Y16.818 Z-1.000 F60.000
G1 X8.925 Y13.990 Z-1.000 F138.000
G1 X9.132 Y13.990 Z-1.000 F138.000
G1 X8.925 Y13.990 Z-1.000 F138.000
G1 X7.510 Y12.575 Z-1.000 F138.000
G1 X7.510 Y12.575 Z-1.000 F138.000
G1 X7.510 Y12.368 Z-1.000 F138.000
G1 X7.510 Y12.575 Z-1.000 F138.000
G1 X4.682 Y15.404 Z-1.000 F138.000
G1 X4.682 Y15.404 Z-1.000 F138.000
G1 X4.475 Y15.404 Z-1.000 F138.000
G1 X4.682 Y15.404 Z-1.000 F138.000
G1 X6.096 Y16.818 Z-1.000 F138.000
G1 X6.096 Y16.818 Z-1.000 F138.000
G1 X6.096 Y17.025 Z-1.000 F138.000
G1 X6.096 Y16.818 Z-1.000 F138.000
G1 X6.096 Y16.818 Z-1.333 F60.000
G1 X8.925 Y13.990 Z-1.333 F138.000
G1 X9.132 Y13.990 Z-1.333 F138.000
G1 X8.925 Y13.990 Z-1.333 F138.000
G1 X7.510 Y12.575 Z-1.333 F138.000
G1 X7.510 Y12.575 Z-1.333 F138.000
G1 X7.510 Y12.368 Z-1.333 F138.000
G1 X7.510 Y12.575 Z-1.333 F138.000
G1 X4.682 Y15.404 Z-1.333 F138.000
G1 X4.682 Y15.404 Z-1.333 F138.000
G1 X4.475 Y15.404 Z-1.333 F138.000
G1 X4.682 Y15.404 Z-1.333 F138.000
G1 X6.096 Y16.818 Z-1.333 F138.000
G1 X6.096 Y16.818 Z-1.333 F138.000
G1 X6.096 Y17.025 Z-1.333 F138.000
G1 X6.096 Y16.818 Z-1.333 F138.000
G1 X6.096 Y16.818 Z-1.667 F60.000
G1 X8.925 Y13.990 Z-1.667 F138.000
G1 X9.132 Y13.990 Z-1.667 F138.000
G1 X8.925 Y13.990 Z-1.667 F138.000
G1 X7.510 Y12.575 Z-1.667 F138.000
G1 X7.510 Y12.575 Z-1.667 F138.000
G1 X7.510 Y12.368 Z-1.667 F138.000
G1 X7.510 Y12.575 Z-1.667 F138.000
G1 X4.682 Y15.404 Z-1.667 F138.000
G1 X4.682 Y15.404 Z-1.667 F138.000
G1 X4.475 Y15.404 Z-1.667 F138.000
G1 X4.682 Y15.404 Z-1.667 F138.000
G1 X6.096 Y16.818 Z-1.667 F138.000
G1 X6.096 Y16.818 Z-1.667 F138.000
G1 X6.096 Y17.025 Z-1.667 F138.000
G1 X6.096 Y16.818 Z-1.667 F138.000
G1 X6.096 Y16.818 Z-2.000 F60.000
G1 X8.925 Y13.990 Z-2.000 F138.000
G1 X9.132 Y13.990 Z-2.000 F138.000
G1 X8.925 Y13.990 Z-2.000 F138.000
G1 X7.510 Y12.575 Z-2.000 F138.000
G1 X7.510 Y12.575 Z-2.000 F138.000
G1 X7.510 Y12.368 Z-2.000 F138.000
G1 X7.510 Y12.575 Z-2.000 F138.000
G1 X4.682 Y15.404 Z-2.000 F138.000
G1 X4.682 Y15.404 Z-2.000 F138.000
G1 X4.475 Y15.404 Z-2.000 F138.000
G1 X4.682 Y15.404 Z-2.000 F138.000
G1 X6.096 Y16.818 Z-2.000 F138.000
G1 X6.096 Y16.818 Z-2.000 F138.000
G1 X6.096 Y17.025 Z-2.000 F138.000
G1 X6.096 Y16.818 Z-2.000 F138.000
G1 X6.096 Y16.818 Z-2.333 F60.000
G1 X8.925 Y13.990 Z-2.333 F138.000
G1 X9.132 Y13.990 Z-2.333 F138.000
G1 X8.925 Y13.990 Z-2.333 F138.000
G1 X7.510 Y12.575 Z-2.333 F138.000
G1 X7.510 Y12.575 Z-2.333 F138.000
G1 X7.510 Y12.368 Z-2.333 F138.000
G1 X7.510 Y12.575 Z-2.333 F138.000
G1 X4.682 Y15.404 Z-2.333 F138.000
G1 X4.682 Y15.404 Z-2.333 F138.000
G1 X4.475 Y15.404 Z-2.333 F138.000
G1 X4.682 Y15.404 Z-2.333 F138.000
G1 X6.096 Y16.818 Z-2.333 F138.000
G1 X6.096 Y16.818 Z-2.333 F138.000
G1 X6.096 Y17.025 Z-2.333 F138.000
G1 X6.096 Y16.818 Z-2.333 F138.000
G1 X6.096 Y16.818 Z-2.667 F60.000
G1 X8.925 Y13.990 Z-2.667 F138.000
G1 X9.132 Y13.990 Z-2.667 F138.000
G1 X8.925 Y13.990 Z-2.667 F138.000
G1 X7.510 Y12.575 Z-2.667 F138.000
G1 X7.510 Y12.575 Z-2.667 F138.000
G1 X7.510 Y12.368 Z-2.667 F138.000
G1 X7.510 Y12.575 Z-2.667 F138.000
G1 X4.682 Y15.404 Z-2.667 F138.000
G1 X4.682 Y15.404 Z-2.667 F138.000
G1 X4.475 Y15.404 Z-2.667 F138.000
G1 X4.682 Y15.404 Z-2.667 F138.000
G1 X6.096 Y16.818 Z-2.667 F138.000
G1 X6.096 Y16.818 Z-2.667 F138.000
G1 X6.096 Y17.025 Z-2.667 F138.000
G1 X6.096 Y16.818 Z-2.667 F138.000
G1 X6.096 Y16.818 Z-2.900 F60.000
G1 X8.925 Y13.990 Z-2.900 F138.000
G1 X9.132 Y13.990 Z-2.900 F138.000
G1 X8.925 Y13.990 Z-2.900 F138.000
G1 X7.510 Y12.575 Z-2.900 F138.000
G1 X7.510 Y12.575 Z-2.900 F138.000
G1 X7.510 Y12.368 Z-2.900 F138.000
G1 X7.510 Y12.575 Z-2.900 F138.000
G1 X4.682 Y15.404 Z-2.900 F138.000
G1 X4.682 Y15.404 Z-2.900 F138.000
G1 X4.475 Y15.404 Z-2.900 F138.000
G1 X4.682 Y15.404 Z-2.900 F138.000
G1 X6.096 Y16.818 Z-2.900 F138.000
G1 X6.096 Y16.818 Z-2.900 F138.000
G1 X6.096 Y17.025 Z-2.900 F138.000
G1 X6.096 Y16.818 Z-2.900 F138.000
G0 Z2.000
G0 Z2.000
G0 X7.510 Y-22.575
G0 X7.510 Y-22.575 Z1.000
G1 X7.510 Y-22.575 Z-0.333 F60.000
G1 X8.925 Y-23.990 Z-0.333 F138.000
G1 X9.132 Y-23.990 Z-0.333 F138.000
G1 X8.925 Y-23.990 Z-0.333 F138.000
G1 X6.096 Y-26.818 Z-0.333 F138.000
G1 X6.096 Y-26.818 Z-0.333 F138.000
G1 X6.096 Y-27.025 Z-0.333 F138.000
G1 X6.096 Y-26.818 Z-0.333 F138.000
G1 X4.682 Y-25.404 Z-0.333 F138.000
G1 X4.682 Y-25.404 Z-0.333 F138.000
G1 X4.475 Y-25.404 Z-0.333 F138.000
G1 X4.682 Y-25.404 Z-0.333 F138.000
G1 X7.510 Y-22.575 Z-0.333 F138.000
G1 X7.510 Y-22.575 Z-0.333 F138.000
G1 X7.510 Y-22.368 Z-0.333 F138.000
G1 X7.510 Y-22.575 Z-0.333 F138.000
G1 X7.510 Y-22.575 Z-0.667 F60.000
G1 X8.925 Y-23.990 Z-0.667 F138.000
G1 X9.132 Y-23.990 Z-0.667 F138.000
G1 X8.925 Y-23.990 Z-0.667 F138.000
G1 X6.096 Y-26.818 Z-0.667 F138.000
G1 X6.096 Y-26.818 Z-0.667 F138.000
G1 X6.096 Y-27.025 Z-0.667 F138.000
G1 X6.096 Y-26.818 Z-0.667 F138.000
G1 X4.682 Y-25.404 Z-0.667 F138.000
G1 X4.682 Y-25.404 Z-0.667 F138.000
G1 X4.475 Y-25.404 Z-0.667 F138.000
G1 X4.682 Y-25.404 Z-0.667 F138.000
G1 X7.510 Y-22.575 Z-0.667 F138.000
G1 X7.510 Y-22.575 Z-0.667 F138.000
G1 X7.510 Y-22.368 Z-0.667 F138.000
G1 X7.510 Y-22.575 Z-0.667 F138.000
G1 X7.510 Y-22.575 Z-1.000 F60.000
G1 X8.925 Y-23.990 Z-1.000 F138.000
G1 X9.132 Y-23.990 Z-1.000 F138.000
G1 X8.925 Y-23.990 Z-1.000 F138.000
G1 X6.096 Y-26.818 Z-1.000 F138.000
G1 X6.096 Y-26.818 Z-1.000 F138.000
G1 X6.096 Y-27.025 Z-1.000 F138.000
G1 X6.096 Y-26.818 Z-1.000 F138.000
G1 X4.682 Y-25.404 Z-1.000 F138.000
G1 X4.682 Y-25.404 Z-1.000 F138.000
G1 X4.475 Y-25.404 Z-1.000 F138.000
G1 X4.682 Y-25.404 Z-1.000 F138.000
G1 X7.510 Y-22.575 Z-1.000 F138.000
G1 X7.510 Y-22.575 Z-1.000 F138.000
G1 X7.510 Y-22.368 Z-1.000 F138.000
G1 X7.510 Y-22.575 Z-1.000 F138.000
G1 X7.510 Y-22.575 Z-1.333 F60.000
G1 X8.925 Y-23.990 Z-1.333 F138.000
G1 X9.132 Y-23.990 Z-1.333 F138.000
G1 X8.925 Y-23.990 Z-1.333 F138.000
G1 X6.096 Y-26.818 Z-1.333 F138.000
G1 X6.096 Y-26.818 Z-1.333 F138.000
G1 X6.096 Y-27.025 Z-1.333 F138.000
G1 X6.096 Y-26.818 Z-1.333 F138.000
G1 X4.682 Y-25.404 Z-1.333 F138.000
G1 X4.682 Y-25.404 Z-1.333 F138.000
G1 X4.475 Y-25.404 Z-1.333 F138.000
G1 X4.682 Y-25.404 Z-1.333 F138.000
G1 X7.510 Y-22.575 Z-1.333 F138.000
G1 X7.510 Y-22.575 Z-1.333 F138.000
G1 X7.510 Y-22.368 Z-1.333 F138.000
G1 X7.510 Y-22.575 Z-1.333 F138.000
G1 X7.510 Y-22.575 Z-1.667 F60.000
G1 X8.925 Y-23.990 Z-1.667 F138.000
G1 X9.132 Y-23.990 Z-1.667 F138.000
G1 X8.925 Y-23.990 Z-1.667 F138.000
G1 X6.096 Y-26.818 Z-1.667 F138.000
G1 X6.096 Y-26.818 Z-1.667 F138.000
G1 X6.096 Y-27.025 Z-1.667 F138.000
G1 X6.096 Y-26.818 Z-1.667 F138.000
G1 X4.682 Y-25.404 Z-1.667 F138.000
G1 X4.682 Y-25.404 Z-1.667 F138.000
G1 X4.475 Y-25.404 Z-1.667 F138.000
G1 X4.682 Y-25.404 Z-1.667 F138.000
G1 X7.510 Y-22.575 Z-1.667 F138.000
G1 X7.510 Y-22.575 Z-1.667 F138.000
G1 X7.510 Y-22.368 Z-1.667 F138.000
G1 X7.510 Y-22.575 Z-1.667 F138.000
G1 X7.510 Y-22.575 Z-2.000 F60.000
G1 X8.925 Y-23.990 Z-2.000 F138.000
G1 X9.132 Y-23.990 Z-2.000 F138.000
G1 X8.925 Y-23.990 Z-2.000 F138.000
G1 X6.096 Y-26.818 Z-2.000 F138.000
G1 X6.096 Y-26.818 Z-2.000 F138.000
G1 X6.096 Y-27.025 Z-2.000 F138.000
G1 X6.096 Y-26.818 Z-2.000 F138.000
G1 X4.682 Y-25.404 Z-2.000 F138.000
G1 X4.682 Y-25.404 Z-2.000 F138.000
G1 X4.475 Y-25.404 Z-2.000 F138.000
G1 X4.682 Y-25.404 Z-2.000 F138.000
G1 X7.510 Y-22.575 Z-2.000 F138.000
G1 X7.510 Y-22.575 Z-2.000 F138.000
G1 X7.510 Y-22.368 Z-2.000 F138.000
G1 X7.510 Y-22.575 Z-2.000 F138.000
G1 X7.510 Y-22.575 Z-2.333 F60.000
G1 X8.925 Y-23.990 Z-2.333 F138.000
G1 X9.132 Y-23.990 Z-2.333 F138.000
G1 X8.925 Y-23.990 Z-2.333 F138.000
G1 X6.096 Y-26.818 Z-2.333 F138.000
G1 X6.096 Y-26.818 Z-2.333 F138.000
G1 X6.096 Y-27.025 Z-2.333 F138.000
G1 X6.096 Y-26.818 Z-2.333 F138.000
G1 X4.682 Y-25.404 Z-2.333 F138.000
G1 X4.682 Y-25.404 Z-2.333 F138.000
G1 X4.475 Y-25.404 Z-2.333 F138.000
G1 X4.682 Y-25.404 Z-2.333 F138.000
G1 X7.510 Y-22.575 Z-2.333 F138.000
G1 X7.510 Y-22.575 Z-2.333 F138.000
G1 X7.510 Y-22.368 Z-2.333 F138.000
G1 X7.510 Y-22.575 Z-2.333 F138.000
G1 X7.510 Y-22.575 Z-2.667 F60.000
G1 X8.925 Y-23.990 Z-2.667 F138.000
G1 X9.132 Y-23.990 Z-2.667 F138.000
G1 X8.925 Y-23.990 Z-2.667 F138.000
G1 X6.096 Y-26.818 Z-2.667 F138.000
G1 X6.096 Y-26.818 Z-2.667 F138.000
G1 X6.096 Y-27.025 Z-2.667 F138.000
G1 X6.096 Y-26.818 Z-2.667 F138.000
G1 X4.682 Y-25.404 Z-2.667 F138.000
G1 X4.682 Y-25.404 Z-2.667 F138.000
G1 X4.475 Y-25.404 Z-2.667 F138.000
G1 X4.682 Y-25.404 Z-2.667 F138.000
G1 X7.510 Y-22.575 Z-2.667 F138.000
G1 X7.510 Y-22.575 Z-2.667 F138.000
G1 X7.510 Y-22.368 Z-2.667 F138.000
G1 X7.510 Y-22.575 Z-2.667 F138.000
G1 X7.510 Y-22.575 Z-2.900 F60.000
G1 X8.925 Y-23.990 Z-2.900 F138.000
G1 X9.132 Y-23.990 Z-2.900 F138.000
G1 X8.925 Y-23.990 Z-2.900 F138.000
G1 X6.096 Y-26.818 Z-2.900 F138.000
G1 X6.096 Y-26.818 Z-2.900 F138.000
G1 X6.096 Y-27.025 Z-2.900 F138.000
G1 X6.096 Y-26.818 Z-2.900 F138.000
G1 X4.682 Y-25.404 Z-2.900 F138.000
G1 X4.682 Y-25.404 Z-2.900 F138.000
G1 X4.475 Y-25.404 Z-2.900 F138.000
G1 X4.682 Y-25.404 Z-2.900 F138.000
G1 X7.510 Y-22.575 Z-2.900 F138.000
G1 X7.510 Y-22.575 Z-2.900 F138.000
G1 X7.510 Y-22.368 Z-2.900 F138.000
G1 X7.510 Y-22.575 Z-2.900 F138.000
G0 Z2.000
G0 Z2.000
G0 X-1.682 Y-25.404
G0 X-1.682 Y-25.404 Z1.000
G1 X-1.682 Y-25.404 Z-0.333 F60.000
G1 X-3.096 Y-26.818 Z-0.333 F138.000
G1 X-3.096 Y-27.025 Z-0.333 F138.000
G1 X-3.096 Y-26.818 Z-0.333 F138.000
G1 X-5.925 Y-23.990 Z-0.333 F138.000
G1 X-5.925 Y-23.990 Z-0.333 F138.000
G1 X-6.132 Y-23.990 Z-0.333 F138.000
G1 X-5.925 Y-23.990 Z-0.333 F138.000
G1 X-4.510 Y-22.575 Z-0.333 F138.000
G1 X-4.510 Y-22.575 Z-0.333 F138.000
G1 X-4.510 Y-22.368 Z-0.333 F138.000
G1 X-4.510 Y-22.575 Z-0.333 F138.000
G1 X-1.682 Y-25.404 Z-0.333 F138.000
G1 X-1.682 Y-25.404 Z-0.333 F138.000
G1 X-1.475 Y-25.404 Z-0.333 F138.000
G1 X-1.682 Y-25.404 Z-0.333 F138.000
G1 X-1.682 Y-25.404 Z-0.667 F60.000
G1 X-3.096 Y-26.818 Z-0.667 F138.000
G1 X-3.096 Y-27.025 Z-0.667 F138.000
G1 X-3.096 Y-26.818 Z-0.667 F138.000
G1 X-5.925 Y-23.990 Z-0.667 F138.000
G1 X-5.925 Y-23.990 Z-0.667 F138.000
G1 X-6.132 Y-23.990 Z-0.667 F138.000
G1 X-5.925 Y-23.990 Z-0.667 F138.000
G1 X-4.510 Y-22.575 Z-0.667 F138.000
G1 X-4.510 Y-22.575 Z-0.667 F138.000
G1 X-4.510 Y-22.368 Z-0.667 F138.000
G1 X-4.510 Y-22.575 Z-0.667 F138.000
G1 X-1.682 Y-25.404 Z-0.667 F138.000
G1 X-1.682 Y-25.404 Z-0.667 F138.000
G1 X-1.475 Y-25.404 Z-0.667 F138.000
G1 X-1.682 Y-25.404 Z-0.667 F138.000
G1 X-1.682 Y-25.404 Z-1.000 F60.000
G1 X-3.096 Y-26.818 Z-1.000 F138.000
G1 X-3.096 Y-27.025 Z-1.000 F138.000
G1 X-3.096 Y-26.818 Z-1.000 F138.000
G1 X-5.925 Y-23.990 Z-1.000 F138.000
G1 X-5.925 Y-23.990 Z-1.000 F138.000
G1 X-6.132 Y-23.990 Z-1.000 F138.000
G1 X-5.925 Y-23.990 Z-1.000 F138.000
G1 X-4.510 Y-22.575 Z-1.000 F138.000
G1 X-4.510 Y-22.575 Z-1.000 F138.000
G1 X-4.510 Y-22.368 Z-1.000 F138.000
G1 X-4.510 Y-22.575 Z-1.000 F138.000
G1 X-1.682 Y-25.404 Z-1.000 F138.000
G1 X-1.682 Y-25.404 Z-1.000 F138.000
G1 X-1.475 Y-25.404 Z-1.000 F138.000
G1 X-1.682 Y-25.404 Z-1.000 F138.000
G1 X-1.682 Y-25.404 Z-1.333 F60.000
G1 X-3.096 Y-26.818 Z-1.333 F138.000
G1 X-3.096 Y-27.025 Z-1.333 F138.000
G1 X-3.096 Y-26.818 Z-1.333 F138.000
G1 X-5.925 Y-23.990 Z-1.333 F138.000
G1 X-5.925 Y-23.990 Z-1.333 F138.000
G1 X-6.132 Y-23.990 Z-1.333 F138.000
G1 X-5.925 Y-23.990 Z-1.333 F138.000
G1 X-4.510 Y-22.575 Z-1.333 F138.000
G1 X-4.510 Y-22.575 Z-1.333 F138.000
G1 X-4.510 Y-22.368 Z-1.333 F138.000
G1 X-4.510 Y-22.575 Z-1.333 F138.000
G1 X-1.682 Y-25.404 Z-1.333 F138.000
G1 X-1.682 Y-25.404 Z-1.333 F138.000
G1 X-1.475 Y-25.404 Z-1.333 F138.000
G1 X-1.682 Y-25.404 Z-1.333 F138.000
G1 X-1.682 Y-25.404 Z-1.667 F60.000
G1 X-3.096 Y-26.818 Z-1.667 F138.000
G1 X-3.096 Y-27.025 Z-1.667 F138.000
G1 X-3.096 Y-26.818 Z-1.667 F138.000
G1 X-5.925 Y-23.990 Z-1.667 F138.000
G1 X-5.925 Y-23.990 Z-1.667 F138.000
G1 X-6.132 Y-23.990 Z-1.667 F138.000
G1 X-5.925 Y-23.990 Z-1.667 F138.000
G1 X-4.510 Y-22.575 Z-1.667 F138.000
G1 X-4.510 Y-22.575 Z-1.667 F138.000
G1 X-4.510 Y-22.368 Z-1.667 F138.000
G1 X-4.510 Y-22.575 Z-1.667 F138.000
G1 X-1.682 Y-25.404 Z-1.667 F138.000
G1 X-1.682 Y-25.404 Z-1.667 F138.000
G1 X-1.475 Y-25.404 Z-1.667 F138.000
G1 X-1.682 Y-25.404 Z-1.667 F138.000
G1 X-1.682 Y-25.404 Z-2.000 F60.000
G1 X-3.096 Y-26.818 Z-2.000 F138.000
G1 X-3.096 Y-27.025 Z-2.000 F138.000
G1 X-3.096 Y-26.818 Z-2.000 F138.000
G1 X-5.925 Y-23.990 Z-2.000 F138.000
G1 X-5.925 Y-23.990 Z-2.000 F138.000
G1 X-6.132 Y-23.990 Z-2.000 F138.000
G1 X-5.925 Y-23.990 Z-2.000 F138.000
G1 X-4.510 Y-22.575 Z-2.000 F138.000
G1 X-4.510 Y-22.575 Z-2.000 F138.000
G1 X-4.510 Y-22.368 Z-2.000 F138.000
G1 X-4.510 Y-22.575 Z-2.000 F138.000
G1 X-1.682 Y-25.404 Z-2.000 F138.000
G1 X-1.682 Y-25.404 Z-2.000 F138.000
G1 X-1.475 Y-25.404 Z-2.000 F138.000
G1 X-1.682 Y-25.404 Z-2.000 F138.000
G1 X-1.682 Y-25.404 Z-2.333 F60.000
G1 X-3.096 Y-26.818 Z-2.333 F138.000
G1 X-3.096 Y-27.025 Z-2.333 F138.000
G1 X-3.096 Y-26.818 Z-2.333 F138.000
G1 X-5.925 Y-23.990 Z-2.333 F138.000
G1 X-5.925 Y-23.990 Z-2.333 F138.000
G1 X-6.132 Y-23.990 Z-2.333 F138.000
G1 X-5.925 Y-23.990 Z-2.333 F138.000
G1 X-4.510 Y-22.575 Z-2.333 F138.000
G1 X-4.510 Y-22.575 Z-2.333 F138.000
G1 X-4.510 Y-22.368 Z-2.333 F138.000
G1 X-4.510 Y-22.575 Z-2.333 F138.000
G1 X-1.682 Y-25.404 Z-2.333 F138.000
G1 X-1.682 Y-25.404 Z-2.333 F138.000
G1 X-1.475 Y-25.404 Z-2.333 F138.000
G1 X-1.682 Y-25.404 Z-2.333 F138.000
G1 X-1.682 Y-25.404 Z-2.667 F60.000
G1 X-3.096 Y-26.818 Z-2.667 F138.000
G1 X-3.096 Y-27.025 Z-2.667 F138.000
G1 X-3.096 Y-26.818 Z-2.667 F138.000
G1 X-5.925 Y-23.990 Z-2.667 F138.000
G1 X-5.925 Y-23.990 Z-2.667 F138.000
G1 X-6.132 Y-23.990 Z-2.667 F138.000
G1 X-5.925 Y-23.990 Z-2.667 F138.000
G1 X-4.510 Y-22.575 Z-2.667 F138.000
G1 X-4.510 Y-22.575 Z-2.667 F138.000
G1 X-4.510 Y-22.368 Z-2.667 F138.000
G1 X-4.510 Y-22.575 Z-2.667 F138.000
G1 X-1.682 Y-25.404 Z-2.667 F138.000
G1 X-1.682 Y-25.404 Z-2.667 F138.000
G1 X-1.475 Y-25.404 Z-2.667 F138.000
G1 X-1.682 Y-25.404 Z-2.667 F138.000
G1 X-1.682 Y-25.404 Z-2.900 F60.000
G1 X-3.096 Y-26.818 Z-2.900 F138.000
G1 X-3.096 Y-27.025 Z-2.900 F138.000
G1 X-3.096 Y-26.818 Z-2.900 F138.000
G1 X-5.925 Y-23.990 Z-2.900 F138.000
G1 X-5.925 Y-23.990 Z-2.900 F138.000
G1 X-6.132 Y-23.990 Z-2.900 F138.000
G1 X-5.925 Y-23.990 Z-2.900 F138.000
G1 X-4.510 Y-22.575 Z-2.900 F138.000
G1 X-4.510 Y-22.575 Z-2.900 F138.000
G1 X-4.510 Y-22.368 Z-2.900 F138.000
G1 X-4.510 Y-22.575 Z-2.900 F138.000
G1 X-1.682 Y-25.404 Z-2.900 F138.000
G1 X-1.682 Y-25.404 Z-2.900 F138.000
G1 X-1.475 Y-25.404 Z-2.900 F138.000
G1 X-1.682 Y-25.404 Z-2.900 F138.000
G0 Z2.000
G0 Z2.000
G0 X-3.096 Y-33.182
G0 X-3.096 Y-33.182 Z1.000
G1 X-3.096 Y-33.182 Z-0.333 F60.000
G1 X-1.682 Y-34.596 Z-0.333 F138.000
G1 X-1.475 Y-34.596 Z-0.333 F138.000
G1 X-1.682 Y-34.596 Z-0.333 F138.000
G1 X-4.510 Y-37.425 Z-0.333 F138.000
G1 X-4.510 Y-37.425 Z-0.333 F138.000
G1 X-4.510 Y-37.632 Z-0.333 F138.000
G1 X-4.510 Y-37.425 Z-0.333 F138.000
G1 X-5.925 Y-36.010 Z-0.333 F138.000
G1 X-5.925 Y-36.010 Z-0.333 F138.000
G1 X-6.132 Y-36.010 Z-0.333 F138.000
G1 X-5.925 Y-36.010 Z-0.333 F138.000
G1 X-3.096 Y-33.182 Z-0.333 F138.000
G1 X-3.096 Y-33.182 Z-0.333 F138.000
G1 X-3.096 Y-32.975 Z-0.333 F138.000
G1 X-3.096 Y-33.182 Z-0.333 F138.000
G1 X-3.096 Y-33.182 Z-0.667 F60.000
G1 X-1.682 Y-34.596 Z-0.667 F138.000
G1 X-1.475 Y-34.596 Z-0.667 F138.000
G1 X-1.682 Y-34.596 Z-0.667 F138.000
G1 X-4.510 Y-37.425 Z-0.667 F138.000
G1 X-4.510 Y-37.425 Z-0.667 F138.000
G1 X-4.510 Y-37.632 Z-0.667 F138.000
G1 X-4.510 Y-37.425 Z-0.667 F138.000
G1 X-5.925 Y-36.010 Z-0.667 F138.000
G1 X-5.925 Y-36.010 Z-0.667 F138.000
G1 X-6.132 Y-36.010 Z-0.667 F138.000
G1 X-5.925 Y-36.010 Z-0.667 F138.000
G1 X-3.096 Y-33.182 Z-0.667 F138.000
G1 X-3.096 Y-33.182 Z-0.667 F138.000
G1 X-3.096 Y-32.975 Z-0.667 F138.000
G1 X-3.096 Y-33.182 Z-0.667 F138.000
G1 X-3.096 Y-33.182 Z-1.000 F60.000
G1 X-1.682 Y-34.596 Z-1.000 F138.000
G1 X-1.475 Y-34.596 Z-1.000 F138.000
G1 X-1.682 Y-34.596 Z-1.000 F138.000
G1 X-4.510 Y-37.425 Z-1.000 F138.000
G1 X-4.510 Y-37.425 Z-1.000 F138.000
G1 X-4.510 Y-37.632 Z-1.000 F138.000
G1 X-4.510 Y-37.425 Z-1.000 F138.000
G1 X-5.925 Y-36.010 Z-1.000 F138.000
G1 X-5.925 Y-36.010 Z-1.000 F138.000
G1 X-6.132 Y-36.010 Z-1.000 F138.000
G1 X-5.925 Y-36.010 Z-1.000 F138.000
G1 X-3.096 Y-33.182 Z-1.000 F138.000
G1 X-3.096 Y-33.182 Z-1.000 F138.000
G1 X-3.096 Y-32.975 Z-1.000 F138.000
G1 X-3.096 Y-33.182 Z-1.000 F138.000
G1 X-3.096 Y-33.182 Z-1.333 F60.000
G1 X-1.682 Y-34.596 Z-1.333 F138.000
G1 X-1.475 Y-34.596 Z-1.333 F138.000
G1 X-1.682 Y-34.596 Z-1.333 F138.000
G1 X-4.510 Y-37.425 Z-1.333 F138.000
G1 X-4.510 Y-37.425 Z-1.333 F138.000
G1 X-4.510 Y-37.632 Z-1.333 F138.000
G1 X-4.510 Y-37.425 Z-1.333 F138.000
G1 X-5.925 Y-36.010 Z-1.333 F138.000
G1 X-5.925 Y-36.010 Z-1.333 F138.000
G1 X-6.132 Y-36.010 Z-1.333 F138.000
G1 X-5.925 Y-36.010 Z-1.333 F138.000
G1 X-3.096 Y-33.182 Z-1.333 F138.000
G1 X-3.096 Y-33.182 Z-1.333 F138.000
G1 X-3.096 Y-32.975 Z-1.333 F138.000
G1 X-3.096 Y-33.182 Z-1.333 F138.000
G1 X-3.096 Y-33.182 Z-1.667 F60.000
G1 X-1.682 Y-34.596 Z-1.667 F138.000
G1 X-1.475 Y-34.596 Z-1.667 F138.000
G1 X-1.682 Y-34.596 Z-1.667 F138.000
G1 X-4.510 Y-37.425 Z-1.667 F138.000
G1 X-4.510 Y-37.425 Z-1.667 F138.000
G1 X-4.510 Y-37.632 Z-1.667 F138.000
G1 X-4.510 Y-37.425 Z-1.667 F138.000
G1 X-5.925 Y-36.010 Z-1.667 F138.000
G1 X-5.925 Y-36.010 Z-1.667 F138.000
G1 X-6.132 Y-36.010 Z-1.667 F138.000
G1 X-5.925 Y-36.010 Z-1.667 F138.000
G1 X-3.096 Y-33.182 Z-1.667 F138.000
G1 X-3.096 Y-33.182 Z-1.667 F138.000
G1 X-3.096 Y-32.975 Z-1.667 F138.000
G1 X-3.096 Y-33.182 Z-1.667 F138.000
G1 X-3.096 Y-33.182 Z-2.000 F60.000
G1 X-1.682 Y-34.596 Z-2.000 F138.000
G1 X-1.475 Y-34.596 Z-2.000 F138.000
G1 X-1.682 Y-34.596 Z-2.000 F138.000
G1 X-4.510 Y-37.425 Z-2.000 F138.000
G1 X-4.510 Y-37.425 Z-2.000 F138.000
G1 X-4.510 Y-37.632 Z-2.000 F138.000
G1 X-4.510 Y-37.425 Z-2.000 F138.000
G1 X-5.925 Y-36.010 Z-2.000 F138.000
G1 X-5.925 Y-36.010 Z-2.000 F138.000
G1 X-6.132 Y-36.010 Z-2.000 F138.000
G1 X-5.925 Y-36.010 Z-2.000 F138.000
G1 X-3.096 Y-33.182 Z-2.000 F138.000
G1 X-3.096 Y-33.182 Z-2.000 F138.000
G1 X-3.096 Y-32.975 Z-2.000 F138.000
G1 X-3.096 Y-33.182 Z-2.000 F138.000
G1 X-3.096 Y-33.182 Z-2.333 F60.000
G1 X-1.682 Y-34.596 Z-2.333 F138.000
G1 X-1.475 Y-34.596 Z-2.333 F138.000
G1 X-1.682 Y-34.596 Z-2.333 F138.000
G1 X-4.510 Y-37.425 Z-2.333 F138.000
G1 X-4.510 Y-37.425 Z-2.333 F138.000
G1 X-4.510 Y-37.632 Z-2.333 F138.000
G1 X-4.510 Y-37.425 Z-2.333 F138.000
G1 X-5.925 Y-36.010 Z-2.333 F138.000
G1 X-5.925 Y-36.010 Z-2.333 F138.000
G1 X-6.132 Y-36.010 Z-2.333 F138.000
G1 X-5.925 Y-36.010 Z-2.333 F138.000
G1 X-3.096 Y-33.182 Z-2.333 F138.000
G1 X-3.096 Y-33.182 Z-2.333 F138.000
G1 X-3.096 Y-32.975 Z-2.333 F138.000
G1 X-3.096 Y-33.182 Z-2.333 F138.000
G1 X-3.096 Y-33.182 Z-2.667 F60.000
G1 X-1.682 Y-34.596 Z-2.667 F138.000
G1 X-1.475 Y-34.596 Z-2.667 F138.000
G1 X-1.682 Y-34.596 Z-2.667 F138.000
G1 X-4.510 Y-37.425 Z-2.667 F138.000
G1 X-4.510 Y-37.425 Z-2.667 F138.000
G1 X-4.510 Y-37.632 Z-2.667 F138.000
G1 X-4.510 Y-37.425 Z-2.667 F138.000
G1 X-5.925 Y-36.010 Z-2.667 F138.000
G1 X-5.925 Y-36.010 Z-2.667 F138.000
G1 X-6.132 Y-36.010 Z-2.667 F138.000
G1 X-5.925 Y-36.010 Z-2.667 F138.000
G1 X-3.096 Y-33.182 Z-2.667 F138.000
G1 X-3.096 Y-33.182 Z-2.667 F138.000
G1 X-3.096 Y-32.975 Z-2.667 F138.000
G1 X-3.096 Y-33.182 Z-2.667 F138.000
G1 X-3.096 Y-33.182 Z-2.900 F60.000
G1 X-1.682 Y-34.596 Z-2.900 F138.000
G1 X-1.475 Y-34.596 Z-2.900 F138.000
G1 X-1.682 Y-34.596 Z-2.900 F138.000
G1 X-4.510 Y-37.425 Z-2.900 F138.000
G1 X-4.510 Y-37.425 Z-2.900 F138.000
G1 X-4.510 Y-37.632 Z-2.900 F138.000
G1 X-4.510 Y-37.425 Z-2.900 F138.000
G1 X-5.925 Y-36.010 Z-2.900 F138.000
G1 X-5.925 Y-36.010 Z-2.900 F138.000
G1 X-6.132 Y-36.010 Z-2.900 F138.000
G1 X-5.925 Y-36.010 Z-2.900 F138.000
G1 X-3.096 Y-33.182 Z-2.900 F138.000
G1 X-3.096 Y-33.182 Z-2.900 F138.000
G1 X-3.096 Y-32.975 Z-2.900 F138.000
G1 X-3.096 Y-33.182 Z-2.900 F138.000
G0 Z2.000
G0 Z2.000
G0 X4.682 Y-34.596
G0 X4.682 Y-34.596 Z1.000
G1 X4.682 Y-34.596 Z-0.333 F60.000
G1 X6.096 Y-33.182 Z-0.333 F138.000
G1 X6.096 Y-32.975 Z-0.333 F138.000
G1 X6.096 Y-33.182 Z-0.333 F138.000
G1 X8.925 Y-36.010 Z-0.333 F138.000
G1 X8.925 Y-36.010 Z-0.333 F138.000
G1 X9.132 Y-36.010 Z-0.333 F138.000
G1 X8.925 Y-36.010 Z-0.333 F138.000
G1 X7.510 Y-37.425 Z-0.333 F138.000
G1 X7.510 Y-37.425 Z-0.333 F138.000
G1 X7.510 Y-37.632 Z-0.333 F138.000
G1 X7.510 Y-37.425 Z-0.333 F138.000
G1 X4.682 Y-34.596 Z-0.333 F138.000
G1 X4.682 Y-34.596 Z-0.333 F138.000
G1 X4.475 Y-34.596 Z-0.333 F138.000
G1 X4.682 Y-34.596 Z-0.333 F138.000
G1 X4.682 Y-34.596 Z-0.667 F60.000
G1 X6.096 Y-33.182 Z-0.667 F138.000
G1 X6.096 Y-32.975 Z-0.667 F138.000
G1 X6.096 Y-33.182 Z-0.667 F138.000
G1 X8.925 Y-36.010 Z-0.667 F138.000
G1 X8.925 Y-36.010 Z-0.667 F138.000
G1 X9.132 Y-36.010 Z-0.667 F138.000
G1 X8.925 Y-36.010 Z-0.667 F138.000
G1 X7.510 Y-37.425 Z-0.667 F138.000
G1 X7.510 Y-37.425 Z-0.667 F138.000
G1 X7.510 Y-37.632 Z-0.667 F138.000
G1 X7.510 Y-37.425 Z-0.667 F138.000
G1 X4.682 Y-34.596 Z-0.667 F138.000
G1 X4.682 Y-34.596 Z-0.667 F138.000
G1 X4.475 Y-34.596 Z-0.667 F138.000
G1 X4.682 Y-34.596 Z-0.667 F138.000
G1 X4.682 Y-34.596 Z-1.000 F60.000
G1 X6.096 Y-33.182 Z-1.000 F138.000
G1 X6.096 Y-32.975 Z-1.000 F138.000
G1 X6.096 Y-33.182 Z-1.000 F138.000
G1 X8.925 Y-36.010 Z-1.000 F138.000
G1 X8.925 Y-36.010 Z-1.000 F138.000
G1 X9.132 Y-36.010 Z-1.000 F138.000
G1 X8.925 Y-36.010 Z-1.000 F138.000
G1 X7.510 Y-37.425 Z-1.000 F138.000
G1 X7.510 Y-37.425 Z-1.000 F138.000
G1 X7.510 Y-37.632 Z-1.000 F138.000
G1 X7.510 Y-37.425 Z-1.000 F138.000
G1 X4.682 Y-34.596 Z-1.000 F138.000
G1 X4.682 Y-34.596 Z-1.000 F138.000
G1 X4.475 Y-34.596 Z-1.000 F138.000
G1 X4.682 Y-34.596 Z-1.000 F138.000
G1 X4.682 Y-34.596 Z-1.333 F60.000
G1 X6.096 Y-33.182 Z-1.333 F138.000
G1 X6.096 Y-32.975 Z-1.333 F138.000
G1 X6.096 Y-33.182 Z-1.333 F138.000
G1 X8.925 Y-36.010 Z-1.333 F138.000
G1 X8.925 Y-36.010 Z-1.333 F138.000
G1 X9.132 Y-36.010 Z-1.333 F138.000
G1 X8.925 Y-36.010 Z-1.333 F138.000
G1 X7.510 Y-37.425 Z-1.333 F138.000
G1 X7.510 Y-37.425 Z-1.333 F138.000
G1 X7.510 Y-37.632 Z-1.333 F138.000
G1 X7.510 Y-37.425 Z-1.333 F138.000
G1 X4.682 Y-34.596 Z-1.333 F138.000
G1 X4.682 Y-34.596 Z-1.333 F138.000
G1 X4.475 Y-34.596 Z-1.333 F138.000
G1 X4.682 Y-34.596 Z-1.333 F138.000
G1 X4.682 Y-34.596 Z-1.667 F60.000
G1 X6.096 Y-33.182 Z-1.667 F138.000
G1 X6.096 Y-32.975 Z-1.667 F138.000
G1 X6.096 Y-33.182 Z-1.667 F138.000
G1 X8.925 Y-36.010 Z-1.667 F138.000
G1 X8.925 Y-36.010 Z-1.667 F138.000
G1 X9.132 Y-36.010 Z-1.667 F138.000
G1 X8.925 Y-36.010 Z-1.667 F138.000
G1 X7.510 Y-37.425 Z-1.667 F138.000
G1 X7.510 Y-37.425 Z-1.667 F138.000
G1 X7.510 Y-37.632 Z-1.667 F138.000
G1 X7.510 Y-37.425 Z-1.667 F138.000
G1 X4.682 Y-34.596 Z-1.667 F138.000
G1 X4.682 Y-34.596 Z-1.667 F138.000
G1 X4.475 Y-34.596 Z-1.667 F138.000
G1 X4.682 Y-34.596 Z-1.667 F138.000
G1 X4.682 Y-34.596 Z-2.000 F60.000
G1 X6.096 Y-33.182 Z-2.000 F138.000
G1 X6.096 Y-32.975 Z-2.000 F138.000
G1 X6.096 Y-33.182 Z-2.000 F138.000
G1 X8.925 Y-36.010 Z-2.000 F138.000
G1 X8.925 Y-36.010 Z-2.000 F138.000
G1 X9.132 Y-36.010 Z-2.000 F138.000
G1 X8.925 Y-36.010 Z-2.000 F138.000
G1 X7.510 Y-37.425 Z-2.000 F138.000
G1 X7.510 Y-37.425 Z-2.000 F138.000
G1 X7.510 Y-37.632 Z-2.000 F138.000
G1 X7.510 Y-37.425 Z-2.000 F138.000
G1 X4.682 Y-34.596 Z-2.000 F138.000
G1 X4.682 Y-34.596 Z-2.000 F138.000
G1 X4.475 Y-34.596 Z-2.000 F138.000
G1 X4.682 Y-34.596 Z-2.000 F138.000
G1 X4.682 Y-34.596 Z-2.333 F60.000
G1 X6.096 Y-33.182 Z-2.333 F138.000
G1 X6.096 Y-32.975 Z-2.333 F138.000
G1 X6.096 Y-33.182 Z-2.333 F138.000
G1 X8.925 Y-36.010 Z-2.333 F138.000
G1 X8.925 Y-36.010 Z-2.333 F138.000
G1 X9.132 Y-36.010 Z-2.333 F138.000
G1 X8.925 Y-36.010 Z-2.333 F138.000
G1 X7.510 Y-37.425 Z-2.333 F138.000
G1 X7.510 Y-37.425 Z-2.333 F138.000
G1 X7.510 Y-37.632 Z-2.333 F138.000
G1 X7.510 Y-37.425 Z-2.333 F138.000
G1 X4.682 Y-34.596 Z-2.333 F138.000
G1 X4.682 Y-34.596 Z-2.333 F138.000
G1 X4.475 Y-34.596 Z-2.333 F138.000
G1 X4.682 Y-34.596 Z-2.333 F138.000
G1 X4.682 Y-34.596 Z-2.667 F60.000
G1 X6.096 Y-33.182 Z-2.667 F138.000
G1 X6.096 Y-32.975 Z-2.667 F138.000
G1 X6.096 Y-33.182 Z-2.667 F138.000
G1 X8.925 Y-36.010 Z-2.667 F138.000
G1 X8.925 Y-36.010 Z-2.667 F138.000
G1 X9.132 Y-36.010 Z-2.667 F138.000
G1 X8.925 Y-36.010 Z-2.667 F138.000
G1 X7.510 Y-37.425 Z-2.667 F138.000
G1 X7.510 Y-37.425 Z-2.667 F138.000
G1 X7.510 Y-37.632 Z-2.667 F138.000
G1 X7.510 Y-37.425 Z-2.667 F138.000
G1 X4.682 Y-34.596 Z-2.667 F138.000
G1 X4.682 Y-34.596 Z-2.667 F138.000
G1 X4.475 Y-34.596 Z-2.667 F138.000
G1 X4.682 Y-34.596 Z-2.667 F138.000
G1 X4.682 Y-34.596 Z-2.900 F60.000
G1 X6.096 Y-33.182 Z-2.900 F138.000
G1 X6.096 Y-32.975 Z-2.900 F138.000
G1 X6.096 Y-33.182 Z-2.900 F138.000
G1 X8.925 Y-36.010 Z-2.900 F138.000
G1 X8.925 Y-36.010 Z-2.900 F138.000
G1 X9.132 Y-36.010 Z-2.900 F138.000
G1 X8.925 Y-36.010 Z-2.900 F138.000
G1 X7.510 Y-37.425 Z-2.900 F138.000
G1 X7.510 Y-37.425 Z-2.900 F138.000
G1 X7.510 Y-37.632 Z-2.900 F138.000
G1 X7.510 Y-37.425 Z-2.900 F138.000
G1 X4.682 Y-34.596 Z-2.900 F138.000
G1 X4.682 Y-34.596 Z-2.900 F138.000
G1 X4.475 Y-34.596 Z-2.900 F138.000
G1 X4.682 Y-34.596 Z-2.900 F138.000
G0 Z2.000
G0 Z2.000
(Finish operation: DogboneDressup)
(Begin operation: DogboneDressup001)
(Path: DogboneDressup001)
(Pocket_Shape)
G0 Z2.000
G0 X2.500 Y-0.500
G0 Z1.000
G1 X2.500 Y-0.500 Z-0.333 F60.000
G1 X0.500 Y-0.500 Z-0.333 F138.000
G1 X0.354 Y-0.354 Z-0.333 F138.000
G1 X0.500 Y-0.500 Z-0.333 F138.000
G1 X0.500 Y-9.500 Z-0.333 F138.000
G1 X0.500 Y-9.500 Z-0.333 F138.000
G1 X0.354 Y-9.646 Z-0.333 F138.000
G1 X0.500 Y-9.500 Z-0.333 F138.000
G1 X2.500 Y-9.500 Z-0.333 F138.000
G1 X2.500 Y-9.500 Z-0.333 F138.000
G1 X2.646 Y-9.646 Z-0.333 F138.000
G1 X2.500 Y-9.500 Z-0.333 F138.000
G1 X2.500 Y-0.500 Z-0.333 F138.000
G1 X2.500 Y-0.500 Z-0.333 F138.000
G1 X2.646 Y-0.354 Z-0.333 F138.000
G1 X2.500 Y-0.500 Z-0.333 F138.000
G1 X2.500 Y-0.500 Z-0.667 F60.000
G1 X0.500 Y-0.500 Z-0.667 F138.000
G1 X0.354 Y-0.354 Z-0.667 F138.000
G1 X0.500 Y-0.500 Z-0.667 F138.000
G1 X0.500 Y-9.500 Z-0.667 F138.000
G1 X0.500 Y-9.500 Z-0.667 F138.000
G1 X0.354 Y-9.646 Z-0.667 F138.000
G1 X0.500 Y-9.500 Z-0.667 F138.000
G1 X2.500 Y-9.500 Z-0.667 F138.000
G1 X2.500 Y-9.500 Z-0.667 F138.000
G1 X2.646 Y-9.646 Z-0.667 F138.000
G1 X2.500 Y-9.500 Z-0.667 F138.000
G1 X2.500 Y-0.500 Z-0.667 F138.000
G1 X2.500 Y-0.500 Z-0.667 F138.000
G1 X2.646 Y-0.354 Z-0.667 F138.000
G1 X2.500 Y-0.500 Z-0.667 F138.000
G1 X2.500 Y-0.500 Z-1.000 F60.000
G1 X0.500 Y-0.500 Z-1.000 F138.000
G1 X0.354 Y-0.354 Z-1.000 F138.000
G1 X0.500 Y-0.500 Z-1.000 F138.000
G1 X0.500 Y-9.500 Z-1.000 F138.000
G1 X0.500 Y-9.500 Z-1.000 F138.000
G1 X0.354 Y-9.646 Z-1.000 F138.000
G1 X0.500 Y-9.500 Z-1.000 F138.000
G1 X2.500 Y-9.500 Z-1.000 F138.000
G1 X2.500 Y-9.500 Z-1.000 F138.000
G1 X2.646 Y-9.646 Z-1.000 F138.000
G1 X2.500 Y-9.500 Z-1.000 F138.000
G1 X2.500 Y-0.500 Z-1.000 F138.000
G1 X2.500 Y-0.500 Z-1.000 F138.000
G1 X2.646 Y-0.354 Z-1.000 F138.000
G1 X2.500 Y-0.500 Z-1.000 F138.000
G1 X2.500 Y-0.500 Z-1.333 F60.000
G1 X0.500 Y-0.500 Z-1.333 F138.000
G1 X0.354 Y-0.354 Z-1.333 F138.000
G1 X0.500 Y-0.500 Z-1.333 F138.000
G1 X0.500 Y-9.500 Z-1.333 F138.000
G1 X0.500 Y-9.500 Z-1.333 F138.000
G1 X0.354 Y-9.646 Z-1.333 F138.000
G1 X0.500 Y-9.500 Z-1.333 F138.000
G1 X2.500 Y-9.500 Z-1.333 F138.000
G1 X2.500 Y-9.500 Z-1.333 F138.000
G1 X2.646 Y-9.646 Z-1.333 F138.000
G1 X2.500 Y-9.500 Z-1.333 F138.000
G1 X2.500 Y-0.500 Z-1.333 F138.000
G1 X2.500 Y-0.500 Z-1.333 F138.000
G1 X2.646 Y-0.354 Z-1.333 F138.000
G1 X2.500 Y-0.500 Z-1.333 F138.000
G1 X2.500 Y-0.500 Z-1.667 F60.000
G1 X0.500 Y-0.500 Z-1.667 F138.000
G1 X0.354 Y-0.354 Z-1.667 F138.000
G1 X0.500 Y-0.500 Z-1.667 F138.000
G1 X0.500 Y-9.500 Z-1.667 F138.000
G1 X0.500 Y-9.500 Z-1.667 F138.000
G1 X0.354 Y-9.646 Z-1.667 F138.000
G1 X0.500 Y-9.500 Z-1.667 F138.000
G1 X2.500 Y-9.500 Z-1.667 F138.000
G1 X2.500 Y-9.500 Z-1.667 F138.000
G1 X2.646 Y-9.646 Z-1.667 F138.000
G1 X2.500 Y-9.500 Z-1.667 F138.000
G1 X2.500 Y-0.500 Z-1.667 F138.000
G1 X2.500 Y-0.500 Z-1.667 F138.000
G1 X2.646 Y-0.354 Z-1.667 F138.000
G1 X2.500 Y-0.500 Z-1.667 F138.000
G1 X2.500 Y-0.500 Z-2.000 F60.000
G1 X0.500 Y-0.500 Z-2.000 F138.000
G1 X0.354 Y-0.354 Z-2.000 F138.000
G1 X0.500 Y-0.500 Z-2.000 F138.000
G1 X0.500 Y-9.500 Z-2.000 F138.000
G1 X0.500 Y-9.500 Z-2.000 F138.000
G1 X0.354 Y-9.646 Z-2.000 F138.000
G1 X0.500 Y-9.500 Z-2.000 F138.000
G1 X2.500 Y-9.500 Z-2.000 F138.000
G1 X2.500 Y-9.500 Z-2.000 F138.000
G1 X2.646 Y-9.646 Z-2.000 F138.000
G1 X2.500 Y-9.500 Z-2.000 F138.000
G1 X2.500 Y-0.500 Z-2.000 F138.000
G1 X2.500 Y-0.500 Z-2.000 F138.000
G1 X2.646 Y-0.354 Z-2.000 F138.000
G1 X2.500 Y-0.500 Z-2.000 F138.000
G1 X2.500 Y-0.500 Z-2.333 F60.000
G1 X0.500 Y-0.500 Z-2.333 F138.000
G1 X0.354 Y-0.354 Z-2.333 F138.000
G1 X0.500 Y-0.500 Z-2.333 F138.000
G1 X0.500 Y-9.500 Z-2.333 F138.000
G1 X0.500 Y-9.500 Z-2.333 F138.000
G1 X0.354 Y-9.646 Z-2.333 F138.000
G1 X0.500 Y-9.500 Z-2.333 F138.000
G1 X2.500 Y-9.500 Z-2.333 F138.000
G1 X2.500 Y-9.500 Z-2.333 F138.000
G1 X2.646 Y-9.646 Z-2.333 F138.000
G1 X2.500 Y-9.500 Z-2.333 F138.000
G1 X2.500 Y-0.500 Z-2.333 F138.000
G1 X2.500 Y-0.500 Z-2.333 F138.000
G1 X2.646 Y-0.354 Z-2.333 F138.000
G1 X2.500 Y-0.500 Z-2.333 F138.000
G1 X2.500 Y-0.500 Z-2.667 F60.000
G1 X0.500 Y-0.500 Z-2.667 F138.000
G1 X0.354 Y-0.354 Z-2.667 F138.000
G1 X0.500 Y-0.500 Z-2.667 F138.000
G1 X0.500 Y-9.500 Z-2.667 F138.000
G1 X0.500 Y-9.500 Z-2.667 F138.000
G1 X0.354 Y-9.646 Z-2.667 F138.000
G1 X0.500 Y-9.500 Z-2.667 F138.000
G1 X2.500 Y-9.500 Z-2.667 F138.000
G1 X2.500 Y-9.500 Z-2.667 F138.000
G1 X2.646 Y-9.646 Z-2.667 F138.000
G1 X2.500 Y-9.500 Z-2.667 F138.000
G1 X2.500 Y-0.500 Z-2.667 F138.000
G1 X2.500 Y-0.500 Z-2.667 F138.000
G1 X2.646 Y-0.354 Z-2.667 F138.000
G1 X2.500 Y-0.500 Z-2.667 F138.000
G1 X2.500 Y-0.500 Z-3.000 F60.000
G1 X0.500 Y-0.500 Z-3.000 F138.000
G1 X0.354 Y-0.354 Z-3.000 F138.000
G1 X0.500 Y-0.500 Z-3.000 F138.000
G1 X0.500 Y-9.500 Z-3.000 F138.000
G1 X0.500 Y-9.500 Z-3.000 F138.000
G1 X0.354 Y-9.646 Z-3.000 F138.000
G1 X0.500 Y-9.500 Z-3.000 F138.000
G1 X2.500 Y-9.500 Z-3.000 F138.000
G1 X2.500 Y-9.500 Z-3.000 F138.000
G1 X2.646 Y-9.646 Z-3.000 F138.000
G1 X2.500 Y-9.500 Z-3.000 F138.000
G1 X2.500 Y-0.500 Z-3.000 F138.000
G1 X2.500 Y-0.500 Z-3.000 F138.000
G1 X2.646 Y-0.354 Z-3.000 F138.000
G1 X2.500 Y-0.500 Z-3.000 F138.000
G0 Z2.000
G0 Z2.000
(Finish operation: DogboneDressup001)
(Begin operation: Pocket_Shape001)
(Path: Pocket_Shape001)
(Pocket_Shape001)
G0 Z2.000
G0 X0.518 Y-0.500
G0 Z1.000
G1 X0.518 Y-0.500 Z-0.500 F60.000
G3 X0.500 Y-0.538 Z-0.500 I-0.009 J-0.019 K0.000 F138.000
G1 X0.518 Y-0.500 Z-0.500 F138.000
G1 X1.401 Y-0.500 Z-0.500 F138.000
G1 X0.500 Y-2.431 Z-0.500 F138.000
G1 X0.500 Y-4.324 Z-0.500 F138.000
G1 X2.283 Y-0.500 Z-0.500 F138.000
G1 X2.500 Y-0.500 Z-0.500 F138.000
G1 X2.500 Y-1.928 Z-0.500 F138.000
G1 X0.500 Y-6.217 Z-0.500 F138.000
G1 X0.500 Y-8.110 Z-0.500 F138.000
G1 X2.500 Y-3.821 Z-0.500 F138.000
G1 X2.500 Y-5.714 Z-0.500 F138.000
G1 X0.735 Y-9.500 Z-0.500 F138.000
G1 X1.617 Y-9.500 Z-0.500 F138.000
G1 X2.500 Y-7.607 Z-0.500 F138.000
G1 X2.500 Y-9.500 Z-0.500 F138.000
G1 X2.500 Y-9.500 Z-1.000 F60.000
G1 X2.500 Y-7.607 Z-1.000 F138.000
G1 X1.617 Y-9.500 Z-1.000 F138.000
G1 X0.735 Y-9.500 Z-1.000 F138.000
G1 X2.500 Y-5.714 Z-1.000 F138.000
G1 X2.500 Y-3.821 Z-1.000 F138.000
G1 X0.500 Y-8.110 Z-1.000 F138.000
G1 X0.500 Y-6.217 Z-1.000 F138.000
G1 X2.500 Y-1.928 Z-1.000 F138.000
G1 X2.500 Y-0.500 Z-1.000 F138.000
G1 X2.283 Y-0.500 Z-1.000 F138.000
G1 X0.500 Y-4.324 Z-1.000 F138.000
G1 X0.500 Y-2.431 Z-1.000 F138.000
G1 X1.401 Y-0.500 Z-1.000 F138.000
G1 X0.518 Y-0.500 Z-1.000 F138.000
G1 X0.500 Y-0.538 Z-1.000 F138.000
G2 X0.518 Y-0.500 Z-1.000 I0.009 J0.019 K0.000 F138.000
G1 X0.518 Y-0.500 Z-1.500 F60.000
G3 X0.500 Y-0.538 Z-1.500 I-0.009 J-0.019 K0.000 F138.000
G1 X0.518 Y-0.500 Z-1.500 F138.000
G1 X1.401 Y-0.500 Z-1.500 F138.000
G1 X0.500 Y-2.431 Z-1.500 F138.000
G1 X0.500 Y-4.324 Z-1.500 F138.000
G1 X2.283 Y-0.500 Z-1.500 F138.000
G1 X2.500 Y-0.500 Z-1.500 F138.000
G1 X2.500 Y-1.928 Z-1.500 F138.000
G1 X0.500 Y-6.217 Z-1.500 F138.000
G1 X0.500 Y-8.110 Z-1.500 F138.000
G1 X2.500 Y-3.821 Z-1.500 F138.000
G1 X2.500 Y-5.714 Z-1.500 F138.000
G1 X0.735 Y-9.500 Z-1.500 F138.000
G1 X1.617 Y-9.500 Z-1.500 F138.000
G1 X2.500 Y-7.607 Z-1.500 F138.000
G1 X2.500 Y-9.500 Z-1.500 F138.000
G1 X2.500 Y-9.500 Z-2.000 F60.000
G1 X2.500 Y-7.607 Z-2.000 F138.000
G1 X1.617 Y-9.500 Z-2.000 F138.000
G1 X0.735 Y-9.500 Z-2.000 F138.000
G1 X2.500 Y-5.714 Z-2.000 F138.000
G1 X2.500 Y-3.821 Z-2.000 F138.000
G1 X0.500 Y-8.110 Z-2.000 F138.000
G1 X0.500 Y-6.217 Z-2.000 F138.000
G1 X2.500 Y-1.928 Z-2.000 F138.000
G1 X2.500 Y-0.500 Z-2.000 F138.000
G1 X2.283 Y-0.500 Z-2.000 F138.000
G1 X0.500 Y-4.324 Z-2.000 F138.000
G1 X0.500 Y-2.431 Z-2.000 F138.000
G1 X1.401 Y-0.500 Z-2.000 F138.000
G1 X0.518 Y-0.500 Z-2.000 F138.000
G1 X0.500 Y-0.538 Z-2.000 F138.000
G2 X0.518 Y-0.500 Z-2.000 I0.009 J0.019 K0.000 F138.000
G1 X0.518 Y-0.500 Z-2.500 F60.000
G3 X0.500 Y-0.538 Z-2.500 I-0.009 J-0.019 K0.000 F138.000
G1 X0.518 Y-0.500 Z-2.500 F138.000
G1 X1.401 Y-0.500 Z-2.500 F138.000
G1 X0.500 Y-2.431 Z-2.500 F138.000
G1 X0.500 Y-4.324 Z-2.500 F138.000
G1 X2.283 Y-0.500 Z-2.500 F138.000
G1 X2.500 Y-0.500 Z-2.500 F138.000
G1 X2.500 Y-1.928 Z-2.500 F138.000
G1 X0.500 Y-6.217 Z-2.500 F138.000
G1 X0.500 Y-8.110 Z-2.500 F138.000
G1 X2.500 Y-3.821 Z-2.500 F138.000
G1 X2.500 Y-5.714 Z-2.500 F138.000
G1 X0.735 Y-9.500 Z-2.500 F138.000
G1 X1.617 Y-9.500 Z-2.500 F138.000
G1 X2.500 Y-7.607 Z-2.500 F138.000
G1 X2.500 Y-9.500 Z-2.500 F138.000
G1 X2.500 Y-9.500 Z-2.900 F60.000
G1 X2.500 Y-7.607 Z-2.900 F138.000
G1 X1.617 Y-9.500 Z-2.900 F138.000
G1 X0.735 Y-9.500 Z-2.900 F138.000
G1 X2.500 Y-5.714 Z-2.900 F138.000
G1 X2.500 Y-3.821 Z-2.900 F138.000
G1 X0.500 Y-8.110 Z-2.900 F138.000
G1 X0.500 Y-6.217 Z-2.900 F138.000
G1 X2.500 Y-1.928 Z-2.900 F138.000
G1 X2.500 Y-0.500 Z-2.900 F138.000
G1 X2.283 Y-0.500 Z-2.900 F138.000
G1 X0.500 Y-4.324 Z-2.900 F138.000
G1 X0.500 Y-2.431 Z-2.900 F138.000
G1 X1.401 Y-0.500 Z-2.900 F138.000
G1 X0.518 Y-0.500 Z-2.900 F138.000
G1 X0.500 Y-0.538 Z-2.900 F138.000
G2 X0.518 Y-0.500 Z-2.900 I0.009 J0.019 K0.000 F138.000
G0 Z2.000
G0 Z2.000
G0 X-5.889 Y13.954
G0 X-5.889 Y13.954 Z1.000
G1 X-5.889 Y13.954 Z-0.500 F60.000
G1 X-5.826 Y14.088 Z-0.500 F138.000
G1 X-5.925 Y13.990 Z-0.500 F138.000
G1 X-5.889 Y13.954 Z-0.500 F138.000
G1 X-5.287 Y13.352 Z-0.500 F138.000
G1 X-4.173 Y15.742 Z-0.500 F138.000
G1 X-3.096 Y16.818 Z-0.500 F138.000
G1 X-2.886 Y16.608 Z-0.500 F138.000
G1 X-4.685 Y12.750 Z-0.500 F138.000
G1 X-4.510 Y12.575 Z-0.500 F138.000
G1 X-3.336 Y13.750 Z-0.500 F138.000
G1 X-2.284 Y16.006 Z-0.500 F138.000
G1 X-1.682 Y15.404 Z-0.500 F138.000
G1 X-1.682 Y15.404 Z-1.000 F60.000
G1 X-2.284 Y16.006 Z-1.000 F138.000
G1 X-3.336 Y13.750 Z-1.000 F138.000
G1 X-4.510 Y12.575 Z-1.000 F138.000
G1 X-4.685 Y12.750 Z-1.000 F138.000
G1 X-2.886 Y16.608 Z-1.000 F138.000
G1 X-3.096 Y16.818 Z-1.000 F138.000
G1 X-4.173 Y15.742 Z-1.000 F138.000
G1 X-5.287 Y13.352 Z-1.000 F138.000
G1 X-5.889 Y13.954 Z-1.000 F138.000
G1 X-5.925 Y13.990 Z-1.000 F138.000
G1 X-5.826 Y14.088 Z-1.000 F138.000
G1 X-5.889 Y13.954 Z-1.000 F138.000
G1 X-5.889 Y13.954 Z-1.500 F60.000
G1 X-5.826 Y14.088 Z-1.500 F138.000
G1 X-5.925 Y13.990 Z-1.500 F138.000
G1 X-5.889 Y13.954 Z-1.500 F138.000
G1 X-5.287 Y13.352 Z-1.500 F138.000
G1 X-4.173 Y15.742 Z-1.500 F138.000
G1 X-3.096 Y16.818 Z-1.500 F138.000
G1 X-2.886 Y16.608 Z-1.500 F138.000
G1 X-4.685 Y12.750 Z-1.500 F138.000
G1 X-4.510 Y12.575 Z-1.500 F138.000
G1 X-3.336 Y13.750 Z-1.500 F138.000
G1 X-2.284 Y16.006 Z-1.500 F138.000
G1 X-1.682 Y15.404 Z-1.500 F138.000
G1 X-1.682 Y15.404 Z-2.000 F60.000
G1 X-2.284 Y16.006 Z-2.000 F138.000
G1 X-3.336 Y13.750 Z-2.000 F138.000
G1 X-4.510 Y12.575 Z-2.000 F138.000
G1 X-4.685 Y12.750 Z-2.000 F138.000
G1 X-2.886 Y16.608 Z-2.000 F138.000
G1 X-3.096 Y16.818 Z-2.000 F138.000
G1 X-4.173 Y15.742 Z-2.000 F138.000
G1 X-5.287 Y13.352 Z-2.000 F138.000
G1 X-5.889 Y13.954 Z-2.000 F138.000
G1 X-5.925 Y13.990 Z-2.000 F138.000
G1 X-5.826 Y14.088 Z-2.000 F138.000
G1 X-5.889 Y13.954 Z-2.000 F138.000
G1 X-5.889 Y13.954 Z-2.500 F60.000
G1 X-5.826 Y14.088 Z-2.500 F138.000
G1 X-5.925 Y13.990 Z-2.500 F138.000
G1 X-5.889 Y13.954 Z-2.500 F138.000
G1 X-5.287 Y13.352 Z-2.500 F138.000
G1 X-4.173 Y15.742 Z-2.500 F138.000
G1 X-3.096 Y16.818 Z-2.500 F138.000
G1 X-2.886 Y16.608 Z-2.500 F138.000
G1 X-4.685 Y12.750 Z-2.500 F138.000
G1 X-4.510 Y12.575 Z-2.500 F138.000
G1 X-3.336 Y13.750 Z-2.500 F138.000
G1 X-2.284 Y16.006 Z-2.500 F138.000
G1 X-1.682 Y15.404 Z-2.500 F138.000
G1 X-1.682 Y15.404 Z-2.900 F60.000
G1 X-2.284 Y16.006 Z-2.900 F138.000
G1 X-3.336 Y13.750 Z-2.900 F138.000
G1 X-4.510 Y12.575 Z-2.900 F138.000
G1 X-4.685 Y12.750 Z-2.900 F138.000
G1 X-2.886 Y16.608 Z-2.900 F138.000
G1 X-3.096 Y16.818 Z-2.900 F138.000
G1 X-4.173 Y15.742 Z-2.900 F138.000
G1 X-5.287 Y13.352 Z-2.900 F138.000
G1 X-5.889 Y13.954 Z-2.900 F138.000
G1 X-5.925 Y13.990 Z-2.900 F138.000
G1 X-5.826 Y14.088 Z-2.900 F138.000
G1 X-5.889 Y13.954 Z-2.900 F138.000
G0 Z2.000
G0 Z2.000
G0 X-1.682 Y24.596
G0 X-1.682 Y24.596 Z1.000
G1 X-1.682 Y24.596 Z-0.500 F60.000
G1 X-2.284 Y25.198 Z-0.500 F138.000
G1 X-3.183 Y23.269 Z-0.500 F138.000
G1 X-3.785 Y23.871 Z-0.500 F138.000
G1 X-2.886 Y25.800 Z-0.500 F138.000
G1 X-3.488 Y26.402 Z-0.500 F138.000
G1 X-4.387 Y24.473 Z-0.500 F138.000
G1 X-4.989 Y25.075 Z-0.500 F138.000
G1 X-4.090 Y27.004 Z-0.500 F138.000
G1 X-4.510 Y27.425 Z-0.500 F138.000
G1 X-5.009 Y26.926 Z-0.500 F138.000
G1 X-5.591 Y25.677 Z-0.500 F138.000
G1 X-5.925 Y26.010 Z-0.500 F138.000
G1 X-5.009 Y26.926 Z-0.500 F138.000
G1 X-5.009 Y26.926 Z-1.000 F60.000
G1 X-5.925 Y26.010 Z-1.000 F138.000
G1 X-5.591 Y25.677 Z-1.000 F138.000
G1 X-5.009 Y26.926 Z-1.000 F138.000
G1 X-4.510 Y27.425 Z-1.000 F138.000
G1 X-4.090 Y27.004 Z-1.000 F138.000
G1 X-4.989 Y25.075 Z-1.000 F138.000
G1 X-4.387 Y24.473 Z-1.000 F138.000
G1 X-3.488 Y26.402 Z-1.000 F138.000
G1 X-2.886 Y25.800 Z-1.000 F138.000
G1 X-3.785 Y23.871 Z-1.000 F138.000
G1 X-3.183 Y23.269 Z-1.000 F138.000
G1 X-2.284 Y25.198 Z-1.000 F138.000
G1 X-1.682 Y24.596 Z-1.000 F138.000
G1 X-1.682 Y24.596 Z-1.500 F60.000
G1 X-2.284 Y25.198 Z-1.500 F138.000
G1 X-3.183 Y23.269 Z-1.500 F138.000
G1 X-3.785 Y23.871 Z-1.500 F138.000
G1 X-2.886 Y25.800 Z-1.500 F138.000
G1 X-3.488 Y26.402 Z-1.500 F138.000
G1 X-4.387 Y24.473 Z-1.500 F138.000
G1 X-4.989 Y25.075 Z-1.500 F138.000
G1 X-4.090 Y27.004 Z-1.500 F138.000
G1 X-4.510 Y27.425 Z-1.500 F138.000
G1 X-5.009 Y26.926 Z-1.500 F138.000
G1 X-5.591 Y25.677 Z-1.500 F138.000
G1 X-5.925 Y26.010 Z-1.500 F138.000
G1 X-5.009 Y26.926 Z-1.500 F138.000
G1 X-5.009 Y26.926 Z-2.000 F60.000
G1 X-5.925 Y26.010 Z-2.000 F138.000
G1 X-5.591 Y25.677 Z-2.000 F138.000
G1 X-5.009 Y26.926 Z-2.000 F138.000
G1 X-4.510 Y27.425 Z-2.000 F138.000
G1 X-4.090 Y27.004 Z-2.000 F138.000
G1 X-4.989 Y25.075 Z-2.000 F138.000
G1 X-4.387 Y24.473 Z-2.000 F138.000
G1 X-3.488 Y26.402 Z-2.000 F138.000
G1 X-2.886 Y25.800 Z-2.000 F138.000
G1 X-3.785 Y23.871 Z-2.000 F138.000
G1 X-3.183 Y23.269 Z-2.000 F138.000
G1 X-2.284 Y25.198 Z-2.000 F138.000
G1 X-1.682 Y24.596 Z-2.000 F138.000
G1 X-1.682 Y24.596 Z-2.500 F60.000
G1 X-2.284 Y25.198 Z-2.500 F138.000
G1 X-3.183 Y23.269 Z-2.500 F138.000
G1 X-3.785 Y23.871 Z-2.500 F138.000
G1 X-2.886 Y25.800 Z-2.500 F138.000
G1 X-3.488 Y26.402 Z-2.500 F138.000
G1 X-4.387 Y24.473 Z-2.500 F138.000
G1 X-4.989 Y25.075 Z-2.500 F138.000
G1 X-4.090 Y27.004 Z-2.500 F138.000
G1 X-4.510 Y27.425 Z-2.500 F138.000
G1 X-5.009 Y26.926 Z-2.500 F138.000
G1 X-5.591 Y25.677 Z-2.500 F138.000
G1 X-5.925 Y26.010 Z-2.500 F138.000
G1 X-5.009 Y26.926 Z-2.500 F138.000
G1 X-5.009 Y26.926 Z-2.900 F60.000
G1 X-5.925 Y26.010 Z-2.900 F138.000
G1 X-5.591 Y25.677 Z-2.900 F138.000
G1 X-5.009 Y26.926 Z-2.900 F138.000
G1 X-4.510 Y27.425 Z-2.900 F138.000
G1 X-4.090 Y27.004 Z-2.900 F138.000
G1 X-4.989 Y25.075 Z-2.900 F138.000
G1 X-4.387 Y24.473 Z-2.900 F138.000
G1 X-3.488 Y26.402 Z-2.900 F138.000
G1 X-2.886 Y25.800 Z-2.900 F138.000
G1 X-3.785 Y23.871 Z-2.900 F138.000
G1 X-3.183 Y23.269 Z-2.900 F138.000
G1 X-2.284 Y25.198 Z-2.900 F138.000
G1 X-1.682 Y24.596 Z-2.900 F138.000
G0 Z2.000
G0 Z2.000
G0 X4.718 Y24.560
G0 X4.718 Y24.560 Z1.000
G1 X4.718 Y24.560 Z-0.500 F60.000
G1 X4.780 Y24.694 Z-0.500 F138.000
G1 X4.682 Y24.596 Z-0.500 F138.000
G1 X4.718 Y24.560 Z-0.500 F138.000
G1 X5.320 Y23.958 Z-0.500 F138.000
G1 X6.434 Y26.348 Z-0.500 F138.000
G1 X7.510 Y27.425 Z-0.500 F138.000
G1 X7.721 Y27.214 Z-0.500 F138.000
G1 X5.922 Y23.356 Z-0.500 F138.000
G1 X6.096 Y23.182 Z-0.500 F138.000
G1 X7.271 Y24.356 Z-0.500 F138.000
G1 X8.323 Y26.612 Z-0.500 F138.000
G1 X8.925 Y26.010 Z-0.500 F138.000
G1 X8.925 Y26.010 Z-1.000 F60.000
G1 X8.323 Y26.612 Z-1.000 F138.000
G1 X7.271 Y24.356 Z-1.000 F138.000
G1 X6.096 Y23.182 Z-1.000 F138.000
G1 X5.922 Y23.356 Z-1.000 F138.000
G1 X7.721 Y27.214 Z-1.000 F138.000
G1 X7.510 Y27.425 Z-1.000 F138.000
G1 X6.434 Y26.348 Z-1.000 F138.000
G1 X5.320 Y23.958 Z-1.000 F138.000
G1 X4.718 Y24.560 Z-1.000 F138.000
G1 X4.682 Y24.596 Z-1.000 F138.000
G1 X4.780 Y24.694 Z-1.000 F138.000
G1 X4.718 Y24.560 Z-1.000 F138.000
G1 X4.718 Y24.560 Z-1.500 F60.000
G1 X4.780 Y24.694 Z-1.500 F138.000
G1 X4.682 Y24.596 Z-1.500 F138.000
G1 X4.718 Y24.560 Z-1.500 F138.000
G1 X5.320 Y23.958 Z-1.500 F138.000
G1 X6.434 Y26.348 Z-1.500 F138.000
G1 X7.510 Y27.425 Z-1.500 F138.000
G1 X7.721 Y27.214 Z-1.500 F138.000
G1 X5.922 Y23.356 Z-1.500 F138.000
G1 X6.096 Y23.182 Z-1.500 F138.000
G1 X7.271 Y24.356 Z-1.500 F138.000
G1 X8.323 Y26.612 Z-1.500 F138.000
G1 X8.925 Y26.010 Z-1.500 F138.000
G1 X8.925 Y26.010 Z-2.000 F60.000
G1 X8.323 Y26.612 Z-2.000 F138.000
G1 X7.271 Y24.356 Z-2.000 F138.000
G1 X6.096 Y23.182 Z-2.000 F138.000
G1 X5.922 Y23.356 Z-2.000 F138.000
G1 X7.721 Y27.214 Z-2.000 F138.000
G1 X7.510 Y27.425 Z-2.000 F138.000
G1 X6.434 Y26.348 Z-2.000 F138.000
G1 X5.320 Y23.958 Z-2.000 F138.000
G1 X4.718 Y24.560 Z-2.000 F138.000
G1 X4.682 Y24.596 Z-2.000 F138.000
G1 X4.780 Y24.694 Z-2.000 F138.000
G1 X4.718 Y24.560 Z-2.000 F138.000
G1 X4.718 Y24.560 Z-2.500 F60.000
G1 X4.780 Y24.694 Z-2.500 F138.000
G1 X4.682 Y24.596 Z-2.500 F138.000
G1 X4.718 Y24.560 Z-2.500 F138.000
G1 X5.320 Y23.958 Z-2.500 F138.000
G1 X6.434 Y26.348 Z-2.500 F138.000
G1 X7.510 Y27.425 Z-2.500 F138.000
G1 X7.721 Y27.214 Z-2.500 F138.000
G1 X5.922 Y23.356 Z-2.500 F138.000
G1 X6.096 Y23.182 Z-2.500 F138.000
G1 X7.271 Y24.356 Z-2.500 F138.000
G1 X8.323 Y26.612 Z-2.500 F138.000
G1 X8.925 Y26.010 Z-2.500 F138.000
G1 X8.925 Y26.010 Z-2.900 F60.000
G1 X8.323 Y26.612 Z-2.900 F138.000
G1 X7.271 Y24.356 Z-2.900 F138.000
G1 X6.096 Y23.182 Z-2.900 F138.000
G1 X5.922 Y23.356 Z-2.900 F138.000
G1 X7.721 Y27.214 Z-2.900 F138.000
G1 X7.510 Y27.425 Z-2.900 F138.000
G1 X6.434 Y26.348 Z-2.900 F138.000
G1 X5.320 Y23.958 Z-2.900 F138.000
G1 X4.718 Y24.560 Z-2.900 F138.000
G1 X4.682 Y24.596 Z-2.900 F138.000
G1 X4.780 Y24.694 Z-2.900 F138.000
G1 X4.718 Y24.560 Z-2.900 F138.000
G0 Z2.000
G0 Z2.000
G0 X5.597 Y16.319
G0 X5.597 Y16.319 Z1.000
G1 X5.597 Y16.319 Z-0.500 F60.000
G1 X4.682 Y15.404 Z-0.500 F138.000
G1 X5.015 Y15.071 Z-0.500 F138.000
G1 X5.597 Y16.319 Z-0.500 F138.000
G1 X6.096 Y16.818 Z-0.500 F138.000
G1 X6.517 Y16.398 Z-0.500 F138.000
G1 X5.617 Y14.469 Z-0.500 F138.000
G1 X6.219 Y13.867 Z-0.500 F138.000
G1 X7.119 Y15.796 Z-0.500 F138.000
G1 X7.721 Y15.194 Z-0.500 F138.000
G1 X6.821 Y13.265 Z-0.500 F138.000
G1 X7.423 Y12.663 Z-0.500 F138.000
G1 X8.323 Y14.592 Z-0.500 F138.000
G1 X8.925 Y13.990 Z-0.500 F138.000
G1 X8.925 Y13.990 Z-1.000 F60.000
G1 X8.323 Y14.592 Z-1.000 F138.000
G1 X7.423 Y12.663 Z-1.000 F138.000
G1 X6.821 Y13.265 Z-1.000 F138.000
G1 X7.721 Y15.194 Z-1.000 F138.000
G1 X7.119 Y15.796 Z-1.000 F138.000
G1 X6.219 Y13.867 Z-1.000 F138.000
G1 X5.617 Y14.469 Z-1.000 F138.000
G1 X6.517 Y16.398 Z-1.000 F138.000
G1 X6.096 Y16.818 Z-1.000 F138.000
G1 X5.597 Y16.319 Z-1.000 F138.000
G1 X5.015 Y15.071 Z-1.000 F138.000
G1 X4.682 Y15.404 Z-1.000 F138.000
G1 X5.597 Y16.319 Z-1.000 F138.000
G1 X5.597 Y16.319 Z-1.500 F60.000
G1 X4.682 Y15.404 Z-1.500 F138.000
G1 X5.015 Y15.071 Z-1.500 F138.000
G1 X5.597 Y16.319 Z-1.500 F138.000
G1 X6.096 Y16.818 Z-1.500 F138.000
G1 X6.517 Y16.398 Z-1.500 F138.000
G1 X5.617 Y14.469 Z-1.500 F138.000
G1 X6.219 Y13.867 Z-1.500 F138.000
G1 X7.119 Y15.796 Z-1.500 F138.000
G1 X7.721 Y15.194 Z-1.500 F138.000
G1 X6.821 Y13.265 Z-1.500 F138.000
G1 X7.423 Y12.663 Z-1.500 F138.000
G1 X8.323 Y14.592 Z-1.500 F138.000
G1 X8.925 Y13.990 Z-1.500 F138.000
G1 X8.925 Y13.990 Z-2.000 F60.000
G1 X8.323 Y14.592 Z-2.000 F138.000
G1 X7.423 Y12.663 Z-2.000 F138.000
G1 X6.821 Y13.265 Z-2.000 F138.000
G1 X7.721 Y15.194 Z-2.000 F138.000
G1 X7.119 Y15.796 Z-2.000 F138.000
G1 X6.219 Y13.867 Z-2.000 F138.000
G1 X5.617 Y14.469 Z-2.000 F138.000
G1 X6.517 Y16.398 Z-2.000 F138.000
G1 X6.096 Y16.818 Z-2.000 F138.000
G1 X5.597 Y16.319 Z-2.000 F138.000
G1 X5.015 Y15.071 Z-2.000 F138.000
G1 X4.682 Y15.404 Z-2.000 F138.000
G1 X5.597 Y16.319 Z-2.000 F138.000
G1 X5.597 Y16.319 Z-2.500 F60.000
G1 X4.682 Y15.404 Z-2.500 F138.000
G1 X5.015 Y15.071 Z-2.500 F138.000
G1 X5.597 Y16.319 Z-2.500 F138.000
G1 X6.096 Y16.818 Z-2.500 F138.000
G1 X6.517 Y16.398 Z-2.500 F138.000
G1 X5.617 Y14.469 Z-2.500 F138.000
G1 X6.219 Y13.867 Z-2.500 F138.000
G1 X7.119 Y15.796 Z-2.500 F138.000
G1 X7.721 Y15.194 Z-2.500 F138.000
G1 X6.821 Y13.265 Z-2.500 F138.000
G1 X7.423 Y12.663 Z-2.500 F138.000
G1 X8.323 Y14.592 Z-2.500 F138.000
G1 X8.925 Y13.990 Z-2.500 F138.000
G1 X8.925 Y13.990 Z-2.900 F60.000
G1 X8.323 Y14.592 Z-2.900 F138.000
G1 X7.423 Y12.663 Z-2.900 F138.000
G1 X6.821 Y13.265 Z-2.900 F138.000
G1 X7.721 Y15.194 Z-2.900 F138.000
G1 X7.119 Y15.796 Z-2.900 F138.000
G1 X6.219 Y13.867 Z-2.900 F138.000
G1 X5.617 Y14.469 Z-2.900 F138.000
G1 X6.517 Y16.398 Z-2.900 F138.000
G1 X6.096 Y16.818 Z-2.900 F138.000
G1 X5.597 Y16.319 Z-2.900 F138.000
G1 X5.015 Y15.071 Z-2.900 F138.000
G1 X4.682 Y15.404 Z-2.900 F138.000
G1 X5.597 Y16.319 Z-2.900 F138.000
G0 Z2.000
G0 Z2.000
G0 X8.925 Y-23.990
G0 X8.925 Y-23.990 Z1.000
G1 X8.925 Y-23.990 Z-0.500 F60.000
G1 X8.323 Y-23.388 Z-0.500 F138.000
G1 X7.271 Y-25.644 Z-0.500 F138.000
G1 X6.096 Y-26.818 Z-0.500 F138.000
G1 X5.922 Y-26.644 Z-0.500 F138.000
G1 X7.721 Y-22.786 Z-0.500 F138.000
G1 X7.510 Y-22.575 Z-0.500 F138.000
G1 X6.434 Y-23.652 Z-0.500 F138.000
G1 X5.320 Y-26.042 Z-0.500 F138.000
G1 X4.718 Y-25.440 Z-0.500 F138.000
G1 X4.682 Y-25.404 Z-0.500 F138.000
G1 X4.780 Y-25.306 Z-0.500 F138.000
G1 X4.718 Y-25.440 Z-0.500 F138.000
G1 X4.718 Y-25.440 Z-1.000 F60.000
G1 X4.780 Y-25.306 Z-1.000 F138.000
G1 X4.682 Y-25.404 Z-1.000 F138.000
G1 X4.718 Y-25.440 Z-1.000 F138.000
G1 X5.320 Y-26.042 Z-1.000 F138.000
G1 X6.434 Y-23.652 Z-1.000 F138.000
G1 X7.510 Y-22.575 Z-1.000 F138.000
G1 X7.721 Y-22.786 Z-1.000 F138.000
G1 X5.922 Y-26.644 Z-1.000 F138.000
G1 X6.096 Y-26.818 Z-1.000 F138.000
G1 X7.271 Y-25.644 Z-1.000 F138.000
G1 X8.323 Y-23.388 Z-1.000 F138.000
G1 X8.925 Y-23.990 Z-1.000 F138.000
G1 X8.925 Y-23.990 Z-1.500 F60.000
G1 X8.323 Y-23.388 Z-1.500 F138.000
G1 X7.271 Y-25.644 Z-1.500 F138.000
G1 X6.096 Y-26.818 Z-1.500 F138.000
G1 X5.922 Y-26.644 Z-1.500 F138.000
G1 X7.721 Y-22.786 Z-1.500 F138.000
G1 X7.510 Y-22.575 Z-1.500 F138.000
G1 X6.434 Y-23.652 Z-1.500 F138.000
G1 X5.320 Y-26.042 Z-1.500 F138.000
G1 X4.718 Y-25.440 Z-1.500 F138.000
G1 X4.682 Y-25.404 Z-1.500 F138.000
G1 X4.780 Y-25.306 Z-1.500 F138.000
G1 X4.718 Y-25.440 Z-1.500 F138.000
G1 X4.718 Y-25.440 Z-2.000 F60.000
G1 X4.780 Y-25.306 Z-2.000 F138.000
G1 X4.682 Y-25.404 Z-2.000 F138.000
G1 X4.718 Y-25.440 Z-2.000 F138.000
G1 X5.320 Y-26.042 Z-2.000 F138.000
G1 X6.434 Y-23.652 Z-2.000 F138.000
G1 X7.510 Y-22.575 Z-2.000 F138.000
G1 X7.721 Y-22.786 Z-2.000 F138.000
G1 X5.922 Y-26.644 Z-2.000 F138.000
G1 X6.096 Y-26.818 Z-2.000 F138.000
G1 X7.271 Y-25.644 Z-2.000 F138.000
G1 X8.323 Y-23.388 Z-2.000 F138.000
G1 X8.925 Y-23.990 Z-2.000 F138.000
G1 X8.925 Y-23.990 Z-2.500 F60.000
G1 X8.323 Y-23.388 Z-2.500 F138.000
G1 X7.271 Y-25.644 Z-2.500 F138.000
G1 X6.096 Y-26.818 Z-2.500 F138.000
G1 X5.922 Y-26.644 Z-2.500 F138.000
G1 X7.721 Y-22.786 Z-2.500 F138.000
G1 X7.510 Y-22.575 Z-2.500 F138.000
G1 X6.434 Y-23.652 Z-2.500 F138.000
G1 X5.320 Y-26.042 Z-2.500 F138.000
G1 X4.718 Y-25.440 Z-2.500 F138.000
G1 X4.682 Y-25.404 Z-2.500 F138.000
G1 X4.780 Y-25.306 Z-2.500 F138.000
G1 X4.718 Y-25.440 Z-2.500 F138.000
G1 X4.718 Y-25.440 Z-2.900 F60.000
G1 X4.780 Y-25.306 Z-2.900 F138.000
G1 X4.682 Y-25.404 Z-2.900 F138.000
G1 X4.718 Y-25.440 Z-2.900 F138.000
G1 X5.320 Y-26.042 Z-2.900 F138.000
G1 X6.434 Y-23.652 Z-2.900 F138.000
G1 X7.510 Y-22.575 Z-2.900 F138.000
G1 X7.721 Y-22.786 Z-2.900 F138.000
G1 X5.922 Y-26.644 Z-2.900 F138.000
G1 X6.096 Y-26.818 Z-2.900 F138.000
G1 X7.271 Y-25.644 Z-2.900 F138.000
G1 X8.323 Y-23.388 Z-2.900 F138.000
G1 X8.925 Y-23.990 Z-2.900 F138.000
G0 Z2.000
G0 Z2.000
G0 X-1.682 Y-25.404
G0 X-1.682 Y-25.404 Z1.000
G1 X-1.682 Y-25.404 Z-0.500 F60.000
G1 X-2.284 Y-24.802 Z-0.500 F138.000
G1 X-3.183 Y-26.731 Z-0.500 F138.000
G1 X-3.785 Y-26.129 Z-0.500 F138.000
G1 X-2.886 Y-24.200 Z-0.500 F138.000
G1 X-3.488 Y-23.598 Z-0.500 F138.000
G1 X-4.387 Y-25.527 Z-0.500 F138.000
G1 X-4.989 Y-24.925 Z-0.500 F138.000
G1 X-4.090 Y-22.996 Z-0.500 F138.000
G1 X-4.510 Y-22.575 Z-0.500 F138.000
G1 X-5.009 Y-23.074 Z-0.500 F138.000
G1 X-5.591 Y-24.323 Z-0.500 F138.000
G1 X-5.925 Y-23.990 Z-0.500 F138.000
G1 X-5.009 Y-23.074 Z-0.500 F138.000
G1 X-5.009 Y-23.074 Z-1.000 F60.000
G1 X-5.925 Y-23.990 Z-1.000 F138.000
G1 X-5.591 Y-24.323 Z-1.000 F138.000
G1 X-5.009 Y-23.074 Z-1.000 F138.000
G1 X-4.510 Y-22.575 Z-1.000 F138.000
G1 X-4.090 Y-22.996 Z-1.000 F138.000
G1 X-4.989 Y-24.925 Z-1.000 F138.000
G1 X-4.387 Y-25.527 Z-1.000 F138.000
G1 X-3.488 Y-23.598 Z-1.000 F138.000
G1 X-2.886 Y-24.200 Z-1.000 F138.000
G1 X-3.785 Y-26.129 Z-1.000 F138.000
G1 X-3.183 Y-26.731 Z-1.000 F138.000
G1 X-2.284 Y-24.802 Z-1.000 F138.000
G1 X-1.682 Y-25.404 Z-1.000 F138.000
G1 X-1.682 Y-25.404 Z-1.500 F60.000
G1 X-2.284 Y-24.802 Z-1.500 F138.000
G1 X-3.183 Y-26.731 Z-1.500 F138.000
G1 X-3.785 Y-26.129 Z-1.500 F138.000
G1 X-2.886 Y-24.200 Z-1.500 F138.000
G1 X-3.488 Y-23.598 Z-1.500 F138.000
G1 X-4.387 Y-25.527 Z-1.500 F138.000
G1 X-4.989 Y-24.925 Z-1.500 F138.000
G1 X-4.090 Y-22.996 Z-1.500 F138.000
G1 X-4.510 Y-22.575 Z-1.500 F138.000
G1 X-5.009 Y-23.074 Z-1.500 F138.000
G1 X-5.591 Y-24.323 Z-1.500 F138.000
G1 X-5.925 Y-23.990 Z-1.500 F138.000
G1 X-5.009 Y-23.074 Z-1.500 F138.000
G1 X-5.009 Y-23.074 Z-2.000 F60.000
G1 X-5.925 Y-23.990 Z-2.000 F138.000
G1 X-5.591 Y-24.323 Z-2.000 F138.000
G1 X-5.009 Y-23.074 Z-2.000 F138.000
G1 X-4.510 Y-22.575 Z-2.000 F138.000
G1 X-4.090 Y-22.996 Z-2.000 F138.000
G1 X-4.989 Y-24.925 Z-2.000 F138.000
G1 X-4.387 Y-25.527 Z-2.000 F138.000
G1 X-3.488 Y-23.598 Z-2.000 F138.000
G1 X-2.886 Y-24.200 Z-2.000 F138.000
G1 X-3.785 Y-26.129 Z-2.000 F138.000
G1 X-3.183 Y-26.731 Z-2.000 F138.000
G1 X-2.284 Y-24.802 Z-2.000 F138.000
G1 X-1.682 Y-25.404 Z-2.000 F138.000
G1 X-1.682 Y-25.404 Z-2.500 F60.000
G1 X-2.284 Y-24.802 Z-2.500 F138.000
G1 X-3.183 Y-26.731 Z-2.500 F138.000
G1 X-3.785 Y-26.129 Z-2.500 F138.000
G1 X-2.886 Y-24.200 Z-2.500 F138.000
G1 X-3.488 Y-23.598 Z-2.500 F138.000
G1 X-4.387 Y-25.527 Z-2.500 F138.000
G1 X-4.989 Y-24.925 Z-2.500 F138.000
G1 X-4.090 Y-22.996 Z-2.500 F138.000
G1 X-4.510 Y-22.575 Z-2.500 F138.000
G1 X-5.009 Y-23.074 Z-2.500 F138.000
G1 X-5.591 Y-24.323 Z-2.500 F138.000
G1 X-5.925 Y-23.990 Z-2.500 F138.000
G1 X-5.009 Y-23.074 Z-2.500 F138.000
G1 X-5.009 Y-23.074 Z-2.900 F60.000
G1 X-5.925 Y-23.990 Z-2.900 F138.000
G1 X-5.591 Y-24.323 Z-2.900 F138.000
G1 X-5.009 Y-23.074 Z-2.900 F138.000
G1 X-4.510 Y-22.575 Z-2.900 F138.000
G1 X-4.090 Y-22.996 Z-2.900 F138.000
G1 X-4.989 Y-24.925 Z-2.900 F138.000
G1 X-4.387 Y-25.527 Z-2.900 F138.000
G1 X-3.488 Y-23.598 Z-2.900 F138.000
G1 X-2.886 Y-24.200 Z-2.900 F138.000
G1 X-3.785 Y-26.129 Z-2.900 F138.000
G1 X-3.183 Y-26.731 Z-2.900 F138.000
G1 X-2.284 Y-24.802 Z-2.900 F138.000
G1 X-1.682 Y-25.404 Z-2.900 F138.000
G0 Z2.000
G0 Z2.000
G0 Y-34.596
G0 Y-34.596 Z1.000
G1 X-1.682 Y-34.596 Z-0.500 F60.000
G1 X-2.284 Y-33.994 Z-0.500 F138.000
G1 X-3.336 Y-36.250 Z-0.500 F138.000
G1 X-4.510 Y-37.425 Z-0.500 F138.000
G1 X-4.685 Y-37.250 Z-0.500 F138.000
G1 X-2.886 Y-33.392 Z-0.500 F138.000
G1 X-3.096 Y-33.182 Z-0.500 F138.000
G1 X-4.173 Y-34.258 Z-0.500 F138.000
G1 X-5.287 Y-36.648 Z-0.500 F138.000
G1 X-5.889 Y-36.046 Z-0.500 F138.000
G1 X-5.925 Y-36.010 Z-0.500 F138.000
G1 X-5.826 Y-35.912 Z-0.500 F138.000
G1 X-5.889 Y-36.046 Z-0.500 F138.000
G1 X-5.889 Y-36.046 Z-1.000 F60.000
G1 X-5.826 Y-35.912 Z-1.000 F138.000
G1 X-5.925 Y-36.010 Z-1.000 F138.000
G1 X-5.889 Y-36.046 Z-1.000 F138.000
G1 X-5.287 Y-36.648 Z-1.000 F138.000
G1 X-4.173 Y-34.258 Z-1.000 F138.000
G1 X-3.096 Y-33.182 Z-1.000 F138.000
G1 X-2.886 Y-33.392 Z-1.000 F138.000
G1 X-4.685 Y-37.250 Z-1.000 F138.000
G1 X-4.510 Y-37.425 Z-1.000 F138.000
G1 X-3.336 Y-36.250 Z-1.000 F138.000
G1 X-2.284 Y-33.994 Z-1.000 F138.000
G1 X-1.682 Y-34.596 Z-1.000 F138.000
G1 X-1.682 Y-34.596 Z-1.500 F60.000
G1 X-2.284 Y-33.994 Z-1.500 F138.000
G1 X-3.336 Y-36.250 Z-1.500 F138.000
G1 X-4.510 Y-37.425 Z-1.500 F138.000
G1 X-4.685 Y-37.250 Z-1.500 F138.000
G1 X-2.886 Y-33.392 Z-1.500 F138.000
G1 X-3.096 Y-33.182 Z-1.500 F138.000
G1 X-4.173 Y-34.258 Z-1.500 F138.000
G1 X-5.287 Y-36.648 Z-1.500 F138.000
G1 X-5.889 Y-36.046 Z-1.500 F138.000
G1 X-5.925 Y-36.010 Z-1.500 F138.000
G1 X-5.826 Y-35.912 Z-1.500 F138.000
G1 X-5.889 Y-36.046 Z-1.500 F138.000
G1 X-5.889 Y-36.046 Z-2.000 F60.000
G1 X-5.826 Y-35.912 Z-2.000 F138.000
G1 X-5.925 Y-36.010 Z-2.000 F138.000
G1 X-5.889 Y-36.046 Z-2.000 F138.000
G1 X-5.287 Y-36.648 Z-2.000 F138.000
G1 X-4.173 Y-34.258 Z-2.000 F138.000
G1 X-3.096 Y-33.182 Z-2.000 F138.000
G1 X-2.886 Y-33.392 Z-2.000 F138.000
G1 X-4.685 Y-37.250 Z-2.000 F138.000
G1 X-4.510 Y-37.425 Z-2.000 F138.000
G1 X-3.336 Y-36.250 Z-2.000 F138.000
G1 X-2.284 Y-33.994 Z-2.000 F138.000
G1 X-1.682 Y-34.596 Z-2.000 F138.000
G1 X-1.682 Y-34.596 Z-2.500 F60.000
G1 X-2.284 Y-33.994 Z-2.500 F138.000
G1 X-3.336 Y-36.250 Z-2.500 F138.000
G1 X-4.510 Y-37.425 Z-2.500 F138.000
G1 X-4.685 Y-37.250 Z-2.500 F138.000
G1 X-2.886 Y-33.392 Z-2.500 F138.000
G1 X-3.096 Y-33.182 Z-2.500 F138.000
G1 X-4.173 Y-34.258 Z-2.500 F138.000
G1 X-5.287 Y-36.648 Z-2.500 F138.000
G1 X-5.889 Y-36.046 Z-2.500 F138.000
G1 X-5.925 Y-36.010 Z-2.500 F138.000
G1 X-5.826 Y-35.912 Z-2.500 F138.000
G1 X-5.889 Y-36.046 Z-2.500 F138.000
G1 X-5.889 Y-36.046 Z-2.900 F60.000
G1 X-5.826 Y-35.912 Z-2.900 F138.000
G1 X-5.925 Y-36.010 Z-2.900 F138.000
G1 X-5.889 Y-36.046 Z-2.900 F138.000
G1 X-5.287 Y-36.648 Z-2.900 F138.000
G1 X-4.173 Y-34.258 Z-2.900 F138.000
G1 X-3.096 Y-33.182 Z-2.900 F138.000
G1 X-2.886 Y-33.392 Z-2.900 F138.000
G1 X-4.685 Y-37.250 Z-2.900 F138.000
G1 X-4.510 Y-37.425 Z-2.900 F138.000
G1 X-3.336 Y-36.250 Z-2.900 F138.000
G1 X-2.284 Y-33.994 Z-2.900 F138.000
G1 X-1.682 Y-34.596 Z-2.900 F138.000
G0 Z2.000
G0 Z2.000
G0 X5.597 Y-33.681
G0 X5.597 Y-33.681 Z1.000
G1 X5.597 Y-33.681 Z-0.500 F60.000
G1 X4.682 Y-34.596 Z-0.500 F138.000
G1 X5.015 Y-34.929 Z-0.500 F138.000
G1 X5.597 Y-33.681 Z-0.500 F138.000
G1 X6.096 Y-33.182 Z-0.500 F138.000
G1 X6.517 Y-33.602 Z-0.500 F138.000
G1 X5.617 Y-35.531 Z-0.500 F138.000
G1 X6.219 Y-36.133 Z-0.500 F138.000
G1 X7.119 Y-34.204 Z-0.500 F138.000
G1 X7.721 Y-34.806 Z-0.500 F138.000
G1 X6.821 Y-36.735 Z-0.500 F138.000
G1 X7.423 Y-37.337 Z-0.500 F138.000
G1 X8.323 Y-35.408 Z-0.500 F138.000
G1 X8.925 Y-36.010 Z-0.500 F138.000
G1 X8.925 Y-36.010 Z-1.000 F60.000
G1 X8.323 Y-35.408 Z-1.000 F138.000
G1 X7.423 Y-37.337 Z-1.000 F138.000
G1 X6.821 Y-36.735 Z-1.000 F138.000
G1 X7.721 Y-34.806 Z-1.000 F138.000
G1 X7.119 Y-34.204 Z-1.000 F138.000
G1 X6.219 Y-36.133 Z-1.000 F138.000
G1 X5.617 Y-35.531 Z-1.000 F138.000
G1 X6.517 Y-33.602 Z-1.000 F138.000
G1 X6.096 Y-33.182 Z-1.000 F138.000
G1 X5.597 Y-33.681 Z-1.000 F138.000
G1 X5.015 Y-34.929 Z-1.000 F138.000
G1 X4.682 Y-34.596 Z-1.000 F138.000
G1 X5.597 Y-33.681 Z-1.000 F138.000
G1 X5.597 Y-33.681 Z-1.500 F60.000
G1 X4.682 Y-34.596 Z-1.500 F138.000
G1 X5.015 Y-34.929 Z-1.500 F138.000
G1 X5.597 Y-33.681 Z-1.500 F138.000
G1 X6.096 Y-33.182 Z-1.500 F138.000
G1 X6.517 Y-33.602 Z-1.500 F138.000
G1 X5.617 Y-35.531 Z-1.500 F138.000
G1 X6.219 Y-36.133 Z-1.500 F138.000
G1 X7.119 Y-34.204 Z-1.500 F138.000
G1 X7.721 Y-34.806 Z-1.500 F138.000
G1 X6.821 Y-36.735 Z-1.500 F138.000
G1 X7.423 Y-37.337 Z-1.500 F138.000
G1 X8.323 Y-35.408 Z-1.500 F138.000
G1 X8.925 Y-36.010 Z-1.500 F138.000
G1 X8.925 Y-36.010 Z-2.000 F60.000
G1 X8.323 Y-35.408 Z-2.000 F138.000
G1 X7.423 Y-37.337 Z-2.000 F138.000
G1 X6.821 Y-36.735 Z-2.000 F138.000
G1 X7.721 Y-34.806 Z-2.000 F138.000
G1 X7.119 Y-34.204 Z-2.000 F138.000
G1 X6.219 Y-36.133 Z-2.000 F138.000
G1 X5.617 Y-35.531 Z-2.000 F138.000
G1 X6.517 Y-33.602 Z-2.000 F138.000
G1 X6.096 Y-33.182 Z-2.000 F138.000
G1 X5.597 Y-33.681 Z-2.000 F138.000
G1 X5.015 Y-34.929 Z-2.000 F138.000
G1 X4.682 Y-34.596 Z-2.000 F138.000
G1 X5.597 Y-33.681 Z-2.000 F138.000
G1 X5.597 Y-33.681 Z-2.500 F60.000
G1 X4.682 Y-34.596 Z-2.500 F138.000
G1 X5.015 Y-34.929 Z-2.500 F138.000
G1 X5.597 Y-33.681 Z-2.500 F138.000
G1 X6.096 Y-33.182 Z-2.500 F138.000
G1 X6.517 Y-33.602 Z-2.500 F138.000
G1 X5.617 Y-35.531 Z-2.500 F138.000
G1 X6.219 Y-36.133 Z-2.500 F138.000
G1 X7.119 Y-34.204 Z-2.500 F138.000
G1 X7.721 Y-34.806 Z-2.500 F138.000
G1 X6.821 Y-36.735 Z-2.500 F138.000
G1 X7.423 Y-37.337 Z-2.500 F138.000
G1 X8.323 Y-35.408 Z-2.500 F138.000
G1 X8.925 Y-36.010 Z-2.500 F138.000
G1 X8.925 Y-36.010 Z-2.900 F60.000
G1 X8.323 Y-35.408 Z-2.900 F138.000
G1 X7.423 Y-37.337 Z-2.900 F138.000
G1 X6.821 Y-36.735 Z-2.900 F138.000
G1 X7.721 Y-34.806 Z-2.900 F138.000
G1 X7.119 Y-34.204 Z-2.900 F138.000
G1 X6.219 Y-36.133 Z-2.900 F138.000
G1 X5.617 Y-35.531 Z-2.900 F138.000
G1 X6.517 Y-33.602 Z-2.900 F138.000
G1 X6.096 Y-33.182 Z-2.900 F138.000
G1 X5.597 Y-33.681 Z-2.900 F138.000
G1 X5.015 Y-34.929 Z-2.900 F138.000
G1 X4.682 Y-34.596 Z-2.900 F138.000
G1 X5.597 Y-33.681 Z-2.900 F138.000
G0 Z2.000
G0 Z2.000
(Finish operation: Pocket_Shape001)
(Begin postamble)
M5
G17 G90
M2
