(Exported by FreeCAD)
(Post Processor: grbl_post)
(Output Time:2020-08-18 13:58:02.130605)
(Begin preamble)
G17 G90
G21
(Begin operation: Fixture)
(Path: Fixture)
G54
(Finish operation: Fixture)
(Begin operation: T37: Two-flute 1mm x 7mm001)
(Path: T37: Two-flute 1mm x 7mm001)
(T37: Two-flute 1mm x 7mm001)
(Begin toolchange)
(M6 T37.0)
M3 S7400.0
(Finish operation: T37: Two-flute 1mm x 7mm001)
(Begin operation: DogboneDressup002)
(Path: DogboneDressup002)
(Profile002)
(Compensated Tool Path. Diameter: 1.0)
G0 Z2.000
G0 X8.904 Y-7.490
G0 Z1.000
G1 X8.904 Y-7.490 Z-0.333 F60.000
G1 X10.318 Y-8.904 Z-0.333 F138.000
G1 X10.525 Y-8.904 Z-0.333 F138.000
G1 X10.318 Y-8.904 Z-0.333 F138.000
G1 X8.904 Y-10.318 Z-0.333 F138.000
G1 X8.904 Y-10.318 Z-0.333 F138.000
G1 X8.904 Y-10.525 Z-0.333 F138.000
G1 X8.904 Y-10.318 Z-0.333 F138.000
G1 X6.075 Y-7.490 Z-0.333 F138.000
G1 X6.075 Y-7.490 Z-0.333 F138.000
G1 X5.868 Y-7.490 Z-0.333 F138.000
G1 X6.075 Y-7.490 Z-0.333 F138.000
G1 X7.490 Y-6.075 Z-0.333 F138.000
G1 X7.490 Y-6.075 Z-0.333 F138.000
G1 X7.490 Y-5.868 Z-0.333 F138.000
G1 X7.490 Y-6.075 Z-0.333 F138.000
G1 X8.904 Y-7.490 Z-0.333 F138.000
G1 X8.904 Y-7.490 Z-0.667 F60.000
G1 X10.318 Y-8.904 Z-0.667 F138.000
G1 X10.525 Y-8.904 Z-0.667 F138.000
G1 X10.318 Y-8.904 Z-0.667 F138.000
G1 X8.904 Y-10.318 Z-0.667 F138.000
G1 X8.904 Y-10.318 Z-0.667 F138.000
G1 X8.904 Y-10.525 Z-0.667 F138.000
G1 X8.904 Y-10.318 Z-0.667 F138.000
G1 X6.075 Y-7.490 Z-0.667 F138.000
G1 X6.075 Y-7.490 Z-0.667 F138.000
G1 X5.868 Y-7.490 Z-0.667 F138.000
G1 X6.075 Y-7.490 Z-0.667 F138.000
G1 X7.490 Y-6.075 Z-0.667 F138.000
G1 X7.490 Y-6.075 Z-0.667 F138.000
G1 X7.490 Y-5.868 Z-0.667 F138.000
G1 X7.490 Y-6.075 Z-0.667 F138.000
G1 X8.904 Y-7.490 Z-0.667 F138.000
G1 X8.904 Y-7.490 Z-1.000 F60.000
G1 X10.318 Y-8.904 Z-1.000 F138.000
G1 X10.525 Y-8.904 Z-1.000 F138.000
G1 X10.318 Y-8.904 Z-1.000 F138.000
G1 X8.904 Y-10.318 Z-1.000 F138.000
G1 X8.904 Y-10.318 Z-1.000 F138.000
G1 X8.904 Y-10.525 Z-1.000 F138.000
G1 X8.904 Y-10.318 Z-1.000 F138.000
G1 X6.075 Y-7.490 Z-1.000 F138.000
G1 X6.075 Y-7.490 Z-1.000 F138.000
G1 X5.868 Y-7.490 Z-1.000 F138.000
G1 X6.075 Y-7.490 Z-1.000 F138.000
G1 X7.490 Y-6.075 Z-1.000 F138.000
G1 X7.490 Y-6.075 Z-1.000 F138.000
G1 X7.490 Y-5.868 Z-1.000 F138.000
G1 X7.490 Y-6.075 Z-1.000 F138.000
G1 X8.904 Y-7.490 Z-1.000 F138.000
G1 X8.904 Y-7.490 Z-1.333 F60.000
G1 X10.318 Y-8.904 Z-1.333 F138.000
G1 X10.525 Y-8.904 Z-1.333 F138.000
G1 X10.318 Y-8.904 Z-1.333 F138.000
G1 X8.904 Y-10.318 Z-1.333 F138.000
G1 X8.904 Y-10.318 Z-1.333 F138.000
G1 X8.904 Y-10.525 Z-1.333 F138.000
G1 X8.904 Y-10.318 Z-1.333 F138.000
G1 X6.075 Y-7.490 Z-1.333 F138.000
G1 X6.075 Y-7.490 Z-1.333 F138.000
G1 X5.868 Y-7.490 Z-1.333 F138.000
G1 X6.075 Y-7.490 Z-1.333 F138.000
G1 X7.490 Y-6.075 Z-1.333 F138.000
G1 X7.490 Y-6.075 Z-1.333 F138.000
G1 X7.490 Y-5.868 Z-1.333 F138.000
G1 X7.490 Y-6.075 Z-1.333 F138.000
G1 X8.904 Y-7.490 Z-1.333 F138.000
G1 X8.904 Y-7.490 Z-1.667 F60.000
G1 X10.318 Y-8.904 Z-1.667 F138.000
G1 X10.525 Y-8.904 Z-1.667 F138.000
G1 X10.318 Y-8.904 Z-1.667 F138.000
G1 X8.904 Y-10.318 Z-1.667 F138.000
G1 X8.904 Y-10.318 Z-1.667 F138.000
G1 X8.904 Y-10.525 Z-1.667 F138.000
G1 X8.904 Y-10.318 Z-1.667 F138.000
G1 X6.075 Y-7.490 Z-1.667 F138.000
G1 X6.075 Y-7.490 Z-1.667 F138.000
G1 X5.868 Y-7.490 Z-1.667 F138.000
G1 X6.075 Y-7.490 Z-1.667 F138.000
G1 X7.490 Y-6.075 Z-1.667 F138.000
G1 X7.490 Y-6.075 Z-1.667 F138.000
G1 X7.490 Y-5.868 Z-1.667 F138.000
G1 X7.490 Y-6.075 Z-1.667 F138.000
G1 X8.904 Y-7.490 Z-1.667 F138.000
G1 X8.904 Y-7.490 Z-2.000 F60.000
G1 X10.318 Y-8.904 Z-2.000 F138.000
G1 X10.525 Y-8.904 Z-2.000 F138.000
G1 X10.318 Y-8.904 Z-2.000 F138.000
G1 X8.904 Y-10.318 Z-2.000 F138.000
G1 X8.904 Y-10.318 Z-2.000 F138.000
G1 X8.904 Y-10.525 Z-2.000 F138.000
G1 X8.904 Y-10.318 Z-2.000 F138.000
G1 X6.075 Y-7.490 Z-2.000 F138.000
G1 X6.075 Y-7.490 Z-2.000 F138.000
G1 X5.868 Y-7.490 Z-2.000 F138.000
G1 X6.075 Y-7.490 Z-2.000 F138.000
G1 X7.490 Y-6.075 Z-2.000 F138.000
G1 X7.490 Y-6.075 Z-2.000 F138.000
G1 X7.490 Y-5.868 Z-2.000 F138.000
G1 X7.490 Y-6.075 Z-2.000 F138.000
G1 X8.904 Y-7.490 Z-2.000 F138.000
G1 X8.904 Y-7.490 Z-2.333 F60.000
G1 X10.318 Y-8.904 Z-2.333 F138.000
G1 X10.525 Y-8.904 Z-2.333 F138.000
G1 X10.318 Y-8.904 Z-2.333 F138.000
G1 X8.904 Y-10.318 Z-2.333 F138.000
G1 X8.904 Y-10.318 Z-2.333 F138.000
G1 X8.904 Y-10.525 Z-2.333 F138.000
G1 X8.904 Y-10.318 Z-2.333 F138.000
G1 X6.075 Y-7.490 Z-2.333 F138.000
G1 X6.075 Y-7.490 Z-2.333 F138.000
G1 X5.868 Y-7.490 Z-2.333 F138.000
G1 X6.075 Y-7.490 Z-2.333 F138.000
G1 X7.490 Y-6.075 Z-2.333 F138.000
G1 X7.490 Y-6.075 Z-2.333 F138.000
G1 X7.490 Y-5.868 Z-2.333 F138.000
G1 X7.490 Y-6.075 Z-2.333 F138.000
G1 X8.904 Y-7.490 Z-2.333 F138.000
G1 X8.904 Y-7.490 Z-2.667 F60.000
G1 X10.318 Y-8.904 Z-2.667 F138.000
G1 X10.525 Y-8.904 Z-2.667 F138.000
G1 X10.318 Y-8.904 Z-2.667 F138.000
G1 X8.904 Y-10.318 Z-2.667 F138.000
G1 X8.904 Y-10.318 Z-2.667 F138.000
G1 X8.904 Y-10.525 Z-2.667 F138.000
G1 X8.904 Y-10.318 Z-2.667 F138.000
G1 X6.075 Y-7.490 Z-2.667 F138.000
G1 X6.075 Y-7.490 Z-2.667 F138.000
G1 X5.868 Y-7.490 Z-2.667 F138.000
G1 X6.075 Y-7.490 Z-2.667 F138.000
G1 X7.490 Y-6.075 Z-2.667 F138.000
G1 X7.490 Y-6.075 Z-2.667 F138.000
G1 X7.490 Y-5.868 Z-2.667 F138.000
G1 X7.490 Y-6.075 Z-2.667 F138.000
G1 X8.904 Y-7.490 Z-2.667 F138.000
G1 X8.904 Y-7.490 Z-3.000 F60.000
G1 X10.318 Y-8.904 Z-3.000 F138.000
G1 X10.525 Y-8.904 Z-3.000 F138.000
G1 X10.318 Y-8.904 Z-3.000 F138.000
G1 X8.904 Y-10.318 Z-3.000 F138.000
G1 X8.904 Y-10.318 Z-3.000 F138.000
G1 X8.904 Y-10.525 Z-3.000 F138.000
G1 X8.904 Y-10.318 Z-3.000 F138.000
G1 X6.075 Y-7.490 Z-3.000 F138.000
G1 X6.075 Y-7.490 Z-3.000 F138.000
G1 X5.868 Y-7.490 Z-3.000 F138.000
G1 X6.075 Y-7.490 Z-3.000 F138.000
G1 X7.490 Y-6.075 Z-3.000 F138.000
G1 X7.490 Y-6.075 Z-3.000 F138.000
G1 X7.490 Y-5.868 Z-3.000 F138.000
G1 X7.490 Y-6.075 Z-3.000 F138.000
G1 X8.904 Y-7.490 Z-3.000 F138.000
G0 Z2.000
G0 Z2.000
G0 X8.904 Y-16.682
G0 X8.904 Y-16.682 Z1.000
G1 X8.904 Y-16.682 Z-0.333 F60.000
G1 X10.318 Y-18.096 Z-0.333 F138.000
G1 X10.525 Y-18.096 Z-0.333 F138.000
G1 X10.318 Y-18.096 Z-0.333 F138.000
G1 X7.490 Y-20.925 Z-0.333 F138.000
G1 X7.490 Y-20.925 Z-0.333 F138.000
G1 X7.490 Y-21.132 Z-0.333 F138.000
G1 X7.490 Y-20.925 Z-0.333 F138.000
G1 X6.075 Y-19.510 Z-0.333 F138.000
G1 X6.075 Y-19.510 Z-0.333 F138.000
G1 X5.868 Y-19.510 Z-0.333 F138.000
G1 X6.075 Y-19.510 Z-0.333 F138.000
G1 X8.904 Y-16.682 Z-0.333 F138.000
G1 X8.904 Y-16.682 Z-0.333 F138.000
G1 X8.904 Y-16.475 Z-0.333 F138.000
G1 X8.904 Y-16.682 Z-0.333 F138.000
G1 X8.904 Y-16.682 Z-0.667 F60.000
G1 X10.318 Y-18.096 Z-0.667 F138.000
G1 X10.525 Y-18.096 Z-0.667 F138.000
G1 X10.318 Y-18.096 Z-0.667 F138.000
G1 X7.490 Y-20.925 Z-0.667 F138.000
G1 X7.490 Y-20.925 Z-0.667 F138.000
G1 X7.490 Y-21.132 Z-0.667 F138.000
G1 X7.490 Y-20.925 Z-0.667 F138.000
G1 X6.075 Y-19.510 Z-0.667 F138.000
G1 X6.075 Y-19.510 Z-0.667 F138.000
G1 X5.868 Y-19.510 Z-0.667 F138.000
G1 X6.075 Y-19.510 Z-0.667 F138.000
G1 X8.904 Y-16.682 Z-0.667 F138.000
G1 X8.904 Y-16.682 Z-0.667 F138.000
G1 X8.904 Y-16.475 Z-0.667 F138.000
G1 X8.904 Y-16.682 Z-0.667 F138.000
G1 X8.904 Y-16.682 Z-1.000 F60.000
G1 X10.318 Y-18.096 Z-1.000 F138.000
G1 X10.525 Y-18.096 Z-1.000 F138.000
G1 X10.318 Y-18.096 Z-1.000 F138.000
G1 X7.490 Y-20.925 Z-1.000 F138.000
G1 X7.490 Y-20.925 Z-1.000 F138.000
G1 X7.490 Y-21.132 Z-1.000 F138.000
G1 X7.490 Y-20.925 Z-1.000 F138.000
G1 X6.075 Y-19.510 Z-1.000 F138.000
G1 X6.075 Y-19.510 Z-1.000 F138.000
G1 X5.868 Y-19.510 Z-1.000 F138.000
G1 X6.075 Y-19.510 Z-1.000 F138.000
G1 X8.904 Y-16.682 Z-1.000 F138.000
G1 X8.904 Y-16.682 Z-1.000 F138.000
G1 X8.904 Y-16.475 Z-1.000 F138.000
G1 X8.904 Y-16.682 Z-1.000 F138.000
G1 X8.904 Y-16.682 Z-1.333 F60.000
G1 X10.318 Y-18.096 Z-1.333 F138.000
G1 X10.525 Y-18.096 Z-1.333 F138.000
G1 X10.318 Y-18.096 Z-1.333 F138.000
G1 X7.490 Y-20.925 Z-1.333 F138.000
G1 X7.490 Y-20.925 Z-1.333 F138.000
G1 X7.490 Y-21.132 Z-1.333 F138.000
G1 X7.490 Y-20.925 Z-1.333 F138.000
G1 X6.075 Y-19.510 Z-1.333 F138.000
G1 X6.075 Y-19.510 Z-1.333 F138.000
G1 X5.868 Y-19.510 Z-1.333 F138.000
G1 X6.075 Y-19.510 Z-1.333 F138.000
G1 X8.904 Y-16.682 Z-1.333 F138.000
G1 X8.904 Y-16.682 Z-1.333 F138.000
G1 X8.904 Y-16.475 Z-1.333 F138.000
G1 X8.904 Y-16.682 Z-1.333 F138.000
G1 X8.904 Y-16.682 Z-1.667 F60.000
G1 X10.318 Y-18.096 Z-1.667 F138.000
G1 X10.525 Y-18.096 Z-1.667 F138.000
G1 X10.318 Y-18.096 Z-1.667 F138.000
G1 X7.490 Y-20.925 Z-1.667 F138.000
G1 X7.490 Y-20.925 Z-1.667 F138.000
G1 X7.490 Y-21.132 Z-1.667 F138.000
G1 X7.490 Y-20.925 Z-1.667 F138.000
G1 X6.075 Y-19.510 Z-1.667 F138.000
G1 X6.075 Y-19.510 Z-1.667 F138.000
G1 X5.868 Y-19.510 Z-1.667 F138.000
G1 X6.075 Y-19.510 Z-1.667 F138.000
G1 X8.904 Y-16.682 Z-1.667 F138.000
G1 X8.904 Y-16.682 Z-1.667 F138.000
G1 X8.904 Y-16.475 Z-1.667 F138.000
G1 X8.904 Y-16.682 Z-1.667 F138.000
G1 X8.904 Y-16.682 Z-2.000 F60.000
G1 X10.318 Y-18.096 Z-2.000 F138.000
G1 X10.525 Y-18.096 Z-2.000 F138.000
G1 X10.318 Y-18.096 Z-2.000 F138.000
G1 X7.490 Y-20.925 Z-2.000 F138.000
G1 X7.490 Y-20.925 Z-2.000 F138.000
G1 X7.490 Y-21.132 Z-2.000 F138.000
G1 X7.490 Y-20.925 Z-2.000 F138.000
G1 X6.075 Y-19.510 Z-2.000 F138.000
G1 X6.075 Y-19.510 Z-2.000 F138.000
G1 X5.868 Y-19.510 Z-2.000 F138.000
G1 X6.075 Y-19.510 Z-2.000 F138.000
G1 X8.904 Y-16.682 Z-2.000 F138.000
G1 X8.904 Y-16.682 Z-2.000 F138.000
G1 X8.904 Y-16.475 Z-2.000 F138.000
G1 X8.904 Y-16.682 Z-2.000 F138.000
G1 X8.904 Y-16.682 Z-2.333 F60.000
G1 X10.318 Y-18.096 Z-2.333 F138.000
G1 X10.525 Y-18.096 Z-2.333 F138.000
G1 X10.318 Y-18.096 Z-2.333 F138.000
G1 X7.490 Y-20.925 Z-2.333 F138.000
G1 X7.490 Y-20.925 Z-2.333 F138.000
G1 X7.490 Y-21.132 Z-2.333 F138.000
G1 X7.490 Y-20.925 Z-2.333 F138.000
G1 X6.075 Y-19.510 Z-2.333 F138.000
G1 X6.075 Y-19.510 Z-2.333 F138.000
G1 X5.868 Y-19.510 Z-2.333 F138.000
G1 X6.075 Y-19.510 Z-2.333 F138.000
G1 X8.904 Y-16.682 Z-2.333 F138.000
G1 X8.904 Y-16.682 Z-2.333 F138.000
G1 X8.904 Y-16.475 Z-2.333 F138.000
G1 X8.904 Y-16.682 Z-2.333 F138.000
G1 X8.904 Y-16.682 Z-2.667 F60.000
G1 X10.318 Y-18.096 Z-2.667 F138.000
G1 X10.525 Y-18.096 Z-2.667 F138.000
G1 X10.318 Y-18.096 Z-2.667 F138.000
G1 X7.490 Y-20.925 Z-2.667 F138.000
G1 X7.490 Y-20.925 Z-2.667 F138.000
G1 X7.490 Y-21.132 Z-2.667 F138.000
G1 X7.490 Y-20.925 Z-2.667 F138.000
G1 X6.075 Y-19.510 Z-2.667 F138.000
G1 X6.075 Y-19.510 Z-2.667 F138.000
G1 X5.868 Y-19.510 Z-2.667 F138.000
G1 X6.075 Y-19.510 Z-2.667 F138.000
G1 X8.904 Y-16.682 Z-2.667 F138.000
G1 X8.904 Y-16.682 Z-2.667 F138.000
G1 X8.904 Y-16.475 Z-2.667 F138.000
G1 X8.904 Y-16.682 Z-2.667 F138.000
G1 X8.904 Y-16.682 Z-3.000 F60.000
G1 X10.318 Y-18.096 Z-3.000 F138.000
G1 X10.525 Y-18.096 Z-3.000 F138.000
G1 X10.318 Y-18.096 Z-3.000 F138.000
G1 X7.490 Y-20.925 Z-3.000 F138.000
G1 X7.490 Y-20.925 Z-3.000 F138.000
G1 X7.490 Y-21.132 Z-3.000 F138.000
G1 X7.490 Y-20.925 Z-3.000 F138.000
G1 X6.075 Y-19.510 Z-3.000 F138.000
G1 X6.075 Y-19.510 Z-3.000 F138.000
G1 X5.868 Y-19.510 Z-3.000 F138.000
G1 X6.075 Y-19.510 Z-3.000 F138.000
G1 X8.904 Y-16.682 Z-3.000 F138.000
G1 X8.904 Y-16.682 Z-3.000 F138.000
G1 X8.904 Y-16.475 Z-3.000 F138.000
G1 X8.904 Y-16.682 Z-3.000 F138.000
G0 Z2.000
G0 Z2.000
G0 X12.500 Y-26.500
G0 X12.500 Y-26.500 Z1.000
G1 X12.500 Y-26.500 Z-0.333 F60.000
G1 X14.500 Y-26.500 Z-0.333 F138.000
G1 X14.646 Y-26.354 Z-0.333 F138.000
G1 X14.500 Y-26.500 Z-0.333 F138.000
G1 X14.500 Y-50.500 Z-0.333 F138.000
G1 X14.500 Y-50.500 Z-0.333 F138.000
G1 X14.646 Y-50.646 Z-0.333 F138.000
G1 X14.500 Y-50.500 Z-0.333 F138.000
G1 X12.500 Y-50.500 Z-0.333 F138.000
G1 X12.500 Y-50.500 Z-0.333 F138.000
G1 X12.354 Y-50.646 Z-0.333 F138.000
G1 X12.500 Y-50.500 Z-0.333 F138.000
G1 X12.500 Y-26.500 Z-0.333 F138.000
G1 X12.500 Y-26.500 Z-0.333 F138.000
G1 X12.354 Y-26.354 Z-0.333 F138.000
G1 X12.500 Y-26.500 Z-0.333 F138.000
G1 X12.500 Y-26.500 Z-0.667 F60.000
G1 X14.500 Y-26.500 Z-0.667 F138.000
G1 X14.646 Y-26.354 Z-0.667 F138.000
G1 X14.500 Y-26.500 Z-0.667 F138.000
G1 X14.500 Y-50.500 Z-0.667 F138.000
G1 X14.500 Y-50.500 Z-0.667 F138.000
G1 X14.646 Y-50.646 Z-0.667 F138.000
G1 X14.500 Y-50.500 Z-0.667 F138.000
G1 X12.500 Y-50.500 Z-0.667 F138.000
G1 X12.500 Y-50.500 Z-0.667 F138.000
G1 X12.354 Y-50.646 Z-0.667 F138.000
G1 X12.500 Y-50.500 Z-0.667 F138.000
G1 X12.500 Y-26.500 Z-0.667 F138.000
G1 X12.500 Y-26.500 Z-0.667 F138.000
G1 X12.354 Y-26.354 Z-0.667 F138.000
G1 X12.500 Y-26.500 Z-0.667 F138.000
G1 X12.500 Y-26.500 Z-1.000 F60.000
G1 X14.500 Y-26.500 Z-1.000 F138.000
G1 X14.646 Y-26.354 Z-1.000 F138.000
G1 X14.500 Y-26.500 Z-1.000 F138.000
G1 X14.500 Y-50.500 Z-1.000 F138.000
G1 X14.500 Y-50.500 Z-1.000 F138.000
G1 X14.646 Y-50.646 Z-1.000 F138.000
G1 X14.500 Y-50.500 Z-1.000 F138.000
G1 X12.500 Y-50.500 Z-1.000 F138.000
G1 X12.500 Y-50.500 Z-1.000 F138.000
G1 X12.354 Y-50.646 Z-1.000 F138.000
G1 X12.500 Y-50.500 Z-1.000 F138.000
G1 X12.500 Y-26.500 Z-1.000 F138.000
G1 X12.500 Y-26.500 Z-1.000 F138.000
G1 X12.354 Y-26.354 Z-1.000 F138.000
G1 X12.500 Y-26.500 Z-1.000 F138.000
G1 X12.500 Y-26.500 Z-1.333 F60.000
G1 X14.500 Y-26.500 Z-1.333 F138.000
G1 X14.646 Y-26.354 Z-1.333 F138.000
G1 X14.500 Y-26.500 Z-1.333 F138.000
G1 X14.500 Y-50.500 Z-1.333 F138.000
G1 X14.500 Y-50.500 Z-1.333 F138.000
G1 X14.646 Y-50.646 Z-1.333 F138.000
G1 X14.500 Y-50.500 Z-1.333 F138.000
G1 X12.500 Y-50.500 Z-1.333 F138.000
G1 X12.500 Y-50.500 Z-1.333 F138.000
G1 X12.354 Y-50.646 Z-1.333 F138.000
G1 X12.500 Y-50.500 Z-1.333 F138.000
G1 X12.500 Y-26.500 Z-1.333 F138.000
G1 X12.500 Y-26.500 Z-1.333 F138.000
G1 X12.354 Y-26.354 Z-1.333 F138.000
G1 X12.500 Y-26.500 Z-1.333 F138.000
G1 X12.500 Y-26.500 Z-1.667 F60.000
G1 X14.500 Y-26.500 Z-1.667 F138.000
G1 X14.646 Y-26.354 Z-1.667 F138.000
G1 X14.500 Y-26.500 Z-1.667 F138.000
G1 X14.500 Y-50.500 Z-1.667 F138.000
G1 X14.500 Y-50.500 Z-1.667 F138.000
G1 X14.646 Y-50.646 Z-1.667 F138.000
G1 X14.500 Y-50.500 Z-1.667 F138.000
G1 X12.500 Y-50.500 Z-1.667 F138.000
G1 X12.500 Y-50.500 Z-1.667 F138.000
G1 X12.354 Y-50.646 Z-1.667 F138.000
G1 X12.500 Y-50.500 Z-1.667 F138.000
G1 X12.500 Y-26.500 Z-1.667 F138.000
G1 X12.500 Y-26.500 Z-1.667 F138.000
G1 X12.354 Y-26.354 Z-1.667 F138.000
G1 X12.500 Y-26.500 Z-1.667 F138.000
G1 X12.500 Y-26.500 Z-2.000 F60.000
G1 X14.500 Y-26.500 Z-2.000 F138.000
G1 X14.646 Y-26.354 Z-2.000 F138.000
G1 X14.500 Y-26.500 Z-2.000 F138.000
G1 X14.500 Y-50.500 Z-2.000 F138.000
G1 X14.500 Y-50.500 Z-2.000 F138.000
G1 X14.646 Y-50.646 Z-2.000 F138.000
G1 X14.500 Y-50.500 Z-2.000 F138.000
G1 X12.500 Y-50.500 Z-2.000 F138.000
G1 X12.500 Y-50.500 Z-2.000 F138.000
G1 X12.354 Y-50.646 Z-2.000 F138.000
G1 X12.500 Y-50.500 Z-2.000 F138.000
G1 X12.500 Y-26.500 Z-2.000 F138.000
G1 X12.500 Y-26.500 Z-2.000 F138.000
G1 X12.354 Y-26.354 Z-2.000 F138.000
G1 X12.500 Y-26.500 Z-2.000 F138.000
G1 X12.500 Y-26.500 Z-2.333 F60.000
G1 X14.500 Y-26.500 Z-2.333 F138.000
G1 X14.646 Y-26.354 Z-2.333 F138.000
G1 X14.500 Y-26.500 Z-2.333 F138.000
G1 X14.500 Y-50.500 Z-2.333 F138.000
G1 X14.500 Y-50.500 Z-2.333 F138.000
G1 X14.646 Y-50.646 Z-2.333 F138.000
G1 X14.500 Y-50.500 Z-2.333 F138.000
G1 X12.500 Y-50.500 Z-2.333 F138.000
G1 X12.500 Y-50.500 Z-2.333 F138.000
G1 X12.354 Y-50.646 Z-2.333 F138.000
G1 X12.500 Y-50.500 Z-2.333 F138.000
G1 X12.500 Y-26.500 Z-2.333 F138.000
G1 X12.500 Y-26.500 Z-2.333 F138.000
G1 X12.354 Y-26.354 Z-2.333 F138.000
G1 X12.500 Y-26.500 Z-2.333 F138.000
G1 X12.500 Y-26.500 Z-2.667 F60.000
G1 X14.500 Y-26.500 Z-2.667 F138.000
G1 X14.646 Y-26.354 Z-2.667 F138.000
G1 X14.500 Y-26.500 Z-2.667 F138.000
G1 X14.500 Y-50.500 Z-2.667 F138.000
G1 X14.500 Y-50.500 Z-2.667 F138.000
G1 X14.646 Y-50.646 Z-2.667 F138.000
G1 X14.500 Y-50.500 Z-2.667 F138.000
G1 X12.500 Y-50.500 Z-2.667 F138.000
G1 X12.500 Y-50.500 Z-2.667 F138.000
G1 X12.354 Y-50.646 Z-2.667 F138.000
G1 X12.500 Y-50.500 Z-2.667 F138.000
G1 X12.500 Y-26.500 Z-2.667 F138.000
G1 X12.500 Y-26.500 Z-2.667 F138.000
G1 X12.354 Y-26.354 Z-2.667 F138.000
G1 X12.500 Y-26.500 Z-2.667 F138.000
G1 X12.500 Y-26.500 Z-3.000 F60.000
G1 X14.500 Y-26.500 Z-3.000 F138.000
G1 X14.646 Y-26.354 Z-3.000 F138.000
G1 X14.500 Y-26.500 Z-3.000 F138.000
G1 X14.500 Y-50.500 Z-3.000 F138.000
G1 X14.500 Y-50.500 Z-3.000 F138.000
G1 X14.646 Y-50.646 Z-3.000 F138.000
G1 X14.500 Y-50.500 Z-3.000 F138.000
G1 X12.500 Y-50.500 Z-3.000 F138.000
G1 X12.500 Y-50.500 Z-3.000 F138.000
G1 X12.354 Y-50.646 Z-3.000 F138.000
G1 X12.500 Y-50.500 Z-3.000 F138.000
G1 X12.500 Y-26.500 Z-3.000 F138.000
G1 X12.500 Y-26.500 Z-3.000 F138.000
G1 X12.354 Y-26.354 Z-3.000 F138.000
G1 X12.500 Y-26.500 Z-3.000 F138.000
G0 Z2.000
G0 Z2.000
G0 X18.793 Y-20.207
G0 X18.793 Y-20.207 Z1.000
G1 X18.793 Y-20.207 Z-0.333 F60.000
G1 X16.682 Y-18.096 Z-0.333 F138.000
G1 X16.475 Y-18.096 Z-0.333 F138.000
G1 X16.682 Y-18.096 Z-0.333 F138.000
G1 X18.096 Y-16.682 Z-0.333 F138.000
G1 X18.096 Y-16.682 Z-0.333 F138.000
G1 X18.096 Y-16.475 Z-0.333 F138.000
G1 X18.096 Y-16.682 Z-0.333 F138.000
G1 X20.925 Y-19.510 Z-0.333 F138.000
G1 X20.925 Y-19.510 Z-0.333 F138.000
G1 X21.132 Y-19.510 Z-0.333 F138.000
G1 X20.925 Y-19.510 Z-0.333 F138.000
G1 X19.510 Y-20.925 Z-0.333 F138.000
G1 X19.510 Y-20.925 Z-0.333 F138.000
G1 X19.510 Y-21.132 Z-0.333 F138.000
G1 X19.510 Y-20.925 Z-0.333 F138.000
G1 X18.793 Y-20.207 Z-0.333 F138.000
G1 X18.793 Y-20.207 Z-0.333 F138.000
G1 X18.793 Y-20.207 Z-0.667 F60.000
G1 X16.682 Y-18.096 Z-0.667 F138.000
G1 X16.475 Y-18.096 Z-0.667 F138.000
G1 X16.682 Y-18.096 Z-0.667 F138.000
G1 X18.096 Y-16.682 Z-0.667 F138.000
G1 X18.096 Y-16.682 Z-0.667 F138.000
G1 X18.096 Y-16.475 Z-0.667 F138.000
G1 X18.096 Y-16.682 Z-0.667 F138.000
G1 X20.925 Y-19.510 Z-0.667 F138.000
G1 X20.925 Y-19.510 Z-0.667 F138.000
G1 X21.132 Y-19.510 Z-0.667 F138.000
G1 X20.925 Y-19.510 Z-0.667 F138.000
G1 X19.510 Y-20.925 Z-0.667 F138.000
G1 X19.510 Y-20.925 Z-0.667 F138.000
G1 X19.510 Y-21.132 Z-0.667 F138.000
G1 X19.510 Y-20.925 Z-0.667 F138.000
G1 X18.793 Y-20.207 Z-0.667 F138.000
G1 X18.793 Y-20.207 Z-0.667 F138.000
G1 X18.793 Y-20.207 Z-1.000 F60.000
G1 X16.682 Y-18.096 Z-1.000 F138.000
G1 X16.475 Y-18.096 Z-1.000 F138.000
G1 X16.682 Y-18.096 Z-1.000 F138.000
G1 X18.096 Y-16.682 Z-1.000 F138.000
G1 X18.096 Y-16.682 Z-1.000 F138.000
G1 X18.096 Y-16.475 Z-1.000 F138.000
G1 X18.096 Y-16.682 Z-1.000 F138.000
G1 X20.925 Y-19.510 Z-1.000 F138.000
G1 X20.925 Y-19.510 Z-1.000 F138.000
G1 X21.132 Y-19.510 Z-1.000 F138.000
G1 X20.925 Y-19.510 Z-1.000 F138.000
G1 X19.510 Y-20.925 Z-1.000 F138.000
G1 X19.510 Y-20.925 Z-1.000 F138.000
G1 X19.510 Y-21.132 Z-1.000 F138.000
G1 X19.510 Y-20.925 Z-1.000 F138.000
G1 X18.793 Y-20.207 Z-1.000 F138.000
G1 X18.793 Y-20.207 Z-1.000 F138.000
G1 X18.793 Y-20.207 Z-1.333 F60.000
G1 X16.682 Y-18.096 Z-1.333 F138.000
G1 X16.475 Y-18.096 Z-1.333 F138.000
G1 X16.682 Y-18.096 Z-1.333 F138.000
G1 X18.096 Y-16.682 Z-1.333 F138.000
G1 X18.096 Y-16.682 Z-1.333 F138.000
G1 X18.096 Y-16.475 Z-1.333 F138.000
G1 X18.096 Y-16.682 Z-1.333 F138.000
G1 X20.925 Y-19.510 Z-1.333 F138.000
G1 X20.925 Y-19.510 Z-1.333 F138.000
G1 X21.132 Y-19.510 Z-1.333 F138.000
G1 X20.925 Y-19.510 Z-1.333 F138.000
G1 X19.510 Y-20.925 Z-1.333 F138.000
G1 X19.510 Y-20.925 Z-1.333 F138.000
G1 X19.510 Y-21.132 Z-1.333 F138.000
G1 X19.510 Y-20.925 Z-1.333 F138.000
G1 X18.793 Y-20.207 Z-1.333 F138.000
G1 X18.793 Y-20.207 Z-1.333 F138.000
G1 X18.793 Y-20.207 Z-1.667 F60.000
G1 X16.682 Y-18.096 Z-1.667 F138.000
G1 X16.475 Y-18.096 Z-1.667 F138.000
G1 X16.682 Y-18.096 Z-1.667 F138.000
G1 X18.096 Y-16.682 Z-1.667 F138.000
G1 X18.096 Y-16.682 Z-1.667 F138.000
G1 X18.096 Y-16.475 Z-1.667 F138.000
G1 X18.096 Y-16.682 Z-1.667 F138.000
G1 X20.925 Y-19.510 Z-1.667 F138.000
G1 X20.925 Y-19.510 Z-1.667 F138.000
G1 X21.132 Y-19.510 Z-1.667 F138.000
G1 X20.925 Y-19.510 Z-1.667 F138.000
G1 X19.510 Y-20.925 Z-1.667 F138.000
G1 X19.510 Y-20.925 Z-1.667 F138.000
G1 X19.510 Y-21.132 Z-1.667 F138.000
G1 X19.510 Y-20.925 Z-1.667 F138.000
G1 X18.793 Y-20.207 Z-1.667 F138.000
G1 X18.793 Y-20.207 Z-1.667 F138.000
G1 X18.793 Y-20.207 Z-2.000 F60.000
G1 X16.682 Y-18.096 Z-2.000 F138.000
G1 X16.475 Y-18.096 Z-2.000 F138.000
G1 X16.682 Y-18.096 Z-2.000 F138.000
G1 X18.096 Y-16.682 Z-2.000 F138.000
G1 X18.096 Y-16.682 Z-2.000 F138.000
G1 X18.096 Y-16.475 Z-2.000 F138.000
G1 X18.096 Y-16.682 Z-2.000 F138.000
G1 X20.925 Y-19.510 Z-2.000 F138.000
G1 X20.925 Y-19.510 Z-2.000 F138.000
G1 X21.132 Y-19.510 Z-2.000 F138.000
G1 X20.925 Y-19.510 Z-2.000 F138.000
G1 X19.510 Y-20.925 Z-2.000 F138.000
G1 X19.510 Y-20.925 Z-2.000 F138.000
G1 X19.510 Y-21.132 Z-2.000 F138.000
G1 X19.510 Y-20.925 Z-2.000 F138.000
G1 X18.793 Y-20.207 Z-2.000 F138.000
G1 X18.793 Y-20.207 Z-2.000 F138.000
G1 X18.793 Y-20.207 Z-2.333 F60.000
G1 X16.682 Y-18.096 Z-2.333 F138.000
G1 X16.475 Y-18.096 Z-2.333 F138.000
G1 X16.682 Y-18.096 Z-2.333 F138.000
G1 X18.096 Y-16.682 Z-2.333 F138.000
G1 X18.096 Y-16.682 Z-2.333 F138.000
G1 X18.096 Y-16.475 Z-2.333 F138.000
G1 X18.096 Y-16.682 Z-2.333 F138.000
G1 X20.925 Y-19.510 Z-2.333 F138.000
G1 X20.925 Y-19.510 Z-2.333 F138.000
G1 X21.132 Y-19.510 Z-2.333 F138.000
G1 X20.925 Y-19.510 Z-2.333 F138.000
G1 X19.510 Y-20.925 Z-2.333 F138.000
G1 X19.510 Y-20.925 Z-2.333 F138.000
G1 X19.510 Y-21.132 Z-2.333 F138.000
G1 X19.510 Y-20.925 Z-2.333 F138.000
G1 X18.793 Y-20.207 Z-2.333 F138.000
G1 X18.793 Y-20.207 Z-2.333 F138.000
G1 X18.793 Y-20.207 Z-2.667 F60.000
G1 X16.682 Y-18.096 Z-2.667 F138.000
G1 X16.475 Y-18.096 Z-2.667 F138.000
G1 X16.682 Y-18.096 Z-2.667 F138.000
G1 X18.096 Y-16.682 Z-2.667 F138.000
G1 X18.096 Y-16.682 Z-2.667 F138.000
G1 X18.096 Y-16.475 Z-2.667 F138.000
G1 X18.096 Y-16.682 Z-2.667 F138.000
G1 X20.925 Y-19.510 Z-2.667 F138.000
G1 X20.925 Y-19.510 Z-2.667 F138.000
G1 X21.132 Y-19.510 Z-2.667 F138.000
G1 X20.925 Y-19.510 Z-2.667 F138.000
G1 X19.510 Y-20.925 Z-2.667 F138.000
G1 X19.510 Y-20.925 Z-2.667 F138.000
G1 X19.510 Y-21.132 Z-2.667 F138.000
G1 X19.510 Y-20.925 Z-2.667 F138.000
G1 X18.793 Y-20.207 Z-2.667 F138.000
G1 X18.793 Y-20.207 Z-2.667 F138.000
G1 X18.793 Y-20.207 Z-3.000 F60.000
G1 X16.682 Y-18.096 Z-3.000 F138.000
G1 X16.475 Y-18.096 Z-3.000 F138.000
G1 X16.682 Y-18.096 Z-3.000 F138.000
G1 X18.096 Y-16.682 Z-3.000 F138.000
G1 X18.096 Y-16.682 Z-3.000 F138.000
G1 X18.096 Y-16.475 Z-3.000 F138.000
G1 X18.096 Y-16.682 Z-3.000 F138.000
G1 X20.925 Y-19.510 Z-3.000 F138.000
G1 X20.925 Y-19.510 Z-3.000 F138.000
G1 X21.132 Y-19.510 Z-3.000 F138.000
G1 X20.925 Y-19.510 Z-3.000 F138.000
G1 X19.510 Y-20.925 Z-3.000 F138.000
G1 X19.510 Y-20.925 Z-3.000 F138.000
G1 X19.510 Y-21.132 Z-3.000 F138.000
G1 X19.510 Y-20.925 Z-3.000 F138.000
G1 X18.793 Y-20.207 Z-3.000 F138.000
G1 X18.793 Y-20.207 Z-3.000 F138.000
G0 Z2.000
G0 Z2.000
G0 X18.096 Y-10.318
G0 X18.096 Y-10.318 Z1.000
G1 X18.096 Y-10.318 Z-0.333 F60.000
G1 X16.682 Y-8.904 Z-0.333 F138.000
G1 X16.475 Y-8.904 Z-0.333 F138.000
G1 X16.682 Y-8.904 Z-0.333 F138.000
G1 X19.510 Y-6.075 Z-0.333 F138.000
G1 X19.510 Y-6.075 Z-0.333 F138.000
G1 X19.510 Y-5.868 Z-0.333 F138.000
G1 X19.510 Y-6.075 Z-0.333 F138.000
G1 X20.925 Y-7.490 Z-0.333 F138.000
G1 X20.925 Y-7.490 Z-0.333 F138.000
G1 X21.132 Y-7.490 Z-0.333 F138.000
G1 X20.925 Y-7.490 Z-0.333 F138.000
G1 X18.096 Y-10.318 Z-0.333 F138.000
G1 X18.096 Y-10.318 Z-0.333 F138.000
G1 X18.096 Y-10.525 Z-0.333 F138.000
G1 X18.096 Y-10.318 Z-0.333 F138.000
G1 X18.096 Y-10.318 Z-0.667 F60.000
G1 X16.682 Y-8.904 Z-0.667 F138.000
G1 X16.475 Y-8.904 Z-0.667 F138.000
G1 X16.682 Y-8.904 Z-0.667 F138.000
G1 X19.510 Y-6.075 Z-0.667 F138.000
G1 X19.510 Y-6.075 Z-0.667 F138.000
G1 X19.510 Y-5.868 Z-0.667 F138.000
G1 X19.510 Y-6.075 Z-0.667 F138.000
G1 X20.925 Y-7.490 Z-0.667 F138.000
G1 X20.925 Y-7.490 Z-0.667 F138.000
G1 X21.132 Y-7.490 Z-0.667 F138.000
G1 X20.925 Y-7.490 Z-0.667 F138.000
G1 X18.096 Y-10.318 Z-0.667 F138.000
G1 X18.096 Y-10.318 Z-0.667 F138.000
G1 X18.096 Y-10.525 Z-0.667 F138.000
G1 X18.096 Y-10.318 Z-0.667 F138.000
G1 X18.096 Y-10.318 Z-1.000 F60.000
G1 X16.682 Y-8.904 Z-1.000 F138.000
G1 X16.475 Y-8.904 Z-1.000 F138.000
G1 X16.682 Y-8.904 Z-1.000 F138.000
G1 X19.510 Y-6.075 Z-1.000 F138.000
G1 X19.510 Y-6.075 Z-1.000 F138.000
G1 X19.510 Y-5.868 Z-1.000 F138.000
G1 X19.510 Y-6.075 Z-1.000 F138.000
G1 X20.925 Y-7.490 Z-1.000 F138.000
G1 X20.925 Y-7.490 Z-1.000 F138.000
G1 X21.132 Y-7.490 Z-1.000 F138.000
G1 X20.925 Y-7.490 Z-1.000 F138.000
G1 X18.096 Y-10.318 Z-1.000 F138.000
G1 X18.096 Y-10.318 Z-1.000 F138.000
G1 X18.096 Y-10.525 Z-1.000 F138.000
G1 X18.096 Y-10.318 Z-1.000 F138.000
G1 X18.096 Y-10.318 Z-1.333 F60.000
G1 X16.682 Y-8.904 Z-1.333 F138.000
G1 X16.475 Y-8.904 Z-1.333 F138.000
G1 X16.682 Y-8.904 Z-1.333 F138.000
G1 X19.510 Y-6.075 Z-1.333 F138.000
G1 X19.510 Y-6.075 Z-1.333 F138.000
G1 X19.510 Y-5.868 Z-1.333 F138.000
G1 X19.510 Y-6.075 Z-1.333 F138.000
G1 X20.925 Y-7.490 Z-1.333 F138.000
G1 X20.925 Y-7.490 Z-1.333 F138.000
G1 X21.132 Y-7.490 Z-1.333 F138.000
G1 X20.925 Y-7.490 Z-1.333 F138.000
G1 X18.096 Y-10.318 Z-1.333 F138.000
G1 X18.096 Y-10.318 Z-1.333 F138.000
G1 X18.096 Y-10.525 Z-1.333 F138.000
G1 X18.096 Y-10.318 Z-1.333 F138.000
G1 X18.096 Y-10.318 Z-1.667 F60.000
G1 X16.682 Y-8.904 Z-1.667 F138.000
G1 X16.475 Y-8.904 Z-1.667 F138.000
G1 X16.682 Y-8.904 Z-1.667 F138.000
G1 X19.510 Y-6.075 Z-1.667 F138.000
G1 X19.510 Y-6.075 Z-1.667 F138.000
G1 X19.510 Y-5.868 Z-1.667 F138.000
G1 X19.510 Y-6.075 Z-1.667 F138.000
G1 X20.925 Y-7.490 Z-1.667 F138.000
G1 X20.925 Y-7.490 Z-1.667 F138.000
G1 X21.132 Y-7.490 Z-1.667 F138.000
G1 X20.925 Y-7.490 Z-1.667 F138.000
G1 X18.096 Y-10.318 Z-1.667 F138.000
G1 X18.096 Y-10.318 Z-1.667 F138.000
G1 X18.096 Y-10.525 Z-1.667 F138.000
G1 X18.096 Y-10.318 Z-1.667 F138.000
G1 X18.096 Y-10.318 Z-2.000 F60.000
G1 X16.682 Y-8.904 Z-2.000 F138.000
G1 X16.475 Y-8.904 Z-2.000 F138.000
G1 X16.682 Y-8.904 Z-2.000 F138.000
G1 X19.510 Y-6.075 Z-2.000 F138.000
G1 X19.510 Y-6.075 Z-2.000 F138.000
G1 X19.510 Y-5.868 Z-2.000 F138.000
G1 X19.510 Y-6.075 Z-2.000 F138.000
G1 X20.925 Y-7.490 Z-2.000 F138.000
G1 X20.925 Y-7.490 Z-2.000 F138.000
G1 X21.132 Y-7.490 Z-2.000 F138.000
G1 X20.925 Y-7.490 Z-2.000 F138.000
G1 X18.096 Y-10.318 Z-2.000 F138.000
G1 X18.096 Y-10.318 Z-2.000 F138.000
G1 X18.096 Y-10.525 Z-2.000 F138.000
G1 X18.096 Y-10.318 Z-2.000 F138.000
G1 X18.096 Y-10.318 Z-2.333 F60.000
G1 X16.682 Y-8.904 Z-2.333 F138.000
G1 X16.475 Y-8.904 Z-2.333 F138.000
G1 X16.682 Y-8.904 Z-2.333 F138.000
G1 X19.510 Y-6.075 Z-2.333 F138.000
G1 X19.510 Y-6.075 Z-2.333 F138.000
G1 X19.510 Y-5.868 Z-2.333 F138.000
G1 X19.510 Y-6.075 Z-2.333 F138.000
G1 X20.925 Y-7.490 Z-2.333 F138.000
G1 X20.925 Y-7.490 Z-2.333 F138.000
G1 X21.132 Y-7.490 Z-2.333 F138.000
G1 X20.925 Y-7.490 Z-2.333 F138.000
G1 X18.096 Y-10.318 Z-2.333 F138.000
G1 X18.096 Y-10.318 Z-2.333 F138.000
G1 X18.096 Y-10.525 Z-2.333 F138.000
G1 X18.096 Y-10.318 Z-2.333 F138.000
G1 X18.096 Y-10.318 Z-2.667 F60.000
G1 X16.682 Y-8.904 Z-2.667 F138.000
G1 X16.475 Y-8.904 Z-2.667 F138.000
G1 X16.682 Y-8.904 Z-2.667 F138.000
G1 X19.510 Y-6.075 Z-2.667 F138.000
G1 X19.510 Y-6.075 Z-2.667 F138.000
G1 X19.510 Y-5.868 Z-2.667 F138.000
G1 X19.510 Y-6.075 Z-2.667 F138.000
G1 X20.925 Y-7.490 Z-2.667 F138.000
G1 X20.925 Y-7.490 Z-2.667 F138.000
G1 X21.132 Y-7.490 Z-2.667 F138.000
G1 X20.925 Y-7.490 Z-2.667 F138.000
G1 X18.096 Y-10.318 Z-2.667 F138.000
G1 X18.096 Y-10.318 Z-2.667 F138.000
G1 X18.096 Y-10.525 Z-2.667 F138.000
G1 X18.096 Y-10.318 Z-2.667 F138.000
G1 X18.096 Y-10.318 Z-3.000 F60.000
G1 X16.682 Y-8.904 Z-3.000 F138.000
G1 X16.475 Y-8.904 Z-3.000 F138.000
G1 X16.682 Y-8.904 Z-3.000 F138.000
G1 X19.510 Y-6.075 Z-3.000 F138.000
G1 X19.510 Y-6.075 Z-3.000 F138.000
G1 X19.510 Y-5.868 Z-3.000 F138.000
G1 X19.510 Y-6.075 Z-3.000 F138.000
G1 X20.925 Y-7.490 Z-3.000 F138.000
G1 X20.925 Y-7.490 Z-3.000 F138.000
G1 X21.132 Y-7.490 Z-3.000 F138.000
G1 X20.925 Y-7.490 Z-3.000 F138.000
G1 X18.096 Y-10.318 Z-3.000 F138.000
G1 X18.096 Y-10.318 Z-3.000 F138.000
G1 X18.096 Y-10.525 Z-3.000 F138.000
G1 X18.096 Y-10.318 Z-3.000 F138.000
G0 Z2.000
G0 Z2.000
G0 X19.510 Y-56.075
G0 X19.510 Y-56.075 Z1.000
G1 X19.510 Y-56.075 Z-0.333 F60.000
G1 X20.925 Y-57.490 Z-0.333 F138.000
G1 X21.132 Y-57.490 Z-0.333 F138.000
G1 X20.925 Y-57.490 Z-0.333 F138.000
G1 X18.096 Y-60.318 Z-0.333 F138.000
G1 X18.096 Y-60.318 Z-0.333 F138.000
G1 X18.096 Y-60.525 Z-0.333 F138.000
G1 X18.096 Y-60.318 Z-0.333 F138.000
G1 X16.682 Y-58.904 Z-0.333 F138.000
G1 X16.682 Y-58.904 Z-0.333 F138.000
G1 X16.475 Y-58.904 Z-0.333 F138.000
G1 X16.682 Y-58.904 Z-0.333 F138.000
G1 X19.510 Y-56.075 Z-0.333 F138.000
G1 X19.510 Y-56.075 Z-0.333 F138.000
G1 X19.510 Y-55.868 Z-0.333 F138.000
G1 X19.510 Y-56.075 Z-0.333 F138.000
G1 X19.510 Y-56.075 Z-0.667 F60.000
G1 X20.925 Y-57.490 Z-0.667 F138.000
G1 X21.132 Y-57.490 Z-0.667 F138.000
G1 X20.925 Y-57.490 Z-0.667 F138.000
G1 X18.096 Y-60.318 Z-0.667 F138.000
G1 X18.096 Y-60.318 Z-0.667 F138.000
G1 X18.096 Y-60.525 Z-0.667 F138.000
G1 X18.096 Y-60.318 Z-0.667 F138.000
G1 X16.682 Y-58.904 Z-0.667 F138.000
G1 X16.682 Y-58.904 Z-0.667 F138.000
G1 X16.475 Y-58.904 Z-0.667 F138.000
G1 X16.682 Y-58.904 Z-0.667 F138.000
G1 X19.510 Y-56.075 Z-0.667 F138.000
G1 X19.510 Y-56.075 Z-0.667 F138.000
G1 X19.510 Y-55.868 Z-0.667 F138.000
G1 X19.510 Y-56.075 Z-0.667 F138.000
G1 X19.510 Y-56.075 Z-1.000 F60.000
G1 X20.925 Y-57.490 Z-1.000 F138.000
G1 X21.132 Y-57.490 Z-1.000 F138.000
G1 X20.925 Y-57.490 Z-1.000 F138.000
G1 X18.096 Y-60.318 Z-1.000 F138.000
G1 X18.096 Y-60.318 Z-1.000 F138.000
G1 X18.096 Y-60.525 Z-1.000 F138.000
G1 X18.096 Y-60.318 Z-1.000 F138.000
G1 X16.682 Y-58.904 Z-1.000 F138.000
G1 X16.682 Y-58.904 Z-1.000 F138.000
G1 X16.475 Y-58.904 Z-1.000 F138.000
G1 X16.682 Y-58.904 Z-1.000 F138.000
G1 X19.510 Y-56.075 Z-1.000 F138.000
G1 X19.510 Y-56.075 Z-1.000 F138.000
G1 X19.510 Y-55.868 Z-1.000 F138.000
G1 X19.510 Y-56.075 Z-1.000 F138.000
G1 X19.510 Y-56.075 Z-1.333 F60.000
G1 X20.925 Y-57.490 Z-1.333 F138.000
G1 X21.132 Y-57.490 Z-1.333 F138.000
G1 X20.925 Y-57.490 Z-1.333 F138.000
G1 X18.096 Y-60.318 Z-1.333 F138.000
G1 X18.096 Y-60.318 Z-1.333 F138.000
G1 X18.096 Y-60.525 Z-1.333 F138.000
G1 X18.096 Y-60.318 Z-1.333 F138.000
G1 X16.682 Y-58.904 Z-1.333 F138.000
G1 X16.682 Y-58.904 Z-1.333 F138.000
G1 X16.475 Y-58.904 Z-1.333 F138.000
G1 X16.682 Y-58.904 Z-1.333 F138.000
G1 X19.510 Y-56.075 Z-1.333 F138.000
G1 X19.510 Y-56.075 Z-1.333 F138.000
G1 X19.510 Y-55.868 Z-1.333 F138.000
G1 X19.510 Y-56.075 Z-1.333 F138.000
G1 X19.510 Y-56.075 Z-1.667 F60.000
G1 X20.925 Y-57.490 Z-1.667 F138.000
G1 X21.132 Y-57.490 Z-1.667 F138.000
G1 X20.925 Y-57.490 Z-1.667 F138.000
G1 X18.096 Y-60.318 Z-1.667 F138.000
G1 X18.096 Y-60.318 Z-1.667 F138.000
G1 X18.096 Y-60.525 Z-1.667 F138.000
G1 X18.096 Y-60.318 Z-1.667 F138.000
G1 X16.682 Y-58.904 Z-1.667 F138.000
G1 X16.682 Y-58.904 Z-1.667 F138.000
G1 X16.475 Y-58.904 Z-1.667 F138.000
G1 X16.682 Y-58.904 Z-1.667 F138.000
G1 X19.510 Y-56.075 Z-1.667 F138.000
G1 X19.510 Y-56.075 Z-1.667 F138.000
G1 X19.510 Y-55.868 Z-1.667 F138.000
G1 X19.510 Y-56.075 Z-1.667 F138.000
G1 X19.510 Y-56.075 Z-2.000 F60.000
G1 X20.925 Y-57.490 Z-2.000 F138.000
G1 X21.132 Y-57.490 Z-2.000 F138.000
G1 X20.925 Y-57.490 Z-2.000 F138.000
G1 X18.096 Y-60.318 Z-2.000 F138.000
G1 X18.096 Y-60.318 Z-2.000 F138.000
G1 X18.096 Y-60.525 Z-2.000 F138.000
G1 X18.096 Y-60.318 Z-2.000 F138.000
G1 X16.682 Y-58.904 Z-2.000 F138.000
G1 X16.682 Y-58.904 Z-2.000 F138.000
G1 X16.475 Y-58.904 Z-2.000 F138.000
G1 X16.682 Y-58.904 Z-2.000 F138.000
G1 X19.510 Y-56.075 Z-2.000 F138.000
G1 X19.510 Y-56.075 Z-2.000 F138.000
G1 X19.510 Y-55.868 Z-2.000 F138.000
G1 X19.510 Y-56.075 Z-2.000 F138.000
G1 X19.510 Y-56.075 Z-2.333 F60.000
G1 X20.925 Y-57.490 Z-2.333 F138.000
G1 X21.132 Y-57.490 Z-2.333 F138.000
G1 X20.925 Y-57.490 Z-2.333 F138.000
G1 X18.096 Y-60.318 Z-2.333 F138.000
G1 X18.096 Y-60.318 Z-2.333 F138.000
G1 X18.096 Y-60.525 Z-2.333 F138.000
G1 X18.096 Y-60.318 Z-2.333 F138.000
G1 X16.682 Y-58.904 Z-2.333 F138.000
G1 X16.682 Y-58.904 Z-2.333 F138.000
G1 X16.475 Y-58.904 Z-2.333 F138.000
G1 X16.682 Y-58.904 Z-2.333 F138.000
G1 X19.510 Y-56.075 Z-2.333 F138.000
G1 X19.510 Y-56.075 Z-2.333 F138.000
G1 X19.510 Y-55.868 Z-2.333 F138.000
G1 X19.510 Y-56.075 Z-2.333 F138.000
G1 X19.510 Y-56.075 Z-2.667 F60.000
G1 X20.925 Y-57.490 Z-2.667 F138.000
G1 X21.132 Y-57.490 Z-2.667 F138.000
G1 X20.925 Y-57.490 Z-2.667 F138.000
G1 X18.096 Y-60.318 Z-2.667 F138.000
G1 X18.096 Y-60.318 Z-2.667 F138.000
G1 X18.096 Y-60.525 Z-2.667 F138.000
G1 X18.096 Y-60.318 Z-2.667 F138.000
G1 X16.682 Y-58.904 Z-2.667 F138.000
G1 X16.682 Y-58.904 Z-2.667 F138.000
G1 X16.475 Y-58.904 Z-2.667 F138.000
G1 X16.682 Y-58.904 Z-2.667 F138.000
G1 X19.510 Y-56.075 Z-2.667 F138.000
G1 X19.510 Y-56.075 Z-2.667 F138.000
G1 X19.510 Y-55.868 Z-2.667 F138.000
G1 X19.510 Y-56.075 Z-2.667 F138.000
G1 X19.510 Y-56.075 Z-3.000 F60.000
G1 X20.925 Y-57.490 Z-3.000 F138.000
G1 X21.132 Y-57.490 Z-3.000 F138.000
G1 X20.925 Y-57.490 Z-3.000 F138.000
G1 X18.096 Y-60.318 Z-3.000 F138.000
G1 X18.096 Y-60.318 Z-3.000 F138.000
G1 X18.096 Y-60.525 Z-3.000 F138.000
G1 X18.096 Y-60.318 Z-3.000 F138.000
G1 X16.682 Y-58.904 Z-3.000 F138.000
G1 X16.682 Y-58.904 Z-3.000 F138.000
G1 X16.475 Y-58.904 Z-3.000 F138.000
G1 X16.682 Y-58.904 Z-3.000 F138.000
G1 X19.510 Y-56.075 Z-3.000 F138.000
G1 X19.510 Y-56.075 Z-3.000 F138.000
G1 X19.510 Y-55.868 Z-3.000 F138.000
G1 X19.510 Y-56.075 Z-3.000 F138.000
G0 Z2.000
G0 Z2.000
G0 X10.318 Y-58.904
G0 X10.318 Y-58.904 Z1.000
G1 X10.318 Y-58.904 Z-0.333 F60.000
G1 X8.904 Y-60.318 Z-0.333 F138.000
G1 X8.904 Y-60.525 Z-0.333 F138.000
G1 X8.904 Y-60.318 Z-0.333 F138.000
G1 X6.075 Y-57.490 Z-0.333 F138.000
G1 X6.075 Y-57.490 Z-0.333 F138.000
G1 X5.868 Y-57.490 Z-0.333 F138.000
G1 X6.075 Y-57.490 Z-0.333 F138.000
G1 X7.490 Y-56.075 Z-0.333 F138.000
G1 X7.490 Y-56.075 Z-0.333 F138.000
G1 X7.490 Y-55.868 Z-0.333 F138.000
G1 X7.490 Y-56.075 Z-0.333 F138.000
G1 X10.318 Y-58.904 Z-0.333 F138.000
G1 X10.318 Y-58.904 Z-0.333 F138.000
G1 X10.525 Y-58.904 Z-0.333 F138.000
G1 X10.318 Y-58.904 Z-0.333 F138.000
G1 X10.318 Y-58.904 Z-0.667 F60.000
G1 X8.904 Y-60.318 Z-0.667 F138.000
G1 X8.904 Y-60.525 Z-0.667 F138.000
G1 X8.904 Y-60.318 Z-0.667 F138.000
G1 X6.075 Y-57.490 Z-0.667 F138.000
G1 X6.075 Y-57.490 Z-0.667 F138.000
G1 X5.868 Y-57.490 Z-0.667 F138.000
G1 X6.075 Y-57.490 Z-0.667 F138.000
G1 X7.490 Y-56.075 Z-0.667 F138.000
G1 X7.490 Y-56.075 Z-0.667 F138.000
G1 X7.490 Y-55.868 Z-0.667 F138.000
G1 X7.490 Y-56.075 Z-0.667 F138.000
G1 X10.318 Y-58.904 Z-0.667 F138.000
G1 X10.318 Y-58.904 Z-0.667 F138.000
G1 X10.525 Y-58.904 Z-0.667 F138.000
G1 X10.318 Y-58.904 Z-0.667 F138.000
G1 X10.318 Y-58.904 Z-1.000 F60.000
G1 X8.904 Y-60.318 Z-1.000 F138.000
G1 X8.904 Y-60.525 Z-1.000 F138.000
G1 X8.904 Y-60.318 Z-1.000 F138.000
G1 X6.075 Y-57.490 Z-1.000 F138.000
G1 X6.075 Y-57.490 Z-1.000 F138.000
G1 X5.868 Y-57.490 Z-1.000 F138.000
G1 X6.075 Y-57.490 Z-1.000 F138.000
G1 X7.490 Y-56.075 Z-1.000 F138.000
G1 X7.490 Y-56.075 Z-1.000 F138.000
G1 X7.490 Y-55.868 Z-1.000 F138.000
G1 X7.490 Y-56.075 Z-1.000 F138.000
G1 X10.318 Y-58.904 Z-1.000 F138.000
G1 X10.318 Y-58.904 Z-1.000 F138.000
G1 X10.525 Y-58.904 Z-1.000 F138.000
G1 X10.318 Y-58.904 Z-1.000 F138.000
G1 X10.318 Y-58.904 Z-1.333 F60.000
G1 X8.904 Y-60.318 Z-1.333 F138.000
G1 X8.904 Y-60.525 Z-1.333 F138.000
G1 X8.904 Y-60.318 Z-1.333 F138.000
G1 X6.075 Y-57.490 Z-1.333 F138.000
G1 X6.075 Y-57.490 Z-1.333 F138.000
G1 X5.868 Y-57.490 Z-1.333 F138.000
G1 X6.075 Y-57.490 Z-1.333 F138.000
G1 X7.490 Y-56.075 Z-1.333 F138.000
G1 X7.490 Y-56.075 Z-1.333 F138.000
G1 X7.490 Y-55.868 Z-1.333 F138.000
G1 X7.490 Y-56.075 Z-1.333 F138.000
G1 X10.318 Y-58.904 Z-1.333 F138.000
G1 X10.318 Y-58.904 Z-1.333 F138.000
G1 X10.525 Y-58.904 Z-1.333 F138.000
G1 X10.318 Y-58.904 Z-1.333 F138.000
G1 X10.318 Y-58.904 Z-1.667 F60.000
G1 X8.904 Y-60.318 Z-1.667 F138.000
G1 X8.904 Y-60.525 Z-1.667 F138.000
G1 X8.904 Y-60.318 Z-1.667 F138.000
G1 X6.075 Y-57.490 Z-1.667 F138.000
G1 X6.075 Y-57.490 Z-1.667 F138.000
G1 X5.868 Y-57.490 Z-1.667 F138.000
G1 X6.075 Y-57.490 Z-1.667 F138.000
G1 X7.490 Y-56.075 Z-1.667 F138.000
G1 X7.490 Y-56.075 Z-1.667 F138.000
G1 X7.490 Y-55.868 Z-1.667 F138.000
G1 X7.490 Y-56.075 Z-1.667 F138.000
G1 X10.318 Y-58.904 Z-1.667 F138.000
G1 X10.318 Y-58.904 Z-1.667 F138.000
G1 X10.525 Y-58.904 Z-1.667 F138.000
G1 X10.318 Y-58.904 Z-1.667 F138.000
G1 X10.318 Y-58.904 Z-2.000 F60.000
G1 X8.904 Y-60.318 Z-2.000 F138.000
G1 X8.904 Y-60.525 Z-2.000 F138.000
G1 X8.904 Y-60.318 Z-2.000 F138.000
G1 X6.075 Y-57.490 Z-2.000 F138.000
G1 X6.075 Y-57.490 Z-2.000 F138.000
G1 X5.868 Y-57.490 Z-2.000 F138.000
G1 X6.075 Y-57.490 Z-2.000 F138.000
G1 X7.490 Y-56.075 Z-2.000 F138.000
G1 X7.490 Y-56.075 Z-2.000 F138.000
G1 X7.490 Y-55.868 Z-2.000 F138.000
G1 X7.490 Y-56.075 Z-2.000 F138.000
G1 X10.318 Y-58.904 Z-2.000 F138.000
G1 X10.318 Y-58.904 Z-2.000 F138.000
G1 X10.525 Y-58.904 Z-2.000 F138.000
G1 X10.318 Y-58.904 Z-2.000 F138.000
G1 X10.318 Y-58.904 Z-2.333 F60.000
G1 X8.904 Y-60.318 Z-2.333 F138.000
G1 X8.904 Y-60.525 Z-2.333 F138.000
G1 X8.904 Y-60.318 Z-2.333 F138.000
G1 X6.075 Y-57.490 Z-2.333 F138.000
G1 X6.075 Y-57.490 Z-2.333 F138.000
G1 X5.868 Y-57.490 Z-2.333 F138.000
G1 X6.075 Y-57.490 Z-2.333 F138.000
G1 X7.490 Y-56.075 Z-2.333 F138.000
G1 X7.490 Y-56.075 Z-2.333 F138.000
G1 X7.490 Y-55.868 Z-2.333 F138.000
G1 X7.490 Y-56.075 Z-2.333 F138.000
G1 X10.318 Y-58.904 Z-2.333 F138.000
G1 X10.318 Y-58.904 Z-2.333 F138.000
G1 X10.525 Y-58.904 Z-2.333 F138.000
G1 X10.318 Y-58.904 Z-2.333 F138.000
G1 X10.318 Y-58.904 Z-2.667 F60.000
G1 X8.904 Y-60.318 Z-2.667 F138.000
G1 X8.904 Y-60.525 Z-2.667 F138.000
G1 X8.904 Y-60.318 Z-2.667 F138.000
G1 X6.075 Y-57.490 Z-2.667 F138.000
G1 X6.075 Y-57.490 Z-2.667 F138.000
G1 X5.868 Y-57.490 Z-2.667 F138.000
G1 X6.075 Y-57.490 Z-2.667 F138.000
G1 X7.490 Y-56.075 Z-2.667 F138.000
G1 X7.490 Y-56.075 Z-2.667 F138.000
G1 X7.490 Y-55.868 Z-2.667 F138.000
G1 X7.490 Y-56.075 Z-2.667 F138.000
G1 X10.318 Y-58.904 Z-2.667 F138.000
G1 X10.318 Y-58.904 Z-2.667 F138.000
G1 X10.525 Y-58.904 Z-2.667 F138.000
G1 X10.318 Y-58.904 Z-2.667 F138.000
G1 X10.318 Y-58.904 Z-3.000 F60.000
G1 X8.904 Y-60.318 Z-3.000 F138.000
G1 X8.904 Y-60.525 Z-3.000 F138.000
G1 X8.904 Y-60.318 Z-3.000 F138.000
G1 X6.075 Y-57.490 Z-3.000 F138.000
G1 X6.075 Y-57.490 Z-3.000 F138.000
G1 X5.868 Y-57.490 Z-3.000 F138.000
G1 X6.075 Y-57.490 Z-3.000 F138.000
G1 X7.490 Y-56.075 Z-3.000 F138.000
G1 X7.490 Y-56.075 Z-3.000 F138.000
G1 X7.490 Y-55.868 Z-3.000 F138.000
G1 X7.490 Y-56.075 Z-3.000 F138.000
G1 X10.318 Y-58.904 Z-3.000 F138.000
G1 X10.318 Y-58.904 Z-3.000 F138.000
G1 X10.525 Y-58.904 Z-3.000 F138.000
G1 X10.318 Y-58.904 Z-3.000 F138.000
G0 Z2.000
G0 Z2.000
G0 X8.904 Y-66.682
G0 X8.904 Y-66.682 Z1.000
G1 X8.904 Y-66.682 Z-0.333 F60.000
G1 X10.318 Y-68.096 Z-0.333 F138.000
G1 X10.525 Y-68.096 Z-0.333 F138.000
G1 X10.318 Y-68.096 Z-0.333 F138.000
G1 X7.490 Y-70.925 Z-0.333 F138.000
G1 X7.490 Y-70.925 Z-0.333 F138.000
G1 X7.490 Y-71.132 Z-0.333 F138.000
G1 X7.490 Y-70.925 Z-0.333 F138.000
G1 X6.075 Y-69.510 Z-0.333 F138.000
G1 X6.075 Y-69.510 Z-0.333 F138.000
G1 X5.868 Y-69.510 Z-0.333 F138.000
G1 X6.075 Y-69.510 Z-0.333 F138.000
G1 X8.904 Y-66.682 Z-0.333 F138.000
G1 X8.904 Y-66.682 Z-0.333 F138.000
G1 X8.904 Y-66.475 Z-0.333 F138.000
G1 X8.904 Y-66.682 Z-0.333 F138.000
G1 X8.904 Y-66.682 Z-0.667 F60.000
G1 X10.318 Y-68.096 Z-0.667 F138.000
G1 X10.525 Y-68.096 Z-0.667 F138.000
G1 X10.318 Y-68.096 Z-0.667 F138.000
G1 X7.490 Y-70.925 Z-0.667 F138.000
G1 X7.490 Y-70.925 Z-0.667 F138.000
G1 X7.490 Y-71.132 Z-0.667 F138.000
G1 X7.490 Y-70.925 Z-0.667 F138.000
G1 X6.075 Y-69.510 Z-0.667 F138.000
G1 X6.075 Y-69.510 Z-0.667 F138.000
G1 X5.868 Y-69.510 Z-0.667 F138.000
G1 X6.075 Y-69.510 Z-0.667 F138.000
G1 X8.904 Y-66.682 Z-0.667 F138.000
G1 X8.904 Y-66.682 Z-0.667 F138.000
G1 X8.904 Y-66.475 Z-0.667 F138.000
G1 X8.904 Y-66.682 Z-0.667 F138.000
G1 X8.904 Y-66.682 Z-1.000 F60.000
G1 X10.318 Y-68.096 Z-1.000 F138.000
G1 X10.525 Y-68.096 Z-1.000 F138.000
G1 X10.318 Y-68.096 Z-1.000 F138.000
G1 X7.490 Y-70.925 Z-1.000 F138.000
G1 X7.490 Y-70.925 Z-1.000 F138.000
G1 X7.490 Y-71.132 Z-1.000 F138.000
G1 X7.490 Y-70.925 Z-1.000 F138.000
G1 X6.075 Y-69.510 Z-1.000 F138.000
G1 X6.075 Y-69.510 Z-1.000 F138.000
G1 X5.868 Y-69.510 Z-1.000 F138.000
G1 X6.075 Y-69.510 Z-1.000 F138.000
G1 X8.904 Y-66.682 Z-1.000 F138.000
G1 X8.904 Y-66.682 Z-1.000 F138.000
G1 X8.904 Y-66.475 Z-1.000 F138.000
G1 X8.904 Y-66.682 Z-1.000 F138.000
G1 X8.904 Y-66.682 Z-1.333 F60.000
G1 X10.318 Y-68.096 Z-1.333 F138.000
G1 X10.525 Y-68.096 Z-1.333 F138.000
G1 X10.318 Y-68.096 Z-1.333 F138.000
G1 X7.490 Y-70.925 Z-1.333 F138.000
G1 X7.490 Y-70.925 Z-1.333 F138.000
G1 X7.490 Y-71.132 Z-1.333 F138.000
G1 X7.490 Y-70.925 Z-1.333 F138.000
G1 X6.075 Y-69.510 Z-1.333 F138.000
G1 X6.075 Y-69.510 Z-1.333 F138.000
G1 X5.868 Y-69.510 Z-1.333 F138.000
G1 X6.075 Y-69.510 Z-1.333 F138.000
G1 X8.904 Y-66.682 Z-1.333 F138.000
G1 X8.904 Y-66.682 Z-1.333 F138.000
G1 X8.904 Y-66.475 Z-1.333 F138.000
G1 X8.904 Y-66.682 Z-1.333 F138.000
G1 X8.904 Y-66.682 Z-1.667 F60.000
G1 X10.318 Y-68.096 Z-1.667 F138.000
G1 X10.525 Y-68.096 Z-1.667 F138.000
G1 X10.318 Y-68.096 Z-1.667 F138.000
G1 X7.490 Y-70.925 Z-1.667 F138.000
G1 X7.490 Y-70.925 Z-1.667 F138.000
G1 X7.490 Y-71.132 Z-1.667 F138.000
G1 X7.490 Y-70.925 Z-1.667 F138.000
G1 X6.075 Y-69.510 Z-1.667 F138.000
G1 X6.075 Y-69.510 Z-1.667 F138.000
G1 X5.868 Y-69.510 Z-1.667 F138.000
G1 X6.075 Y-69.510 Z-1.667 F138.000
G1 X8.904 Y-66.682 Z-1.667 F138.000
G1 X8.904 Y-66.682 Z-1.667 F138.000
G1 X8.904 Y-66.475 Z-1.667 F138.000
G1 X8.904 Y-66.682 Z-1.667 F138.000
G1 X8.904 Y-66.682 Z-2.000 F60.000
G1 X10.318 Y-68.096 Z-2.000 F138.000
G1 X10.525 Y-68.096 Z-2.000 F138.000
G1 X10.318 Y-68.096 Z-2.000 F138.000
G1 X7.490 Y-70.925 Z-2.000 F138.000
G1 X7.490 Y-70.925 Z-2.000 F138.000
G1 X7.490 Y-71.132 Z-2.000 F138.000
G1 X7.490 Y-70.925 Z-2.000 F138.000
G1 X6.075 Y-69.510 Z-2.000 F138.000
G1 X6.075 Y-69.510 Z-2.000 F138.000
G1 X5.868 Y-69.510 Z-2.000 F138.000
G1 X6.075 Y-69.510 Z-2.000 F138.000
G1 X8.904 Y-66.682 Z-2.000 F138.000
G1 X8.904 Y-66.682 Z-2.000 F138.000
G1 X8.904 Y-66.475 Z-2.000 F138.000
G1 X8.904 Y-66.682 Z-2.000 F138.000
G1 X8.904 Y-66.682 Z-2.333 F60.000
G1 X10.318 Y-68.096 Z-2.333 F138.000
G1 X10.525 Y-68.096 Z-2.333 F138.000
G1 X10.318 Y-68.096 Z-2.333 F138.000
G1 X7.490 Y-70.925 Z-2.333 F138.000
G1 X7.490 Y-70.925 Z-2.333 F138.000
G1 X7.490 Y-71.132 Z-2.333 F138.000
G1 X7.490 Y-70.925 Z-2.333 F138.000
G1 X6.075 Y-69.510 Z-2.333 F138.000
G1 X6.075 Y-69.510 Z-2.333 F138.000
G1 X5.868 Y-69.510 Z-2.333 F138.000
G1 X6.075 Y-69.510 Z-2.333 F138.000
G1 X8.904 Y-66.682 Z-2.333 F138.000
G1 X8.904 Y-66.682 Z-2.333 F138.000
G1 X8.904 Y-66.475 Z-2.333 F138.000
G1 X8.904 Y-66.682 Z-2.333 F138.000
G1 X8.904 Y-66.682 Z-2.667 F60.000
G1 X10.318 Y-68.096 Z-2.667 F138.000
G1 X10.525 Y-68.096 Z-2.667 F138.000
G1 X10.318 Y-68.096 Z-2.667 F138.000
G1 X7.490 Y-70.925 Z-2.667 F138.000
G1 X7.490 Y-70.925 Z-2.667 F138.000
G1 X7.490 Y-71.132 Z-2.667 F138.000
G1 X7.490 Y-70.925 Z-2.667 F138.000
G1 X6.075 Y-69.510 Z-2.667 F138.000
G1 X6.075 Y-69.510 Z-2.667 F138.000
G1 X5.868 Y-69.510 Z-2.667 F138.000
G1 X6.075 Y-69.510 Z-2.667 F138.000
G1 X8.904 Y-66.682 Z-2.667 F138.000
G1 X8.904 Y-66.682 Z-2.667 F138.000
G1 X8.904 Y-66.475 Z-2.667 F138.000
G1 X8.904 Y-66.682 Z-2.667 F138.000
G1 X8.904 Y-66.682 Z-3.000 F60.000
G1 X10.318 Y-68.096 Z-3.000 F138.000
G1 X10.525 Y-68.096 Z-3.000 F138.000
G1 X10.318 Y-68.096 Z-3.000 F138.000
G1 X7.490 Y-70.925 Z-3.000 F138.000
G1 X7.490 Y-70.925 Z-3.000 F138.000
G1 X7.490 Y-71.132 Z-3.000 F138.000
G1 X7.490 Y-70.925 Z-3.000 F138.000
G1 X6.075 Y-69.510 Z-3.000 F138.000
G1 X6.075 Y-69.510 Z-3.000 F138.000
G1 X5.868 Y-69.510 Z-3.000 F138.000
G1 X6.075 Y-69.510 Z-3.000 F138.000
G1 X8.904 Y-66.682 Z-3.000 F138.000
G1 X8.904 Y-66.682 Z-3.000 F138.000
G1 X8.904 Y-66.475 Z-3.000 F138.000
G1 X8.904 Y-66.682 Z-3.000 F138.000
G0 Z2.000
G0 Z2.000
G0 X16.682 Y-68.096
G0 X16.682 Y-68.096 Z1.000
G1 X16.682 Y-68.096 Z-0.333 F60.000
G1 X18.096 Y-66.682 Z-0.333 F138.000
G1 X18.096 Y-66.475 Z-0.333 F138.000
G1 X18.096 Y-66.682 Z-0.333 F138.000
G1 X20.925 Y-69.510 Z-0.333 F138.000
G1 X20.925 Y-69.510 Z-0.333 F138.000
G1 X21.132 Y-69.510 Z-0.333 F138.000
G1 X20.925 Y-69.510 Z-0.333 F138.000
G1 X19.510 Y-70.925 Z-0.333 F138.000
G1 X19.510 Y-70.925 Z-0.333 F138.000
G1 X19.510 Y-71.132 Z-0.333 F138.000
G1 X19.510 Y-70.925 Z-0.333 F138.000
G1 X16.682 Y-68.096 Z-0.333 F138.000
G1 X16.682 Y-68.096 Z-0.333 F138.000
G1 X16.475 Y-68.096 Z-0.333 F138.000
G1 X16.682 Y-68.096 Z-0.333 F138.000
G1 X16.682 Y-68.096 Z-0.667 F60.000
G1 X18.096 Y-66.682 Z-0.667 F138.000
G1 X18.096 Y-66.475 Z-0.667 F138.000
G1 X18.096 Y-66.682 Z-0.667 F138.000
G1 X20.925 Y-69.510 Z-0.667 F138.000
G1 X20.925 Y-69.510 Z-0.667 F138.000
G1 X21.132 Y-69.510 Z-0.667 F138.000
G1 X20.925 Y-69.510 Z-0.667 F138.000
G1 X19.510 Y-70.925 Z-0.667 F138.000
G1 X19.510 Y-70.925 Z-0.667 F138.000
G1 X19.510 Y-71.132 Z-0.667 F138.000
G1 X19.510 Y-70.925 Z-0.667 F138.000
G1 X16.682 Y-68.096 Z-0.667 F138.000
G1 X16.682 Y-68.096 Z-0.667 F138.000
G1 X16.475 Y-68.096 Z-0.667 F138.000
G1 X16.682 Y-68.096 Z-0.667 F138.000
G1 X16.682 Y-68.096 Z-1.000 F60.000
G1 X18.096 Y-66.682 Z-1.000 F138.000
G1 X18.096 Y-66.475 Z-1.000 F138.000
G1 X18.096 Y-66.682 Z-1.000 F138.000
G1 X20.925 Y-69.510 Z-1.000 F138.000
G1 X20.925 Y-69.510 Z-1.000 F138.000
G1 X21.132 Y-69.510 Z-1.000 F138.000
G1 X20.925 Y-69.510 Z-1.000 F138.000
G1 X19.510 Y-70.925 Z-1.000 F138.000
G1 X19.510 Y-70.925 Z-1.000 F138.000
G1 X19.510 Y-71.132 Z-1.000 F138.000
G1 X19.510 Y-70.925 Z-1.000 F138.000
G1 X16.682 Y-68.096 Z-1.000 F138.000
G1 X16.682 Y-68.096 Z-1.000 F138.000
G1 X16.475 Y-68.096 Z-1.000 F138.000
G1 X16.682 Y-68.096 Z-1.000 F138.000
G1 X16.682 Y-68.096 Z-1.333 F60.000
G1 X18.096 Y-66.682 Z-1.333 F138.000
G1 X18.096 Y-66.475 Z-1.333 F138.000
G1 X18.096 Y-66.682 Z-1.333 F138.000
G1 X20.925 Y-69.510 Z-1.333 F138.000
G1 X20.925 Y-69.510 Z-1.333 F138.000
G1 X21.132 Y-69.510 Z-1.333 F138.000
G1 X20.925 Y-69.510 Z-1.333 F138.000
G1 X19.510 Y-70.925 Z-1.333 F138.000
G1 X19.510 Y-70.925 Z-1.333 F138.000
G1 X19.510 Y-71.132 Z-1.333 F138.000
G1 X19.510 Y-70.925 Z-1.333 F138.000
G1 X16.682 Y-68.096 Z-1.333 F138.000
G1 X16.682 Y-68.096 Z-1.333 F138.000
G1 X16.475 Y-68.096 Z-1.333 F138.000
G1 X16.682 Y-68.096 Z-1.333 F138.000
G1 X16.682 Y-68.096 Z-1.667 F60.000
G1 X18.096 Y-66.682 Z-1.667 F138.000
G1 X18.096 Y-66.475 Z-1.667 F138.000
G1 X18.096 Y-66.682 Z-1.667 F138.000
G1 X20.925 Y-69.510 Z-1.667 F138.000
G1 X20.925 Y-69.510 Z-1.667 F138.000
G1 X21.132 Y-69.510 Z-1.667 F138.000
G1 X20.925 Y-69.510 Z-1.667 F138.000
G1 X19.510 Y-70.925 Z-1.667 F138.000
G1 X19.510 Y-70.925 Z-1.667 F138.000
G1 X19.510 Y-71.132 Z-1.667 F138.000
G1 X19.510 Y-70.925 Z-1.667 F138.000
G1 X16.682 Y-68.096 Z-1.667 F138.000
G1 X16.682 Y-68.096 Z-1.667 F138.000
G1 X16.475 Y-68.096 Z-1.667 F138.000
G1 X16.682 Y-68.096 Z-1.667 F138.000
G1 X16.682 Y-68.096 Z-2.000 F60.000
G1 X18.096 Y-66.682 Z-2.000 F138.000
G1 X18.096 Y-66.475 Z-2.000 F138.000
G1 X18.096 Y-66.682 Z-2.000 F138.000
G1 X20.925 Y-69.510 Z-2.000 F138.000
G1 X20.925 Y-69.510 Z-2.000 F138.000
G1 X21.132 Y-69.510 Z-2.000 F138.000
G1 X20.925 Y-69.510 Z-2.000 F138.000
G1 X19.510 Y-70.925 Z-2.000 F138.000
G1 X19.510 Y-70.925 Z-2.000 F138.000
G1 X19.510 Y-71.132 Z-2.000 F138.000
G1 X19.510 Y-70.925 Z-2.000 F138.000
G1 X16.682 Y-68.096 Z-2.000 F138.000
G1 X16.682 Y-68.096 Z-2.000 F138.000
G1 X16.475 Y-68.096 Z-2.000 F138.000
G1 X16.682 Y-68.096 Z-2.000 F138.000
G1 X16.682 Y-68.096 Z-2.333 F60.000
G1 X18.096 Y-66.682 Z-2.333 F138.000
G1 X18.096 Y-66.475 Z-2.333 F138.000
G1 X18.096 Y-66.682 Z-2.333 F138.000
G1 X20.925 Y-69.510 Z-2.333 F138.000
G1 X20.925 Y-69.510 Z-2.333 F138.000
G1 X21.132 Y-69.510 Z-2.333 F138.000
G1 X20.925 Y-69.510 Z-2.333 F138.000
G1 X19.510 Y-70.925 Z-2.333 F138.000
G1 X19.510 Y-70.925 Z-2.333 F138.000
G1 X19.510 Y-71.132 Z-2.333 F138.000
G1 X19.510 Y-70.925 Z-2.333 F138.000
G1 X16.682 Y-68.096 Z-2.333 F138.000
G1 X16.682 Y-68.096 Z-2.333 F138.000
G1 X16.475 Y-68.096 Z-2.333 F138.000
G1 X16.682 Y-68.096 Z-2.333 F138.000
G1 X16.682 Y-68.096 Z-2.667 F60.000
G1 X18.096 Y-66.682 Z-2.667 F138.000
G1 X18.096 Y-66.475 Z-2.667 F138.000
G1 X18.096 Y-66.682 Z-2.667 F138.000
G1 X20.925 Y-69.510 Z-2.667 F138.000
G1 X20.925 Y-69.510 Z-2.667 F138.000
G1 X21.132 Y-69.510 Z-2.667 F138.000
G1 X20.925 Y-69.510 Z-2.667 F138.000
G1 X19.510 Y-70.925 Z-2.667 F138.000
G1 X19.510 Y-70.925 Z-2.667 F138.000
G1 X19.510 Y-71.132 Z-2.667 F138.000
G1 X19.510 Y-70.925 Z-2.667 F138.000
G1 X16.682 Y-68.096 Z-2.667 F138.000
G1 X16.682 Y-68.096 Z-2.667 F138.000
G1 X16.475 Y-68.096 Z-2.667 F138.000
G1 X16.682 Y-68.096 Z-2.667 F138.000
G1 X16.682 Y-68.096 Z-3.000 F60.000
G1 X18.096 Y-66.682 Z-3.000 F138.000
G1 X18.096 Y-66.475 Z-3.000 F138.000
G1 X18.096 Y-66.682 Z-3.000 F138.000
G1 X20.925 Y-69.510 Z-3.000 F138.000
G1 X20.925 Y-69.510 Z-3.000 F138.000
G1 X21.132 Y-69.510 Z-3.000 F138.000
G1 X20.925 Y-69.510 Z-3.000 F138.000
G1 X19.510 Y-70.925 Z-3.000 F138.000
G1 X19.510 Y-70.925 Z-3.000 F138.000
G1 X19.510 Y-71.132 Z-3.000 F138.000
G1 X19.510 Y-70.925 Z-3.000 F138.000
G1 X16.682 Y-68.096 Z-3.000 F138.000
G1 X16.682 Y-68.096 Z-3.000 F138.000
G1 X16.475 Y-68.096 Z-3.000 F138.000
G1 X16.682 Y-68.096 Z-3.000 F138.000
G0 Z2.000
G0 Z2.000
(Finish operation: DogboneDressup002)
(Begin operation: DressupTag001)
(Path: DressupTag001)
G0 Z2.000
G0 X26.354 Y-0.646 Z2.000
G0 X26.354 Y-0.646 Z1.000
G1 X26.354 Y-0.646 Z-0.333 F60.000
G3 X26.000 Y-0.500 Z-0.333 I-0.354 J-0.354 K0.000 F138.000
G1 X1.000 Y-0.500 Z-0.333 F138.000
G3 X0.500 Y-1.000 Z-0.333 I-0.000 J-0.500 K0.000 F138.000
G1 X0.500 Y-76.000 Z-0.333 F138.000
G3 X1.000 Y-76.500 Z-0.333 I0.500 J-0.000 K0.000 F138.000
G1 X26.000 Y-76.500 Z-0.333 F138.000
G3 X26.500 Y-76.000 Z-0.333 I0.000 J0.500 K0.000 F138.000
G1 X26.500 Y-1.000 Z-0.333 F138.000
G3 X26.354 Y-0.646 Z-0.333 I-0.500 J0.000 K0.000 F138.000
G1 X26.354 Y-0.646 Z-0.667 F60.000
G3 X26.000 Y-0.500 Z-0.667 I-0.354 J-0.354 K0.000 F138.000
G1 X1.000 Y-0.500 Z-0.667 F138.000
G3 X0.500 Y-1.000 Z-0.667 I-0.000 J-0.500 K0.000 F138.000
G1 X0.500 Y-76.000 Z-0.667 F138.000
G3 X1.000 Y-76.500 Z-0.667 I0.500 J-0.000 K0.000 F138.000
G1 X26.000 Y-76.500 Z-0.667 F138.000
G3 X26.500 Y-76.000 Z-0.667 I0.000 J0.500 K0.000 F138.000
G1 X26.500 Y-1.000 Z-0.667 F138.000
G3 X26.354 Y-0.646 Z-0.667 I-0.500 J0.000 K0.000 F138.000
G1 X26.354 Y-0.646 Z-1.000 F60.000
G3 X26.000 Y-0.500 Z-1.000 I-0.354 J-0.354 K0.000 F138.000
G1 X1.000 Y-0.500 Z-1.000 F138.000
G3 X0.500 Y-1.000 Z-1.000 I-0.000 J-0.500 K0.000 F138.000
G1 X0.500 Y-76.000 Z-1.000 F138.000
G3 X1.000 Y-76.500 Z-1.000 I0.500 J-0.000 K0.000 F138.000
G1 X26.000 Y-76.500 Z-1.000 F138.000
G3 X26.500 Y-76.000 Z-1.000 I0.000 J0.500 K0.000 F138.000
G1 X26.500 Y-1.000 Z-1.000 F138.000
G3 X26.354 Y-0.646 Z-1.000 I-0.500 J0.000 K0.000 F138.000
G1 X26.354 Y-0.646 Z-1.333 F60.000
G3 X26.000 Y-0.500 Z-1.333 I-0.354 J-0.354 K0.000 F138.000
G1 X1.000 Y-0.500 Z-1.333 F138.000
G3 X0.500 Y-1.000 Z-1.333 I-0.000 J-0.500 K0.000 F138.000
G1 X0.500 Y-76.000 Z-1.333 F138.000
G3 X1.000 Y-76.500 Z-1.333 I0.500 J-0.000 K0.000 F138.000
G1 X26.000 Y-76.500 Z-1.333 F138.000
G3 X26.500 Y-76.000 Z-1.333 I0.000 J0.500 K0.000 F138.000
G1 X26.500 Y-1.000 Z-1.333 F138.000
G3 X26.354 Y-0.646 Z-1.333 I-0.500 J0.000 K0.000 F138.000
G1 X26.354 Y-0.646 Z-1.667 F60.000
G3 X26.000 Y-0.500 Z-1.667 I-0.354 J-0.354 K0.000 F138.000
G1 X1.000 Y-0.500 Z-1.667 F138.000
G3 X0.500 Y-1.000 Z-1.667 I-0.000 J-0.500 K0.000 F138.000
G1 X0.500 Y-19.585 Z-1.667 F138.000
G1 X0.500 Y-19.750 Z-1.500 F98.753
G1 X0.500 Y-19.915 Z-1.667 F98.753
G1 X0.500 Y-57.085 Z-1.667 F138.000
G1 X0.500 Y-57.250 Z-1.500 F98.753
G1 X0.500 Y-57.415 Z-1.667 F98.753
G1 X0.500 Y-76.000 Z-1.667 F138.000
G3 X1.000 Y-76.500 Z-1.667 I0.500 J-0.000 K0.000 F138.000
G1 X26.000 Y-76.500 Z-1.667 F138.000
G3 X26.500 Y-76.000 Z-1.667 I0.000 J0.500 K0.000 F138.000
G1 X26.500 Y-57.415 Z-1.667 F138.000
G1 X26.500 Y-57.250 Z-1.500 F98.753
G1 X26.500 Y-57.085 Z-1.667 F98.753
G1 X26.500 Y-19.915 Z-1.667 F138.000
G1 X26.500 Y-19.750 Z-1.500 F98.753
G1 X26.500 Y-19.585 Z-1.667 F98.753
G1 X26.500 Y-1.000 Z-1.667 F138.000
G3 X26.354 Y-0.646 Z-1.667 I-0.500 J0.000 K0.000 F138.000
G1 X26.354 Y-0.646 Z-2.000 F60.000
G3 X26.000 Y-0.500 Z-2.000 I-0.354 J-0.354 K0.000 F138.000
G1 X1.000 Y-0.500 Z-2.000 F138.000
G3 X0.500 Y-1.000 Z-2.000 I-0.000 J-0.500 K0.000 F138.000
G1 X0.500 Y-19.255 Z-2.000 F138.000
G1 X0.500 Y-19.750 Z-1.500 F98.753
G1 X0.500 Y-20.245 Z-2.000 F98.753
G1 X0.500 Y-56.755 Z-2.000 F138.000
G1 X0.500 Y-57.250 Z-1.500 F98.753
G1 X0.500 Y-57.745 Z-2.000 F98.753
G1 X0.500 Y-76.000 Z-2.000 F138.000
G3 X1.000 Y-76.500 Z-2.000 I0.500 J-0.000 K0.000 F138.000
G1 X26.000 Y-76.500 Z-2.000 F138.000
G3 X26.500 Y-76.000 Z-2.000 I0.000 J0.500 K0.000 F138.000
G1 X26.500 Y-57.745 Z-2.000 F138.000
G1 X26.500 Y-57.250 Z-1.500 F98.753
G1 X26.500 Y-56.755 Z-2.000 F98.753
G1 X26.500 Y-20.245 Z-2.000 F138.000
G1 X26.500 Y-19.750 Z-1.500 F98.753
G1 X26.500 Y-19.255 Z-2.000 F98.753
G1 X26.500 Y-1.000 Z-2.000 F138.000
G3 X26.354 Y-0.646 Z-2.000 I-0.500 J0.000 K0.000 F138.000
G1 X26.354 Y-0.646 Z-2.333 F60.000
G3 X26.000 Y-0.500 Z-2.333 I-0.354 J-0.354 K0.000 F138.000
G1 X1.000 Y-0.500 Z-2.333 F138.000
G3 X0.500 Y-1.000 Z-2.333 I-0.000 J-0.500 K0.000 F138.000
G1 X0.500 Y-18.925 Z-2.333 F138.000
G1 X0.500 Y-19.750 Z-1.500 F98.753
G1 X0.500 Y-20.575 Z-2.333 F98.753
G1 X0.500 Y-56.425 Z-2.333 F138.000
G1 X0.500 Y-57.250 Z-1.500 F98.753
G1 X0.500 Y-58.075 Z-2.333 F98.753
G1 X0.500 Y-76.000 Z-2.333 F138.000
G3 X1.000 Y-76.500 Z-2.333 I0.500 J-0.000 K0.000 F138.000
G1 X26.000 Y-76.500 Z-2.333 F138.000
G3 X26.500 Y-76.000 Z-2.333 I0.000 J0.500 K0.000 F138.000
G1 X26.500 Y-58.075 Z-2.333 F138.000
G1 X26.500 Y-57.250 Z-1.500 F98.753
G1 X26.500 Y-56.425 Z-2.333 F98.753
G1 X26.500 Y-20.575 Z-2.333 F138.000
G1 X26.500 Y-19.750 Z-1.500 F98.753
G1 X26.500 Y-18.925 Z-2.333 F98.753
G1 X26.500 Y-1.000 Z-2.333 F138.000
G3 X26.354 Y-0.646 Z-2.333 I-0.500 J0.000 K0.000 F138.000
G1 X26.354 Y-0.646 Z-2.667 F60.000
G3 X26.000 Y-0.500 Z-2.667 I-0.354 J-0.354 K0.000 F138.000
G1 X1.000 Y-0.500 Z-2.667 F138.000
G3 X0.500 Y-1.000 Z-2.667 I-0.000 J-0.500 K0.000 F138.000
G1 X0.500 Y-18.595 Z-2.667 F138.000
G1 X0.500 Y-19.750 Z-1.500 F98.753
G1 X0.500 Y-20.905 Z-2.667 F98.753
G1 X0.500 Y-56.095 Z-2.667 F138.000
G1 X0.500 Y-57.250 Z-1.500 F98.753
G1 X0.500 Y-58.405 Z-2.667 F98.753
G1 X0.500 Y-76.000 Z-2.667 F138.000
G3 X1.000 Y-76.500 Z-2.667 I0.500 J-0.000 K0.000 F138.000
G1 X26.000 Y-76.500 Z-2.667 F138.000
G3 X26.500 Y-76.000 Z-2.667 I0.000 J0.500 K0.000 F138.000
G1 X26.500 Y-58.405 Z-2.667 F138.000
G1 X26.500 Y-57.250 Z-1.500 F98.753
G1 X26.500 Y-56.095 Z-2.667 F98.753
G1 X26.500 Y-20.905 Z-2.667 F138.000
G1 X26.500 Y-19.750 Z-1.500 F98.753
G1 X26.500 Y-18.595 Z-2.667 F98.753
G1 X26.500 Y-1.000 Z-2.667 F138.000
G3 X26.354 Y-0.646 Z-2.667 I-0.500 J0.000 K0.000 F138.000
G1 X26.354 Y-0.646 Z-3.000 F60.000
G3 X26.000 Y-0.500 Z-3.000 I-0.354 J-0.354 K0.000 F138.000
G1 X1.000 Y-0.500 Z-3.000 F138.000
G3 X0.500 Y-1.000 Z-3.000 I-0.000 J-0.500 K0.000 F138.000
G1 X0.500 Y-18.265 Z-3.000 F138.000
G1 X0.500 Y-19.750 Z-1.500 F98.753
G1 X0.500 Y-21.235 Z-3.000 F98.753
G1 X0.500 Y-55.765 Z-3.000 F138.000
G1 X0.500 Y-57.250 Z-1.500 F98.753
G1 X0.500 Y-58.735 Z-3.000 F98.753
G1 X0.500 Y-76.000 Z-3.000 F138.000
G3 X1.000 Y-76.500 Z-3.000 I0.500 J-0.000 K0.000 F138.000
G1 X26.000 Y-76.500 Z-3.000 F138.000
G3 X26.500 Y-76.000 Z-3.000 I0.000 J0.500 K0.000 F138.000
G1 X26.500 Y-58.735 Z-3.000 F138.000
G1 X26.500 Y-57.250 Z-1.500 F98.753
G1 X26.500 Y-55.765 Z-3.000 F98.753
G1 X26.500 Y-21.235 Z-3.000 F138.000
G1 X26.500 Y-19.750 Z-1.500 F98.753
G1 X26.500 Y-18.265 Z-3.000 F98.753
G1 X26.500 Y-1.000 Z-3.000 F138.000
G3 X26.354 Y-0.646 Z-3.000 I-0.500 J0.000 K0.000 F138.000
G0 X26.354 Y-0.646 Z2.000
(Finish operation: DressupTag001)
(Begin postamble)
M5
G17 G90
M2
