(Exported by FreeCAD)
(Post Processor: grbl_post)
(Output Time:2020-08-05 13:41:09.912666)
(Begin preamble)
G17 G90
G21
(Begin operation: Fixture)
(Path: Fixture)
G54
(Finish operation: Fixture)
(Begin operation: T37: Two-flute 1mm x 7mm003)
(Path: T37: Two-flute 1mm x 7mm003)
(T37: Two-flute 1mm x 7mm003)
(Begin toolchange)
(M6 T37.0)
M3 S7400.0
(Finish operation: T37: Two-flute 1mm x 7mm003)
(Begin operation: DressupTag004)
(Path: DressupTag004)
G0 Z5.000
G0 X7.726 Y23.534 Z5.000
G0 X7.726 Y23.534 Z3.000
G1 X7.726 Y23.534 Z-0.330 F60.000
G1 X3.133 Y30.866 Z-0.330 F139.800
G3 X0.526 Y30.737 Z-0.330 I-1.264 J-0.856 K0.000 F139.800
G3 X0.646 Y30.224 Z-0.330 I0.474 J-0.160 K0.000 F139.800
G1 X1.354 Y29.517 Z-0.330 F139.800
G1 X1.561 Y29.517 Z-0.330 F139.800
G1 X1.354 Y29.517 Z-0.330 F139.800
G1 X0.646 Y28.809 Z-0.330 F139.800
G3 X0.646 Y28.102 Z-0.330 I0.354 J-0.354 K0.000 F139.800
G1 X1.354 Y27.395 Z-0.330 F139.800
G1 X1.561 Y27.395 Z-0.330 F139.800
G1 X1.354 Y27.395 Z-0.330 F139.800
G1 X0.646 Y26.688 Z-0.330 F139.800
G3 X0.646 Y25.981 Z-0.330 I0.354 J-0.354 K0.000 F139.800
G1 X1.354 Y25.274 Z-0.330 F139.800
G1 X1.561 Y25.274 Z-0.330 F139.800
G1 X1.354 Y25.274 Z-0.330 F139.800
G1 X0.646 Y24.567 Z-0.330 F139.800
G3 X0.646 Y23.860 Z-0.330 I0.354 J-0.354 K0.000 F139.800
G1 X1.354 Y23.153 Z-0.330 F139.800
G1 X1.561 Y23.153 Z-0.330 F139.800
G1 X1.354 Y23.153 Z-0.330 F139.800
G1 X0.646 Y22.445 Z-0.330 F139.800
G3 X0.646 Y21.738 Z-0.330 I0.354 J-0.354 K0.000 F139.800
G1 X1.354 Y21.031 Z-0.330 F139.800
G1 X1.561 Y21.031 Z-0.330 F139.800
G1 X1.354 Y21.031 Z-0.330 F139.800
G1 X0.646 Y20.324 Z-0.330 F139.800
G3 X0.646 Y19.617 Z-0.330 I0.354 J-0.354 K0.000 F139.800
G1 X1.354 Y18.910 Z-0.330 F139.800
G1 X1.561 Y18.910 Z-0.330 F139.800
G1 X1.354 Y18.910 Z-0.330 F139.800
G1 X0.646 Y18.203 Z-0.330 F139.800
G3 X0.646 Y17.496 Z-0.330 I0.354 J-0.354 K0.000 F139.800
G1 X1.354 Y16.789 Z-0.330 F139.800
G1 X1.561 Y16.789 Z-0.330 F139.800
G1 X1.354 Y16.789 Z-0.330 F139.800
G1 X0.646 Y16.081 Z-0.330 F139.800
G3 X0.646 Y15.374 Z-0.330 I0.354 J-0.354 K0.000 F139.800
G1 X1.354 Y14.667 Z-0.330 F139.800
G1 X1.561 Y14.667 Z-0.330 F139.800
G1 X1.354 Y14.667 Z-0.330 F139.800
G1 X0.646 Y13.960 Z-0.330 F139.800
G3 X0.646 Y13.253 Z-0.330 I0.354 J-0.354 K0.000 F139.800
G1 X1.354 Y12.546 Z-0.330 F139.800
G1 X1.561 Y12.546 Z-0.330 F139.800
G1 X1.354 Y12.546 Z-0.330 F139.800
G1 X0.646 Y11.839 Z-0.330 F139.800
G3 X0.646 Y11.132 Z-0.330 I0.354 J-0.354 K0.000 F139.800
G1 X1.354 Y10.425 Z-0.330 F139.800
G1 X1.561 Y10.425 Z-0.330 F139.800
G1 X1.354 Y10.425 Z-0.330 F139.800
G1 X0.646 Y9.718 Z-0.330 F139.800
G3 X0.646 Y9.010 Z-0.330 I0.354 J-0.354 K0.000 F139.800
G1 X1.354 Y8.303 Z-0.330 F139.800
G1 X1.561 Y8.303 Z-0.330 F139.800
G1 X1.354 Y8.303 Z-0.330 F139.800
G1 X0.646 Y7.596 Z-0.330 F139.800
G3 X0.646 Y6.889 Z-0.330 I0.354 J-0.354 K0.000 F139.800
G1 X1.354 Y6.182 Z-0.330 F139.800
G1 X1.561 Y6.182 Z-0.330 F139.800
G1 X1.354 Y6.182 Z-0.330 F139.800
G1 X0.646 Y5.475 Z-0.330 F139.800
G3 X0.646 Y4.768 Z-0.330 I0.354 J-0.354 K0.000 F139.800
G1 X1.354 Y4.061 Z-0.330 F139.800
G1 X1.561 Y4.061 Z-0.330 F139.800
G1 X1.354 Y4.061 Z-0.330 F139.800
G1 X0.646 Y3.354 Z-0.330 F139.800
G3 X1.000 Y2.500 Z-0.330 I0.354 J-0.354 K0.000 F139.800
G1 X2.500 Y2.500 Z-0.330 F139.800
G1 X2.646 Y2.646 Z-0.330 F139.800
G1 X2.500 Y2.500 Z-0.330 F139.800
G1 X2.500 Y1.000 Z-0.330 F139.800
G3 X3.000 Y0.500 Z-0.330 I0.500 J-0.000 K0.000 F139.800
G1 X18.000 Y0.500 Z-0.330 F139.800
G3 X18.500 Y1.000 Z-0.330 I0.000 J0.500 K0.000 F139.800
G1 X18.500 Y2.500 Z-0.330 F139.800
G1 X18.354 Y2.646 Z-0.330 F139.800
G1 X18.500 Y2.500 Z-0.330 F139.800
G1 X20.000 Y2.500 Z-0.330 F139.800
G3 X20.424 Y3.265 Z-0.330 I0.000 J0.500 K0.000 F139.800
G1 X7.726 Y23.534 Z-0.330 F139.800
G1 X7.726 Y23.534 Z-0.660 F60.000
G1 X3.133 Y30.866 Z-0.660 F139.800
G3 X0.526 Y30.737 Z-0.660 I-1.264 J-0.856 K0.000 F139.800
G3 X0.646 Y30.224 Z-0.660 I0.474 J-0.160 K0.000 F139.800
G1 X1.354 Y29.517 Z-0.660 F139.800
G1 X1.561 Y29.517 Z-0.660 F139.800
G1 X1.354 Y29.517 Z-0.660 F139.800
G1 X0.646 Y28.809 Z-0.660 F139.800
G3 X0.646 Y28.102 Z-0.660 I0.354 J-0.354 K0.000 F139.800
G1 X1.354 Y27.395 Z-0.660 F139.800
G1 X1.561 Y27.395 Z-0.660 F139.800
G1 X1.354 Y27.395 Z-0.660 F139.800
G1 X0.646 Y26.688 Z-0.660 F139.800
G3 X0.646 Y25.981 Z-0.660 I0.354 J-0.354 K0.000 F139.800
G1 X1.354 Y25.274 Z-0.660 F139.800
G1 X1.561 Y25.274 Z-0.660 F139.800
G1 X1.354 Y25.274 Z-0.660 F139.800
G1 X0.646 Y24.567 Z-0.660 F139.800
G3 X0.646 Y23.860 Z-0.660 I0.354 J-0.354 K0.000 F139.800
G1 X1.354 Y23.153 Z-0.660 F139.800
G1 X1.561 Y23.153 Z-0.660 F139.800
G1 X1.354 Y23.153 Z-0.660 F139.800
G1 X0.646 Y22.445 Z-0.660 F139.800
G3 X0.646 Y21.738 Z-0.660 I0.354 J-0.354 K0.000 F139.800
G1 X1.354 Y21.031 Z-0.660 F139.800
G1 X1.561 Y21.031 Z-0.660 F139.800
G1 X1.354 Y21.031 Z-0.660 F139.800
G1 X0.646 Y20.324 Z-0.660 F139.800
G3 X0.646 Y19.617 Z-0.660 I0.354 J-0.354 K0.000 F139.800
G1 X1.354 Y18.910 Z-0.660 F139.800
G1 X1.561 Y18.910 Z-0.660 F139.800
G1 X1.354 Y18.910 Z-0.660 F139.800
G1 X0.646 Y18.203 Z-0.660 F139.800
G3 X0.646 Y17.496 Z-0.660 I0.354 J-0.354 K0.000 F139.800
G1 X1.354 Y16.789 Z-0.660 F139.800
G1 X1.561 Y16.789 Z-0.660 F139.800
G1 X1.354 Y16.789 Z-0.660 F139.800
G1 X0.646 Y16.081 Z-0.660 F139.800
G3 X0.646 Y15.374 Z-0.660 I0.354 J-0.354 K0.000 F139.800
G1 X1.354 Y14.667 Z-0.660 F139.800
G1 X1.561 Y14.667 Z-0.660 F139.800
G1 X1.354 Y14.667 Z-0.660 F139.800
G1 X0.646 Y13.960 Z-0.660 F139.800
G3 X0.646 Y13.253 Z-0.660 I0.354 J-0.354 K0.000 F139.800
G1 X1.354 Y12.546 Z-0.660 F139.800
G1 X1.561 Y12.546 Z-0.660 F139.800
G1 X1.354 Y12.546 Z-0.660 F139.800
G1 X0.646 Y11.839 Z-0.660 F139.800
G3 X0.646 Y11.132 Z-0.660 I0.354 J-0.354 K0.000 F139.800
G1 X1.354 Y10.425 Z-0.660 F139.800
G1 X1.561 Y10.425 Z-0.660 F139.800
G1 X1.354 Y10.425 Z-0.660 F139.800
G1 X0.646 Y9.718 Z-0.660 F139.800
G3 X0.646 Y9.010 Z-0.660 I0.354 J-0.354 K0.000 F139.800
G1 X1.354 Y8.303 Z-0.660 F139.800
G1 X1.561 Y8.303 Z-0.660 F139.800
G1 X1.354 Y8.303 Z-0.660 F139.800
G1 X0.646 Y7.596 Z-0.660 F139.800
G3 X0.646 Y6.889 Z-0.660 I0.354 J-0.354 K0.000 F139.800
G1 X1.354 Y6.182 Z-0.660 F139.800
G1 X1.561 Y6.182 Z-0.660 F139.800
G1 X1.354 Y6.182 Z-0.660 F139.800
G1 X0.646 Y5.475 Z-0.660 F139.800
G3 X0.646 Y4.768 Z-0.660 I0.354 J-0.354 K0.000 F139.800
G1 X1.354 Y4.061 Z-0.660 F139.800
G1 X1.561 Y4.061 Z-0.660 F139.800
G1 X1.354 Y4.061 Z-0.660 F139.800
G1 X0.646 Y3.354 Z-0.660 F139.800
G3 X1.000 Y2.500 Z-0.660 I0.354 J-0.354 K0.000 F139.800
G1 X2.500 Y2.500 Z-0.660 F139.800
G1 X2.646 Y2.646 Z-0.660 F139.800
G1 X2.500 Y2.500 Z-0.660 F139.800
G1 X2.500 Y1.000 Z-0.660 F139.800
G3 X3.000 Y0.500 Z-0.660 I0.500 J-0.000 K0.000 F139.800
G1 X18.000 Y0.500 Z-0.660 F139.800
G3 X18.500 Y1.000 Z-0.660 I0.000 J0.500 K0.000 F139.800
G1 X18.500 Y2.500 Z-0.660 F139.800
G1 X18.354 Y2.646 Z-0.660 F139.800
G1 X18.500 Y2.500 Z-0.660 F139.800
G1 X20.000 Y2.500 Z-0.660 F139.800
G3 X20.424 Y3.265 Z-0.660 I0.000 J0.500 K0.000 F139.800
G1 X7.726 Y23.534 Z-0.660 F139.800
G1 X7.726 Y23.534 Z-0.990 F60.000
G1 X3.133 Y30.866 Z-0.990 F139.800
G3 X0.526 Y30.737 Z-0.990 I-1.264 J-0.856 K0.000 F139.800
G3 X0.646 Y30.224 Z-0.990 I0.474 J-0.160 K0.000 F139.800
G1 X1.354 Y29.517 Z-0.990 F139.800
G1 X1.561 Y29.517 Z-0.990 F139.800
G1 X1.354 Y29.517 Z-0.990 F139.800
G1 X0.646 Y28.809 Z-0.990 F139.800
G3 X0.646 Y28.102 Z-0.990 I0.354 J-0.354 K0.000 F139.800
G1 X1.354 Y27.395 Z-0.990 F139.800
G1 X1.561 Y27.395 Z-0.990 F139.800
G1 X1.354 Y27.395 Z-0.990 F139.800
G1 X0.646 Y26.688 Z-0.990 F139.800
G3 X0.646 Y25.981 Z-0.990 I0.354 J-0.354 K0.000 F139.800
G1 X1.354 Y25.274 Z-0.990 F139.800
G1 X1.561 Y25.274 Z-0.990 F139.800
G1 X1.354 Y25.274 Z-0.990 F139.800
G1 X0.646 Y24.567 Z-0.990 F139.800
G3 X0.646 Y23.860 Z-0.990 I0.354 J-0.354 K0.000 F139.800
G1 X1.354 Y23.153 Z-0.990 F139.800
G1 X1.561 Y23.153 Z-0.990 F139.800
G1 X1.354 Y23.153 Z-0.990 F139.800
G1 X0.646 Y22.445 Z-0.990 F139.800
G3 X0.646 Y21.738 Z-0.990 I0.354 J-0.354 K0.000 F139.800
G1 X1.354 Y21.031 Z-0.990 F139.800
G1 X1.561 Y21.031 Z-0.990 F139.800
G1 X1.354 Y21.031 Z-0.990 F139.800
G1 X0.646 Y20.324 Z-0.990 F139.800
G3 X0.646 Y19.617 Z-0.990 I0.354 J-0.354 K0.000 F139.800
G1 X1.354 Y18.910 Z-0.990 F139.800
G1 X1.561 Y18.910 Z-0.990 F139.800
G1 X1.354 Y18.910 Z-0.990 F139.800
G1 X0.646 Y18.203 Z-0.990 F139.800
G3 X0.646 Y17.496 Z-0.990 I0.354 J-0.354 K0.000 F139.800
G1 X1.354 Y16.789 Z-0.990 F139.800
G1 X1.561 Y16.789 Z-0.990 F139.800
G1 X1.354 Y16.789 Z-0.990 F139.800
G1 X0.646 Y16.081 Z-0.990 F139.800
G3 X0.646 Y15.374 Z-0.990 I0.354 J-0.354 K0.000 F139.800
G1 X1.354 Y14.667 Z-0.990 F139.800
G1 X1.561 Y14.667 Z-0.990 F139.800
G1 X1.354 Y14.667 Z-0.990 F139.800
G1 X0.646 Y13.960 Z-0.990 F139.800
G3 X0.646 Y13.253 Z-0.990 I0.354 J-0.354 K0.000 F139.800
G1 X1.354 Y12.546 Z-0.990 F139.800
G1 X1.561 Y12.546 Z-0.990 F139.800
G1 X1.354 Y12.546 Z-0.990 F139.800
G1 X0.646 Y11.839 Z-0.990 F139.800
G3 X0.646 Y11.132 Z-0.990 I0.354 J-0.354 K0.000 F139.800
G1 X1.354 Y10.425 Z-0.990 F139.800
G1 X1.561 Y10.425 Z-0.990 F139.800
G1 X1.354 Y10.425 Z-0.990 F139.800
G1 X0.646 Y9.718 Z-0.990 F139.800
G3 X0.646 Y9.010 Z-0.990 I0.354 J-0.354 K0.000 F139.800
G1 X1.354 Y8.303 Z-0.990 F139.800
G1 X1.561 Y8.303 Z-0.990 F139.800
G1 X1.354 Y8.303 Z-0.990 F139.800
G1 X0.646 Y7.596 Z-0.990 F139.800
G3 X0.646 Y6.889 Z-0.990 I0.354 J-0.354 K0.000 F139.800
G1 X1.354 Y6.182 Z-0.990 F139.800
G1 X1.561 Y6.182 Z-0.990 F139.800
G1 X1.354 Y6.182 Z-0.990 F139.800
G1 X0.646 Y5.475 Z-0.990 F139.800
G3 X0.646 Y4.768 Z-0.990 I0.354 J-0.354 K0.000 F139.800
G1 X1.354 Y4.061 Z-0.990 F139.800
G1 X1.561 Y4.061 Z-0.990 F139.800
G1 X1.354 Y4.061 Z-0.990 F139.800
G1 X0.646 Y3.354 Z-0.990 F139.800
G3 X1.000 Y2.500 Z-0.990 I0.354 J-0.354 K0.000 F139.800
G1 X2.500 Y2.500 Z-0.990 F139.800
G1 X2.646 Y2.646 Z-0.990 F139.800
G1 X2.500 Y2.500 Z-0.990 F139.800
G1 X2.500 Y1.000 Z-0.990 F139.800
G3 X3.000 Y0.500 Z-0.990 I0.500 J-0.000 K0.000 F139.800
G1 X18.000 Y0.500 Z-0.990 F139.800
G3 X18.500 Y1.000 Z-0.990 I0.000 J0.500 K0.000 F139.800
G1 X18.500 Y2.500 Z-0.990 F139.800
G1 X18.354 Y2.646 Z-0.990 F139.800
G1 X18.500 Y2.500 Z-0.990 F139.800
G1 X20.000 Y2.500 Z-0.990 F139.800
G3 X20.424 Y3.265 Z-0.990 I0.000 J0.500 K0.000 F139.800
G1 X7.726 Y23.534 Z-0.990 F139.800
G1 X7.726 Y23.534 Z-1.320 F60.000
G1 X6.427 Y25.608 Z-1.320 F139.800
G1 X3.133 Y30.866 Z-1.320 F139.800
G3 X0.526 Y30.737 Z-1.320 I-1.264 J-0.856 K0.000 F139.800
G3 X0.646 Y30.224 Z-1.320 I0.474 J-0.160 K0.000 F139.800
G1 X1.354 Y29.517 Z-1.320 F139.800
G1 X1.561 Y29.517 Z-1.320 F139.800
G1 X1.354 Y29.517 Z-1.320 F139.800
G1 X0.646 Y28.809 Z-1.320 F139.800
G3 X0.646 Y28.102 Z-1.320 I0.354 J-0.354 K0.000 F139.800
G1 X1.354 Y27.395 Z-1.320 F139.800
G1 X1.561 Y27.395 Z-1.320 F139.800
G1 X1.354 Y27.395 Z-1.320 F139.800
G1 X0.646 Y26.688 Z-1.320 F139.800
G3 X0.646 Y25.981 Z-1.320 I0.354 J-0.354 K0.000 F139.800
G1 X1.354 Y25.274 Z-1.320 F139.800
G1 X1.561 Y25.274 Z-1.320 F139.800
G1 X1.354 Y25.274 Z-1.320 F139.800
G1 X0.646 Y24.567 Z-1.320 F139.800
G3 X0.646 Y23.860 Z-1.320 I0.354 J-0.354 K0.000 F139.800
G1 X1.354 Y23.153 Z-1.320 F139.800
G1 X1.561 Y23.153 Z-1.320 F139.800
G1 X1.354 Y23.153 Z-1.320 F139.800
G1 X0.646 Y22.445 Z-1.320 F139.800
G3 X0.646 Y21.738 Z-1.320 I0.354 J-0.354 K0.000 F139.800
G1 X1.354 Y21.031 Z-1.320 F139.800
G1 X1.561 Y21.031 Z-1.320 F139.800
G1 X1.354 Y21.031 Z-1.320 F139.800
G1 X0.646 Y20.324 Z-1.320 F139.800
G3 X0.646 Y19.617 Z-1.320 I0.354 J-0.354 K0.000 F139.800
G1 X1.354 Y18.910 Z-1.320 F139.800
G1 X1.561 Y18.910 Z-1.320 F139.800
G1 X1.354 Y18.910 Z-1.320 F139.800
G1 X0.646 Y18.203 Z-1.320 F139.800
G3 X0.646 Y17.496 Z-1.320 I0.354 J-0.354 K0.000 F139.800
G1 X1.354 Y16.789 Z-1.320 F139.800
G1 X1.561 Y16.789 Z-1.320 F139.800
G1 X1.354 Y16.789 Z-1.320 F139.800
G1 X0.646 Y16.081 Z-1.320 F139.800
G3 X0.646 Y15.374 Z-1.320 I0.354 J-0.354 K0.000 F139.800
G1 X1.354 Y14.667 Z-1.320 F139.800
G1 X1.561 Y14.667 Z-1.320 F139.800
G1 X1.354 Y14.667 Z-1.320 F139.800
G1 X0.646 Y13.960 Z-1.320 F139.800
G3 X0.646 Y13.253 Z-1.320 I0.354 J-0.354 K0.000 F139.800
G1 X1.354 Y12.546 Z-1.320 F139.800
G1 X1.561 Y12.546 Z-1.320 F139.800
G1 X1.354 Y12.546 Z-1.320 F139.800
G1 X0.646 Y11.839 Z-1.320 F139.800
G3 X0.646 Y11.132 Z-1.320 I0.354 J-0.354 K0.000 F139.800
G1 X1.354 Y10.425 Z-1.320 F139.800
G1 X1.561 Y10.425 Z-1.320 F139.800
G1 X1.354 Y10.425 Z-1.320 F139.800
G1 X0.646 Y9.718 Z-1.320 F139.800
G3 X0.646 Y9.010 Z-1.320 I0.354 J-0.354 K0.000 F139.800
G1 X1.354 Y8.303 Z-1.320 F139.800
G1 X1.561 Y8.303 Z-1.320 F139.800
G1 X1.354 Y8.303 Z-1.320 F139.800
G1 X0.646 Y7.596 Z-1.320 F139.800
G3 X0.646 Y6.889 Z-1.320 I0.354 J-0.354 K0.000 F139.800
G1 X1.354 Y6.182 Z-1.320 F139.800
G1 X1.561 Y6.182 Z-1.320 F139.800
G1 X1.354 Y6.182 Z-1.320 F139.800
G1 X0.646 Y5.475 Z-1.320 F139.800
G3 X0.646 Y4.768 Z-1.320 I0.354 J-0.354 K0.000 F139.800
G1 X1.354 Y4.061 Z-1.320 F139.800
G1 X1.561 Y4.061 Z-1.320 F139.800
G1 X1.354 Y4.061 Z-1.320 F139.800
G1 X0.646 Y3.354 Z-1.320 F139.800
G3 X1.000 Y2.500 Z-1.320 I0.354 J-0.354 K0.000 F139.800
G1 X2.500 Y2.500 Z-1.320 F139.800
G1 X2.646 Y2.646 Z-1.320 F139.800
G1 X2.500 Y2.500 Z-1.320 F139.800
G1 X2.500 Y1.000 Z-1.320 F139.800
G3 X3.000 Y0.500 Z-1.320 I0.500 J-0.000 K0.000 F139.800
G1 X10.484 Y0.500 Z-1.320 F139.800
G1 X10.500 Y0.500 Z-1.304 F99.647
G1 X10.516 Y0.500 Z-1.320 F99.647
G1 X18.000 Y0.500 Z-1.320 F139.800
G3 X18.500 Y1.000 Z-1.320 I0.000 J0.500 K0.000 F139.800
G1 X18.500 Y2.500 Z-1.320 F139.800
G1 X18.354 Y2.646 Z-1.320 F139.800
G1 X18.500 Y2.500 Z-1.320 F139.800
G1 X20.000 Y2.500 Z-1.320 F139.800
G3 X20.424 Y3.265 Z-1.320 I0.000 J0.500 K0.000 F139.800
G1 X14.083 Y13.387 Z-1.320 F139.800
G1 X14.075 Y13.400 Z-1.304 F99.647
G1 X14.067 Y13.413 Z-1.320 F99.647
G1 X7.726 Y23.534 Z-1.320 F139.800
G1 X7.726 Y23.534 Z-1.650 F60.000
G1 X6.600 Y25.331 Z-1.650 F139.800
G1 X6.419 Y25.621 Z-1.304 F99.647
G1 X6.237 Y25.911 Z-1.650 F99.650
G1 X3.133 Y30.866 Z-1.650 F139.800
G3 X0.526 Y30.737 Z-1.650 I-1.264 J-0.856 K0.000 F139.800
G3 X0.646 Y30.224 Z-1.650 I0.474 J-0.160 K0.000 F139.800
G1 X1.354 Y29.517 Z-1.650 F139.800
G1 X1.561 Y29.517 Z-1.650 F139.800
G1 X1.354 Y29.517 Z-1.650 F139.800
G1 X0.646 Y28.809 Z-1.650 F139.800
G3 X0.646 Y28.102 Z-1.650 I0.354 J-0.354 K0.000 F139.800
G1 X1.354 Y27.395 Z-1.650 F139.800
G1 X1.561 Y27.395 Z-1.650 F139.800
G1 X1.354 Y27.395 Z-1.650 F139.800
G1 X0.646 Y26.688 Z-1.650 F139.800
G3 X0.646 Y25.981 Z-1.650 I0.354 J-0.354 K0.000 F139.800
G1 X1.354 Y25.274 Z-1.650 F139.800
G1 X1.561 Y25.274 Z-1.650 F139.800
G1 X1.354 Y25.274 Z-1.650 F139.800
G1 X0.646 Y24.567 Z-1.650 F139.800
G3 X0.646 Y23.860 Z-1.650 I0.354 J-0.354 K0.000 F139.800
G1 X1.354 Y23.153 Z-1.650 F139.800
G1 X1.561 Y23.153 Z-1.650 F139.800
G1 X1.354 Y23.153 Z-1.650 F139.800
G1 X0.646 Y22.445 Z-1.650 F139.800
G3 X0.646 Y21.738 Z-1.650 I0.354 J-0.354 K0.000 F139.800
G1 X1.354 Y21.031 Z-1.650 F139.800
G1 X1.561 Y21.031 Z-1.650 F139.800
G1 X1.354 Y21.031 Z-1.650 F139.800
G1 X0.646 Y20.324 Z-1.650 F139.800
G3 X0.646 Y19.617 Z-1.650 I0.354 J-0.354 K0.000 F139.800
G1 X1.354 Y18.910 Z-1.650 F139.800
G1 X1.561 Y18.910 Z-1.650 F139.800
G1 X1.354 Y18.910 Z-1.650 F139.800
G1 X0.646 Y18.203 Z-1.650 F139.800
G3 X0.646 Y17.496 Z-1.650 I0.354 J-0.354 K0.000 F139.800
G1 X1.354 Y16.789 Z-1.650 F139.800
G1 X1.561 Y16.789 Z-1.650 F139.800
G1 X1.354 Y16.789 Z-1.650 F139.800
G1 X0.646 Y16.081 Z-1.650 F139.800
G3 X0.646 Y15.374 Z-1.650 I0.354 J-0.354 K0.000 F139.800
G1 X1.354 Y14.667 Z-1.650 F139.800
G1 X1.561 Y14.667 Z-1.650 F139.800
G1 X1.354 Y14.667 Z-1.650 F139.800
G1 X0.646 Y13.960 Z-1.650 F139.800
G3 X0.646 Y13.253 Z-1.650 I0.354 J-0.354 K0.000 F139.800
G1 X1.354 Y12.546 Z-1.650 F139.800
G1 X1.561 Y12.546 Z-1.650 F139.800
G1 X1.354 Y12.546 Z-1.650 F139.800
G1 X0.646 Y11.839 Z-1.650 F139.800
G3 X0.646 Y11.132 Z-1.650 I0.354 J-0.354 K0.000 F139.800
G1 X1.354 Y10.425 Z-1.650 F139.800
G1 X1.561 Y10.425 Z-1.650 F139.800
G1 X1.354 Y10.425 Z-1.650 F139.800
G1 X0.646 Y9.718 Z-1.650 F139.800
G3 X0.646 Y9.010 Z-1.650 I0.354 J-0.354 K0.000 F139.800
G1 X1.354 Y8.303 Z-1.650 F139.800
G1 X1.561 Y8.303 Z-1.650 F139.800
G1 X1.354 Y8.303 Z-1.650 F139.800
G1 X0.646 Y7.596 Z-1.650 F139.800
G3 X0.646 Y6.889 Z-1.650 I0.354 J-0.354 K0.000 F139.800
G1 X1.354 Y6.182 Z-1.650 F139.800
G1 X1.561 Y6.182 Z-1.650 F139.800
G1 X1.354 Y6.182 Z-1.650 F139.800
G1 X0.646 Y5.475 Z-1.650 F139.800
G3 X0.646 Y4.768 Z-1.650 I0.354 J-0.354 K0.000 F139.800
G1 X1.354 Y4.061 Z-1.650 F139.800
G1 X1.561 Y4.061 Z-1.650 F139.800
G1 X1.354 Y4.061 Z-1.650 F139.800
G1 X0.646 Y3.354 Z-1.650 F139.800
G3 X1.000 Y2.500 Z-1.650 I0.354 J-0.354 K0.000 F139.800
G1 X2.500 Y2.500 Z-1.650 F139.800
G1 X2.646 Y2.646 Z-1.650 F139.800
G1 X2.500 Y2.500 Z-1.650 F139.800
G1 X2.500 Y1.000 Z-1.650 F139.800
G3 X3.000 Y0.500 Z-1.650 I0.500 J-0.000 K0.000 F139.800
G1 X10.158 Y0.500 Z-1.650 F139.800
G1 X10.500 Y0.500 Z-1.304 F99.647
G1 X10.842 Y0.500 Z-1.650 F99.647
G1 X18.000 Y0.500 Z-1.650 F139.800
G3 X18.500 Y1.000 Z-1.650 I0.000 J0.500 K0.000 F139.800
G1 X18.500 Y2.500 Z-1.650 F139.800
G1 X18.354 Y2.646 Z-1.650 F139.800
G1 X18.500 Y2.500 Z-1.650 F139.800
G1 X20.000 Y2.500 Z-1.650 F139.800
G3 X20.424 Y3.265 Z-1.650 I0.000 J0.500 K0.000 F139.800
G1 X14.257 Y13.110 Z-1.650 F139.800
G1 X14.075 Y13.400 Z-1.304 F99.647
G1 X13.893 Y13.690 Z-1.650 F99.647
G1 X7.726 Y23.534 Z-1.650 F139.800
G1 X7.726 Y23.534 Z-1.980 F60.000
G1 X6.774 Y25.054 Z-1.980 F139.800
G1 X6.419 Y25.621 Z-1.304 F99.647
G1 X6.063 Y26.188 Z-1.980 F99.649
G1 X3.133 Y30.866 Z-1.980 F139.800
G3 X0.526 Y30.737 Z-1.980 I-1.264 J-0.856 K0.000 F139.800
G3 X0.646 Y30.224 Z-1.980 I0.474 J-0.160 K0.000 F139.800
G1 X1.354 Y29.517 Z-1.980 F139.800
G1 X1.561 Y29.517 Z-1.980 F139.800
G1 X1.354 Y29.517 Z-1.980 F139.800
G1 X0.646 Y28.809 Z-1.980 F139.800
G3 X0.646 Y28.102 Z-1.980 I0.354 J-0.354 K0.000 F139.800
G1 X1.354 Y27.395 Z-1.980 F139.800
G1 X1.561 Y27.395 Z-1.980 F139.800
G1 X1.354 Y27.395 Z-1.980 F139.800
G1 X0.646 Y26.688 Z-1.980 F139.800
G3 X0.646 Y25.981 Z-1.980 I0.354 J-0.354 K0.000 F139.800
G1 X1.354 Y25.274 Z-1.980 F139.800
G1 X1.561 Y25.274 Z-1.980 F139.800
G1 X1.354 Y25.274 Z-1.980 F139.800
G1 X0.646 Y24.567 Z-1.980 F139.800
G3 X0.646 Y23.860 Z-1.980 I0.354 J-0.354 K0.000 F139.800
G1 X1.354 Y23.153 Z-1.980 F139.800
G1 X1.561 Y23.153 Z-1.980 F139.800
G1 X1.354 Y23.153 Z-1.980 F139.800
G1 X0.646 Y22.445 Z-1.980 F139.800
G3 X0.646 Y21.738 Z-1.980 I0.354 J-0.354 K0.000 F139.800
G1 X1.354 Y21.031 Z-1.980 F139.800
G1 X1.561 Y21.031 Z-1.980 F139.800
G1 X1.354 Y21.031 Z-1.980 F139.800
G1 X0.646 Y20.324 Z-1.980 F139.800
G3 X0.646 Y19.617 Z-1.980 I0.354 J-0.354 K0.000 F139.800
G1 X1.354 Y18.910 Z-1.980 F139.800
G1 X1.561 Y18.910 Z-1.980 F139.800
G1 X1.354 Y18.910 Z-1.980 F139.800
G1 X0.646 Y18.203 Z-1.980 F139.800
G3 X0.646 Y17.496 Z-1.980 I0.354 J-0.354 K0.000 F139.800
G1 X1.354 Y16.789 Z-1.980 F139.800
G1 X1.561 Y16.789 Z-1.980 F139.800
G1 X1.354 Y16.789 Z-1.980 F139.800
G1 X0.646 Y16.081 Z-1.980 F139.800
G3 X0.646 Y15.374 Z-1.980 I0.354 J-0.354 K0.000 F139.800
G1 X1.354 Y14.667 Z-1.980 F139.800
G1 X1.561 Y14.667 Z-1.980 F139.800
G1 X1.354 Y14.667 Z-1.980 F139.800
G1 X0.646 Y13.960 Z-1.980 F139.800
G3 X0.646 Y13.253 Z-1.980 I0.354 J-0.354 K0.000 F139.800
G1 X1.354 Y12.546 Z-1.980 F139.800
G1 X1.561 Y12.546 Z-1.980 F139.800
G1 X1.354 Y12.546 Z-1.980 F139.800
G1 X0.646 Y11.839 Z-1.980 F139.800
G3 X0.646 Y11.132 Z-1.980 I0.354 J-0.354 K0.000 F139.800
G1 X1.354 Y10.425 Z-1.980 F139.800
G1 X1.561 Y10.425 Z-1.980 F139.800
G1 X1.354 Y10.425 Z-1.980 F139.800
G1 X0.646 Y9.718 Z-1.980 F139.800
G3 X0.646 Y9.010 Z-1.980 I0.354 J-0.354 K0.000 F139.800
G1 X1.354 Y8.303 Z-1.980 F139.800
G1 X1.561 Y8.303 Z-1.980 F139.800
G1 X1.354 Y8.303 Z-1.980 F139.800
G1 X0.646 Y7.596 Z-1.980 F139.800
G3 X0.646 Y6.889 Z-1.980 I0.354 J-0.354 K0.000 F139.800
G1 X1.354 Y6.182 Z-1.980 F139.800
G1 X1.561 Y6.182 Z-1.980 F139.800
G1 X1.354 Y6.182 Z-1.980 F139.800
G1 X0.646 Y5.475 Z-1.980 F139.800
G3 X0.646 Y4.768 Z-1.980 I0.354 J-0.354 K0.000 F139.800
G1 X1.354 Y4.061 Z-1.980 F139.800
G1 X1.561 Y4.061 Z-1.980 F139.800
G1 X1.354 Y4.061 Z-1.980 F139.800
G1 X0.646 Y3.354 Z-1.980 F139.800
G3 X1.000 Y2.500 Z-1.980 I0.354 J-0.354 K0.000 F139.800
G1 X2.500 Y2.500 Z-1.980 F139.800
G1 X2.646 Y2.646 Z-1.980 F139.800
G1 X2.500 Y2.500 Z-1.980 F139.800
G1 X2.500 Y1.000 Z-1.980 F139.800
G3 X3.000 Y0.500 Z-1.980 I0.500 J-0.000 K0.000 F139.800
G1 X9.831 Y0.500 Z-1.980 F139.800
G1 X10.500 Y0.500 Z-1.304 F99.647
G1 X11.169 Y0.500 Z-1.980 F99.647
G1 X18.000 Y0.500 Z-1.980 F139.800
G3 X18.500 Y1.000 Z-1.980 I0.000 J0.500 K0.000 F139.800
G1 X18.500 Y2.500 Z-1.980 F139.800
G1 X18.354 Y2.646 Z-1.980 F139.800
G1 X18.500 Y2.500 Z-1.980 F139.800
G1 X20.000 Y2.500 Z-1.980 F139.800
G3 X20.424 Y3.265 Z-1.980 I0.000 J0.500 K0.000 F139.800
G1 X14.430 Y12.833 Z-1.980 F139.800
G1 X14.075 Y13.400 Z-1.304 F99.647
G1 X13.720 Y13.967 Z-1.980 F99.647
G1 X7.726 Y23.534 Z-1.980 F139.800
G1 X7.726 Y23.534 Z-2.310 F60.000
G1 X6.947 Y24.778 Z-2.310 F139.800
G1 X6.419 Y25.621 Z-1.304 F99.647
G1 X5.890 Y26.465 Z-2.310 F99.648
G1 X3.133 Y30.866 Z-2.310 F139.800
G3 X0.526 Y30.737 Z-2.310 I-1.264 J-0.856 K0.000 F139.800
G3 X0.646 Y30.224 Z-2.310 I0.474 J-0.160 K0.000 F139.800
G1 X1.354 Y29.517 Z-2.310 F139.800
G1 X1.561 Y29.517 Z-2.310 F139.800
G1 X1.354 Y29.517 Z-2.310 F139.800
G1 X0.646 Y28.809 Z-2.310 F139.800
G3 X0.646 Y28.102 Z-2.310 I0.354 J-0.354 K0.000 F139.800
G1 X1.354 Y27.395 Z-2.310 F139.800
G1 X1.561 Y27.395 Z-2.310 F139.800
G1 X1.354 Y27.395 Z-2.310 F139.800
G1 X0.646 Y26.688 Z-2.310 F139.800
G3 X0.646 Y25.981 Z-2.310 I0.354 J-0.354 K0.000 F139.800
G1 X1.354 Y25.274 Z-2.310 F139.800
G1 X1.561 Y25.274 Z-2.310 F139.800
G1 X1.354 Y25.274 Z-2.310 F139.800
G1 X0.646 Y24.567 Z-2.310 F139.800
G3 X0.646 Y23.860 Z-2.310 I0.354 J-0.354 K0.000 F139.800
G1 X1.354 Y23.153 Z-2.310 F139.800
G1 X1.561 Y23.153 Z-2.310 F139.800
G1 X1.354 Y23.153 Z-2.310 F139.800
G1 X0.646 Y22.445 Z-2.310 F139.800
G3 X0.646 Y21.738 Z-2.310 I0.354 J-0.354 K0.000 F139.800
G1 X1.354 Y21.031 Z-2.310 F139.800
G1 X1.561 Y21.031 Z-2.310 F139.800
G1 X1.354 Y21.031 Z-2.310 F139.800
G1 X0.646 Y20.324 Z-2.310 F139.800
G3 X0.646 Y19.617 Z-2.310 I0.354 J-0.354 K0.000 F139.800
G1 X1.354 Y18.910 Z-2.310 F139.800
G1 X1.561 Y18.910 Z-2.310 F139.800
G1 X1.354 Y18.910 Z-2.310 F139.800
G1 X0.646 Y18.203 Z-2.310 F139.800
G3 X0.646 Y17.496 Z-2.310 I0.354 J-0.354 K0.000 F139.800
G1 X1.354 Y16.789 Z-2.310 F139.800
G1 X1.561 Y16.789 Z-2.310 F139.800
G1 X1.354 Y16.789 Z-2.310 F139.800
G1 X0.646 Y16.081 Z-2.310 F139.800
G3 X0.646 Y15.374 Z-2.310 I0.354 J-0.354 K0.000 F139.800
G1 X1.354 Y14.667 Z-2.310 F139.800
G1 X1.561 Y14.667 Z-2.310 F139.800
G1 X1.354 Y14.667 Z-2.310 F139.800
G1 X0.646 Y13.960 Z-2.310 F139.800
G3 X0.646 Y13.253 Z-2.310 I0.354 J-0.354 K0.000 F139.800
G1 X1.354 Y12.546 Z-2.310 F139.800
G1 X1.561 Y12.546 Z-2.310 F139.800
G1 X1.354 Y12.546 Z-2.310 F139.800
G1 X0.646 Y11.839 Z-2.310 F139.800
G3 X0.646 Y11.132 Z-2.310 I0.354 J-0.354 K0.000 F139.800
G1 X1.354 Y10.425 Z-2.310 F139.800
G1 X1.561 Y10.425 Z-2.310 F139.800
G1 X1.354 Y10.425 Z-2.310 F139.800
G1 X0.646 Y9.718 Z-2.310 F139.800
G3 X0.646 Y9.010 Z-2.310 I0.354 J-0.354 K0.000 F139.800
G1 X1.354 Y8.303 Z-2.310 F139.800
G1 X1.561 Y8.303 Z-2.310 F139.800
G1 X1.354 Y8.303 Z-2.310 F139.800
G1 X0.646 Y7.596 Z-2.310 F139.800
G3 X0.646 Y6.889 Z-2.310 I0.354 J-0.354 K0.000 F139.800
G1 X1.354 Y6.182 Z-2.310 F139.800
G1 X1.561 Y6.182 Z-2.310 F139.800
G1 X1.354 Y6.182 Z-2.310 F139.800
G1 X0.646 Y5.475 Z-2.310 F139.800
G3 X0.646 Y4.768 Z-2.310 I0.354 J-0.354 K0.000 F139.800
G1 X1.354 Y4.061 Z-2.310 F139.800
G1 X1.561 Y4.061 Z-2.310 F139.800
G1 X1.354 Y4.061 Z-2.310 F139.800
G1 X0.646 Y3.354 Z-2.310 F139.800
G3 X1.000 Y2.500 Z-2.310 I0.354 J-0.354 K0.000 F139.800
G1 X2.500 Y2.500 Z-2.310 F139.800
G1 X2.646 Y2.646 Z-2.310 F139.800
G1 X2.500 Y2.500 Z-2.310 F139.800
G1 X2.500 Y1.000 Z-2.310 F139.800
G3 X3.000 Y0.500 Z-2.310 I0.500 J-0.000 K0.000 F139.800
G1 X9.504 Y0.500 Z-2.310 F139.800
G1 X10.500 Y0.500 Z-1.304 F99.647
G1 X11.496 Y0.500 Z-2.310 F99.647
G1 X18.000 Y0.500 Z-2.310 F139.800
G3 X18.500 Y1.000 Z-2.310 I0.000 J0.500 K0.000 F139.800
G1 X18.500 Y2.500 Z-2.310 F139.800
G1 X18.354 Y2.646 Z-2.310 F139.800
G1 X18.500 Y2.500 Z-2.310 F139.800
G1 X20.000 Y2.500 Z-2.310 F139.800
G3 X20.424 Y3.265 Z-2.310 I0.000 J0.500 K0.000 F139.800
G1 X14.604 Y12.556 Z-2.310 F139.800
G1 X14.075 Y13.400 Z-1.304 F99.647
G1 X13.546 Y14.244 Z-2.310 F99.647
G1 X7.726 Y23.534 Z-2.310 F139.800
G1 X7.726 Y23.534 Z-2.640 F60.000
G1 X7.121 Y24.501 Z-2.640 F139.800
G1 X6.419 Y25.621 Z-1.304 F99.647
G1 X5.716 Y26.742 Z-2.640 F99.648
G1 X3.133 Y30.866 Z-2.640 F139.800
G3 X0.526 Y30.737 Z-2.640 I-1.264 J-0.856 K0.000 F139.800
G3 X0.646 Y30.224 Z-2.640 I0.474 J-0.160 K0.000 F139.800
G1 X1.354 Y29.517 Z-2.640 F139.800
G1 X1.561 Y29.517 Z-2.640 F139.800
G1 X1.354 Y29.517 Z-2.640 F139.800
G1 X0.646 Y28.809 Z-2.640 F139.800
G3 X0.646 Y28.102 Z-2.640 I0.354 J-0.354 K0.000 F139.800
G1 X1.354 Y27.395 Z-2.640 F139.800
G1 X1.561 Y27.395 Z-2.640 F139.800
G1 X1.354 Y27.395 Z-2.640 F139.800
G1 X0.646 Y26.688 Z-2.640 F139.800
G3 X0.646 Y25.981 Z-2.640 I0.354 J-0.354 K0.000 F139.800
G1 X1.354 Y25.274 Z-2.640 F139.800
G1 X1.561 Y25.274 Z-2.640 F139.800
G1 X1.354 Y25.274 Z-2.640 F139.800
G1 X0.646 Y24.567 Z-2.640 F139.800
G3 X0.646 Y23.860 Z-2.640 I0.354 J-0.354 K0.000 F139.800
G1 X1.354 Y23.153 Z-2.640 F139.800
G1 X1.561 Y23.153 Z-2.640 F139.800
G1 X1.354 Y23.153 Z-2.640 F139.800
G1 X0.646 Y22.445 Z-2.640 F139.800
G3 X0.646 Y21.738 Z-2.640 I0.354 J-0.354 K0.000 F139.800
G1 X1.354 Y21.031 Z-2.640 F139.800
G1 X1.561 Y21.031 Z-2.640 F139.800
G1 X1.354 Y21.031 Z-2.640 F139.800
G1 X0.646 Y20.324 Z-2.640 F139.800
G3 X0.646 Y19.617 Z-2.640 I0.354 J-0.354 K0.000 F139.800
G1 X1.354 Y18.910 Z-2.640 F139.800
G1 X1.561 Y18.910 Z-2.640 F139.800
G1 X1.354 Y18.910 Z-2.640 F139.800
G1 X0.646 Y18.203 Z-2.640 F139.800
G3 X0.646 Y17.496 Z-2.640 I0.354 J-0.354 K0.000 F139.800
G1 X1.354 Y16.789 Z-2.640 F139.800
G1 X1.561 Y16.789 Z-2.640 F139.800
G1 X1.354 Y16.789 Z-2.640 F139.800
G1 X0.646 Y16.081 Z-2.640 F139.800
G3 X0.646 Y15.374 Z-2.640 I0.354 J-0.354 K0.000 F139.800
G1 X1.354 Y14.667 Z-2.640 F139.800
G1 X1.561 Y14.667 Z-2.640 F139.800
G1 X1.354 Y14.667 Z-2.640 F139.800
G1 X0.646 Y13.960 Z-2.640 F139.800
G3 X0.646 Y13.253 Z-2.640 I0.354 J-0.354 K0.000 F139.800
G1 X1.354 Y12.546 Z-2.640 F139.800
G1 X1.561 Y12.546 Z-2.640 F139.800
G1 X1.354 Y12.546 Z-2.640 F139.800
G1 X0.646 Y11.839 Z-2.640 F139.800
G3 X0.646 Y11.132 Z-2.640 I0.354 J-0.354 K0.000 F139.800
G1 X1.354 Y10.425 Z-2.640 F139.800
G1 X1.561 Y10.425 Z-2.640 F139.800
G1 X1.354 Y10.425 Z-2.640 F139.800
G1 X0.646 Y9.718 Z-2.640 F139.800
G3 X0.646 Y9.010 Z-2.640 I0.354 J-0.354 K0.000 F139.800
G1 X1.354 Y8.303 Z-2.640 F139.800
G1 X1.561 Y8.303 Z-2.640 F139.800
G1 X1.354 Y8.303 Z-2.640 F139.800
G1 X0.646 Y7.596 Z-2.640 F139.800
G3 X0.646 Y6.889 Z-2.640 I0.354 J-0.354 K0.000 F139.800
G1 X1.354 Y6.182 Z-2.640 F139.800
G1 X1.561 Y6.182 Z-2.640 F139.800
G1 X1.354 Y6.182 Z-2.640 F139.800
G1 X0.646 Y5.475 Z-2.640 F139.800
G3 X0.646 Y4.768 Z-2.640 I0.354 J-0.354 K0.000 F139.800
G1 X1.354 Y4.061 Z-2.640 F139.800
G1 X1.561 Y4.061 Z-2.640 F139.800
G1 X1.354 Y4.061 Z-2.640 F139.800
G1 X0.646 Y3.354 Z-2.640 F139.800
G3 X1.000 Y2.500 Z-2.640 I0.354 J-0.354 K0.000 F139.800
G1 X2.500 Y2.500 Z-2.640 F139.800
G1 X2.646 Y2.646 Z-2.640 F139.800
G1 X2.500 Y2.500 Z-2.640 F139.800
G1 X2.500 Y1.000 Z-2.640 F139.800
G3 X3.000 Y0.500 Z-2.640 I0.500 J-0.000 K0.000 F139.800
G1 X9.178 Y0.500 Z-2.640 F139.800
G1 X10.500 Y0.500 Z-1.304 F99.647
G1 X11.822 Y0.500 Z-2.640 F99.647
G1 X18.000 Y0.500 Z-2.640 F139.800
G3 X18.500 Y1.000 Z-2.640 I0.000 J0.500 K0.000 F139.800
G1 X18.500 Y2.500 Z-2.640 F139.800
G1 X18.354 Y2.646 Z-2.640 F139.800
G1 X18.500 Y2.500 Z-2.640 F139.800
G1 X20.000 Y2.500 Z-2.640 F139.800
G3 X20.424 Y3.265 Z-2.640 I0.000 J0.500 K0.000 F139.800
G1 X14.777 Y12.279 Z-2.640 F139.800
G1 X14.075 Y13.400 Z-1.304 F99.647
G1 X13.373 Y14.520 Z-2.640 F99.647
G1 X7.726 Y23.534 Z-2.640 F139.800
G1 X7.726 Y23.534 Z-2.970 F60.000
G1 X7.294 Y24.224 Z-2.970 F139.800
G1 X6.419 Y25.621 Z-1.304 F99.647
G1 X5.543 Y27.019 Z-2.970 F99.648
G1 X3.133 Y30.866 Z-2.970 F139.800
G3 X0.526 Y30.737 Z-2.970 I-1.264 J-0.856 K0.000 F139.800
G3 X0.646 Y30.224 Z-2.970 I0.474 J-0.160 K0.000 F139.800
G1 X1.354 Y29.517 Z-2.970 F139.800
G1 X1.561 Y29.517 Z-2.970 F139.800
G1 X1.354 Y29.517 Z-2.970 F139.800
G1 X0.646 Y28.809 Z-2.970 F139.800
G3 X0.646 Y28.102 Z-2.970 I0.354 J-0.354 K0.000 F139.800
G1 X1.354 Y27.395 Z-2.970 F139.800
G1 X1.561 Y27.395 Z-2.970 F139.800
G1 X1.354 Y27.395 Z-2.970 F139.800
G1 X0.646 Y26.688 Z-2.970 F139.800
G3 X0.646 Y25.981 Z-2.970 I0.354 J-0.354 K0.000 F139.800
G1 X1.354 Y25.274 Z-2.970 F139.800
G1 X1.561 Y25.274 Z-2.970 F139.800
G1 X1.354 Y25.274 Z-2.970 F139.800
G1 X0.646 Y24.567 Z-2.970 F139.800
G3 X0.646 Y23.860 Z-2.970 I0.354 J-0.354 K0.000 F139.800
G1 X1.354 Y23.153 Z-2.970 F139.800
G1 X1.561 Y23.153 Z-2.970 F139.800
G1 X1.354 Y23.153 Z-2.970 F139.800
G1 X0.646 Y22.445 Z-2.970 F139.800
G3 X0.646 Y21.738 Z-2.970 I0.354 J-0.354 K0.000 F139.800
G1 X1.354 Y21.031 Z-2.970 F139.800
G1 X1.561 Y21.031 Z-2.970 F139.800
G1 X1.354 Y21.031 Z-2.970 F139.800
G1 X0.646 Y20.324 Z-2.970 F139.800
G3 X0.646 Y19.617 Z-2.970 I0.354 J-0.354 K0.000 F139.800
G1 X1.354 Y18.910 Z-2.970 F139.800
G1 X1.561 Y18.910 Z-2.970 F139.800
G1 X1.354 Y18.910 Z-2.970 F139.800
G1 X0.646 Y18.203 Z-2.970 F139.800
G3 X0.646 Y17.496 Z-2.970 I0.354 J-0.354 K0.000 F139.800
G1 X1.354 Y16.789 Z-2.970 F139.800
G1 X1.561 Y16.789 Z-2.970 F139.800
G1 X1.354 Y16.789 Z-2.970 F139.800
G1 X0.646 Y16.081 Z-2.970 F139.800
G3 X0.646 Y15.374 Z-2.970 I0.354 J-0.354 K0.000 F139.800
G1 X1.354 Y14.667 Z-2.970 F139.800
G1 X1.561 Y14.667 Z-2.970 F139.800
G1 X1.354 Y14.667 Z-2.970 F139.800
G1 X0.646 Y13.960 Z-2.970 F139.800
G3 X0.646 Y13.253 Z-2.970 I0.354 J-0.354 K0.000 F139.800
G1 X1.354 Y12.546 Z-2.970 F139.800
G1 X1.561 Y12.546 Z-2.970 F139.800
G1 X1.354 Y12.546 Z-2.970 F139.800
G1 X0.646 Y11.839 Z-2.970 F139.800
G3 X0.646 Y11.132 Z-2.970 I0.354 J-0.354 K0.000 F139.800
G1 X1.354 Y10.425 Z-2.970 F139.800
G1 X1.561 Y10.425 Z-2.970 F139.800
G1 X1.354 Y10.425 Z-2.970 F139.800
G1 X0.646 Y9.718 Z-2.970 F139.800
G3 X0.646 Y9.010 Z-2.970 I0.354 J-0.354 K0.000 F139.800
G1 X1.354 Y8.303 Z-2.970 F139.800
G1 X1.561 Y8.303 Z-2.970 F139.800
G1 X1.354 Y8.303 Z-2.970 F139.800
G1 X0.646 Y7.596 Z-2.970 F139.800
G3 X0.646 Y6.889 Z-2.970 I0.354 J-0.354 K0.000 F139.800
G1 X1.354 Y6.182 Z-2.970 F139.800
G1 X1.561 Y6.182 Z-2.970 F139.800
G1 X1.354 Y6.182 Z-2.970 F139.800
G1 X0.646 Y5.475 Z-2.970 F139.800
G3 X0.646 Y4.768 Z-2.970 I0.354 J-0.354 K0.000 F139.800
G1 X1.354 Y4.061 Z-2.970 F139.800
G1 X1.561 Y4.061 Z-2.970 F139.800
G1 X1.354 Y4.061 Z-2.970 F139.800
G1 X0.646 Y3.354 Z-2.970 F139.800
G3 X1.000 Y2.500 Z-2.970 I0.354 J-0.354 K0.000 F139.800
G1 X2.500 Y2.500 Z-2.970 F139.800
G1 X2.646 Y2.646 Z-2.970 F139.800
G1 X2.500 Y2.500 Z-2.970 F139.800
G1 X2.500 Y1.000 Z-2.970 F139.800
G3 X3.000 Y0.500 Z-2.970 I0.500 J-0.000 K0.000 F139.800
G1 X8.851 Y0.500 Z-2.970 F139.800
G1 X10.500 Y0.500 Z-1.304 F99.647
G1 X12.149 Y0.500 Z-2.970 F99.647
G1 X18.000 Y0.500 Z-2.970 F139.800
G3 X18.500 Y1.000 Z-2.970 I0.000 J0.500 K0.000 F139.800
G1 X18.500 Y2.500 Z-2.970 F139.800
G1 X18.354 Y2.646 Z-2.970 F139.800
G1 X18.500 Y2.500 Z-2.970 F139.800
G1 X20.000 Y2.500 Z-2.970 F139.800
G3 X20.424 Y3.265 Z-2.970 I0.000 J0.500 K0.000 F139.800
G1 X14.950 Y12.002 Z-2.970 F139.800
G1 X14.075 Y13.400 Z-1.304 F99.647
G1 X13.199 Y14.797 Z-2.970 F99.647
G1 X7.726 Y23.534 Z-2.970 F139.800
G1 X7.726 Y23.534 Z-3.000 F60.000
G1 X7.310 Y24.199 Z-3.000 F139.800
G1 X6.419 Y25.621 Z-1.304 F99.647
G1 X5.527 Y27.044 Z-3.000 F99.648
G1 X3.133 Y30.866 Z-3.000 F139.800
G3 X0.526 Y30.737 Z-3.000 I-1.264 J-0.856 K0.000 F139.800
G3 X0.646 Y30.224 Z-3.000 I0.474 J-0.160 K0.000 F139.800
G1 X1.354 Y29.517 Z-3.000 F139.800
G1 X1.561 Y29.517 Z-3.000 F139.800
G1 X1.354 Y29.517 Z-3.000 F139.800
G1 X0.646 Y28.809 Z-3.000 F139.800
G3 X0.646 Y28.102 Z-3.000 I0.354 J-0.354 K0.000 F139.800
G1 X1.354 Y27.395 Z-3.000 F139.800
G1 X1.561 Y27.395 Z-3.000 F139.800
G1 X1.354 Y27.395 Z-3.000 F139.800
G1 X0.646 Y26.688 Z-3.000 F139.800
G3 X0.646 Y25.981 Z-3.000 I0.354 J-0.354 K0.000 F139.800
G1 X1.354 Y25.274 Z-3.000 F139.800
G1 X1.561 Y25.274 Z-3.000 F139.800
G1 X1.354 Y25.274 Z-3.000 F139.800
G1 X0.646 Y24.567 Z-3.000 F139.800
G3 X0.646 Y23.860 Z-3.000 I0.354 J-0.354 K0.000 F139.800
G1 X1.354 Y23.153 Z-3.000 F139.800
G1 X1.561 Y23.153 Z-3.000 F139.800
G1 X1.354 Y23.153 Z-3.000 F139.800
G1 X0.646 Y22.445 Z-3.000 F139.800
G3 X0.646 Y21.738 Z-3.000 I0.354 J-0.354 K0.000 F139.800
G1 X1.354 Y21.031 Z-3.000 F139.800
G1 X1.561 Y21.031 Z-3.000 F139.800
G1 X1.354 Y21.031 Z-3.000 F139.800
G1 X0.646 Y20.324 Z-3.000 F139.800
G3 X0.646 Y19.617 Z-3.000 I0.354 J-0.354 K0.000 F139.800
G1 X1.354 Y18.910 Z-3.000 F139.800
G1 X1.561 Y18.910 Z-3.000 F139.800
G1 X1.354 Y18.910 Z-3.000 F139.800
G1 X0.646 Y18.203 Z-3.000 F139.800
G3 X0.646 Y17.496 Z-3.000 I0.354 J-0.354 K0.000 F139.800
G1 X1.354 Y16.789 Z-3.000 F139.800
G1 X1.561 Y16.789 Z-3.000 F139.800
G1 X1.354 Y16.789 Z-3.000 F139.800
G1 X0.646 Y16.081 Z-3.000 F139.800
G3 X0.646 Y15.374 Z-3.000 I0.354 J-0.354 K0.000 F139.800
G1 X1.354 Y14.667 Z-3.000 F139.800
G1 X1.561 Y14.667 Z-3.000 F139.800
G1 X1.354 Y14.667 Z-3.000 F139.800
G1 X0.646 Y13.960 Z-3.000 F139.800
G3 X0.646 Y13.253 Z-3.000 I0.354 J-0.354 K0.000 F139.800
G1 X1.354 Y12.546 Z-3.000 F139.800
G1 X1.561 Y12.546 Z-3.000 F139.800
G1 X1.354 Y12.546 Z-3.000 F139.800
G1 X0.646 Y11.839 Z-3.000 F139.800
G3 X0.646 Y11.132 Z-3.000 I0.354 J-0.354 K0.000 F139.800
G1 X1.354 Y10.425 Z-3.000 F139.800
G1 X1.561 Y10.425 Z-3.000 F139.800
G1 X1.354 Y10.425 Z-3.000 F139.800
G1 X0.646 Y9.718 Z-3.000 F139.800
G3 X0.646 Y9.010 Z-3.000 I0.354 J-0.354 K0.000 F139.800
G1 X1.354 Y8.303 Z-3.000 F139.800
G1 X1.561 Y8.303 Z-3.000 F139.800
G1 X1.354 Y8.303 Z-3.000 F139.800
G1 X0.646 Y7.596 Z-3.000 F139.800
G3 X0.646 Y6.889 Z-3.000 I0.354 J-0.354 K0.000 F139.800
G1 X1.354 Y6.182 Z-3.000 F139.800
G1 X1.561 Y6.182 Z-3.000 F139.800
G1 X1.354 Y6.182 Z-3.000 F139.800
G1 X0.646 Y5.475 Z-3.000 F139.800
G3 X0.646 Y4.768 Z-3.000 I0.354 J-0.354 K0.000 F139.800
G1 X1.354 Y4.061 Z-3.000 F139.800
G1 X1.561 Y4.061 Z-3.000 F139.800
G1 X1.354 Y4.061 Z-3.000 F139.800
G1 X0.646 Y3.354 Z-3.000 F139.800
G3 X1.000 Y2.500 Z-3.000 I0.354 J-0.354 K0.000 F139.800
G1 X2.500 Y2.500 Z-3.000 F139.800
G1 X2.646 Y2.646 Z-3.000 F139.800
G1 X2.500 Y2.500 Z-3.000 F139.800
G1 X2.500 Y1.000 Z-3.000 F139.800
G3 X3.000 Y0.500 Z-3.000 I0.500 J-0.000 K0.000 F139.800
G1 X8.821 Y0.500 Z-3.000 F139.800
G1 X10.500 Y0.500 Z-1.304 F99.647
G1 X12.179 Y0.500 Z-3.000 F99.647
G1 X18.000 Y0.500 Z-3.000 F139.800
G3 X18.500 Y1.000 Z-3.000 I0.000 J0.500 K0.000 F139.800
G1 X18.500 Y2.500 Z-3.000 F139.800
G1 X18.354 Y2.646 Z-3.000 F139.800
G1 X18.500 Y2.500 Z-3.000 F139.800
G1 X20.000 Y2.500 Z-3.000 F139.800
G3 X20.424 Y3.265 Z-3.000 I0.000 J0.500 K0.000 F139.800
G1 X14.966 Y11.977 Z-3.000 F139.800
G1 X14.075 Y13.400 Z-1.304 F99.647
G1 X13.184 Y14.822 Z-3.000 F99.647
G1 X7.726 Y23.534 Z-3.000 F139.800
G0 X7.726 Y23.534 Z5.000
(Finish operation: DressupTag004)
(Begin postamble)
M5
G17 G90
M2
