(Exported by FreeCAD)
(Post Processor: grbl_post)
(Output Time:2020-08-18 11:39:46.183726)
(Begin preamble)
G17 G90
G21
(Begin operation: Fixture)
(Path: Fixture)
G54
(Finish operation: Fixture)
(Begin operation: T37: Two-flute 1mm x 7mm)
(Path: T37: Two-flute 1mm x 7mm)
(T37: Two-flute 1mm x 7mm)
(Begin toolchange)
(M6 T37.0)
M3 S7400.0
(Finish operation: T37: Two-flute 1mm x 7mm)
(Begin operation: DressupTag)
(Path: DressupTag)
G0 Z2.000
G0 X20.530 Y1.854 Z2.000
G0 X20.530 Y1.854 Z1.000
G1 X20.530 Y1.854 Z-0.500 F60.000
G3 X20.176 Y2.000 Z-0.500 I-0.354 J-0.354 K0.000 F139.980
G1 X4.000 Y2.000 Z-0.500 F139.980
G3 X3.500 Y1.500 Z-0.500 I-0.000 J-0.500 K0.000 F139.980
G1 X3.500 Y-5.500 Z-0.500 F139.980
G1 X3.646 Y-5.646 Z-0.500 F139.980
G1 X3.500 Y-5.500 Z-0.500 F139.980
G1 X1.500 Y-5.500 Z-0.500 F139.980
G3 X1.000 Y-6.000 Z-0.500 I-0.000 J-0.500 K0.000 F139.980
G1 X1.000 Y-16.000 Z-0.500 F139.980
G3 X1.500 Y-16.500 Z-0.500 I0.500 J-0.000 K0.000 F139.980
G1 X3.500 Y-16.500 Z-0.500 F139.980
G1 X3.646 Y-16.354 Z-0.500 F139.980
G1 X3.500 Y-16.500 Z-0.500 F139.980
G1 X3.500 Y-23.500 Z-0.500 F139.980
G3 X4.000 Y-24.000 Z-0.500 I0.500 J-0.000 K0.000 F139.980
G1 X20.176 Y-24.000 Z-0.500 F139.980
G3 X20.676 Y-23.500 Z-0.500 I0.000 J0.500 K0.000 F139.980
G1 X20.676 Y1.500 Z-0.500 F139.980
G3 X20.530 Y1.854 Z-0.500 I-0.500 J0.000 K0.000 F139.980
G1 X20.530 Y1.854 Z-1.000 F60.000
G3 X20.176 Y2.000 Z-1.000 I-0.354 J-0.354 K0.000 F139.980
G1 X4.000 Y2.000 Z-1.000 F139.980
G3 X3.500 Y1.500 Z-1.000 I-0.000 J-0.500 K0.000 F139.980
G1 X3.500 Y-5.500 Z-1.000 F139.980
G1 X3.646 Y-5.646 Z-1.000 F139.980
G1 X3.500 Y-5.500 Z-1.000 F139.980
G1 X1.500 Y-5.500 Z-1.000 F139.980
G3 X1.000 Y-6.000 Z-1.000 I-0.000 J-0.500 K0.000 F139.980
G1 X1.000 Y-16.000 Z-1.000 F139.980
G3 X1.500 Y-16.500 Z-1.000 I0.500 J-0.000 K0.000 F139.980
G1 X3.500 Y-16.500 Z-1.000 F139.980
G1 X3.646 Y-16.354 Z-1.000 F139.980
G1 X3.500 Y-16.500 Z-1.000 F139.980
G1 X3.500 Y-23.500 Z-1.000 F139.980
G3 X4.000 Y-24.000 Z-1.000 I0.500 J-0.000 K0.000 F139.980
G1 X20.176 Y-24.000 Z-1.000 F139.980
G3 X20.676 Y-23.500 Z-1.000 I0.000 J0.500 K0.000 F139.980
G1 X20.676 Y1.500 Z-1.000 F139.980
G3 X20.530 Y1.854 Z-1.000 I-0.500 J0.000 K0.000 F139.980
G1 X20.530 Y1.854 Z-1.500 F60.000
G3 X20.176 Y2.000 Z-1.500 I-0.354 J-0.354 K0.000 F139.980
G1 X4.000 Y2.000 Z-1.500 F139.980
G3 X3.500 Y1.500 Z-1.500 I-0.000 J-0.500 K0.000 F139.980
G1 X3.500 Y-5.500 Z-1.500 F139.980
G1 X3.646 Y-5.646 Z-1.500 F139.980
G1 X3.500 Y-5.500 Z-1.500 F139.980
G1 X1.500 Y-5.500 Z-1.500 F139.980
G3 X1.000 Y-6.000 Z-1.500 I-0.000 J-0.500 K0.000 F139.980
G1 X1.000 Y-16.000 Z-1.500 F139.980
G3 X1.500 Y-16.500 Z-1.500 I0.500 J-0.000 K0.000 F139.980
G1 X3.500 Y-16.500 Z-1.500 F139.980
G1 X3.646 Y-16.354 Z-1.500 F139.980
G1 X3.500 Y-16.500 Z-1.500 F139.980
G1 X3.500 Y-23.500 Z-1.500 F139.980
G3 X4.000 Y-24.000 Z-1.500 I0.500 J-0.000 K0.000 F139.980
G1 X20.176 Y-24.000 Z-1.500 F139.980
G3 X20.676 Y-23.500 Z-1.500 I0.000 J0.500 K0.000 F139.980
G1 X20.676 Y1.500 Z-1.500 F139.980
G3 X20.530 Y1.854 Z-1.500 I-0.500 J0.000 K0.000 F139.980
G1 X20.530 Y1.854 Z-2.000 F60.000
G3 X20.176 Y2.000 Z-2.000 I-0.354 J-0.354 K0.000 F139.980
G1 X13.120 Y2.000 Z-2.000 F139.980
G1 X12.625 Y2.000 Z-1.500 F99.737
G1 X12.130 Y2.000 Z-2.000 F99.737
G1 X4.000 Y2.000 Z-2.000 F139.980
G3 X3.500 Y1.500 Z-2.000 I-0.000 J-0.500 K0.000 F139.980
G1 X3.500 Y-5.500 Z-2.000 F139.980
G1 X3.646 Y-5.646 Z-2.000 F139.980
G1 X3.500 Y-5.500 Z-2.000 F139.980
G1 X1.500 Y-5.500 Z-2.000 F139.980
G3 X1.000 Y-6.000 Z-2.000 I-0.000 J-0.500 K0.000 F139.980
G1 X1.000 Y-16.000 Z-2.000 F139.980
G3 X1.500 Y-16.500 Z-2.000 I0.500 J-0.000 K0.000 F139.980
G1 X3.500 Y-16.500 Z-2.000 F139.980
G1 X3.646 Y-16.354 Z-2.000 F139.980
G1 X3.500 Y-16.500 Z-2.000 F139.980
G1 X3.500 Y-23.500 Z-2.000 F139.980
G3 X4.000 Y-24.000 Z-2.000 I0.500 J-0.000 K0.000 F139.980
G1 X12.046 Y-24.000 Z-2.000 F139.980
G1 X12.541 Y-24.000 Z-1.500 F99.737
G1 X13.036 Y-24.000 Z-2.000 F99.737
G1 X20.176 Y-24.000 Z-2.000 F139.980
G3 X20.676 Y-23.500 Z-2.000 I0.000 J0.500 K0.000 F139.980
G1 X20.676 Y1.500 Z-2.000 F139.980
G3 X20.530 Y1.854 Z-2.000 I-0.500 J0.000 K0.000 F139.980
G1 X20.530 Y1.854 Z-2.500 F60.000
G3 X20.176 Y2.000 Z-2.500 I-0.354 J-0.354 K0.000 F139.980
G1 X13.615 Y2.000 Z-2.500 F139.980
G1 X12.625 Y2.000 Z-1.500 F99.737
G1 X11.635 Y2.000 Z-2.500 F99.737
G1 X4.000 Y2.000 Z-2.500 F139.980
G3 X3.500 Y1.500 Z-2.500 I-0.000 J-0.500 K0.000 F139.980
G1 X3.500 Y-5.500 Z-2.500 F139.980
G1 X3.646 Y-5.646 Z-2.500 F139.980
G1 X3.500 Y-5.500 Z-2.500 F139.980
G1 X1.500 Y-5.500 Z-2.500 F139.980
G3 X1.000 Y-6.000 Z-2.500 I-0.000 J-0.500 K0.000 F139.980
G1 X1.000 Y-16.000 Z-2.500 F139.980
G3 X1.500 Y-16.500 Z-2.500 I0.500 J-0.000 K0.000 F139.980
G1 X3.500 Y-16.500 Z-2.500 F139.980
G1 X3.646 Y-16.354 Z-2.500 F139.980
G1 X3.500 Y-16.500 Z-2.500 F139.980
G1 X3.500 Y-23.500 Z-2.500 F139.980
G3 X4.000 Y-24.000 Z-2.500 I0.500 J-0.000 K0.000 F139.980
G1 X11.551 Y-24.000 Z-2.500 F139.980
G1 X12.541 Y-24.000 Z-1.500 F99.737
G1 X13.531 Y-24.000 Z-2.500 F99.737
G1 X20.176 Y-24.000 Z-2.500 F139.980
G3 X20.676 Y-23.500 Z-2.500 I0.000 J0.500 K0.000 F139.980
G1 X20.676 Y1.500 Z-2.500 F139.980
G3 X20.530 Y1.854 Z-2.500 I-0.500 J0.000 K0.000 F139.980
G1 X20.530 Y1.854 Z-3.000 F60.000
G3 X20.176 Y2.000 Z-3.000 I-0.354 J-0.354 K0.000 F139.980
G1 X14.110 Y2.000 Z-3.000 F139.980
G1 X12.625 Y2.000 Z-1.500 F99.737
G1 X11.140 Y2.000 Z-3.000 F99.737
G1 X4.000 Y2.000 Z-3.000 F139.980
G3 X3.500 Y1.500 Z-3.000 I-0.000 J-0.500 K0.000 F139.980
G1 X3.500 Y-5.500 Z-3.000 F139.980
G1 X3.646 Y-5.646 Z-3.000 F139.980
G1 X3.500 Y-5.500 Z-3.000 F139.980
G1 X1.500 Y-5.500 Z-3.000 F139.980
G3 X1.000 Y-6.000 Z-3.000 I-0.000 J-0.500 K0.000 F139.980
G1 X1.000 Y-16.000 Z-3.000 F139.980
G3 X1.500 Y-16.500 Z-3.000 I0.500 J-0.000 K0.000 F139.980
G1 X3.500 Y-16.500 Z-3.000 F139.980
G1 X3.646 Y-16.354 Z-3.000 F139.980
G1 X3.500 Y-16.500 Z-3.000 F139.980
G1 X3.500 Y-23.500 Z-3.000 F139.980
G3 X4.000 Y-24.000 Z-3.000 I0.500 J-0.000 K0.000 F139.980
G1 X11.056 Y-24.000 Z-3.000 F139.980
G1 X12.541 Y-24.000 Z-1.500 F99.737
G1 X14.026 Y-24.000 Z-3.000 F99.737
G1 X20.176 Y-24.000 Z-3.000 F139.980
G3 X20.676 Y-23.500 Z-3.000 I0.000 J0.500 K0.000 F139.980
G1 X20.676 Y1.500 Z-3.000 F139.980
G3 X20.530 Y1.854 Z-3.000 I-0.500 J0.000 K0.000 F139.980
G0 X20.530 Y1.854 Z2.000
(Finish operation: DressupTag)
(Begin operation: Pocket_Shape001)
(Path: Pocket_Shape001)
(Pocket_Shape001)
G0 Z2.000
G0 X4.671 Y-8.141
G0 Z1.000
G1 X4.671 Y-8.141 Z-0.333 F60.000
G1 X4.687 Y-8.168 Z-0.333 F139.980
G2 X4.700 Y-8.656 Z-0.333 I-1.377 J-0.282 K0.000 F139.980
G2 X4.513 Y-8.732 Z-0.333 I-0.095 J-0.034 K0.000 F139.980
G2 X4.500 Y-8.244 Z-0.333 I1.377 J0.282 K0.000 F139.980
G2 X4.671 Y-8.141 Z-0.333 I0.098 J0.031 K0.000 F139.980
G1 X4.671 Y-8.141 Z-0.667 F60.000
G1 X4.687 Y-8.168 Z-0.667 F139.980
G2 X4.700 Y-8.656 Z-0.667 I-1.377 J-0.282 K0.000 F139.980
G2 X4.513 Y-8.732 Z-0.667 I-0.095 J-0.034 K0.000 F139.980
G2 X4.500 Y-8.244 Z-0.667 I1.377 J0.282 K0.000 F139.980
G2 X4.671 Y-8.141 Z-0.667 I0.098 J0.031 K0.000 F139.980
G1 X4.671 Y-8.141 Z-1.000 F60.000
G1 X4.687 Y-8.168 Z-1.000 F139.980
G2 X4.700 Y-8.656 Z-1.000 I-1.377 J-0.282 K0.000 F139.980
G2 X4.513 Y-8.732 Z-1.000 I-0.095 J-0.034 K0.000 F139.980
G2 X4.500 Y-8.244 Z-1.000 I1.377 J0.282 K0.000 F139.980
G2 X4.671 Y-8.141 Z-1.000 I0.098 J0.031 K0.000 F139.980
G1 X4.671 Y-8.141 Z-1.333 F60.000
G1 X4.687 Y-8.168 Z-1.333 F139.980
G2 X4.700 Y-8.656 Z-1.333 I-1.377 J-0.282 K0.000 F139.980
G2 X4.513 Y-8.732 Z-1.333 I-0.095 J-0.034 K0.000 F139.980
G2 X4.500 Y-8.244 Z-1.333 I1.377 J0.282 K0.000 F139.980
G2 X4.671 Y-8.141 Z-1.333 I0.098 J0.031 K0.000 F139.980
G1 X4.671 Y-8.141 Z-1.667 F60.000
G1 X4.687 Y-8.168 Z-1.667 F139.980
G2 X4.700 Y-8.656 Z-1.667 I-1.377 J-0.282 K0.000 F139.980
G2 X4.513 Y-8.732 Z-1.667 I-0.095 J-0.034 K0.000 F139.980
G2 X4.500 Y-8.244 Z-1.667 I1.377 J0.282 K0.000 F139.980
G2 X4.671 Y-8.141 Z-1.667 I0.098 J0.031 K0.000 F139.980
G1 X4.671 Y-8.141 Z-2.000 F60.000
G1 X4.687 Y-8.168 Z-2.000 F139.980
G2 X4.700 Y-8.656 Z-2.000 I-1.377 J-0.282 K0.000 F139.980
G2 X4.513 Y-8.732 Z-2.000 I-0.095 J-0.034 K0.000 F139.980
G2 X4.500 Y-8.244 Z-2.000 I1.377 J0.282 K0.000 F139.980
G2 X4.671 Y-8.141 Z-2.000 I0.098 J0.031 K0.000 F139.980
G1 X4.671 Y-8.141 Z-2.333 F60.000
G1 X4.687 Y-8.168 Z-2.333 F139.980
G2 X4.700 Y-8.656 Z-2.333 I-1.377 J-0.282 K0.000 F139.980
G2 X4.513 Y-8.732 Z-2.333 I-0.095 J-0.034 K0.000 F139.980
G2 X4.500 Y-8.244 Z-2.333 I1.377 J0.282 K0.000 F139.980
G2 X4.671 Y-8.141 Z-2.333 I0.098 J0.031 K0.000 F139.980
G1 X4.671 Y-8.141 Z-2.667 F60.000
G1 X4.687 Y-8.168 Z-2.667 F139.980
G2 X4.700 Y-8.656 Z-2.667 I-1.377 J-0.282 K0.000 F139.980
G2 X4.513 Y-8.732 Z-2.667 I-0.095 J-0.034 K0.000 F139.980
G2 X4.500 Y-8.244 Z-2.667 I1.377 J0.282 K0.000 F139.980
G2 X4.671 Y-8.141 Z-2.667 I0.098 J0.031 K0.000 F139.980
G1 X4.671 Y-8.141 Z-3.000 F60.000
G1 X4.687 Y-8.168 Z-3.000 F139.980
G2 X4.700 Y-8.656 Z-3.000 I-1.377 J-0.282 K0.000 F139.980
G2 X4.513 Y-8.732 Z-3.000 I-0.095 J-0.034 K0.000 F139.980
G2 X4.500 Y-8.244 Z-3.000 I1.377 J0.282 K0.000 F139.980
G2 X4.671 Y-8.141 Z-3.000 I0.098 J0.031 K0.000 F139.980
G1 X4.671 Y-8.141 Z-3.000 F60.000
G1 X4.687 Y-8.168 Z-3.000 F139.980
G2 X4.700 Y-8.656 Z-3.000 I-1.377 J-0.282 K0.000 F139.980
G2 X4.513 Y-8.732 Z-3.000 I-0.095 J-0.034 K0.000 F139.980
G2 X4.500 Y-8.244 Z-3.000 I1.377 J0.282 K0.000 F139.980
G2 X4.671 Y-8.141 Z-3.000 I0.098 J0.031 K0.000 F139.980
G0 Z2.000
G0 Z2.000
G0 X4.599 Y-13.210
G0 X4.599 Y-13.210 Z1.000
G1 X4.599 Y-13.210 Z-0.333 F60.000
G2 X4.671 Y-13.241 Z-0.333 I-0.001 J-0.103 K0.000 F139.980
G1 X4.687 Y-13.268 Z-0.333 F139.980
G2 X4.700 Y-13.761 Z-0.333 I-1.389 J-0.284 K0.000 F139.980
G2 X4.511 Y-13.829 Z-0.333 I-0.096 J-0.031 K0.000 F139.980
G2 X4.500 Y-13.344 Z-0.333 I1.526 J0.277 K0.000 F139.980
G2 X4.599 Y-13.210 Z-0.333 I0.098 J0.031 K0.000 F139.980
G1 X4.599 Y-13.210 Z-0.667 F60.000
G2 X4.671 Y-13.241 Z-0.667 I-0.001 J-0.103 K0.000 F139.980
G1 X4.687 Y-13.268 Z-0.667 F139.980
G2 X4.700 Y-13.761 Z-0.667 I-1.389 J-0.284 K0.000 F139.980
G2 X4.511 Y-13.829 Z-0.667 I-0.096 J-0.031 K0.000 F139.980
G2 X4.500 Y-13.344 Z-0.667 I1.526 J0.277 K0.000 F139.980
G2 X4.599 Y-13.210 Z-0.667 I0.098 J0.031 K0.000 F139.980
G1 X4.599 Y-13.210 Z-1.000 F60.000
G2 X4.671 Y-13.241 Z-1.000 I-0.001 J-0.103 K0.000 F139.980
G1 X4.687 Y-13.268 Z-1.000 F139.980
G2 X4.700 Y-13.761 Z-1.000 I-1.389 J-0.284 K0.000 F139.980
G2 X4.511 Y-13.829 Z-1.000 I-0.096 J-0.031 K0.000 F139.980
G2 X4.500 Y-13.344 Z-1.000 I1.526 J0.277 K0.000 F139.980
G2 X4.599 Y-13.210 Z-1.000 I0.098 J0.031 K0.000 F139.980
G1 X4.599 Y-13.210 Z-1.333 F60.000
G2 X4.671 Y-13.241 Z-1.333 I-0.001 J-0.103 K0.000 F139.980
G1 X4.687 Y-13.268 Z-1.333 F139.980
G2 X4.700 Y-13.761 Z-1.333 I-1.389 J-0.284 K0.000 F139.980
G2 X4.511 Y-13.829 Z-1.333 I-0.096 J-0.031 K0.000 F139.980
G2 X4.500 Y-13.344 Z-1.333 I1.526 J0.277 K0.000 F139.980
G2 X4.599 Y-13.210 Z-1.333 I0.098 J0.031 K0.000 F139.980
G1 X4.599 Y-13.210 Z-1.667 F60.000
G2 X4.671 Y-13.241 Z-1.667 I-0.001 J-0.103 K0.000 F139.980
G1 X4.687 Y-13.268 Z-1.667 F139.980
G2 X4.700 Y-13.761 Z-1.667 I-1.389 J-0.284 K0.000 F139.980
G2 X4.511 Y-13.829 Z-1.667 I-0.096 J-0.031 K0.000 F139.980
G2 X4.500 Y-13.344 Z-1.667 I1.526 J0.277 K0.000 F139.980
G2 X4.599 Y-13.210 Z-1.667 I0.098 J0.031 K0.000 F139.980
G1 X4.599 Y-13.210 Z-2.000 F60.000
G2 X4.671 Y-13.241 Z-2.000 I-0.001 J-0.103 K0.000 F139.980
G1 X4.687 Y-13.268 Z-2.000 F139.980
G2 X4.700 Y-13.761 Z-2.000 I-1.389 J-0.284 K0.000 F139.980
G2 X4.511 Y-13.829 Z-2.000 I-0.096 J-0.031 K0.000 F139.980
G2 X4.500 Y-13.344 Z-2.000 I1.526 J0.277 K0.000 F139.980
G2 X4.599 Y-13.210 Z-2.000 I0.098 J0.031 K0.000 F139.980
G1 X4.599 Y-13.210 Z-2.333 F60.000
G2 X4.671 Y-13.241 Z-2.333 I-0.001 J-0.103 K0.000 F139.980
G1 X4.687 Y-13.268 Z-2.333 F139.980
G2 X4.700 Y-13.761 Z-2.333 I-1.389 J-0.284 K0.000 F139.980
G2 X4.511 Y-13.829 Z-2.333 I-0.096 J-0.031 K0.000 F139.980
G2 X4.500 Y-13.344 Z-2.333 I1.526 J0.277 K0.000 F139.980
G2 X4.599 Y-13.210 Z-2.333 I0.098 J0.031 K0.000 F139.980
G1 X4.599 Y-13.210 Z-2.667 F60.000
G2 X4.671 Y-13.241 Z-2.667 I-0.001 J-0.103 K0.000 F139.980
G1 X4.687 Y-13.268 Z-2.667 F139.980
G2 X4.700 Y-13.761 Z-2.667 I-1.389 J-0.284 K0.000 F139.980
G2 X4.511 Y-13.829 Z-2.667 I-0.096 J-0.031 K0.000 F139.980
G2 X4.500 Y-13.344 Z-2.667 I1.526 J0.277 K0.000 F139.980
G2 X4.599 Y-13.210 Z-2.667 I0.098 J0.031 K0.000 F139.980
G1 X4.599 Y-13.210 Z-3.000 F60.000
G2 X4.671 Y-13.241 Z-3.000 I-0.001 J-0.103 K0.000 F139.980
G1 X4.687 Y-13.268 Z-3.000 F139.980
G2 X4.700 Y-13.761 Z-3.000 I-1.389 J-0.284 K0.000 F139.980
G2 X4.511 Y-13.829 Z-3.000 I-0.096 J-0.031 K0.000 F139.980
G2 X4.500 Y-13.344 Z-3.000 I1.526 J0.277 K0.000 F139.980
G2 X4.599 Y-13.210 Z-3.000 I0.098 J0.031 K0.000 F139.980
G1 X4.599 Y-13.210 Z-3.000 F60.000
G2 X4.671 Y-13.241 Z-3.000 I-0.001 J-0.103 K0.000 F139.980
G1 X4.687 Y-13.268 Z-3.000 F139.980
G2 X4.700 Y-13.761 Z-3.000 I-1.389 J-0.284 K0.000 F139.980
G2 X4.511 Y-13.829 Z-3.000 I-0.096 J-0.031 K0.000 F139.980
G2 X4.500 Y-13.344 Z-3.000 I1.526 J0.277 K0.000 F139.980
G2 X4.599 Y-13.210 Z-3.000 I0.098 J0.031 K0.000 F139.980
G0 Z2.000
G0 Z2.000
(Finish operation: Pocket_Shape001)
(Begin postamble)
M5
G17 G90
M2
