(Exported by FreeCAD)
(Post Processor: grbl_post)
(Output Time:2020-08-18 15:51:15.262324)
(Begin preamble)
G17 G90
G21
(Begin operation: Fixture)
(Path: Fixture)
G54
(Finish operation: Fixture)
(Begin operation: T37: Two-flute 1mm x 7mm002)
(Path: T37: Two-flute 1mm x 7mm002)
(T37: Two-flute 1mm x 7mm002)
(Begin toolchange)
(M6 T37.0)
M3 S8000.0
(Finish operation: T37: Two-flute 1mm x 7mm002)
(Begin operation: Pocket_Shape002)
(Path: Pocket_Shape002)
(Pocket_Shape002)
G0 Z2.000
G0 X3.500 Y2.913
G0 Z1.000
G1 X3.500 Y2.913 Z-0.333 F30.000
G1 X3.500 Y2.074 Z-0.333 F120.000
G1 X3.000 Y2.074 Z-0.333 F120.000
G3 X2.646 Y1.928 Z-0.333 I0.000 J-0.500 K0.000 F120.000
G1 X-0.207 Y-0.926 Z-0.333 F120.000
G1 X-0.500 Y-0.926 Z-0.333 F120.000
G1 X-0.500 Y-0.087 Z-0.333 F120.000
G1 X0.000 Y-0.087 Z-0.333 F120.000
G3 X0.354 Y0.059 Z-0.333 I-0.000 J0.500 K0.000 F120.000
G1 X3.207 Y2.913 Z-0.333 F120.000
G1 X3.500 Y2.913 Z-0.333 F120.000
G0 Z2.000
G0 X3.250 Y2.602 Z2.000
G0 X3.250 Y2.602 Z1.000
G1 X3.250 Y2.602 Z-0.333 F30.000
G1 X3.250 Y2.324 Z-0.333 F120.000
G3 X2.963 Y2.315 Z-0.333 I-0.125 J-0.601 K0.000 F120.000
G1 X3.250 Y2.602 Z-0.333 F120.000
G0 Z2.000
G0 X0.037 Y-0.329 Z2.000
G0 X0.037 Y-0.329 Z1.000
G1 X0.037 Y-0.329 Z-0.333 F30.000
G1 X-0.250 Y-0.615 Z-0.333 F120.000
G1 X-0.250 Y-0.337 Z-0.333 F120.000
G3 X0.037 Y-0.329 Z-0.333 I0.125 J0.601 K0.000 F120.000
G1 X0.037 Y-0.329 Z-0.667 F30.000
G1 X-0.250 Y-0.615 Z-0.667 F120.000
G1 X-0.250 Y-0.337 Z-0.667 F120.000
G3 X0.037 Y-0.329 Z-0.667 I0.125 J0.601 K0.000 F120.000
G0 Z2.000
G0 X0.025 Y-0.087 Z2.000
G0 X0.025 Y-0.087 Z1.000
G1 X0.025 Y-0.087 Z-0.667 F30.000
G3 X0.354 Y0.059 Z-0.667 I-0.025 J0.499 K0.000 F120.000
G1 X3.207 Y2.913 Z-0.667 F120.000
G1 X3.500 Y2.913 Z-0.667 F120.000
G1 X3.500 Y2.074 Z-0.667 F120.000
G1 X3.000 Y2.074 Z-0.667 F120.000
G3 X2.646 Y1.928 Z-0.667 I0.000 J-0.500 K0.000 F120.000
G1 X-0.207 Y-0.926 Z-0.667 F120.000
G1 X-0.500 Y-0.926 Z-0.667 F120.000
G1 X-0.500 Y-0.087 Z-0.667 F120.000
G1 X0.000 Y-0.087 Z-0.667 F120.000
G3 X0.025 Y-0.087 Z-0.667 I-0.000 J0.500 K0.000 F120.000
G0 Z2.000
G0 X2.963 Y2.315 Z2.000
G0 X2.963 Y2.315 Z1.000
G1 X2.963 Y2.315 Z-0.667 F30.000
G1 X3.250 Y2.602 Z-0.667 F120.000
G1 X3.250 Y2.324 Z-0.667 F120.000
G3 X2.963 Y2.315 Z-0.667 I-0.125 J-0.601 K0.000 F120.000
G1 X2.963 Y2.315 Z-1.000 F30.000
G1 X3.250 Y2.602 Z-1.000 F120.000
G1 X3.250 Y2.324 Z-1.000 F120.000
G3 X2.963 Y2.315 Z-1.000 I-0.125 J-0.601 K0.000 F120.000
G0 Z2.000
G0 X2.975 Y2.073 Z2.000
G0 X2.975 Y2.073 Z1.000
G1 X2.975 Y2.073 Z-1.000 F30.000
G3 X2.646 Y1.928 Z-1.000 I0.025 J-0.499 K0.000 F120.000
G1 X-0.207 Y-0.926 Z-1.000 F120.000
G1 X-0.500 Y-0.926 Z-1.000 F120.000
G1 X-0.500 Y-0.087 Z-1.000 F120.000
G1 X0.000 Y-0.087 Z-1.000 F120.000
G3 X0.354 Y0.059 Z-1.000 I-0.000 J0.500 K0.000 F120.000
G1 X3.207 Y2.913 Z-1.000 F120.000
G1 X3.500 Y2.913 Z-1.000 F120.000
G1 X3.500 Y2.074 Z-1.000 F120.000
G1 X3.000 Y2.074 Z-1.000 F120.000
G3 X2.975 Y2.073 Z-1.000 I0.000 J-0.500 K0.000 F120.000
G0 Z2.000
G0 X0.037 Y-0.329 Z2.000
G0 X0.037 Y-0.329 Z1.000
G1 X0.037 Y-0.329 Z-1.000 F30.000
G1 X-0.250 Y-0.615 Z-1.000 F120.000
G1 X-0.250 Y-0.337 Z-1.000 F120.000
G3 X0.037 Y-0.329 Z-1.000 I0.125 J0.601 K0.000 F120.000
G1 X0.037 Y-0.329 Z-1.333 F30.000
G1 X-0.250 Y-0.615 Z-1.333 F120.000
G1 X-0.250 Y-0.337 Z-1.333 F120.000
G3 X0.037 Y-0.329 Z-1.333 I0.125 J0.601 K0.000 F120.000
G0 Z2.000
G0 X0.025 Y-0.087 Z2.000
G0 X0.025 Y-0.087 Z1.000
G1 X0.025 Y-0.087 Z-1.333 F30.000
G3 X0.354 Y0.059 Z-1.333 I-0.025 J0.499 K0.000 F120.000
G1 X3.207 Y2.913 Z-1.333 F120.000
G1 X3.500 Y2.913 Z-1.333 F120.000
G1 X3.500 Y2.074 Z-1.333 F120.000
G1 X3.000 Y2.074 Z-1.333 F120.000
G3 X2.646 Y1.928 Z-1.333 I0.000 J-0.500 K0.000 F120.000
G1 X-0.207 Y-0.926 Z-1.333 F120.000
G1 X-0.500 Y-0.926 Z-1.333 F120.000
G1 X-0.500 Y-0.087 Z-1.333 F120.000
G1 X0.000 Y-0.087 Z-1.333 F120.000
G3 X0.025 Y-0.087 Z-1.333 I-0.000 J0.500 K0.000 F120.000
G0 Z2.000
G0 X2.963 Y2.315 Z2.000
G0 X2.963 Y2.315 Z1.000
G1 X2.963 Y2.315 Z-1.333 F30.000
G1 X3.250 Y2.602 Z-1.333 F120.000
G1 X3.250 Y2.324 Z-1.333 F120.000
G3 X2.963 Y2.315 Z-1.333 I-0.125 J-0.601 K0.000 F120.000
G1 X2.963 Y2.315 Z-1.667 F30.000
G1 X3.250 Y2.602 Z-1.667 F120.000
G1 X3.250 Y2.324 Z-1.667 F120.000
G3 X2.963 Y2.315 Z-1.667 I-0.125 J-0.601 K0.000 F120.000
G0 Z2.000
G0 X2.975 Y2.073 Z2.000
G0 X2.975 Y2.073 Z1.000
G1 X2.975 Y2.073 Z-1.667 F30.000
G3 X2.646 Y1.928 Z-1.667 I0.025 J-0.499 K0.000 F120.000
G1 X-0.207 Y-0.926 Z-1.667 F120.000
G1 X-0.500 Y-0.926 Z-1.667 F120.000
G1 X-0.500 Y-0.087 Z-1.667 F120.000
G1 X0.000 Y-0.087 Z-1.667 F120.000
G3 X0.354 Y0.059 Z-1.667 I-0.000 J0.500 K0.000 F120.000
G1 X3.207 Y2.913 Z-1.667 F120.000
G1 X3.500 Y2.913 Z-1.667 F120.000
G1 X3.500 Y2.074 Z-1.667 F120.000
G1 X3.000 Y2.074 Z-1.667 F120.000
G3 X2.975 Y2.073 Z-1.667 I0.000 J-0.500 K0.000 F120.000
G0 Z2.000
G0 X0.037 Y-0.329 Z2.000
G0 X0.037 Y-0.329 Z1.000
G1 X0.037 Y-0.329 Z-1.667 F30.000
G1 X-0.250 Y-0.615 Z-1.667 F120.000
G1 X-0.250 Y-0.337 Z-1.667 F120.000
G3 X0.037 Y-0.329 Z-1.667 I0.125 J0.601 K0.000 F120.000
G1 X0.037 Y-0.329 Z-2.000 F30.000
G1 X-0.250 Y-0.615 Z-2.000 F120.000
G1 X-0.250 Y-0.337 Z-2.000 F120.000
G3 X0.037 Y-0.329 Z-2.000 I0.125 J0.601 K0.000 F120.000
G0 Z2.000
G0 X0.025 Y-0.087 Z2.000
G0 X0.025 Y-0.087 Z1.000
G1 X0.025 Y-0.087 Z-2.000 F30.000
G3 X0.354 Y0.059 Z-2.000 I-0.025 J0.499 K0.000 F120.000
G1 X3.207 Y2.913 Z-2.000 F120.000
G1 X3.500 Y2.913 Z-2.000 F120.000
G1 X3.500 Y2.074 Z-2.000 F120.000
G1 X3.000 Y2.074 Z-2.000 F120.000
G3 X2.646 Y1.928 Z-2.000 I0.000 J-0.500 K0.000 F120.000
G1 X-0.207 Y-0.926 Z-2.000 F120.000
G1 X-0.500 Y-0.926 Z-2.000 F120.000
G1 X-0.500 Y-0.087 Z-2.000 F120.000
G1 X0.000 Y-0.087 Z-2.000 F120.000
G3 X0.025 Y-0.087 Z-2.000 I-0.000 J0.500 K0.000 F120.000
G0 Z2.000
G0 X2.963 Y2.315 Z2.000
G0 X2.963 Y2.315 Z1.000
G1 X2.963 Y2.315 Z-2.000 F30.000
G1 X3.250 Y2.602 Z-2.000 F120.000
G1 X3.250 Y2.324 Z-2.000 F120.000
G3 X2.963 Y2.315 Z-2.000 I-0.125 J-0.601 K0.000 F120.000
G1 X2.963 Y2.315 Z-2.200 F30.000
G1 X3.250 Y2.602 Z-2.200 F120.000
G1 X3.250 Y2.324 Z-2.200 F120.000
G3 X2.963 Y2.315 Z-2.200 I-0.125 J-0.601 K0.000 F120.000
G0 Z2.000
G0 X2.975 Y2.073 Z2.000
G0 X2.975 Y2.073 Z1.000
G1 X2.975 Y2.073 Z-2.200 F30.000
G3 X2.646 Y1.928 Z-2.200 I0.025 J-0.499 K0.000 F120.000
G1 X-0.207 Y-0.926 Z-2.200 F120.000
G1 X-0.500 Y-0.926 Z-2.200 F120.000
G1 X-0.500 Y-0.087 Z-2.200 F120.000
G1 X0.000 Y-0.087 Z-2.200 F120.000
G3 X0.354 Y0.059 Z-2.200 I-0.000 J0.500 K0.000 F120.000
G1 X3.207 Y2.913 Z-2.200 F120.000
G1 X3.500 Y2.913 Z-2.200 F120.000
G1 X3.500 Y2.074 Z-2.200 F120.000
G1 X3.000 Y2.074 Z-2.200 F120.000
G3 X2.975 Y2.073 Z-2.200 I0.000 J-0.500 K0.000 F120.000
G0 Z2.000
G0 X0.037 Y-0.329 Z2.000
G0 X0.037 Y-0.329 Z1.000
G1 X0.037 Y-0.329 Z-2.200 F30.000
G1 X-0.250 Y-0.615 Z-2.200 F120.000
G1 X-0.250 Y-0.337 Z-2.200 F120.000
G3 X0.037 Y-0.329 Z-2.200 I0.125 J0.601 K0.000 F120.000
G0 Z2.000
G0 Z2.000
G0 X-0.207 Y-9.074
G0 X-0.207 Y-9.074 Z1.000
G1 X-0.207 Y-9.074 Z-0.333 F30.000
G1 X2.646 Y-11.928 Z-0.333 F120.000
G1 X2.809 Y-12.036 Z-0.333 F120.000
G3 X3.500 Y-12.074 Z-0.333 I0.441 J1.719 K0.000 F120.000
G1 X3.500 Y-12.913 Z-0.333 F120.000
G1 X3.207 Y-12.913 Z-0.333 F120.000
G1 X0.354 Y-10.059 Z-0.333 F120.000
G1 X0.191 Y-9.951 Z-0.333 F120.000
G3 X-0.500 Y-9.913 Z-0.333 I-0.441 J-1.719 K0.000 F120.000
G1 X-0.500 Y-9.074 Z-0.333 F120.000
G1 X-0.207 Y-9.074 Z-0.333 F120.000
G0 Z2.000
G0 X-0.250 Y-9.385 Z2.000
G0 X-0.250 Y-9.385 Z1.000
G1 X-0.250 Y-9.385 Z-0.333 F30.000
G1 X0.033 Y-9.668 Z-0.333 F120.000
G3 X-0.250 Y-9.663 Z-0.333 I-0.158 J-0.891 K0.000 F120.000
G1 X-0.250 Y-9.385 Z-0.333 F120.000
G0 Z2.000
G0 X2.967 Y-12.319 Z2.000
G0 X2.967 Y-12.319 Z1.000
G1 X2.967 Y-12.319 Z-0.333 F30.000
G3 X3.250 Y-12.324 Z-0.333 I0.158 J0.891 K0.000 F120.000
G1 X3.250 Y-12.602 Z-0.333 F120.000
G1 X2.967 Y-12.319 Z-0.333 F120.000
G1 X2.967 Y-12.319 Z-0.667 F30.000
G3 X3.250 Y-12.324 Z-0.667 I0.158 J0.891 K0.000 F120.000
G1 X3.250 Y-12.602 Z-0.667 F120.000
G1 X2.967 Y-12.319 Z-0.667 F120.000
G0 Z2.000
G0 X3.002 Y-12.074 Z2.000
G0 X3.002 Y-12.074 Z1.000
G1 X3.002 Y-12.074 Z-0.667 F30.000
G3 X3.500 Y-12.074 Z-0.667 I0.248 J1.757 K0.000 F120.000
G1 X3.500 Y-12.913 Z-0.667 F120.000
G1 X3.207 Y-12.913 Z-0.667 F120.000
G1 X0.354 Y-10.059 Z-0.667 F120.000
G1 X0.191 Y-9.951 Z-0.667 F120.000
G3 X-0.500 Y-9.913 Z-0.667 I-0.441 J-1.719 K0.000 F120.000
G1 X-0.500 Y-9.074 Z-0.667 F120.000
G1 X-0.207 Y-9.074 Z-0.667 F120.000
G1 X2.646 Y-11.928 Z-0.667 F120.000
G1 X2.809 Y-12.036 Z-0.667 F120.000
G3 X3.002 Y-12.074 Z-0.667 I0.441 J1.719 K0.000 F120.000
G0 Z2.000
G0 X0.033 Y-9.668 Z2.000
G0 X0.033 Y-9.668 Z1.000
G1 X0.033 Y-9.668 Z-0.667 F30.000
G3 X-0.250 Y-9.663 Z-0.667 I-0.158 J-0.891 K0.000 F120.000
G1 X-0.250 Y-9.385 Z-0.667 F120.000
G1 X0.033 Y-9.668 Z-0.667 F120.000
G1 X0.033 Y-9.668 Z-1.000 F30.000
G3 X-0.250 Y-9.663 Z-1.000 I-0.158 J-0.891 K0.000 F120.000
G1 X-0.250 Y-9.385 Z-1.000 F120.000
G1 X0.033 Y-9.668 Z-1.000 F120.000
G0 Z2.000
G0 X-0.002 Y-9.912 Z2.000
G0 X-0.002 Y-9.912 Z1.000
G1 X-0.002 Y-9.912 Z-1.000 F30.000
G3 X-0.500 Y-9.913 Z-1.000 I-0.248 J-1.757 K0.000 F120.000
G1 X-0.500 Y-9.074 Z-1.000 F120.000
G1 X-0.207 Y-9.074 Z-1.000 F120.000
G1 X2.646 Y-11.928 Z-1.000 F120.000
G1 X2.809 Y-12.036 Z-1.000 F120.000
G3 X3.500 Y-12.074 Z-1.000 I0.441 J1.719 K0.000 F120.000
G1 X3.500 Y-12.913 Z-1.000 F120.000
G1 X3.207 Y-12.913 Z-1.000 F120.000
G1 X0.354 Y-10.059 Z-1.000 F120.000
G1 X0.191 Y-9.951 Z-1.000 F120.000
G3 X-0.002 Y-9.912 Z-1.000 I-0.441 J-1.719 K0.000 F120.000
G0 Z2.000
G0 X2.967 Y-12.319 Z2.000
G0 X2.967 Y-12.319 Z1.000
G1 X2.967 Y-12.319 Z-1.000 F30.000
G3 X3.250 Y-12.324 Z-1.000 I0.158 J0.891 K0.000 F120.000
G1 X3.250 Y-12.602 Z-1.000 F120.000
G1 X2.967 Y-12.319 Z-1.000 F120.000
G1 X2.967 Y-12.319 Z-1.333 F30.000
G3 X3.250 Y-12.324 Z-1.333 I0.158 J0.891 K0.000 F120.000
G1 X3.250 Y-12.602 Z-1.333 F120.000
G1 X2.967 Y-12.319 Z-1.333 F120.000
G0 Z2.000
G0 X3.002 Y-12.074 Z2.000
G0 X3.002 Y-12.074 Z1.000
G1 X3.002 Y-12.074 Z-1.333 F30.000
G3 X3.500 Y-12.074 Z-1.333 I0.248 J1.757 K0.000 F120.000
G1 X3.500 Y-12.913 Z-1.333 F120.000
G1 X3.207 Y-12.913 Z-1.333 F120.000
G1 X0.354 Y-10.059 Z-1.333 F120.000
G1 X0.191 Y-9.951 Z-1.333 F120.000
G3 X-0.500 Y-9.913 Z-1.333 I-0.441 J-1.719 K0.000 F120.000
G1 X-0.500 Y-9.074 Z-1.333 F120.000
G1 X-0.207 Y-9.074 Z-1.333 F120.000
G1 X2.646 Y-11.928 Z-1.333 F120.000
G1 X2.809 Y-12.036 Z-1.333 F120.000
G3 X3.002 Y-12.074 Z-1.333 I0.441 J1.719 K0.000 F120.000
G0 Z2.000
G0 X0.033 Y-9.668 Z2.000
G0 X0.033 Y-9.668 Z1.000
G1 X0.033 Y-9.668 Z-1.333 F30.000
G3 X-0.250 Y-9.663 Z-1.333 I-0.158 J-0.891 K0.000 F120.000
G1 X-0.250 Y-9.385 Z-1.333 F120.000
G1 X0.033 Y-9.668 Z-1.333 F120.000
G1 X0.033 Y-9.668 Z-1.667 F30.000
G3 X-0.250 Y-9.663 Z-1.667 I-0.158 J-0.891 K0.000 F120.000
G1 X-0.250 Y-9.385 Z-1.667 F120.000
G1 X0.033 Y-9.668 Z-1.667 F120.000
G0 Z2.000
G0 X-0.002 Y-9.912 Z2.000
G0 X-0.002 Y-9.912 Z1.000
G1 X-0.002 Y-9.912 Z-1.667 F30.000
G3 X-0.500 Y-9.913 Z-1.667 I-0.248 J-1.757 K0.000 F120.000
G1 X-0.500 Y-9.074 Z-1.667 F120.000
G1 X-0.207 Y-9.074 Z-1.667 F120.000
G1 X2.646 Y-11.928 Z-1.667 F120.000
G1 X2.809 Y-12.036 Z-1.667 F120.000
G3 X3.500 Y-12.074 Z-1.667 I0.441 J1.719 K0.000 F120.000
G1 X3.500 Y-12.913 Z-1.667 F120.000
G1 X3.207 Y-12.913 Z-1.667 F120.000
G1 X0.354 Y-10.059 Z-1.667 F120.000
G1 X0.191 Y-9.951 Z-1.667 F120.000
G3 X-0.002 Y-9.912 Z-1.667 I-0.441 J-1.719 K0.000 F120.000
G0 Z2.000
G0 X2.967 Y-12.319 Z2.000
G0 X2.967 Y-12.319 Z1.000
G1 X2.967 Y-12.319 Z-1.667 F30.000
G3 X3.250 Y-12.324 Z-1.667 I0.158 J0.891 K0.000 F120.000
G1 X3.250 Y-12.602 Z-1.667 F120.000
G1 X2.967 Y-12.319 Z-1.667 F120.000
G1 X2.967 Y-12.319 Z-2.000 F30.000
G3 X3.250 Y-12.324 Z-2.000 I0.158 J0.891 K0.000 F120.000
G1 X3.250 Y-12.602 Z-2.000 F120.000
G1 X2.967 Y-12.319 Z-2.000 F120.000
G0 Z2.000
G0 X3.002 Y-12.074 Z2.000
G0 X3.002 Y-12.074 Z1.000
G1 X3.002 Y-12.074 Z-2.000 F30.000
G3 X3.500 Y-12.074 Z-2.000 I0.248 J1.757 K0.000 F120.000
G1 X3.500 Y-12.913 Z-2.000 F120.000
G1 X3.207 Y-12.913 Z-2.000 F120.000
G1 X0.354 Y-10.059 Z-2.000 F120.000
G1 X0.191 Y-9.951 Z-2.000 F120.000
G3 X-0.500 Y-9.913 Z-2.000 I-0.441 J-1.719 K0.000 F120.000
G1 X-0.500 Y-9.074 Z-2.000 F120.000
G1 X-0.207 Y-9.074 Z-2.000 F120.000
G1 X2.646 Y-11.928 Z-2.000 F120.000
G1 X2.809 Y-12.036 Z-2.000 F120.000
G3 X3.002 Y-12.074 Z-2.000 I0.441 J1.719 K0.000 F120.000
G0 Z2.000
G0 X0.033 Y-9.668 Z2.000
G0 X0.033 Y-9.668 Z1.000
G1 X0.033 Y-9.668 Z-2.000 F30.000
G3 X-0.250 Y-9.663 Z-2.000 I-0.158 J-0.891 K0.000 F120.000
G1 X-0.250 Y-9.385 Z-2.000 F120.000
G1 X0.033 Y-9.668 Z-2.000 F120.000
G1 X0.033 Y-9.668 Z-2.200 F30.000
G3 X-0.250 Y-9.663 Z-2.200 I-0.158 J-0.891 K0.000 F120.000
G1 X-0.250 Y-9.385 Z-2.200 F120.000
G1 X0.033 Y-9.668 Z-2.200 F120.000
G0 Z2.000
G0 X-0.002 Y-9.912 Z2.000
G0 X-0.002 Y-9.912 Z1.000
G1 X-0.002 Y-9.912 Z-2.200 F30.000
G3 X-0.500 Y-9.913 Z-2.200 I-0.248 J-1.757 K0.000 F120.000
G1 X-0.500 Y-9.074 Z-2.200 F120.000
G1 X-0.207 Y-9.074 Z-2.200 F120.000
G1 X2.646 Y-11.928 Z-2.200 F120.000
G1 X2.809 Y-12.036 Z-2.200 F120.000
G3 X3.500 Y-12.074 Z-2.200 I0.441 J1.719 K0.000 F120.000
G1 X3.500 Y-12.913 Z-2.200 F120.000
G1 X3.207 Y-12.913 Z-2.200 F120.000
G1 X0.354 Y-10.059 Z-2.200 F120.000
G1 X0.191 Y-9.951 Z-2.200 F120.000
G3 X-0.002 Y-9.912 Z-2.200 I-0.441 J-1.719 K0.000 F120.000
G0 Z2.000
G0 X2.967 Y-12.319 Z2.000
G0 X2.967 Y-12.319 Z1.000
G1 X2.967 Y-12.319 Z-2.200 F30.000
G3 X3.250 Y-12.324 Z-2.200 I0.158 J0.891 K0.000 F120.000
G1 X3.250 Y-12.602 Z-2.200 F120.000
G1 X2.967 Y-12.319 Z-2.200 F120.000
G0 Z2.000
G0 Z2.000
(Finish operation: Pocket_Shape002)
(Begin postamble)
M5
G17 G90
M2
