(Exported by FreeCAD)
(Post Processor: grbl_post)
(Output Time:2020-08-05 12:44:55.266495)
(Begin preamble)
G17 G90
G21
(Begin operation: Fixture)
(Path: Fixture)
G54
(Finish operation: Fixture)
(Begin operation: T37: Two-flute 1mm x 7mm)
(Path: T37: Two-flute 1mm x 7mm)
(T37: Two-flute 1mm x 7mm)
(Begin toolchange)
(M6 T37.0)
M3 S7400.0
(Finish operation: T37: Two-flute 1mm x 7mm)
(Begin operation: DressupTag)
(Path: DressupTag)
G0 Z5.000
G0 X11.354 Y-8.646 Z5.000
G0 X11.354 Y-8.646 Z3.000
G1 X11.354 Y-8.646 Z-0.300 F60.000
G1 X3.354 Y-0.646 Z-0.300 F139.800
G3 X2.500 Y-1.000 Z-0.300 I-0.354 J-0.354 K0.000 F139.800
G1 X2.500 Y-5.500 Z-0.300 F139.800
G1 X2.646 Y-5.646 Z-0.300 F139.800
G1 X2.500 Y-5.500 Z-0.300 F139.800
G1 X1.000 Y-5.500 Z-0.300 F139.800
G3 X0.500 Y-6.000 Z-0.300 I-0.000 J-0.500 K0.000 F139.800
G1 X0.500 Y-12.000 Z-0.300 F139.800
G3 X1.000 Y-12.500 Z-0.300 I0.500 J-0.000 K0.000 F139.800
G1 X2.500 Y-12.500 Z-0.300 F139.800
G1 X2.646 Y-12.354 Z-0.300 F139.800
G1 X2.500 Y-12.500 Z-0.300 F139.800
G1 X2.500 Y-17.000 Z-0.300 F139.800
G3 X3.000 Y-17.500 Z-0.300 I0.500 J-0.000 K0.000 F139.800
G1 X7.500 Y-17.500 Z-0.300 F139.800
G1 X7.646 Y-17.354 Z-0.300 F139.800
G1 X7.500 Y-17.500 Z-0.300 F139.800
G1 X7.500 Y-20.000 Z-0.300 F139.800
G3 X8.000 Y-20.500 Z-0.300 I0.500 J-0.000 K0.000 F139.800
G1 X14.000 Y-20.500 Z-0.300 F139.800
G3 X14.500 Y-20.000 Z-0.300 I0.000 J0.500 K0.000 F139.800
G1 X14.500 Y-17.500 Z-0.300 F139.800
G1 X14.354 Y-17.354 Z-0.300 F139.800
G1 X14.500 Y-17.500 Z-0.300 F139.800
G1 X19.000 Y-17.500 Z-0.300 F139.800
G3 X19.354 Y-16.646 Z-0.300 I0.000 J0.500 K0.000 F139.800
G1 X11.354 Y-8.646 Z-0.300 F139.800
G1 X11.354 Y-8.646 Z-0.600 F60.000
G1 X3.354 Y-0.646 Z-0.600 F139.800
G3 X2.500 Y-1.000 Z-0.600 I-0.354 J-0.354 K0.000 F139.800
G1 X2.500 Y-5.500 Z-0.600 F139.800
G1 X2.646 Y-5.646 Z-0.600 F139.800
G1 X2.500 Y-5.500 Z-0.600 F139.800
G1 X1.000 Y-5.500 Z-0.600 F139.800
G3 X0.500 Y-6.000 Z-0.600 I-0.000 J-0.500 K0.000 F139.800
G1 X0.500 Y-12.000 Z-0.600 F139.800
G3 X1.000 Y-12.500 Z-0.600 I0.500 J-0.000 K0.000 F139.800
G1 X2.500 Y-12.500 Z-0.600 F139.800
G1 X2.646 Y-12.354 Z-0.600 F139.800
G1 X2.500 Y-12.500 Z-0.600 F139.800
G1 X2.500 Y-17.000 Z-0.600 F139.800
G3 X3.000 Y-17.500 Z-0.600 I0.500 J-0.000 K0.000 F139.800
G1 X7.500 Y-17.500 Z-0.600 F139.800
G1 X7.646 Y-17.354 Z-0.600 F139.800
G1 X7.500 Y-17.500 Z-0.600 F139.800
G1 X7.500 Y-20.000 Z-0.600 F139.800
G3 X8.000 Y-20.500 Z-0.600 I0.500 J-0.000 K0.000 F139.800
G1 X14.000 Y-20.500 Z-0.600 F139.800
G3 X14.500 Y-20.000 Z-0.600 I0.000 J0.500 K0.000 F139.800
G1 X14.500 Y-17.500 Z-0.600 F139.800
G1 X14.354 Y-17.354 Z-0.600 F139.800
G1 X14.500 Y-17.500 Z-0.600 F139.800
G1 X19.000 Y-17.500 Z-0.600 F139.800
G3 X19.354 Y-16.646 Z-0.600 I0.000 J0.500 K0.000 F139.800
G1 X11.354 Y-8.646 Z-0.600 F139.800
G1 X11.354 Y-8.646 Z-0.900 F60.000
G1 X3.354 Y-0.646 Z-0.900 F139.800
G3 X2.500 Y-1.000 Z-0.900 I-0.354 J-0.354 K0.000 F139.800
G1 X2.500 Y-5.500 Z-0.900 F139.800
G1 X2.646 Y-5.646 Z-0.900 F139.800
G1 X2.500 Y-5.500 Z-0.900 F139.800
G1 X1.000 Y-5.500 Z-0.900 F139.800
G3 X0.500 Y-6.000 Z-0.900 I-0.000 J-0.500 K0.000 F139.800
G1 X0.500 Y-12.000 Z-0.900 F139.800
G3 X1.000 Y-12.500 Z-0.900 I0.500 J-0.000 K0.000 F139.800
G1 X2.500 Y-12.500 Z-0.900 F139.800
G1 X2.646 Y-12.354 Z-0.900 F139.800
G1 X2.500 Y-12.500 Z-0.900 F139.800
G1 X2.500 Y-17.000 Z-0.900 F139.800
G3 X3.000 Y-17.500 Z-0.900 I0.500 J-0.000 K0.000 F139.800
G1 X7.500 Y-17.500 Z-0.900 F139.800
G1 X7.646 Y-17.354 Z-0.900 F139.800
G1 X7.500 Y-17.500 Z-0.900 F139.800
G1 X7.500 Y-20.000 Z-0.900 F139.800
G3 X8.000 Y-20.500 Z-0.900 I0.500 J-0.000 K0.000 F139.800
G1 X14.000 Y-20.500 Z-0.900 F139.800
G3 X14.500 Y-20.000 Z-0.900 I0.000 J0.500 K0.000 F139.800
G1 X14.500 Y-17.500 Z-0.900 F139.800
G1 X14.354 Y-17.354 Z-0.900 F139.800
G1 X14.500 Y-17.500 Z-0.900 F139.800
G1 X19.000 Y-17.500 Z-0.900 F139.800
G3 X19.354 Y-16.646 Z-0.900 I0.000 J0.500 K0.000 F139.800
G1 X11.354 Y-8.646 Z-0.900 F139.800
G1 X11.354 Y-8.646 Z-1.200 F60.000
G1 X3.354 Y-0.646 Z-1.200 F139.800
G3 X2.500 Y-1.000 Z-1.200 I-0.354 J-0.354 K0.000 F139.800
G1 X2.500 Y-5.500 Z-1.200 F139.800
G1 X2.646 Y-5.646 Z-1.200 F139.800
G1 X2.500 Y-5.500 Z-1.200 F139.800
G1 X1.000 Y-5.500 Z-1.200 F139.800
G3 X0.500 Y-6.000 Z-1.200 I-0.000 J-0.500 K0.000 F139.800
G1 X0.500 Y-12.000 Z-1.200 F139.800
G3 X1.000 Y-12.500 Z-1.200 I0.500 J-0.000 K0.000 F139.800
G1 X2.500 Y-12.500 Z-1.200 F139.800
G1 X2.646 Y-12.354 Z-1.200 F139.800
G1 X2.500 Y-12.500 Z-1.200 F139.800
G1 X2.500 Y-17.000 Z-1.200 F139.800
G3 X3.000 Y-17.500 Z-1.200 I0.500 J-0.000 K0.000 F139.800
G1 X7.500 Y-17.500 Z-1.200 F139.800
G1 X7.646 Y-17.354 Z-1.200 F139.800
G1 X7.500 Y-17.500 Z-1.200 F139.800
G1 X7.500 Y-20.000 Z-1.200 F139.800
G3 X8.000 Y-20.500 Z-1.200 I0.500 J-0.000 K0.000 F139.800
G1 X14.000 Y-20.500 Z-1.200 F139.800
G3 X14.500 Y-20.000 Z-1.200 I0.000 J0.500 K0.000 F139.800
G1 X14.500 Y-17.500 Z-1.200 F139.800
G1 X14.354 Y-17.354 Z-1.200 F139.800
G1 X14.500 Y-17.500 Z-1.200 F139.800
G1 X19.000 Y-17.500 Z-1.200 F139.800
G3 X19.354 Y-16.646 Z-1.200 I0.000 J0.500 K0.000 F139.800
G1 X11.354 Y-8.646 Z-1.200 F139.800
G1 X11.354 Y-8.646 Z-1.500 F60.000
G1 X3.354 Y-0.646 Z-1.500 F139.800
G3 X2.500 Y-1.000 Z-1.500 I-0.354 J-0.354 K0.000 F139.800
G1 X2.500 Y-5.500 Z-1.500 F139.800
G1 X2.646 Y-5.646 Z-1.500 F139.800
G1 X2.500 Y-5.500 Z-1.500 F139.800
G1 X1.000 Y-5.500 Z-1.500 F139.800
G3 X0.500 Y-6.000 Z-1.500 I-0.000 J-0.500 K0.000 F139.800
G1 X0.500 Y-12.000 Z-1.500 F139.800
G3 X1.000 Y-12.500 Z-1.500 I0.500 J-0.000 K0.000 F139.800
G1 X2.500 Y-12.500 Z-1.500 F139.800
G1 X2.646 Y-12.354 Z-1.500 F139.800
G1 X2.500 Y-12.500 Z-1.500 F139.800
G1 X2.500 Y-17.000 Z-1.500 F139.800
G3 X3.000 Y-17.500 Z-1.500 I0.500 J-0.000 K0.000 F139.800
G1 X7.500 Y-17.500 Z-1.500 F139.800
G1 X7.646 Y-17.354 Z-1.500 F139.800
G1 X7.500 Y-17.500 Z-1.500 F139.800
G1 X7.500 Y-20.000 Z-1.500 F139.800
G3 X8.000 Y-20.500 Z-1.500 I0.500 J-0.000 K0.000 F139.800
G1 X14.000 Y-20.500 Z-1.500 F139.800
G3 X14.500 Y-20.000 Z-1.500 I0.000 J0.500 K0.000 F139.800
G1 X14.500 Y-17.500 Z-1.500 F139.800
G1 X14.354 Y-17.354 Z-1.500 F139.800
G1 X14.500 Y-17.500 Z-1.500 F139.800
G1 X19.000 Y-17.500 Z-1.500 F139.800
G3 X19.354 Y-16.646 Z-1.500 I0.000 J0.500 K0.000 F139.800
G1 X11.354 Y-8.646 Z-1.500 F139.800
G1 X11.354 Y-8.646 Z-1.800 F60.000
G1 X3.354 Y-0.646 Z-1.800 F139.800
G3 X2.500 Y-1.000 Z-1.800 I-0.354 J-0.354 K0.000 F139.800
G1 X2.500 Y-5.500 Z-1.800 F139.800
G1 X2.646 Y-5.646 Z-1.800 F139.800
G1 X2.500 Y-5.500 Z-1.800 F139.800
G1 X1.000 Y-5.500 Z-1.800 F139.800
G3 X0.500 Y-6.000 Z-1.800 I-0.000 J-0.500 K0.000 F139.800
G1 X0.500 Y-12.000 Z-1.800 F139.800
G3 X1.000 Y-12.500 Z-1.800 I0.500 J-0.000 K0.000 F139.800
G1 X2.500 Y-12.500 Z-1.800 F139.800
G1 X2.646 Y-12.354 Z-1.800 F139.800
G1 X2.500 Y-12.500 Z-1.800 F139.800
G1 X2.500 Y-17.000 Z-1.800 F139.800
G3 X3.000 Y-17.500 Z-1.800 I0.500 J-0.000 K0.000 F139.800
G1 X7.500 Y-17.500 Z-1.800 F139.800
G1 X7.646 Y-17.354 Z-1.800 F139.800
G1 X7.500 Y-17.500 Z-1.800 F139.800
G1 X7.500 Y-20.000 Z-1.800 F139.800
G3 X8.000 Y-20.500 Z-1.800 I0.500 J-0.000 K0.000 F139.800
G1 X14.000 Y-20.500 Z-1.800 F139.800
G3 X14.500 Y-20.000 Z-1.800 I0.000 J0.500 K0.000 F139.800
G1 X14.500 Y-17.500 Z-1.800 F139.800
G1 X14.354 Y-17.354 Z-1.800 F139.800
G1 X14.500 Y-17.500 Z-1.800 F139.800
G1 X19.000 Y-17.500 Z-1.800 F139.800
G3 X19.354 Y-16.646 Z-1.800 I0.000 J0.500 K0.000 F139.800
G1 X11.354 Y-8.646 Z-1.800 F139.800
G1 X11.354 Y-8.646 Z-2.100 F60.000
G1 X7.469 Y-4.762 Z-2.100 F139.800
G1 X7.354 Y-4.646 Z-1.934 F99.647
G1 X7.238 Y-4.531 Z-2.100 F99.647
G1 X3.354 Y-0.646 Z-2.100 F139.800
G3 X2.500 Y-1.000 Z-2.100 I-0.354 J-0.354 K0.000 F139.800
G1 X2.500 Y-5.500 Z-2.100 F139.800
G1 X2.646 Y-5.646 Z-2.100 F139.800
G1 X2.500 Y-5.500 Z-2.100 F139.800
G1 X1.000 Y-5.500 Z-2.100 F139.800
G3 X0.500 Y-6.000 Z-2.100 I-0.000 J-0.500 K0.000 F139.800
G1 X0.500 Y-12.000 Z-2.100 F139.800
G3 X1.000 Y-12.500 Z-2.100 I0.500 J-0.000 K0.000 F139.800
G1 X2.500 Y-12.500 Z-2.100 F139.800
G1 X2.646 Y-12.354 Z-2.100 F139.800
G1 X2.500 Y-12.500 Z-2.100 F139.800
G1 X2.500 Y-17.000 Z-2.100 F139.800
G3 X3.000 Y-17.500 Z-2.100 I0.500 J-0.000 K0.000 F139.800
G1 X7.500 Y-17.500 Z-2.100 F139.800
G1 X7.646 Y-17.354 Z-2.100 F139.800
G1 X7.500 Y-17.500 Z-2.100 F139.800
G1 X7.500 Y-20.000 Z-2.100 F139.800
G3 X8.000 Y-20.500 Z-2.100 I0.500 J-0.000 K0.000 F139.800
G1 X14.000 Y-20.500 Z-2.100 F139.800
G3 X14.500 Y-20.000 Z-2.100 I0.000 J0.500 K0.000 F139.800
G1 X14.500 Y-17.500 Z-2.100 F139.800
G1 X14.354 Y-17.354 Z-2.100 F139.800
G1 X14.500 Y-17.500 Z-2.100 F139.800
G1 X19.000 Y-17.500 Z-2.100 F139.800
G3 X19.354 Y-16.646 Z-2.100 I0.000 J0.500 K0.000 F139.800
G1 X15.469 Y-12.762 Z-2.100 F139.800
G1 X15.354 Y-12.646 Z-1.934 F99.647
G1 X15.238 Y-12.531 Z-2.100 F99.647
G1 X11.354 Y-8.646 Z-2.100 F139.800
G1 X11.354 Y-8.646 Z-2.400 F60.000
G1 X7.680 Y-4.972 Z-2.400 F139.800
G1 X7.354 Y-4.646 Z-1.934 F99.647
G1 X7.028 Y-4.320 Z-2.400 F99.647
G1 X3.354 Y-0.646 Z-2.400 F139.800
G3 X2.500 Y-1.000 Z-2.400 I-0.354 J-0.354 K0.000 F139.800
G1 X2.500 Y-5.500 Z-2.400 F139.800
G1 X2.646 Y-5.646 Z-2.400 F139.800
G1 X2.500 Y-5.500 Z-2.400 F139.800
G1 X1.000 Y-5.500 Z-2.400 F139.800
G3 X0.500 Y-6.000 Z-2.400 I-0.000 J-0.500 K0.000 F139.800
G1 X0.500 Y-12.000 Z-2.400 F139.800
G3 X1.000 Y-12.500 Z-2.400 I0.500 J-0.000 K0.000 F139.800
G1 X2.500 Y-12.500 Z-2.400 F139.800
G1 X2.646 Y-12.354 Z-2.400 F139.800
G1 X2.500 Y-12.500 Z-2.400 F139.800
G1 X2.500 Y-17.000 Z-2.400 F139.800
G3 X3.000 Y-17.500 Z-2.400 I0.500 J-0.000 K0.000 F139.800
G1 X7.500 Y-17.500 Z-2.400 F139.800
G1 X7.646 Y-17.354 Z-2.400 F139.800
G1 X7.500 Y-17.500 Z-2.400 F139.800
G1 X7.500 Y-20.000 Z-2.400 F139.800
G3 X8.000 Y-20.500 Z-2.400 I0.500 J-0.000 K0.000 F139.800
G1 X14.000 Y-20.500 Z-2.400 F139.800
G3 X14.500 Y-20.000 Z-2.400 I0.000 J0.500 K0.000 F139.800
G1 X14.500 Y-17.500 Z-2.400 F139.800
G1 X14.354 Y-17.354 Z-2.400 F139.800
G1 X14.500 Y-17.500 Z-2.400 F139.800
G1 X19.000 Y-17.500 Z-2.400 F139.800
G3 X19.354 Y-16.646 Z-2.400 I0.000 J0.500 K0.000 F139.800
G1 X15.680 Y-12.972 Z-2.400 F139.800
G1 X15.354 Y-12.646 Z-1.934 F99.647
G1 X15.028 Y-12.320 Z-2.400 F99.647
G1 X11.354 Y-8.646 Z-2.400 F139.800
G1 X11.354 Y-8.646 Z-2.700 F60.000
G1 X7.890 Y-5.182 Z-2.700 F139.800
G1 X7.354 Y-4.646 Z-1.934 F99.647
G1 X6.818 Y-4.110 Z-2.700 F99.647
G1 X3.354 Y-0.646 Z-2.700 F139.800
G3 X2.500 Y-1.000 Z-2.700 I-0.354 J-0.354 K0.000 F139.800
G1 X2.500 Y-5.500 Z-2.700 F139.800
G1 X2.646 Y-5.646 Z-2.700 F139.800
G1 X2.500 Y-5.500 Z-2.700 F139.800
G1 X1.000 Y-5.500 Z-2.700 F139.800
G3 X0.500 Y-6.000 Z-2.700 I-0.000 J-0.500 K0.000 F139.800
G1 X0.500 Y-12.000 Z-2.700 F139.800
G3 X1.000 Y-12.500 Z-2.700 I0.500 J-0.000 K0.000 F139.800
G1 X2.500 Y-12.500 Z-2.700 F139.800
G1 X2.646 Y-12.354 Z-2.700 F139.800
G1 X2.500 Y-12.500 Z-2.700 F139.800
G1 X2.500 Y-17.000 Z-2.700 F139.800
G3 X3.000 Y-17.500 Z-2.700 I0.500 J-0.000 K0.000 F139.800
G1 X7.500 Y-17.500 Z-2.700 F139.800
G1 X7.646 Y-17.354 Z-2.700 F139.800
G1 X7.500 Y-17.500 Z-2.700 F139.800
G1 X7.500 Y-20.000 Z-2.700 F139.800
G3 X8.000 Y-20.500 Z-2.700 I0.500 J-0.000 K0.000 F139.800
G1 X14.000 Y-20.500 Z-2.700 F139.800
G3 X14.500 Y-20.000 Z-2.700 I0.000 J0.500 K0.000 F139.800
G1 X14.500 Y-17.500 Z-2.700 F139.800
G1 X14.354 Y-17.354 Z-2.700 F139.800
G1 X14.500 Y-17.500 Z-2.700 F139.800
G1 X19.000 Y-17.500 Z-2.700 F139.800
G3 X19.354 Y-16.646 Z-2.700 I0.000 J0.500 K0.000 F139.800
G1 X15.890 Y-13.182 Z-2.700 F139.800
G1 X15.354 Y-12.646 Z-1.934 F99.647
G1 X14.818 Y-12.110 Z-2.700 F99.647
G1 X11.354 Y-8.646 Z-2.700 F139.800
G1 X11.354 Y-8.646 Z-3.000 F60.000
G1 X8.100 Y-5.392 Z-3.000 F139.800
G1 X7.354 Y-4.646 Z-1.934 F99.647
G1 X6.608 Y-3.900 Z-3.000 F99.647
G1 X3.354 Y-0.646 Z-3.000 F139.800
G3 X2.500 Y-1.000 Z-3.000 I-0.354 J-0.354 K0.000 F139.800
G1 X2.500 Y-5.500 Z-3.000 F139.800
G1 X2.646 Y-5.646 Z-3.000 F139.800
G1 X2.500 Y-5.500 Z-3.000 F139.800
G1 X1.000 Y-5.500 Z-3.000 F139.800
G3 X0.500 Y-6.000 Z-3.000 I-0.000 J-0.500 K0.000 F139.800
G1 X0.500 Y-12.000 Z-3.000 F139.800
G3 X1.000 Y-12.500 Z-3.000 I0.500 J-0.000 K0.000 F139.800
G1 X2.500 Y-12.500 Z-3.000 F139.800
G1 X2.646 Y-12.354 Z-3.000 F139.800
G1 X2.500 Y-12.500 Z-3.000 F139.800
G1 X2.500 Y-17.000 Z-3.000 F139.800
G3 X3.000 Y-17.500 Z-3.000 I0.500 J-0.000 K0.000 F139.800
G1 X7.500 Y-17.500 Z-3.000 F139.800
G1 X7.646 Y-17.354 Z-3.000 F139.800
G1 X7.500 Y-17.500 Z-3.000 F139.800
G1 X7.500 Y-20.000 Z-3.000 F139.800
G3 X8.000 Y-20.500 Z-3.000 I0.500 J-0.000 K0.000 F139.800
G1 X14.000 Y-20.500 Z-3.000 F139.800
G3 X14.500 Y-20.000 Z-3.000 I0.000 J0.500 K0.000 F139.800
G1 X14.500 Y-17.500 Z-3.000 F139.800
G1 X14.354 Y-17.354 Z-3.000 F139.800
G1 X14.500 Y-17.500 Z-3.000 F139.800
G1 X19.000 Y-17.500 Z-3.000 F139.800
G3 X19.354 Y-16.646 Z-3.000 I0.000 J0.500 K0.000 F139.800
G1 X16.100 Y-13.392 Z-3.000 F139.800
G1 X15.354 Y-12.646 Z-1.934 F99.647
G1 X14.608 Y-11.900 Z-3.000 F99.647
G1 X11.354 Y-8.646 Z-3.000 F139.800
G0 X11.354 Y-8.646 Z5.000
(Finish operation: DressupTag)
(Begin postamble)
M5
G17 G90
M2
