(Exported by FreeCAD)
(Post Processor: grbl_post)
(Output Time:2020-08-05 12:57:19.589774)
(Begin preamble)
G17 G90
G21
(Begin operation: Fixture)
(Path: Fixture)
G54
(Finish operation: Fixture)
(Begin operation: T37: Two-flute 1mm x 7mm001)
(Path: T37: Two-flute 1mm x 7mm001)
(T37: Two-flute 1mm x 7mm001)
(Begin toolchange)
(M6 T37.0)
M3 S7400.0
(Finish operation: T37: Two-flute 1mm x 7mm001)
(Begin operation: DressupTag001)
(Path: DressupTag001)
G0 Z5.000
G0 X6.433 Y-1.738 Z5.000
G0 X6.433 Y-1.738 Z3.000
G1 X6.433 Y-1.738 Z-0.333 F60.000
G3 X4.800 Y-0.500 Z-0.333 I-1.637 J-0.464 K0.000 F139.800
G1 X2.144 Y-0.503 Z-0.333 F139.800
G3 X0.500 Y-2.200 Z-0.333 I0.058 J-1.701 K0.000 F139.800
G1 X0.503 Y-13.856 Z-0.333 F139.800
G3 X2.200 Y-15.500 Z-0.333 I1.701 J0.058 K0.000 F139.800
G1 X8.300 Y-15.500 Z-0.333 F139.800
G3 X8.800 Y-15.000 Z-0.333 I0.000 J0.500 K0.000 F139.800
G1 X8.800 Y-13.500 Z-0.333 F139.800
G1 X8.654 Y-13.354 Z-0.333 F139.800
G1 X8.800 Y-13.500 Z-0.333 F139.800
G1 X10.300 Y-13.500 Z-0.333 F139.800
G3 X10.800 Y-13.000 Z-0.333 I0.000 J0.500 K0.000 F139.800
G1 X10.800 Y-7.000 Z-0.333 F139.800
G3 X10.300 Y-6.500 Z-0.333 I-0.500 J0.000 K0.000 F139.800
G1 X7.228 Y-6.500 Z-0.333 F139.800
G2 X6.500 Y-5.772 Z-0.333 I-0.020 J0.709 K0.000 F139.800
G1 X6.497 Y-2.144 Z-0.333 F139.800
G3 X6.433 Y-1.738 Z-0.333 I-1.701 J-0.058 K0.000 F139.800
G1 X6.433 Y-1.738 Z-0.666 F60.000
G3 X4.800 Y-0.500 Z-0.666 I-1.637 J-0.464 K0.000 F139.800
G1 X2.144 Y-0.503 Z-0.666 F139.800
G3 X0.500 Y-2.200 Z-0.666 I0.058 J-1.701 K0.000 F139.800
G1 X0.503 Y-13.856 Z-0.666 F139.800
G3 X2.200 Y-15.500 Z-0.666 I1.701 J0.058 K0.000 F139.800
G1 X8.300 Y-15.500 Z-0.666 F139.800
G3 X8.800 Y-15.000 Z-0.666 I0.000 J0.500 K0.000 F139.800
G1 X8.800 Y-13.500 Z-0.666 F139.800
G1 X8.654 Y-13.354 Z-0.666 F139.800
G1 X8.800 Y-13.500 Z-0.666 F139.800
G1 X10.300 Y-13.500 Z-0.666 F139.800
G3 X10.800 Y-13.000 Z-0.666 I0.000 J0.500 K0.000 F139.800
G1 X10.800 Y-7.000 Z-0.666 F139.800
G3 X10.300 Y-6.500 Z-0.666 I-0.500 J0.000 K0.000 F139.800
G1 X7.228 Y-6.500 Z-0.666 F139.800
G2 X6.500 Y-5.772 Z-0.666 I-0.020 J0.709 K0.000 F139.800
G1 X6.497 Y-2.144 Z-0.666 F139.800
G3 X6.433 Y-1.738 Z-0.666 I-1.701 J-0.058 K0.000 F139.800
G1 X6.433 Y-1.738 Z-0.999 F60.000
G3 X4.800 Y-0.500 Z-0.999 I-1.637 J-0.464 K0.000 F139.800
G1 X2.144 Y-0.503 Z-0.999 F139.800
G3 X0.500 Y-2.200 Z-0.999 I0.058 J-1.701 K0.000 F139.800
G1 X0.503 Y-13.856 Z-0.999 F139.800
G3 X2.200 Y-15.500 Z-0.999 I1.701 J0.058 K0.000 F139.800
G1 X8.300 Y-15.500 Z-0.999 F139.800
G3 X8.800 Y-15.000 Z-0.999 I0.000 J0.500 K0.000 F139.800
G1 X8.800 Y-13.500 Z-0.999 F139.800
G1 X8.654 Y-13.354 Z-0.999 F139.800
G1 X8.800 Y-13.500 Z-0.999 F139.800
G1 X10.300 Y-13.500 Z-0.999 F139.800
G3 X10.800 Y-13.000 Z-0.999 I0.000 J0.500 K0.000 F139.800
G1 X10.800 Y-7.000 Z-0.999 F139.800
G3 X10.300 Y-6.500 Z-0.999 I-0.500 J0.000 K0.000 F139.800
G1 X7.228 Y-6.500 Z-0.999 F139.800
G2 X6.500 Y-5.772 Z-0.999 I-0.020 J0.709 K0.000 F139.800
G1 X6.497 Y-2.144 Z-0.999 F139.800
G3 X6.433 Y-1.738 Z-0.999 I-1.701 J-0.058 K0.000 F139.800
G1 X6.433 Y-1.738 Z-1.332 F60.000
G3 X4.800 Y-0.500 Z-1.332 I-1.637 J-0.464 K0.000 F139.800
G1 X2.144 Y-0.503 Z-1.332 F139.800
G3 X0.500 Y-2.200 Z-1.332 I0.058 J-1.701 K0.000 F139.800
G1 X0.503 Y-13.856 Z-1.332 F139.800
G3 X2.200 Y-15.500 Z-1.332 I1.701 J0.058 K0.000 F139.800
G1 X8.300 Y-15.500 Z-1.332 F139.800
G3 X8.800 Y-15.000 Z-1.332 I0.000 J0.500 K0.000 F139.800
G1 X8.800 Y-13.500 Z-1.332 F139.800
G1 X8.654 Y-13.354 Z-1.332 F139.800
G1 X8.800 Y-13.500 Z-1.332 F139.800
G1 X10.300 Y-13.500 Z-1.332 F139.800
G3 X10.800 Y-13.000 Z-1.332 I0.000 J0.500 K0.000 F139.800
G1 X10.800 Y-7.000 Z-1.332 F139.800
G3 X10.300 Y-6.500 Z-1.332 I-0.500 J0.000 K0.000 F139.800
G1 X7.228 Y-6.500 Z-1.332 F139.800
G2 X6.500 Y-5.772 Z-1.332 I-0.020 J0.709 K0.000 F139.800
G1 X6.497 Y-2.144 Z-1.332 F139.800
G3 X6.433 Y-1.738 Z-1.332 I-1.701 J-0.058 K0.000 F139.800
G1 X6.433 Y-1.738 Z-1.665 F60.000
G3 X4.800 Y-0.500 Z-1.665 I-1.637 J-0.464 K0.000 F139.800
G1 X2.144 Y-0.503 Z-1.665 F139.800
G3 X0.500 Y-2.200 Z-1.665 I0.058 J-1.701 K0.000 F139.800
G1 X0.503 Y-13.856 Z-1.665 F139.800
G3 X2.200 Y-15.500 Z-1.665 I1.701 J0.058 K0.000 F139.800
G1 X8.300 Y-15.500 Z-1.665 F139.800
G3 X8.800 Y-15.000 Z-1.665 I0.000 J0.500 K0.000 F139.800
G1 X8.800 Y-13.500 Z-1.665 F139.800
G1 X8.654 Y-13.354 Z-1.665 F139.800
G1 X8.800 Y-13.500 Z-1.665 F139.800
G1 X10.300 Y-13.500 Z-1.665 F139.800
G3 X10.800 Y-13.000 Z-1.665 I0.000 J0.500 K0.000 F139.800
G1 X10.800 Y-7.000 Z-1.665 F139.800
G3 X10.300 Y-6.500 Z-1.665 I-0.500 J0.000 K0.000 F139.800
G1 X7.228 Y-6.500 Z-1.665 F139.800
G2 X6.500 Y-5.772 Z-1.665 I-0.020 J0.709 K0.000 F139.800
G1 X6.497 Y-2.144 Z-1.665 F139.800
G3 X6.433 Y-1.738 Z-1.665 I-1.701 J-0.058 K0.000 F139.800
G1 X6.433 Y-1.738 Z-1.998 F60.000
G3 X4.800 Y-0.500 Z-1.998 I-1.637 J-0.464 K0.000 F139.800
G1 X3.552 Y-0.501 Z-1.998 F139.800
G1 X3.472 Y-0.502 Z-1.917 F99.647
G1 X3.392 Y-0.502 Z-1.998 F99.647
G1 X2.144 Y-0.503 Z-1.998 F139.800
G3 X0.500 Y-2.200 Z-1.998 I0.058 J-1.701 K0.000 F139.800
G1 X0.502 Y-7.948 Z-1.998 F139.800
G1 X0.502 Y-8.028 Z-1.917 F99.647
G1 X0.502 Y-8.108 Z-1.998 F99.647
G1 X0.503 Y-13.856 Z-1.998 F139.800
G3 X2.200 Y-15.500 Z-1.998 I1.701 J0.058 K0.000 F139.800
G1 X8.300 Y-15.500 Z-1.998 F139.800
G3 X8.800 Y-15.000 Z-1.998 I0.000 J0.500 K0.000 F139.800
G1 X8.800 Y-13.500 Z-1.998 F139.800
G1 X8.654 Y-13.354 Z-1.998 F139.800
G1 X8.800 Y-13.500 Z-1.998 F139.800
G1 X10.300 Y-13.500 Z-1.998 F139.800
G3 X10.800 Y-13.000 Z-1.998 I0.000 J0.500 K0.000 F139.800
G1 X10.800 Y-7.000 Z-1.998 F139.800
G3 X10.300 Y-6.500 Z-1.998 I-0.500 J0.000 K0.000 F139.800
G1 X7.228 Y-6.500 Z-1.998 F139.800
G2 X6.500 Y-5.772 Z-1.998 I-0.020 J0.709 K0.000 F139.800
G1 X6.497 Y-2.144 Z-1.998 F139.800
G3 X6.433 Y-1.738 Z-1.998 I-1.701 J-0.058 K0.000 F139.800
G1 X6.433 Y-1.738 Z-2.331 F60.000
G3 X4.800 Y-0.500 Z-2.331 I-1.637 J-0.464 K0.000 F139.800
G1 X3.882 Y-0.501 Z-2.331 F139.800
G1 X3.472 Y-0.502 Z-1.917 F99.647
G1 X3.062 Y-0.502 Z-2.331 F99.647
G1 X2.144 Y-0.503 Z-2.331 F139.800
G3 X0.500 Y-2.200 Z-2.331 I0.058 J-1.701 K0.000 F139.800
G1 X0.501 Y-7.618 Z-2.331 F139.800
G1 X0.502 Y-8.028 Z-1.917 F99.647
G1 X0.502 Y-8.438 Z-2.331 F99.647
G1 X0.503 Y-13.856 Z-2.331 F139.800
G3 X2.200 Y-15.500 Z-2.331 I1.701 J0.058 K0.000 F139.800
G1 X8.300 Y-15.500 Z-2.331 F139.800
G3 X8.800 Y-15.000 Z-2.331 I0.000 J0.500 K0.000 F139.800
G1 X8.800 Y-13.500 Z-2.331 F139.800
G1 X8.654 Y-13.354 Z-2.331 F139.800
G1 X8.800 Y-13.500 Z-2.331 F139.800
G1 X10.300 Y-13.500 Z-2.331 F139.800
G3 X10.800 Y-13.000 Z-2.331 I0.000 J0.500 K0.000 F139.800
G1 X10.800 Y-7.000 Z-2.331 F139.800
G3 X10.300 Y-6.500 Z-2.331 I-0.500 J0.000 K0.000 F139.800
G1 X7.228 Y-6.500 Z-2.331 F139.800
G2 X6.500 Y-5.772 Z-2.331 I-0.020 J0.709 K0.000 F139.800
G1 X6.497 Y-2.144 Z-2.331 F139.800
G3 X6.433 Y-1.738 Z-2.331 I-1.701 J-0.058 K0.000 F139.800
G1 X6.433 Y-1.738 Z-2.664 F60.000
G3 X4.800 Y-0.500 Z-2.664 I-1.637 J-0.464 K0.000 F139.800
G1 X4.211 Y-0.501 Z-2.664 F139.800
G1 X3.472 Y-0.502 Z-1.917 F99.647
G1 X2.733 Y-0.502 Z-2.664 F99.647
G1 X2.144 Y-0.503 Z-2.664 F139.800
G3 X0.500 Y-2.200 Z-2.664 I0.058 J-1.701 K0.000 F139.800
G1 X0.501 Y-7.289 Z-2.664 F139.800
G1 X0.502 Y-8.028 Z-1.917 F99.647
G1 X0.502 Y-8.767 Z-2.664 F99.647
G1 X0.503 Y-13.856 Z-2.664 F139.800
G3 X2.200 Y-15.500 Z-2.664 I1.701 J0.058 K0.000 F139.800
G1 X8.300 Y-15.500 Z-2.664 F139.800
G3 X8.800 Y-15.000 Z-2.664 I0.000 J0.500 K0.000 F139.800
G1 X8.800 Y-13.500 Z-2.664 F139.800
G1 X8.654 Y-13.354 Z-2.664 F139.800
G1 X8.800 Y-13.500 Z-2.664 F139.800
G1 X10.300 Y-13.500 Z-2.664 F139.800
G3 X10.800 Y-13.000 Z-2.664 I0.000 J0.500 K0.000 F139.800
G1 X10.800 Y-7.000 Z-2.664 F139.800
G3 X10.300 Y-6.500 Z-2.664 I-0.500 J0.000 K0.000 F139.800
G1 X7.228 Y-6.500 Z-2.664 F139.800
G2 X6.500 Y-5.772 Z-2.664 I-0.020 J0.709 K0.000 F139.800
G1 X6.497 Y-2.144 Z-2.664 F139.800
G3 X6.433 Y-1.738 Z-2.664 I-1.701 J-0.058 K0.000 F139.800
G1 X6.433 Y-1.738 Z-2.997 F60.000
G3 X4.800 Y-0.500 Z-2.997 I-1.637 J-0.464 K0.000 F139.800
G1 X4.541 Y-0.500 Z-2.997 F139.800
G1 X3.472 Y-0.502 Z-1.917 F99.647
G1 X2.403 Y-0.503 Z-2.997 F99.647
G1 X2.144 Y-0.503 Z-2.997 F139.800
G3 X0.500 Y-2.200 Z-2.997 I0.058 J-1.701 K0.000 F139.800
G1 X0.501 Y-6.959 Z-2.997 F139.800
G1 X0.502 Y-8.028 Z-1.917 F99.647
G1 X0.502 Y-9.097 Z-2.997 F99.647
G1 X0.503 Y-13.856 Z-2.997 F139.800
G3 X2.200 Y-15.500 Z-2.997 I1.701 J0.058 K0.000 F139.800
G1 X8.300 Y-15.500 Z-2.997 F139.800
G3 X8.800 Y-15.000 Z-2.997 I0.000 J0.500 K0.000 F139.800
G1 X8.800 Y-13.500 Z-2.997 F139.800
G1 X8.654 Y-13.354 Z-2.997 F139.800
G1 X8.800 Y-13.500 Z-2.997 F139.800
G1 X10.300 Y-13.500 Z-2.997 F139.800
G3 X10.800 Y-13.000 Z-2.997 I0.000 J0.500 K0.000 F139.800
G1 X10.800 Y-7.000 Z-2.997 F139.800
G3 X10.300 Y-6.500 Z-2.997 I-0.500 J0.000 K0.000 F139.800
G1 X7.228 Y-6.500 Z-2.997 F139.800
G2 X6.500 Y-5.772 Z-2.997 I-0.020 J0.709 K0.000 F139.800
G1 X6.497 Y-2.144 Z-2.997 F139.800
G3 X6.433 Y-1.738 Z-2.997 I-1.701 J-0.058 K0.000 F139.800
G1 X6.433 Y-1.738 Z-3.000 F60.000
G3 X4.800 Y-0.500 Z-3.000 I-1.637 J-0.464 K0.000 F139.800
G1 X4.544 Y-0.500 Z-3.000 F139.800
G1 X3.472 Y-0.502 Z-1.917 F99.647
G1 X2.400 Y-0.503 Z-3.000 F99.647
G1 X2.144 Y-0.503 Z-3.000 F139.800
G3 X0.500 Y-2.200 Z-3.000 I0.058 J-1.701 K0.000 F139.800
G1 X0.501 Y-6.956 Z-3.000 F139.800
G1 X0.502 Y-8.028 Z-1.917 F99.647
G1 X0.502 Y-9.100 Z-3.000 F99.647
G1 X0.503 Y-13.856 Z-3.000 F139.800
G3 X2.200 Y-15.500 Z-3.000 I1.701 J0.058 K0.000 F139.800
G1 X8.300 Y-15.500 Z-3.000 F139.800
G3 X8.800 Y-15.000 Z-3.000 I0.000 J0.500 K0.000 F139.800
G1 X8.800 Y-13.500 Z-3.000 F139.800
G1 X8.654 Y-13.354 Z-3.000 F139.800
G1 X8.800 Y-13.500 Z-3.000 F139.800
G1 X10.300 Y-13.500 Z-3.000 F139.800
G3 X10.800 Y-13.000 Z-3.000 I0.000 J0.500 K0.000 F139.800
G1 X10.800 Y-7.000 Z-3.000 F139.800
G3 X10.300 Y-6.500 Z-3.000 I-0.500 J0.000 K0.000 F139.800
G1 X7.228 Y-6.500 Z-3.000 F139.800
G2 X6.500 Y-5.772 Z-3.000 I-0.020 J0.709 K0.000 F139.800
G1 X6.497 Y-2.144 Z-3.000 F139.800
G3 X6.433 Y-1.738 Z-3.000 I-1.701 J-0.058 K0.000 F139.800
G0 X6.433 Y-1.738 Z5.000
(Finish operation: DressupTag001)
(Begin postamble)
M5
G17 G90
M2
