(Exported by FreeCAD)
(Post Processor: grbl_post)
(Output Time:2020-08-05 13:23:00.771060)
(Begin preamble)
G17 G90
G21
(Begin operation: Fixture)
(Path: Fixture)
G54
(Finish operation: Fixture)
(Begin operation: T37: Two-flute 1mm x 7mm002)
(Path: T37: Two-flute 1mm x 7mm002)
(T37: Two-flute 1mm x 7mm002)
(Begin toolchange)
(M6 T37.0)
M3 S7400.0
(Finish operation: T37: Two-flute 1mm x 7mm002)
(Begin operation: DogboneDressup002)
(Path: DogboneDressup002)
(Profile002)
(Compensated Tool Path. Diameter: 1.0)
G0 Z5.000
G0 X32.500 Y-27.500
G0 Z3.000
G1 X32.500 Y-27.500 Z-0.330 F60.000
G1 X32.500 Y-32.500 Z-0.330 F139.800
G1 X32.646 Y-32.646 Z-0.330 F139.800
G1 X32.500 Y-32.500 Z-0.330 F139.800
G1 X30.500 Y-32.500 Z-0.330 F139.800
G1 X30.500 Y-32.500 Z-0.330 F139.800
G1 X30.354 Y-32.646 Z-0.330 F139.800
G1 X30.500 Y-32.500 Z-0.330 F139.800
G1 X30.500 Y-27.500 Z-0.330 F139.800
G1 X30.500 Y-27.500 Z-0.330 F139.800
G1 X30.354 Y-27.354 Z-0.330 F139.800
G1 X30.500 Y-27.500 Z-0.330 F139.800
G1 X32.500 Y-27.500 Z-0.330 F139.800
G1 X32.500 Y-27.500 Z-0.330 F139.800
G1 X32.646 Y-27.354 Z-0.330 F139.800
G1 X32.500 Y-27.500 Z-0.330 F139.800
G1 X32.500 Y-27.500 Z-0.660 F60.000
G1 X32.500 Y-32.500 Z-0.660 F139.800
G1 X32.646 Y-32.646 Z-0.660 F139.800
G1 X32.500 Y-32.500 Z-0.660 F139.800
G1 X30.500 Y-32.500 Z-0.660 F139.800
G1 X30.500 Y-32.500 Z-0.660 F139.800
G1 X30.354 Y-32.646 Z-0.660 F139.800
G1 X30.500 Y-32.500 Z-0.660 F139.800
G1 X30.500 Y-27.500 Z-0.660 F139.800
G1 X30.500 Y-27.500 Z-0.660 F139.800
G1 X30.354 Y-27.354 Z-0.660 F139.800
G1 X30.500 Y-27.500 Z-0.660 F139.800
G1 X32.500 Y-27.500 Z-0.660 F139.800
G1 X32.500 Y-27.500 Z-0.660 F139.800
G1 X32.646 Y-27.354 Z-0.660 F139.800
G1 X32.500 Y-27.500 Z-0.660 F139.800
G1 X32.500 Y-27.500 Z-0.990 F60.000
G1 X32.500 Y-32.500 Z-0.990 F139.800
G1 X32.646 Y-32.646 Z-0.990 F139.800
G1 X32.500 Y-32.500 Z-0.990 F139.800
G1 X30.500 Y-32.500 Z-0.990 F139.800
G1 X30.500 Y-32.500 Z-0.990 F139.800
G1 X30.354 Y-32.646 Z-0.990 F139.800
G1 X30.500 Y-32.500 Z-0.990 F139.800
G1 X30.500 Y-27.500 Z-0.990 F139.800
G1 X30.500 Y-27.500 Z-0.990 F139.800
G1 X30.354 Y-27.354 Z-0.990 F139.800
G1 X30.500 Y-27.500 Z-0.990 F139.800
G1 X32.500 Y-27.500 Z-0.990 F139.800
G1 X32.500 Y-27.500 Z-0.990 F139.800
G1 X32.646 Y-27.354 Z-0.990 F139.800
G1 X32.500 Y-27.500 Z-0.990 F139.800
G1 X32.500 Y-27.500 Z-1.320 F60.000
G1 X32.500 Y-32.500 Z-1.320 F139.800
G1 X32.646 Y-32.646 Z-1.320 F139.800
G1 X32.500 Y-32.500 Z-1.320 F139.800
G1 X30.500 Y-32.500 Z-1.320 F139.800
G1 X30.500 Y-32.500 Z-1.320 F139.800
G1 X30.354 Y-32.646 Z-1.320 F139.800
G1 X30.500 Y-32.500 Z-1.320 F139.800
G1 X30.500 Y-27.500 Z-1.320 F139.800
G1 X30.500 Y-27.500 Z-1.320 F139.800
G1 X30.354 Y-27.354 Z-1.320 F139.800
G1 X30.500 Y-27.500 Z-1.320 F139.800
G1 X32.500 Y-27.500 Z-1.320 F139.800
G1 X32.500 Y-27.500 Z-1.320 F139.800
G1 X32.646 Y-27.354 Z-1.320 F139.800
G1 X32.500 Y-27.500 Z-1.320 F139.800
G1 X32.500 Y-27.500 Z-1.650 F60.000
G1 X32.500 Y-32.500 Z-1.650 F139.800
G1 X32.646 Y-32.646 Z-1.650 F139.800
G1 X32.500 Y-32.500 Z-1.650 F139.800
G1 X30.500 Y-32.500 Z-1.650 F139.800
G1 X30.500 Y-32.500 Z-1.650 F139.800
G1 X30.354 Y-32.646 Z-1.650 F139.800
G1 X30.500 Y-32.500 Z-1.650 F139.800
G1 X30.500 Y-27.500 Z-1.650 F139.800
G1 X30.500 Y-27.500 Z-1.650 F139.800
G1 X30.354 Y-27.354 Z-1.650 F139.800
G1 X30.500 Y-27.500 Z-1.650 F139.800
G1 X32.500 Y-27.500 Z-1.650 F139.800
G1 X32.500 Y-27.500 Z-1.650 F139.800
G1 X32.646 Y-27.354 Z-1.650 F139.800
G1 X32.500 Y-27.500 Z-1.650 F139.800
G1 X32.500 Y-27.500 Z-1.980 F60.000
G1 X32.500 Y-32.500 Z-1.980 F139.800
G1 X32.646 Y-32.646 Z-1.980 F139.800
G1 X32.500 Y-32.500 Z-1.980 F139.800
G1 X30.500 Y-32.500 Z-1.980 F139.800
G1 X30.500 Y-32.500 Z-1.980 F139.800
G1 X30.354 Y-32.646 Z-1.980 F139.800
G1 X30.500 Y-32.500 Z-1.980 F139.800
G1 X30.500 Y-27.500 Z-1.980 F139.800
G1 X30.500 Y-27.500 Z-1.980 F139.800
G1 X30.354 Y-27.354 Z-1.980 F139.800
G1 X30.500 Y-27.500 Z-1.980 F139.800
G1 X32.500 Y-27.500 Z-1.980 F139.800
G1 X32.500 Y-27.500 Z-1.980 F139.800
G1 X32.646 Y-27.354 Z-1.980 F139.800
G1 X32.500 Y-27.500 Z-1.980 F139.800
G1 X32.500 Y-27.500 Z-2.310 F60.000
G1 X32.500 Y-32.500 Z-2.310 F139.800
G1 X32.646 Y-32.646 Z-2.310 F139.800
G1 X32.500 Y-32.500 Z-2.310 F139.800
G1 X30.500 Y-32.500 Z-2.310 F139.800
G1 X30.500 Y-32.500 Z-2.310 F139.800
G1 X30.354 Y-32.646 Z-2.310 F139.800
G1 X30.500 Y-32.500 Z-2.310 F139.800
G1 X30.500 Y-27.500 Z-2.310 F139.800
G1 X30.500 Y-27.500 Z-2.310 F139.800
G1 X30.354 Y-27.354 Z-2.310 F139.800
G1 X30.500 Y-27.500 Z-2.310 F139.800
G1 X32.500 Y-27.500 Z-2.310 F139.800
G1 X32.500 Y-27.500 Z-2.310 F139.800
G1 X32.646 Y-27.354 Z-2.310 F139.800
G1 X32.500 Y-27.500 Z-2.310 F139.800
G1 X32.500 Y-27.500 Z-2.640 F60.000
G1 X32.500 Y-32.500 Z-2.640 F139.800
G1 X32.646 Y-32.646 Z-2.640 F139.800
G1 X32.500 Y-32.500 Z-2.640 F139.800
G1 X30.500 Y-32.500 Z-2.640 F139.800
G1 X30.500 Y-32.500 Z-2.640 F139.800
G1 X30.354 Y-32.646 Z-2.640 F139.800
G1 X30.500 Y-32.500 Z-2.640 F139.800
G1 X30.500 Y-27.500 Z-2.640 F139.800
G1 X30.500 Y-27.500 Z-2.640 F139.800
G1 X30.354 Y-27.354 Z-2.640 F139.800
G1 X30.500 Y-27.500 Z-2.640 F139.800
G1 X32.500 Y-27.500 Z-2.640 F139.800
G1 X32.500 Y-27.500 Z-2.640 F139.800
G1 X32.646 Y-27.354 Z-2.640 F139.800
G1 X32.500 Y-27.500 Z-2.640 F139.800
G1 X32.500 Y-27.500 Z-2.970 F60.000
G1 X32.500 Y-32.500 Z-2.970 F139.800
G1 X32.646 Y-32.646 Z-2.970 F139.800
G1 X32.500 Y-32.500 Z-2.970 F139.800
G1 X30.500 Y-32.500 Z-2.970 F139.800
G1 X30.500 Y-32.500 Z-2.970 F139.800
G1 X30.354 Y-32.646 Z-2.970 F139.800
G1 X30.500 Y-32.500 Z-2.970 F139.800
G1 X30.500 Y-27.500 Z-2.970 F139.800
G1 X30.500 Y-27.500 Z-2.970 F139.800
G1 X30.354 Y-27.354 Z-2.970 F139.800
G1 X30.500 Y-27.500 Z-2.970 F139.800
G1 X32.500 Y-27.500 Z-2.970 F139.800
G1 X32.500 Y-27.500 Z-2.970 F139.800
G1 X32.646 Y-27.354 Z-2.970 F139.800
G1 X32.500 Y-27.500 Z-2.970 F139.800
G1 X32.500 Y-27.500 Z-3.000 F60.000
G1 X32.500 Y-32.500 Z-3.000 F139.800
G1 X32.646 Y-32.646 Z-3.000 F139.800
G1 X32.500 Y-32.500 Z-3.000 F139.800
G1 X30.500 Y-32.500 Z-3.000 F139.800
G1 X30.500 Y-32.500 Z-3.000 F139.800
G1 X30.354 Y-32.646 Z-3.000 F139.800
G1 X30.500 Y-32.500 Z-3.000 F139.800
G1 X30.500 Y-27.500 Z-3.000 F139.800
G1 X30.500 Y-27.500 Z-3.000 F139.800
G1 X30.354 Y-27.354 Z-3.000 F139.800
G1 X30.500 Y-27.500 Z-3.000 F139.800
G1 X32.500 Y-27.500 Z-3.000 F139.800
G1 X32.500 Y-27.500 Z-3.000 F139.800
G1 X32.646 Y-27.354 Z-3.000 F139.800
G1 X32.500 Y-27.500 Z-3.000 F139.800
G0 Z5.000
G0 Z5.000
(Finish operation: DogboneDressup002)
(Begin operation: DogboneDressup003)
(Path: DogboneDressup003)
(Profile003)
(Compensated Tool Path. Diameter: 1.0)
G0 Z5.000
G0 X6.500 Y-27.500
G0 Z3.000
G1 X6.500 Y-27.500 Z-0.330 F60.000
G1 X6.500 Y-32.500 Z-0.330 F139.800
G1 X6.646 Y-32.646 Z-0.330 F139.800
G1 X6.500 Y-32.500 Z-0.330 F139.800
G1 X4.500 Y-32.500 Z-0.330 F139.800
G1 X4.500 Y-32.500 Z-0.330 F139.800
G1 X4.354 Y-32.646 Z-0.330 F139.800
G1 X4.500 Y-32.500 Z-0.330 F139.800
G1 X4.500 Y-27.500 Z-0.330 F139.800
G1 X4.500 Y-27.500 Z-0.330 F139.800
G1 X4.354 Y-27.354 Z-0.330 F139.800
G1 X4.500 Y-27.500 Z-0.330 F139.800
G1 X6.500 Y-27.500 Z-0.330 F139.800
G1 X6.500 Y-27.500 Z-0.330 F139.800
G1 X6.646 Y-27.354 Z-0.330 F139.800
G1 X6.500 Y-27.500 Z-0.330 F139.800
G1 X6.500 Y-27.500 Z-0.660 F60.000
G1 X6.500 Y-32.500 Z-0.660 F139.800
G1 X6.646 Y-32.646 Z-0.660 F139.800
G1 X6.500 Y-32.500 Z-0.660 F139.800
G1 X4.500 Y-32.500 Z-0.660 F139.800
G1 X4.500 Y-32.500 Z-0.660 F139.800
G1 X4.354 Y-32.646 Z-0.660 F139.800
G1 X4.500 Y-32.500 Z-0.660 F139.800
G1 X4.500 Y-27.500 Z-0.660 F139.800
G1 X4.500 Y-27.500 Z-0.660 F139.800
G1 X4.354 Y-27.354 Z-0.660 F139.800
G1 X4.500 Y-27.500 Z-0.660 F139.800
G1 X6.500 Y-27.500 Z-0.660 F139.800
G1 X6.500 Y-27.500 Z-0.660 F139.800
G1 X6.646 Y-27.354 Z-0.660 F139.800
G1 X6.500 Y-27.500 Z-0.660 F139.800
G1 X6.500 Y-27.500 Z-0.990 F60.000
G1 X6.500 Y-32.500 Z-0.990 F139.800
G1 X6.646 Y-32.646 Z-0.990 F139.800
G1 X6.500 Y-32.500 Z-0.990 F139.800
G1 X4.500 Y-32.500 Z-0.990 F139.800
G1 X4.500 Y-32.500 Z-0.990 F139.800
G1 X4.354 Y-32.646 Z-0.990 F139.800
G1 X4.500 Y-32.500 Z-0.990 F139.800
G1 X4.500 Y-27.500 Z-0.990 F139.800
G1 X4.500 Y-27.500 Z-0.990 F139.800
G1 X4.354 Y-27.354 Z-0.990 F139.800
G1 X4.500 Y-27.500 Z-0.990 F139.800
G1 X6.500 Y-27.500 Z-0.990 F139.800
G1 X6.500 Y-27.500 Z-0.990 F139.800
G1 X6.646 Y-27.354 Z-0.990 F139.800
G1 X6.500 Y-27.500 Z-0.990 F139.800
G1 X6.500 Y-27.500 Z-1.320 F60.000
G1 X6.500 Y-32.500 Z-1.320 F139.800
G1 X6.646 Y-32.646 Z-1.320 F139.800
G1 X6.500 Y-32.500 Z-1.320 F139.800
G1 X4.500 Y-32.500 Z-1.320 F139.800
G1 X4.500 Y-32.500 Z-1.320 F139.800
G1 X4.354 Y-32.646 Z-1.320 F139.800
G1 X4.500 Y-32.500 Z-1.320 F139.800
G1 X4.500 Y-27.500 Z-1.320 F139.800
G1 X4.500 Y-27.500 Z-1.320 F139.800
G1 X4.354 Y-27.354 Z-1.320 F139.800
G1 X4.500 Y-27.500 Z-1.320 F139.800
G1 X6.500 Y-27.500 Z-1.320 F139.800
G1 X6.500 Y-27.500 Z-1.320 F139.800
G1 X6.646 Y-27.354 Z-1.320 F139.800
G1 X6.500 Y-27.500 Z-1.320 F139.800
G1 X6.500 Y-27.500 Z-1.650 F60.000
G1 X6.500 Y-32.500 Z-1.650 F139.800
G1 X6.646 Y-32.646 Z-1.650 F139.800
G1 X6.500 Y-32.500 Z-1.650 F139.800
G1 X4.500 Y-32.500 Z-1.650 F139.800
G1 X4.500 Y-32.500 Z-1.650 F139.800
G1 X4.354 Y-32.646 Z-1.650 F139.800
G1 X4.500 Y-32.500 Z-1.650 F139.800
G1 X4.500 Y-27.500 Z-1.650 F139.800
G1 X4.500 Y-27.500 Z-1.650 F139.800
G1 X4.354 Y-27.354 Z-1.650 F139.800
G1 X4.500 Y-27.500 Z-1.650 F139.800
G1 X6.500 Y-27.500 Z-1.650 F139.800
G1 X6.500 Y-27.500 Z-1.650 F139.800
G1 X6.646 Y-27.354 Z-1.650 F139.800
G1 X6.500 Y-27.500 Z-1.650 F139.800
G1 X6.500 Y-27.500 Z-1.980 F60.000
G1 X6.500 Y-32.500 Z-1.980 F139.800
G1 X6.646 Y-32.646 Z-1.980 F139.800
G1 X6.500 Y-32.500 Z-1.980 F139.800
G1 X4.500 Y-32.500 Z-1.980 F139.800
G1 X4.500 Y-32.500 Z-1.980 F139.800
G1 X4.354 Y-32.646 Z-1.980 F139.800
G1 X4.500 Y-32.500 Z-1.980 F139.800
G1 X4.500 Y-27.500 Z-1.980 F139.800
G1 X4.500 Y-27.500 Z-1.980 F139.800
G1 X4.354 Y-27.354 Z-1.980 F139.800
G1 X4.500 Y-27.500 Z-1.980 F139.800
G1 X6.500 Y-27.500 Z-1.980 F139.800
G1 X6.500 Y-27.500 Z-1.980 F139.800
G1 X6.646 Y-27.354 Z-1.980 F139.800
G1 X6.500 Y-27.500 Z-1.980 F139.800
G1 X6.500 Y-27.500 Z-2.310 F60.000
G1 X6.500 Y-32.500 Z-2.310 F139.800
G1 X6.646 Y-32.646 Z-2.310 F139.800
G1 X6.500 Y-32.500 Z-2.310 F139.800
G1 X4.500 Y-32.500 Z-2.310 F139.800
G1 X4.500 Y-32.500 Z-2.310 F139.800
G1 X4.354 Y-32.646 Z-2.310 F139.800
G1 X4.500 Y-32.500 Z-2.310 F139.800
G1 X4.500 Y-27.500 Z-2.310 F139.800
G1 X4.500 Y-27.500 Z-2.310 F139.800
G1 X4.354 Y-27.354 Z-2.310 F139.800
G1 X4.500 Y-27.500 Z-2.310 F139.800
G1 X6.500 Y-27.500 Z-2.310 F139.800
G1 X6.500 Y-27.500 Z-2.310 F139.800
G1 X6.646 Y-27.354 Z-2.310 F139.800
G1 X6.500 Y-27.500 Z-2.310 F139.800
G1 X6.500 Y-27.500 Z-2.640 F60.000
G1 X6.500 Y-32.500 Z-2.640 F139.800
G1 X6.646 Y-32.646 Z-2.640 F139.800
G1 X6.500 Y-32.500 Z-2.640 F139.800
G1 X4.500 Y-32.500 Z-2.640 F139.800
G1 X4.500 Y-32.500 Z-2.640 F139.800
G1 X4.354 Y-32.646 Z-2.640 F139.800
G1 X4.500 Y-32.500 Z-2.640 F139.800
G1 X4.500 Y-27.500 Z-2.640 F139.800
G1 X4.500 Y-27.500 Z-2.640 F139.800
G1 X4.354 Y-27.354 Z-2.640 F139.800
G1 X4.500 Y-27.500 Z-2.640 F139.800
G1 X6.500 Y-27.500 Z-2.640 F139.800
G1 X6.500 Y-27.500 Z-2.640 F139.800
G1 X6.646 Y-27.354 Z-2.640 F139.800
G1 X6.500 Y-27.500 Z-2.640 F139.800
G1 X6.500 Y-27.500 Z-2.970 F60.000
G1 X6.500 Y-32.500 Z-2.970 F139.800
G1 X6.646 Y-32.646 Z-2.970 F139.800
G1 X6.500 Y-32.500 Z-2.970 F139.800
G1 X4.500 Y-32.500 Z-2.970 F139.800
G1 X4.500 Y-32.500 Z-2.970 F139.800
G1 X4.354 Y-32.646 Z-2.970 F139.800
G1 X4.500 Y-32.500 Z-2.970 F139.800
G1 X4.500 Y-27.500 Z-2.970 F139.800
G1 X4.500 Y-27.500 Z-2.970 F139.800
G1 X4.354 Y-27.354 Z-2.970 F139.800
G1 X4.500 Y-27.500 Z-2.970 F139.800
G1 X6.500 Y-27.500 Z-2.970 F139.800
G1 X6.500 Y-27.500 Z-2.970 F139.800
G1 X6.646 Y-27.354 Z-2.970 F139.800
G1 X6.500 Y-27.500 Z-2.970 F139.800
G1 X6.500 Y-27.500 Z-3.000 F60.000
G1 X6.500 Y-32.500 Z-3.000 F139.800
G1 X6.646 Y-32.646 Z-3.000 F139.800
G1 X6.500 Y-32.500 Z-3.000 F139.800
G1 X4.500 Y-32.500 Z-3.000 F139.800
G1 X4.500 Y-32.500 Z-3.000 F139.800
G1 X4.354 Y-32.646 Z-3.000 F139.800
G1 X4.500 Y-32.500 Z-3.000 F139.800
G1 X4.500 Y-27.500 Z-3.000 F139.800
G1 X4.500 Y-27.500 Z-3.000 F139.800
G1 X4.354 Y-27.354 Z-3.000 F139.800
G1 X4.500 Y-27.500 Z-3.000 F139.800
G1 X6.500 Y-27.500 Z-3.000 F139.800
G1 X6.500 Y-27.500 Z-3.000 F139.800
G1 X6.646 Y-27.354 Z-3.000 F139.800
G1 X6.500 Y-27.500 Z-3.000 F139.800
G0 Z5.000
G0 Z5.000
(Finish operation: DogboneDressup003)
(Begin operation: DressupTag002)
(Path: DressupTag002)
G0 Z5.000
G0 X27.409 Y-13.509 Z5.000
G0 X27.409 Y-13.509 Z3.000
G1 X27.409 Y-13.509 Z-0.330 F60.000
G2 X28.000 Y-14.228 Z-0.330 I-0.118 J-0.699 K0.000 F139.800
G1 X28.000 Y-24.772 Z-0.330 F139.800
G2 X27.272 Y-25.500 Z-0.330 I-0.708 J-0.020 K0.000 F139.800
G1 X26.200 Y-25.500 Z-0.330 F139.800
G3 X24.503 Y-27.144 Z-0.330 I0.004 J-1.702 K0.000 F139.800
G1 X24.500 Y-28.271 Z-0.330 F139.800
G2 X23.772 Y-29.000 Z-0.330 I-0.709 J-0.020 K0.000 F139.800
G1 X13.228 Y-29.000 Z-0.330 F139.800
G2 X12.500 Y-28.272 Z-0.330 I-0.020 J0.708 K0.000 F139.800
G1 X12.500 Y-27.200 Z-0.330 F139.800
G3 X10.856 Y-25.503 Z-0.330 I-1.702 J-0.004 K0.000 F139.800
G1 X9.729 Y-25.500 Z-0.330 F139.800
G2 X9.000 Y-24.772 Z-0.330 I-0.020 J0.709 K0.000 F139.800
G1 X9.000 Y-14.228 Z-0.330 F139.800
G2 X9.728 Y-13.500 Z-0.330 I0.708 J0.020 K0.000 F139.800
G1 X10.800 Y-13.500 Z-0.330 F139.800
G3 X12.497 Y-11.856 Z-0.330 I-0.004 J1.702 K0.000 F139.800
G1 X12.500 Y-10.729 Z-0.330 F139.800
G2 X13.228 Y-10.000 Z-0.330 I0.709 J0.020 K0.000 F139.800
G1 X23.772 Y-10.000 Z-0.330 F139.800
G2 X24.500 Y-10.728 Z-0.330 I0.020 J-0.708 K0.000 F139.800
G1 X24.500 Y-11.800 Z-0.330 F139.800
G3 X26.144 Y-13.497 Z-0.330 I1.702 J0.004 K0.000 F139.800
G1 X27.271 Y-13.500 Z-0.330 F139.800
G2 X27.409 Y-13.509 Z-0.330 I0.020 J-0.709 K0.000 F139.800
G1 X27.409 Y-13.509 Z-0.660 F60.000
G2 X28.000 Y-14.228 Z-0.660 I-0.118 J-0.699 K0.000 F139.800
G1 X28.000 Y-24.772 Z-0.660 F139.800
G2 X27.272 Y-25.500 Z-0.660 I-0.708 J-0.020 K0.000 F139.800
G1 X26.200 Y-25.500 Z-0.660 F139.800
G3 X24.503 Y-27.144 Z-0.660 I0.004 J-1.702 K0.000 F139.800
G1 X24.500 Y-28.271 Z-0.660 F139.800
G2 X23.772 Y-29.000 Z-0.660 I-0.709 J-0.020 K0.000 F139.800
G1 X13.228 Y-29.000 Z-0.660 F139.800
G2 X12.500 Y-28.272 Z-0.660 I-0.020 J0.708 K0.000 F139.800
G1 X12.500 Y-27.200 Z-0.660 F139.800
G3 X10.856 Y-25.503 Z-0.660 I-1.702 J-0.004 K0.000 F139.800
G1 X9.729 Y-25.500 Z-0.660 F139.800
G2 X9.000 Y-24.772 Z-0.660 I-0.020 J0.709 K0.000 F139.800
G1 X9.000 Y-14.228 Z-0.660 F139.800
G2 X9.728 Y-13.500 Z-0.660 I0.708 J0.020 K0.000 F139.800
G1 X10.800 Y-13.500 Z-0.660 F139.800
G3 X12.497 Y-11.856 Z-0.660 I-0.004 J1.702 K0.000 F139.800
G1 X12.500 Y-10.729 Z-0.660 F139.800
G2 X13.228 Y-10.000 Z-0.660 I0.709 J0.020 K0.000 F139.800
G1 X23.772 Y-10.000 Z-0.660 F139.800
G2 X24.500 Y-10.728 Z-0.660 I0.020 J-0.708 K0.000 F139.800
G1 X24.500 Y-11.800 Z-0.660 F139.800
G3 X26.144 Y-13.497 Z-0.660 I1.702 J0.004 K0.000 F139.800
G1 X27.271 Y-13.500 Z-0.660 F139.800
G2 X27.409 Y-13.509 Z-0.660 I0.020 J-0.709 K0.000 F139.800
G1 X27.409 Y-13.509 Z-0.990 F60.000
G2 X28.000 Y-14.228 Z-0.990 I-0.118 J-0.699 K0.000 F139.800
G1 X28.000 Y-24.772 Z-0.990 F139.800
G2 X27.272 Y-25.500 Z-0.990 I-0.708 J-0.020 K0.000 F139.800
G1 X26.200 Y-25.500 Z-0.990 F139.800
G3 X24.503 Y-27.144 Z-0.990 I0.004 J-1.702 K0.000 F139.800
G1 X24.500 Y-28.271 Z-0.990 F139.800
G2 X23.772 Y-29.000 Z-0.990 I-0.709 J-0.020 K0.000 F139.800
G1 X13.228 Y-29.000 Z-0.990 F139.800
G2 X12.500 Y-28.272 Z-0.990 I-0.020 J0.708 K0.000 F139.800
G1 X12.500 Y-27.200 Z-0.990 F139.800
G3 X10.856 Y-25.503 Z-0.990 I-1.702 J-0.004 K0.000 F139.800
G1 X9.729 Y-25.500 Z-0.990 F139.800
G2 X9.000 Y-24.772 Z-0.990 I-0.020 J0.709 K0.000 F139.800
G1 X9.000 Y-14.228 Z-0.990 F139.800
G2 X9.728 Y-13.500 Z-0.990 I0.708 J0.020 K0.000 F139.800
G1 X10.800 Y-13.500 Z-0.990 F139.800
G3 X12.497 Y-11.856 Z-0.990 I-0.004 J1.702 K0.000 F139.800
G1 X12.500 Y-10.729 Z-0.990 F139.800
G2 X13.228 Y-10.000 Z-0.990 I0.709 J0.020 K0.000 F139.800
G1 X23.772 Y-10.000 Z-0.990 F139.800
G2 X24.500 Y-10.728 Z-0.990 I0.020 J-0.708 K0.000 F139.800
G1 X24.500 Y-11.800 Z-0.990 F139.800
G3 X26.144 Y-13.497 Z-0.990 I1.702 J0.004 K0.000 F139.800
G1 X27.271 Y-13.500 Z-0.990 F139.800
G2 X27.409 Y-13.509 Z-0.990 I0.020 J-0.709 K0.000 F139.800
G1 X27.409 Y-13.509 Z-1.320 F60.000
G2 X28.000 Y-14.228 Z-1.320 I-0.118 J-0.699 K0.000 F139.800
G1 X28.000 Y-24.772 Z-1.320 F139.800
G2 X27.272 Y-25.500 Z-1.320 I-0.708 J-0.020 K0.000 F139.800
G1 X26.200 Y-25.500 Z-1.320 F139.800
G3 X24.503 Y-27.144 Z-1.320 I0.004 J-1.702 K0.000 F139.800
G1 X24.500 Y-28.271 Z-1.320 F139.800
G2 X23.772 Y-29.000 Z-1.320 I-0.709 J-0.020 K0.000 F139.800
G1 X13.228 Y-29.000 Z-1.320 F139.800
G2 X12.500 Y-28.272 Z-1.320 I-0.020 J0.708 K0.000 F139.800
G1 X12.500 Y-27.200 Z-1.320 F139.800
G3 X10.856 Y-25.503 Z-1.320 I-1.702 J-0.004 K0.000 F139.800
G1 X9.729 Y-25.500 Z-1.320 F139.800
G2 X9.000 Y-24.772 Z-1.320 I-0.020 J0.709 K0.000 F139.800
G1 X9.000 Y-14.228 Z-1.320 F139.800
G2 X9.728 Y-13.500 Z-1.320 I0.708 J0.020 K0.000 F139.800
G1 X10.800 Y-13.500 Z-1.320 F139.800
G3 X12.497 Y-11.856 Z-1.320 I-0.004 J1.702 K0.000 F139.800
G1 X12.500 Y-10.729 Z-1.320 F139.800
G2 X13.228 Y-10.000 Z-1.320 I0.709 J0.020 K0.000 F139.800
G1 X23.772 Y-10.000 Z-1.320 F139.800
G2 X24.500 Y-10.728 Z-1.320 I0.020 J-0.708 K0.000 F139.800
G1 X24.500 Y-11.800 Z-1.320 F139.800
G3 X26.144 Y-13.497 Z-1.320 I1.702 J0.004 K0.000 F139.800
G1 X27.271 Y-13.500 Z-1.320 F139.800
G2 X27.409 Y-13.509 Z-1.320 I0.020 J-0.709 K0.000 F139.800
G1 X27.409 Y-13.509 Z-1.650 F60.000
G2 X28.000 Y-14.228 Z-1.650 I-0.118 J-0.699 K0.000 F139.800
G1 X28.000 Y-24.772 Z-1.650 F139.800
G2 X27.272 Y-25.500 Z-1.650 I-0.708 J-0.020 K0.000 F139.800
G1 X26.200 Y-25.500 Z-1.650 F139.800
G3 X24.503 Y-27.144 Z-1.650 I0.004 J-1.702 K0.000 F139.800
G1 X24.500 Y-28.271 Z-1.650 F139.800
G2 X23.772 Y-29.000 Z-1.650 I-0.709 J-0.020 K0.000 F139.800
G1 X13.228 Y-29.000 Z-1.650 F139.800
G2 X12.500 Y-28.272 Z-1.650 I-0.020 J0.708 K0.000 F139.800
G1 X12.500 Y-27.200 Z-1.650 F139.800
G3 X10.856 Y-25.503 Z-1.650 I-1.702 J-0.004 K0.000 F139.800
G1 X9.729 Y-25.500 Z-1.650 F139.800
G2 X9.000 Y-24.772 Z-1.650 I-0.020 J0.709 K0.000 F139.800
G1 X9.000 Y-14.228 Z-1.650 F139.800
G2 X9.728 Y-13.500 Z-1.650 I0.708 J0.020 K0.000 F139.800
G1 X10.800 Y-13.500 Z-1.650 F139.800
G3 X12.497 Y-11.856 Z-1.650 I-0.004 J1.702 K0.000 F139.800
G1 X12.500 Y-10.729 Z-1.650 F139.800
G2 X13.228 Y-10.000 Z-1.650 I0.709 J0.020 K0.000 F139.800
G1 X23.772 Y-10.000 Z-1.650 F139.800
G2 X24.500 Y-10.728 Z-1.650 I0.020 J-0.708 K0.000 F139.800
G1 X24.500 Y-11.800 Z-1.650 F139.800
G3 X26.144 Y-13.497 Z-1.650 I1.702 J0.004 K0.000 F139.800
G1 X27.271 Y-13.500 Z-1.650 F139.800
G2 X27.409 Y-13.509 Z-1.650 I0.020 J-0.709 K0.000 F139.800
G1 X27.409 Y-13.509 Z-1.980 F60.000
G2 X28.000 Y-14.228 Z-1.980 I-0.118 J-0.699 K0.000 F139.800
G1 X28.000 Y-24.772 Z-1.980 F139.800
G2 X27.272 Y-25.500 Z-1.980 I-0.708 J-0.020 K0.000 F139.800
G1 X26.200 Y-25.500 Z-1.980 F139.800
G3 X24.503 Y-27.144 Z-1.980 I0.004 J-1.702 K0.000 F139.800
G1 X24.500 Y-28.271 Z-1.980 F139.800
G2 X23.772 Y-29.000 Z-1.980 I-0.709 J-0.020 K0.000 F139.800
G1 X18.507 Y-29.000 Z-1.980 F139.800
G1 X18.500 Y-29.000 Z-1.973 F99.647
G1 X18.493 Y-29.000 Z-1.980 F99.647
G1 X13.228 Y-29.000 Z-1.980 F139.800
G2 X12.500 Y-28.272 Z-1.980 I-0.020 J0.708 K0.000 F139.800
G1 X12.500 Y-27.200 Z-1.980 F139.800
G3 X10.856 Y-25.503 Z-1.980 I-1.702 J-0.004 K0.000 F139.800
G1 X9.729 Y-25.500 Z-1.980 F139.800
G2 X9.000 Y-24.772 Z-1.980 I-0.020 J0.709 K0.000 F139.800
G1 X9.000 Y-14.228 Z-1.980 F139.800
G2 X9.728 Y-13.500 Z-1.980 I0.708 J0.020 K0.000 F139.800
G1 X10.800 Y-13.500 Z-1.980 F139.800
G3 X12.497 Y-11.856 Z-1.980 I-0.004 J1.702 K0.000 F139.800
G1 X12.500 Y-10.729 Z-1.980 F139.800
G2 X13.228 Y-10.000 Z-1.980 I0.709 J0.020 K0.000 F139.800
G1 X18.493 Y-10.000 Z-1.980 F139.800
G1 X18.500 Y-10.000 Z-1.973 F99.647
G1 X18.507 Y-10.000 Z-1.980 F99.647
G1 X23.772 Y-10.000 Z-1.980 F139.800
G2 X24.500 Y-10.728 Z-1.980 I0.020 J-0.708 K0.000 F139.800
G1 X24.500 Y-11.800 Z-1.980 F139.800
G3 X26.144 Y-13.497 Z-1.980 I1.702 J0.004 K0.000 F139.800
G1 X27.271 Y-13.500 Z-1.980 F139.800
G2 X27.409 Y-13.509 Z-1.980 I0.020 J-0.709 K0.000 F139.800
G1 X27.409 Y-13.509 Z-2.310 F60.000
G2 X28.000 Y-14.228 Z-2.310 I-0.118 J-0.699 K0.000 F139.800
G1 X28.000 Y-24.772 Z-2.310 F139.800
G2 X27.272 Y-25.500 Z-2.310 I-0.708 J-0.020 K0.000 F139.800
G1 X26.200 Y-25.500 Z-2.310 F139.800
G3 X24.503 Y-27.144 Z-2.310 I0.004 J-1.702 K0.000 F139.800
G1 X24.500 Y-28.271 Z-2.310 F139.800
G2 X23.772 Y-29.000 Z-2.310 I-0.709 J-0.020 K0.000 F139.800
G1 X18.834 Y-29.000 Z-2.310 F139.800
G1 X18.500 Y-29.000 Z-1.973 F99.647
G1 X18.166 Y-29.000 Z-2.310 F99.647
G1 X13.228 Y-29.000 Z-2.310 F139.800
G2 X12.500 Y-28.272 Z-2.310 I-0.020 J0.708 K0.000 F139.800
G1 X12.500 Y-27.200 Z-2.310 F139.800
G3 X10.856 Y-25.503 Z-2.310 I-1.702 J-0.004 K0.000 F139.800
G1 X9.729 Y-25.500 Z-2.310 F139.800
G2 X9.000 Y-24.772 Z-2.310 I-0.020 J0.709 K0.000 F139.800
G1 X9.000 Y-14.228 Z-2.310 F139.800
G2 X9.728 Y-13.500 Z-2.310 I0.708 J0.020 K0.000 F139.800
G1 X10.800 Y-13.500 Z-2.310 F139.800
G3 X12.497 Y-11.856 Z-2.310 I-0.004 J1.702 K0.000 F139.800
G1 X12.500 Y-10.729 Z-2.310 F139.800
G2 X13.228 Y-10.000 Z-2.310 I0.709 J0.020 K0.000 F139.800
G1 X18.166 Y-10.000 Z-2.310 F139.800
G1 X18.500 Y-10.000 Z-1.973 F99.647
G1 X18.834 Y-10.000 Z-2.310 F99.647
G1 X23.772 Y-10.000 Z-2.310 F139.800
G2 X24.500 Y-10.728 Z-2.310 I0.020 J-0.708 K0.000 F139.800
G1 X24.500 Y-11.800 Z-2.310 F139.800
G3 X26.144 Y-13.497 Z-2.310 I1.702 J0.004 K0.000 F139.800
G1 X27.271 Y-13.500 Z-2.310 F139.800
G2 X27.409 Y-13.509 Z-2.310 I0.020 J-0.709 K0.000 F139.800
G1 X27.409 Y-13.509 Z-2.640 F60.000
G2 X28.000 Y-14.228 Z-2.640 I-0.118 J-0.699 K0.000 F139.800
G1 X28.000 Y-24.772 Z-2.640 F139.800
G2 X27.272 Y-25.500 Z-2.640 I-0.708 J-0.020 K0.000 F139.800
G1 X26.200 Y-25.500 Z-2.640 F139.800
G3 X24.503 Y-27.144 Z-2.640 I0.004 J-1.702 K0.000 F139.800
G1 X24.500 Y-28.271 Z-2.640 F139.800
G2 X23.772 Y-29.000 Z-2.640 I-0.709 J-0.020 K0.000 F139.800
G1 X19.160 Y-29.000 Z-2.640 F139.800
G1 X18.500 Y-29.000 Z-1.973 F99.647
G1 X17.840 Y-29.000 Z-2.640 F99.647
G1 X13.228 Y-29.000 Z-2.640 F139.800
G2 X12.500 Y-28.272 Z-2.640 I-0.020 J0.708 K0.000 F139.800
G1 X12.500 Y-27.200 Z-2.640 F139.800
G3 X10.856 Y-25.503 Z-2.640 I-1.702 J-0.004 K0.000 F139.800
G1 X9.729 Y-25.500 Z-2.640 F139.800
G2 X9.000 Y-24.772 Z-2.640 I-0.020 J0.709 K0.000 F139.800
G1 X9.000 Y-14.228 Z-2.640 F139.800
G2 X9.728 Y-13.500 Z-2.640 I0.708 J0.020 K0.000 F139.800
G1 X10.800 Y-13.500 Z-2.640 F139.800
G3 X12.497 Y-11.856 Z-2.640 I-0.004 J1.702 K0.000 F139.800
G1 X12.500 Y-10.729 Z-2.640 F139.800
G2 X13.228 Y-10.000 Z-2.640 I0.709 J0.020 K0.000 F139.800
G1 X17.840 Y-10.000 Z-2.640 F139.800
G1 X18.500 Y-10.000 Z-1.973 F99.647
G1 X19.160 Y-10.000 Z-2.640 F99.647
G1 X23.772 Y-10.000 Z-2.640 F139.800
G2 X24.500 Y-10.728 Z-2.640 I0.020 J-0.708 K0.000 F139.800
G1 X24.500 Y-11.800 Z-2.640 F139.800
G3 X26.144 Y-13.497 Z-2.640 I1.702 J0.004 K0.000 F139.800
G1 X27.271 Y-13.500 Z-2.640 F139.800
G2 X27.409 Y-13.509 Z-2.640 I0.020 J-0.709 K0.000 F139.800
G1 X27.409 Y-13.509 Z-2.970 F60.000
G2 X28.000 Y-14.228 Z-2.970 I-0.118 J-0.699 K0.000 F139.800
G1 X28.000 Y-24.772 Z-2.970 F139.800
G2 X27.272 Y-25.500 Z-2.970 I-0.708 J-0.020 K0.000 F139.800
G1 X26.200 Y-25.500 Z-2.970 F139.800
G3 X24.503 Y-27.144 Z-2.970 I0.004 J-1.702 K0.000 F139.800
G1 X24.500 Y-28.271 Z-2.970 F139.800
G2 X23.772 Y-29.000 Z-2.970 I-0.709 J-0.020 K0.000 F139.800
G1 X19.487 Y-29.000 Z-2.970 F139.800
G1 X18.500 Y-29.000 Z-1.973 F99.647
G1 X17.513 Y-29.000 Z-2.970 F99.647
G1 X13.228 Y-29.000 Z-2.970 F139.800
G2 X12.500 Y-28.272 Z-2.970 I-0.020 J0.708 K0.000 F139.800
G1 X12.500 Y-27.200 Z-2.970 F139.800
G3 X10.856 Y-25.503 Z-2.970 I-1.702 J-0.004 K0.000 F139.800
G1 X9.729 Y-25.500 Z-2.970 F139.800
G2 X9.000 Y-24.772 Z-2.970 I-0.020 J0.709 K0.000 F139.800
G1 X9.000 Y-14.228 Z-2.970 F139.800
G2 X9.728 Y-13.500 Z-2.970 I0.708 J0.020 K0.000 F139.800
G1 X10.800 Y-13.500 Z-2.970 F139.800
G3 X12.497 Y-11.856 Z-2.970 I-0.004 J1.702 K0.000 F139.800
G1 X12.500 Y-10.729 Z-2.970 F139.800
G2 X13.228 Y-10.000 Z-2.970 I0.709 J0.020 K0.000 F139.800
G1 X17.513 Y-10.000 Z-2.970 F139.800
G1 X18.500 Y-10.000 Z-1.973 F99.647
G1 X19.487 Y-10.000 Z-2.970 F99.647
G1 X23.772 Y-10.000 Z-2.970 F139.800
G2 X24.500 Y-10.728 Z-2.970 I0.020 J-0.708 K0.000 F139.800
G1 X24.500 Y-11.800 Z-2.970 F139.800
G3 X26.144 Y-13.497 Z-2.970 I1.702 J0.004 K0.000 F139.800
G1 X27.271 Y-13.500 Z-2.970 F139.800
G2 X27.409 Y-13.509 Z-2.970 I0.020 J-0.709 K0.000 F139.800
G1 X27.409 Y-13.509 Z-3.000 F60.000
G2 X28.000 Y-14.228 Z-3.000 I-0.118 J-0.699 K0.000 F139.800
G1 X28.000 Y-24.772 Z-3.000 F139.800
G2 X27.272 Y-25.500 Z-3.000 I-0.708 J-0.020 K0.000 F139.800
G1 X26.200 Y-25.500 Z-3.000 F139.800
G3 X24.503 Y-27.144 Z-3.000 I0.004 J-1.702 K0.000 F139.800
G1 X24.500 Y-28.271 Z-3.000 F139.800
G2 X23.772 Y-29.000 Z-3.000 I-0.709 J-0.020 K0.000 F139.800
G1 X19.517 Y-29.000 Z-3.000 F139.800
G1 X18.500 Y-29.000 Z-1.973 F99.647
G1 X17.483 Y-29.000 Z-3.000 F99.647
G1 X13.228 Y-29.000 Z-3.000 F139.800
G2 X12.500 Y-28.272 Z-3.000 I-0.020 J0.708 K0.000 F139.800
G1 X12.500 Y-27.200 Z-3.000 F139.800
G3 X10.856 Y-25.503 Z-3.000 I-1.702 J-0.004 K0.000 F139.800
G1 X9.729 Y-25.500 Z-3.000 F139.800
G2 X9.000 Y-24.772 Z-3.000 I-0.020 J0.709 K0.000 F139.800
G1 X9.000 Y-14.228 Z-3.000 F139.800
G2 X9.728 Y-13.500 Z-3.000 I0.708 J0.020 K0.000 F139.800
G1 X10.800 Y-13.500 Z-3.000 F139.800
G3 X12.497 Y-11.856 Z-3.000 I-0.004 J1.702 K0.000 F139.800
G1 X12.500 Y-10.729 Z-3.000 F139.800
G2 X13.228 Y-10.000 Z-3.000 I0.709 J0.020 K0.000 F139.800
G1 X17.483 Y-10.000 Z-3.000 F139.800
G1 X18.500 Y-10.000 Z-1.973 F99.647
G1 X19.517 Y-10.000 Z-3.000 F99.647
G1 X23.772 Y-10.000 Z-3.000 F139.800
G2 X24.500 Y-10.728 Z-3.000 I0.020 J-0.708 K0.000 F139.800
G1 X24.500 Y-11.800 Z-3.000 F139.800
G3 X26.144 Y-13.497 Z-3.000 I1.702 J0.004 K0.000 F139.800
G1 X27.271 Y-13.500 Z-3.000 F139.800
G2 X27.409 Y-13.509 Z-3.000 I0.020 J-0.709 K0.000 F139.800
G0 X27.409 Y-13.509 Z5.000
(Finish operation: DressupTag002)
(Begin operation: DressupTag003)
(Path: DressupTag003)
G0 Z5.000
G0 X34.888 Y-2.111 Z5.000
G0 X34.888 Y-2.111 Z3.000
G1 X34.888 Y-2.111 Z-0.333 F60.000
G3 X31.000 Y-0.500 Z-0.333 I-3.890 J-3.889 K0.000 F139.800
G1 X5.970 Y-0.501 Z-0.333 F139.800
G3 X0.500 Y-6.000 Z-0.333 I0.031 J-5.501 K0.000 F139.800
G1 X0.503 Y-36.856 Z-0.333 F139.800
G3 X2.200 Y-38.500 Z-0.333 I1.701 J0.058 K0.000 F139.800
G1 X10.500 Y-38.500 Z-0.333 F139.800
G1 X10.646 Y-38.354 Z-0.333 F139.800
G1 X10.500 Y-38.500 Z-0.333 F139.800
G1 X10.500 Y-40.000 Z-0.333 F139.800
G3 X11.000 Y-40.500 Z-0.333 I0.500 J-0.000 K0.000 F139.800
G1 X26.000 Y-40.500 Z-0.333 F139.800
G3 X26.500 Y-40.000 Z-0.333 I0.000 J0.500 K0.000 F139.800
G1 X26.500 Y-38.500 Z-0.333 F139.800
G1 X26.354 Y-38.353 Z-0.333 F139.800
G1 X26.500 Y-38.500 Z-0.333 F139.800
G1 X34.856 Y-38.497 Z-0.333 F139.800
G3 X36.500 Y-36.800 Z-0.333 I-0.058 J1.701 K0.000 F139.800
G1 X36.499 Y-5.970 Z-0.333 F139.800
G3 X34.888 Y-2.111 Z-0.333 I-5.501 J-0.031 K0.000 F139.800
G1 X34.888 Y-2.111 Z-0.666 F60.000
G3 X31.000 Y-0.500 Z-0.666 I-3.890 J-3.889 K0.000 F139.800
G1 X5.970 Y-0.501 Z-0.666 F139.800
G3 X0.500 Y-6.000 Z-0.666 I0.031 J-5.501 K0.000 F139.800
G1 X0.503 Y-36.856 Z-0.666 F139.800
G3 X2.200 Y-38.500 Z-0.666 I1.701 J0.058 K0.000 F139.800
G1 X10.500 Y-38.500 Z-0.666 F139.800
G1 X10.646 Y-38.354 Z-0.666 F139.800
G1 X10.500 Y-38.500 Z-0.666 F139.800
G1 X10.500 Y-40.000 Z-0.666 F139.800
G3 X11.000 Y-40.500 Z-0.666 I0.500 J-0.000 K0.000 F139.800
G1 X26.000 Y-40.500 Z-0.666 F139.800
G3 X26.500 Y-40.000 Z-0.666 I0.000 J0.500 K0.000 F139.800
G1 X26.500 Y-38.500 Z-0.666 F139.800
G1 X26.354 Y-38.353 Z-0.666 F139.800
G1 X26.500 Y-38.500 Z-0.666 F139.800
G1 X34.856 Y-38.497 Z-0.666 F139.800
G3 X36.500 Y-36.800 Z-0.666 I-0.058 J1.701 K0.000 F139.800
G1 X36.499 Y-5.970 Z-0.666 F139.800
G3 X34.888 Y-2.111 Z-0.666 I-5.501 J-0.031 K0.000 F139.800
G1 X34.888 Y-2.111 Z-0.999 F60.000
G3 X31.000 Y-0.500 Z-0.999 I-3.890 J-3.889 K0.000 F139.800
G1 X18.526 Y-0.500 Z-0.999 F139.800
G1 X18.485 Y-0.500 Z-0.957 F99.647
G1 X18.444 Y-0.500 Z-0.999 F99.647
G1 X5.970 Y-0.501 Z-0.999 F139.800
G3 X0.500 Y-6.000 Z-0.999 I0.031 J-5.501 K0.000 F139.800
G1 X0.502 Y-21.387 Z-0.999 F139.800
G1 X0.502 Y-21.428 Z-0.957 F99.647
G1 X0.502 Y-21.469 Z-0.999 F99.647
G1 X0.503 Y-36.856 Z-0.999 F139.800
G3 X2.200 Y-38.500 Z-0.999 I1.701 J0.058 K0.000 F139.800
G1 X10.500 Y-38.500 Z-0.999 F139.800
G1 X10.646 Y-38.354 Z-0.999 F139.800
G1 X10.500 Y-38.500 Z-0.999 F139.800
G1 X10.500 Y-40.000 Z-0.999 F139.800
G3 X11.000 Y-40.500 Z-0.999 I0.500 J-0.000 K0.000 F139.800
G1 X26.000 Y-40.500 Z-0.999 F139.800
G3 X26.500 Y-40.000 Z-0.999 I0.000 J0.500 K0.000 F139.800
G1 X26.500 Y-38.500 Z-0.999 F139.800
G1 X26.354 Y-38.353 Z-0.999 F139.800
G1 X26.500 Y-38.500 Z-0.999 F139.800
G1 X34.856 Y-38.497 Z-0.999 F139.800
G3 X36.500 Y-36.800 Z-0.999 I-0.058 J1.701 K0.000 F139.800
G1 X36.500 Y-21.426 Z-0.999 F139.800
G1 X36.500 Y-21.385 Z-0.957 F99.647
G1 X36.500 Y-21.344 Z-0.999 F99.647
G1 X36.499 Y-5.970 Z-0.999 F139.800
G3 X34.888 Y-2.111 Z-0.999 I-5.501 J-0.031 K0.000 F139.800
G1 X34.888 Y-2.111 Z-1.332 F60.000
G3 X31.000 Y-0.500 Z-1.332 I-3.890 J-3.889 K0.000 F139.800
G1 X18.856 Y-0.500 Z-1.332 F139.800
G1 X18.485 Y-0.500 Z-0.957 F99.647
G1 X18.114 Y-0.500 Z-1.332 F99.647
G1 X5.970 Y-0.501 Z-1.332 F139.800
G3 X0.500 Y-6.000 Z-1.332 I0.031 J-5.501 K0.000 F139.800
G1 X0.502 Y-21.057 Z-1.332 F139.800
G1 X0.502 Y-21.428 Z-0.957 F99.647
G1 X0.502 Y-21.799 Z-1.332 F99.647
G1 X0.503 Y-36.856 Z-1.332 F139.800
G3 X2.200 Y-38.500 Z-1.332 I1.701 J0.058 K0.000 F139.800
G1 X10.500 Y-38.500 Z-1.332 F139.800
G1 X10.646 Y-38.354 Z-1.332 F139.800
G1 X10.500 Y-38.500 Z-1.332 F139.800
G1 X10.500 Y-40.000 Z-1.332 F139.800
G3 X11.000 Y-40.500 Z-1.332 I0.500 J-0.000 K0.000 F139.800
G1 X26.000 Y-40.500 Z-1.332 F139.800
G3 X26.500 Y-40.000 Z-1.332 I0.000 J0.500 K0.000 F139.800
G1 X26.500 Y-38.500 Z-1.332 F139.800
G1 X26.354 Y-38.353 Z-1.332 F139.800
G1 X26.500 Y-38.500 Z-1.332 F139.800
G1 X34.856 Y-38.497 Z-1.332 F139.800
G3 X36.500 Y-36.800 Z-1.332 I-0.058 J1.701 K0.000 F139.800
G1 X36.500 Y-21.756 Z-1.332 F139.800
G1 X36.500 Y-21.385 Z-0.957 F99.647
G1 X36.500 Y-21.014 Z-1.332 F99.647
G1 X36.499 Y-5.970 Z-1.332 F139.800
G3 X34.888 Y-2.111 Z-1.332 I-5.501 J-0.031 K0.000 F139.800
G1 X34.888 Y-2.111 Z-1.665 F60.000
G3 X31.000 Y-0.500 Z-1.665 I-3.890 J-3.889 K0.000 F139.800
G1 X19.185 Y-0.500 Z-1.665 F139.800
G1 X18.485 Y-0.500 Z-0.957 F99.647
G1 X17.784 Y-0.500 Z-1.665 F99.647
G1 X5.970 Y-0.501 Z-1.665 F139.800
G3 X0.500 Y-6.000 Z-1.665 I0.031 J-5.501 K0.000 F139.800
G1 X0.502 Y-20.727 Z-1.665 F139.800
G1 X0.502 Y-21.428 Z-0.957 F99.647
G1 X0.502 Y-22.129 Z-1.665 F99.647
G1 X0.503 Y-36.856 Z-1.665 F139.800
G3 X2.200 Y-38.500 Z-1.665 I1.701 J0.058 K0.000 F139.800
G1 X10.500 Y-38.500 Z-1.665 F139.800
G1 X10.646 Y-38.354 Z-1.665 F139.800
G1 X10.500 Y-38.500 Z-1.665 F139.800
G1 X10.500 Y-40.000 Z-1.665 F139.800
G3 X11.000 Y-40.500 Z-1.665 I0.500 J-0.000 K0.000 F139.800
G1 X26.000 Y-40.500 Z-1.665 F139.800
G3 X26.500 Y-40.000 Z-1.665 I0.000 J0.500 K0.000 F139.800
G1 X26.500 Y-38.500 Z-1.665 F139.800
G1 X26.354 Y-38.353 Z-1.665 F139.800
G1 X26.500 Y-38.500 Z-1.665 F139.800
G1 X34.856 Y-38.497 Z-1.665 F139.800
G3 X36.500 Y-36.800 Z-1.665 I-0.058 J1.701 K0.000 F139.800
G1 X36.500 Y-22.085 Z-1.665 F139.800
G1 X36.500 Y-21.385 Z-0.957 F99.647
G1 X36.500 Y-20.684 Z-1.665 F99.647
G1 X36.499 Y-5.970 Z-1.665 F139.800
G3 X34.888 Y-2.111 Z-1.665 I-5.501 J-0.031 K0.000 F139.800
G1 X34.888 Y-2.111 Z-1.998 F60.000
G3 X31.000 Y-0.500 Z-1.998 I-3.890 J-3.889 K0.000 F139.800
G1 X19.515 Y-0.500 Z-1.998 F139.800
G1 X18.485 Y-0.500 Z-0.957 F99.647
G1 X17.455 Y-0.500 Z-1.998 F99.647
G1 X5.970 Y-0.501 Z-1.998 F139.800
G3 X0.500 Y-6.000 Z-1.998 I0.031 J-5.501 K0.000 F139.800
G1 X0.501 Y-20.398 Z-1.998 F139.800
G1 X0.502 Y-21.428 Z-0.957 F99.647
G1 X0.502 Y-22.458 Z-1.998 F99.647
G1 X0.503 Y-36.856 Z-1.998 F139.800
G3 X2.200 Y-38.500 Z-1.998 I1.701 J0.058 K0.000 F139.800
G1 X10.500 Y-38.500 Z-1.998 F139.800
G1 X10.646 Y-38.354 Z-1.998 F139.800
G1 X10.500 Y-38.500 Z-1.998 F139.800
G1 X10.500 Y-40.000 Z-1.998 F139.800
G3 X11.000 Y-40.500 Z-1.998 I0.500 J-0.000 K0.000 F139.800
G1 X26.000 Y-40.500 Z-1.998 F139.800
G3 X26.500 Y-40.000 Z-1.998 I0.000 J0.500 K0.000 F139.800
G1 X26.500 Y-38.500 Z-1.998 F139.800
G1 X26.354 Y-38.353 Z-1.998 F139.800
G1 X26.500 Y-38.500 Z-1.998 F139.800
G1 X34.856 Y-38.497 Z-1.998 F139.800
G3 X36.500 Y-36.800 Z-1.998 I-0.058 J1.701 K0.000 F139.800
G1 X36.500 Y-22.415 Z-1.998 F139.800
G1 X36.500 Y-21.385 Z-0.957 F99.647
G1 X36.500 Y-20.355 Z-1.998 F99.647
G1 X36.499 Y-5.970 Z-1.998 F139.800
G3 X34.888 Y-2.111 Z-1.998 I-5.501 J-0.031 K0.000 F139.800
G1 X34.888 Y-2.111 Z-2.331 F60.000
G3 X31.000 Y-0.500 Z-2.331 I-3.890 J-3.889 K0.000 F139.800
G1 X19.845 Y-0.500 Z-2.331 F139.800
G1 X18.485 Y-0.500 Z-0.957 F99.647
G1 X17.125 Y-0.501 Z-2.331 F99.647
G1 X5.970 Y-0.501 Z-2.331 F139.800
G3 X0.500 Y-6.000 Z-2.331 I0.031 J-5.501 K0.000 F139.800
G1 X0.501 Y-20.068 Z-2.331 F139.800
G1 X0.502 Y-21.428 Z-0.957 F99.647
G1 X0.502 Y-22.788 Z-2.331 F99.647
G1 X0.503 Y-36.856 Z-2.331 F139.800
G3 X2.200 Y-38.500 Z-2.331 I1.701 J0.058 K0.000 F139.800
G1 X10.500 Y-38.500 Z-2.331 F139.800
G1 X10.646 Y-38.354 Z-2.331 F139.800
G1 X10.500 Y-38.500 Z-2.331 F139.800
G1 X10.500 Y-40.000 Z-2.331 F139.800
G3 X11.000 Y-40.500 Z-2.331 I0.500 J-0.000 K0.000 F139.800
G1 X26.000 Y-40.500 Z-2.331 F139.800
G3 X26.500 Y-40.000 Z-2.331 I0.000 J0.500 K0.000 F139.800
G1 X26.500 Y-38.500 Z-2.331 F139.800
G1 X26.354 Y-38.353 Z-2.331 F139.800
G1 X26.500 Y-38.500 Z-2.331 F139.800
G1 X34.856 Y-38.497 Z-2.331 F139.800
G3 X36.500 Y-36.800 Z-2.331 I-0.058 J1.701 K0.000 F139.800
G1 X36.500 Y-22.745 Z-2.331 F139.800
G1 X36.500 Y-21.385 Z-0.957 F99.647
G1 X36.500 Y-20.025 Z-2.331 F99.647
G1 X36.499 Y-5.970 Z-2.331 F139.800
G3 X34.888 Y-2.111 Z-2.331 I-5.501 J-0.031 K0.000 F139.800
G1 X34.888 Y-2.111 Z-2.664 F60.000
G3 X31.000 Y-0.500 Z-2.664 I-3.890 J-3.889 K0.000 F139.800
G1 X20.175 Y-0.500 Z-2.664 F139.800
G1 X18.485 Y-0.500 Z-0.957 F99.647
G1 X16.795 Y-0.501 Z-2.664 F99.647
G1 X5.970 Y-0.501 Z-2.664 F139.800
G3 X0.500 Y-6.000 Z-2.664 I0.031 J-5.501 K0.000 F139.800
G1 X0.501 Y-19.738 Z-2.664 F139.800
G1 X0.502 Y-21.428 Z-0.957 F99.647
G1 X0.502 Y-23.118 Z-2.664 F99.647
G1 X0.503 Y-36.856 Z-2.664 F139.800
G3 X2.200 Y-38.500 Z-2.664 I1.701 J0.058 K0.000 F139.800
G1 X10.500 Y-38.500 Z-2.664 F139.800
G1 X10.646 Y-38.354 Z-2.664 F139.800
G1 X10.500 Y-38.500 Z-2.664 F139.800
G1 X10.500 Y-40.000 Z-2.664 F139.800
G3 X11.000 Y-40.500 Z-2.664 I0.500 J-0.000 K0.000 F139.800
G1 X26.000 Y-40.500 Z-2.664 F139.800
G3 X26.500 Y-40.000 Z-2.664 I0.000 J0.500 K0.000 F139.800
G1 X26.500 Y-38.500 Z-2.664 F139.800
G1 X26.354 Y-38.353 Z-2.664 F139.800
G1 X26.500 Y-38.500 Z-2.664 F139.800
G1 X34.856 Y-38.497 Z-2.664 F139.800
G3 X36.500 Y-36.800 Z-2.664 I-0.058 J1.701 K0.000 F139.800
G1 X36.500 Y-23.075 Z-2.664 F139.800
G1 X36.500 Y-21.385 Z-0.957 F99.647
G1 X36.499 Y-19.695 Z-2.664 F99.647
G1 X36.499 Y-5.970 Z-2.664 F139.800
G3 X34.888 Y-2.111 Z-2.664 I-5.501 J-0.031 K0.000 F139.800
G1 X34.888 Y-2.111 Z-2.997 F60.000
G3 X31.000 Y-0.500 Z-2.997 I-3.890 J-3.889 K0.000 F139.800
G1 X20.504 Y-0.500 Z-2.997 F139.800
G1 X18.485 Y-0.500 Z-0.957 F99.647
G1 X16.466 Y-0.501 Z-2.997 F99.647
G1 X5.970 Y-0.501 Z-2.997 F139.800
G3 X0.500 Y-6.000 Z-2.997 I0.031 J-5.501 K0.000 F139.800
G1 X0.501 Y-19.409 Z-2.997 F139.800
G1 X0.502 Y-21.428 Z-0.957 F99.647
G1 X0.502 Y-23.447 Z-2.997 F99.647
G1 X0.503 Y-36.856 Z-2.997 F139.800
G3 X2.200 Y-38.500 Z-2.997 I1.701 J0.058 K0.000 F139.800
G1 X10.500 Y-38.500 Z-2.997 F139.800
G1 X10.646 Y-38.354 Z-2.997 F139.800
G1 X10.500 Y-38.500 Z-2.997 F139.800
G1 X10.500 Y-40.000 Z-2.997 F139.800
G3 X11.000 Y-40.500 Z-2.997 I0.500 J-0.000 K0.000 F139.800
G1 X26.000 Y-40.500 Z-2.997 F139.800
G3 X26.500 Y-40.000 Z-2.997 I0.000 J0.500 K0.000 F139.800
G1 X26.500 Y-38.500 Z-2.997 F139.800
G1 X26.354 Y-38.353 Z-2.997 F139.800
G1 X26.500 Y-38.500 Z-2.997 F139.800
G1 X34.856 Y-38.497 Z-2.997 F139.800
G3 X36.500 Y-36.800 Z-2.997 I-0.058 J1.701 K0.000 F139.800
G1 X36.500 Y-23.404 Z-2.997 F139.800
G1 X36.500 Y-21.385 Z-0.957 F99.647
G1 X36.499 Y-19.366 Z-2.997 F99.647
G1 X36.499 Y-5.970 Z-2.997 F139.800
G3 X34.888 Y-2.111 Z-2.997 I-5.501 J-0.031 K0.000 F139.800
G1 X34.888 Y-2.111 Z-3.000 F60.000
G3 X31.000 Y-0.500 Z-3.000 I-3.890 J-3.889 K0.000 F139.800
G1 X20.507 Y-0.500 Z-3.000 F139.800
G1 X18.485 Y-0.500 Z-0.957 F99.647
G1 X16.463 Y-0.501 Z-3.000 F99.647
G1 X5.970 Y-0.501 Z-3.000 F139.800
G3 X0.500 Y-6.000 Z-3.000 I0.031 J-5.501 K0.000 F139.800
G1 X0.501 Y-19.406 Z-3.000 F139.800
G1 X0.502 Y-21.428 Z-0.957 F99.647
G1 X0.502 Y-23.450 Z-3.000 F99.647
G1 X0.503 Y-36.856 Z-3.000 F139.800
G3 X2.200 Y-38.500 Z-3.000 I1.701 J0.058 K0.000 F139.800
G1 X10.500 Y-38.500 Z-3.000 F139.800
G1 X10.646 Y-38.354 Z-3.000 F139.800
G1 X10.500 Y-38.500 Z-3.000 F139.800
G1 X10.500 Y-40.000 Z-3.000 F139.800
G3 X11.000 Y-40.500 Z-3.000 I0.500 J-0.000 K0.000 F139.800
G1 X26.000 Y-40.500 Z-3.000 F139.800
G3 X26.500 Y-40.000 Z-3.000 I0.000 J0.500 K0.000 F139.800
G1 X26.500 Y-38.500 Z-3.000 F139.800
G1 X26.354 Y-38.353 Z-3.000 F139.800
G1 X26.500 Y-38.500 Z-3.000 F139.800
G1 X34.856 Y-38.497 Z-3.000 F139.800
G3 X36.500 Y-36.800 Z-3.000 I-0.058 J1.701 K0.000 F139.800
G1 X36.500 Y-23.407 Z-3.000 F139.800
G1 X36.500 Y-21.385 Z-0.957 F99.647
G1 X36.499 Y-19.363 Z-3.000 F99.647
G1 X36.499 Y-5.970 Z-3.000 F139.800
G3 X34.888 Y-2.111 Z-3.000 I-5.501 J-0.031 K0.000 F139.800
G0 X34.888 Y-2.111 Z5.000
(Finish operation: DressupTag003)
(Begin postamble)
M5
G17 G90
M2
