(Exported by FreeCAD)
(Post Processor: grbl_post)
(Output Time:2020-08-18 15:51:47.190107)
(Begin preamble)
G17 G90
G21
(Begin operation: Fixture)
(Path: Fixture)
G54
(Finish operation: Fixture)
(Begin operation: T37: Two-flute 1mm x 7mm003)
(Path: T37: Two-flute 1mm x 7mm003)
(T37: Two-flute 1mm x 7mm003)
(Begin toolchange)
(M6 T37.0)
M3 S7400.0
(Finish operation: T37: Two-flute 1mm x 7mm003)
(Begin operation: Pocket_Shape003)
(Path: Pocket_Shape003)
(Pocket_Shape003)
G0 Z2.000
G0 X1.646 Y1.153
G0 Z1.000
G1 X1.646 Y1.153 Z-0.333 F60.000
G1 X2.646 Y0.153 Z-0.333 F138.000
G1 X2.809 Y0.045 Z-0.333 F138.000
G3 X3.500 Y0.007 Z-0.333 I0.441 J1.719 K0.000 F138.000
G1 X3.500 Y-0.832 Z-0.333 F138.000
G1 X3.207 Y-0.832 Z-0.333 F138.000
G1 X0.354 Y2.022 Z-0.333 F138.000
G1 X0.191 Y2.130 Z-0.333 F138.000
G3 X-0.500 Y2.168 Z-0.333 I-0.441 J-1.719 K0.000 F138.000
G1 X-0.500 Y3.007 Z-0.333 F138.000
G1 X-0.207 Y3.007 Z-0.333 F138.000
G1 X1.646 Y1.153 Z-0.333 F138.000
G0 Z2.000
G0 X2.967 Y-0.238 Z2.000
G0 X2.967 Y-0.238 Z1.000
G1 X2.967 Y-0.238 Z-0.333 F60.000
G3 X3.250 Y-0.243 Z-0.333 I0.158 J0.891 K0.000 F138.000
G1 X3.250 Y-0.521 Z-0.333 F138.000
G1 X2.967 Y-0.238 Z-0.333 F138.000
G0 Z2.000
G0 X0.033 Y2.413 Z2.000
G0 X0.033 Y2.413 Z1.000
G1 X0.033 Y2.413 Z-0.333 F60.000
G3 X-0.250 Y2.418 Z-0.333 I-0.158 J-0.891 K0.000 F138.000
G1 X-0.250 Y2.696 Z-0.333 F138.000
G1 X0.033 Y2.413 Z-0.333 F138.000
G1 X0.033 Y2.413 Z-0.667 F60.000
G3 X-0.250 Y2.418 Z-0.667 I-0.158 J-0.891 K0.000 F138.000
G1 X-0.250 Y2.696 Z-0.667 F138.000
G1 X0.033 Y2.413 Z-0.667 F138.000
G0 Z2.000
G0 X-0.002 Y2.169 Z2.000
G0 X-0.002 Y2.169 Z1.000
G1 X-0.002 Y2.169 Z-0.667 F60.000
G3 X-0.500 Y2.168 Z-0.667 I-0.248 J-1.757 K0.000 F138.000
G1 X-0.500 Y3.007 Z-0.667 F138.000
G1 X-0.207 Y3.007 Z-0.667 F138.000
G1 X2.646 Y0.153 Z-0.667 F138.000
G1 X2.809 Y0.045 Z-0.667 F138.000
G3 X3.500 Y0.007 Z-0.667 I0.441 J1.719 K0.000 F138.000
G1 X3.500 Y-0.832 Z-0.667 F138.000
G1 X3.207 Y-0.832 Z-0.667 F138.000
G1 X0.354 Y2.022 Z-0.667 F138.000
G1 X0.191 Y2.130 Z-0.667 F138.000
G3 X-0.002 Y2.169 Z-0.667 I-0.441 J-1.719 K0.000 F138.000
G0 Z2.000
G0 X2.967 Y-0.238 Z2.000
G0 X2.967 Y-0.238 Z1.000
G1 X2.967 Y-0.238 Z-0.667 F60.000
G3 X3.250 Y-0.243 Z-0.667 I0.158 J0.891 K0.000 F138.000
G1 X3.250 Y-0.521 Z-0.667 F138.000
G1 X2.967 Y-0.238 Z-0.667 F138.000
G1 X2.967 Y-0.238 Z-1.000 F60.000
G3 X3.250 Y-0.243 Z-1.000 I0.158 J0.891 K0.000 F138.000
G1 X3.250 Y-0.521 Z-1.000 F138.000
G1 X2.967 Y-0.238 Z-1.000 F138.000
G0 Z2.000
G0 X3.002 Y0.007 Z2.000
G0 X3.002 Y0.007 Z1.000
G1 X3.002 Y0.007 Z-1.000 F60.000
G3 X3.500 Y0.007 Z-1.000 I0.248 J1.757 K0.000 F138.000
G1 X3.500 Y-0.832 Z-1.000 F138.000
G1 X3.207 Y-0.832 Z-1.000 F138.000
G1 X0.354 Y2.022 Z-1.000 F138.000
G1 X0.191 Y2.130 Z-1.000 F138.000
G3 X-0.500 Y2.168 Z-1.000 I-0.441 J-1.719 K0.000 F138.000
G1 X-0.500 Y3.007 Z-1.000 F138.000
G1 X-0.207 Y3.007 Z-1.000 F138.000
G1 X2.646 Y0.153 Z-1.000 F138.000
G1 X2.809 Y0.045 Z-1.000 F138.000
G3 X3.002 Y0.007 Z-1.000 I0.441 J1.719 K0.000 F138.000
G0 Z2.000
G0 X0.033 Y2.413 Z2.000
G0 X0.033 Y2.413 Z1.000
G1 X0.033 Y2.413 Z-1.000 F60.000
G3 X-0.250 Y2.418 Z-1.000 I-0.158 J-0.891 K0.000 F138.000
G1 X-0.250 Y2.696 Z-1.000 F138.000
G1 X0.033 Y2.413 Z-1.000 F138.000
G1 X0.033 Y2.413 Z-1.333 F60.000
G3 X-0.250 Y2.418 Z-1.333 I-0.158 J-0.891 K0.000 F138.000
G1 X-0.250 Y2.696 Z-1.333 F138.000
G1 X0.033 Y2.413 Z-1.333 F138.000
G0 Z2.000
G0 X-0.002 Y2.169 Z2.000
G0 X-0.002 Y2.169 Z1.000
G1 X-0.002 Y2.169 Z-1.333 F60.000
G3 X-0.500 Y2.168 Z-1.333 I-0.248 J-1.757 K0.000 F138.000
G1 X-0.500 Y3.007 Z-1.333 F138.000
G1 X-0.207 Y3.007 Z-1.333 F138.000
G1 X2.646 Y0.153 Z-1.333 F138.000
G1 X2.809 Y0.045 Z-1.333 F138.000
G3 X3.500 Y0.007 Z-1.333 I0.441 J1.719 K0.000 F138.000
G1 X3.500 Y-0.832 Z-1.333 F138.000
G1 X3.207 Y-0.832 Z-1.333 F138.000
G1 X0.354 Y2.022 Z-1.333 F138.000
G1 X0.191 Y2.130 Z-1.333 F138.000
G3 X-0.002 Y2.169 Z-1.333 I-0.441 J-1.719 K0.000 F138.000
G0 Z2.000
G0 X2.967 Y-0.238 Z2.000
G0 X2.967 Y-0.238 Z1.000
G1 X2.967 Y-0.238 Z-1.333 F60.000
G3 X3.250 Y-0.243 Z-1.333 I0.158 J0.891 K0.000 F138.000
G1 X3.250 Y-0.521 Z-1.333 F138.000
G1 X2.967 Y-0.238 Z-1.333 F138.000
G1 X2.967 Y-0.238 Z-1.667 F60.000
G3 X3.250 Y-0.243 Z-1.667 I0.158 J0.891 K0.000 F138.000
G1 X3.250 Y-0.521 Z-1.667 F138.000
G1 X2.967 Y-0.238 Z-1.667 F138.000
G0 Z2.000
G0 X3.002 Y0.007 Z2.000
G0 X3.002 Y0.007 Z1.000
G1 X3.002 Y0.007 Z-1.667 F60.000
G3 X3.500 Y0.007 Z-1.667 I0.248 J1.757 K0.000 F138.000
G1 X3.500 Y-0.832 Z-1.667 F138.000
G1 X3.207 Y-0.832 Z-1.667 F138.000
G1 X0.354 Y2.022 Z-1.667 F138.000
G1 X0.191 Y2.130 Z-1.667 F138.000
G3 X-0.500 Y2.168 Z-1.667 I-0.441 J-1.719 K0.000 F138.000
G1 X-0.500 Y3.007 Z-1.667 F138.000
G1 X-0.207 Y3.007 Z-1.667 F138.000
G1 X2.646 Y0.153 Z-1.667 F138.000
G1 X2.809 Y0.045 Z-1.667 F138.000
G3 X3.002 Y0.007 Z-1.667 I0.441 J1.719 K0.000 F138.000
G0 Z2.000
G0 X0.033 Y2.413 Z2.000
G0 X0.033 Y2.413 Z1.000
G1 X0.033 Y2.413 Z-1.667 F60.000
G3 X-0.250 Y2.418 Z-1.667 I-0.158 J-0.891 K0.000 F138.000
G1 X-0.250 Y2.696 Z-1.667 F138.000
G1 X0.033 Y2.413 Z-1.667 F138.000
G1 X0.033 Y2.413 Z-2.000 F60.000
G3 X-0.250 Y2.418 Z-2.000 I-0.158 J-0.891 K0.000 F138.000
G1 X-0.250 Y2.696 Z-2.000 F138.000
G1 X0.033 Y2.413 Z-2.000 F138.000
G0 Z2.000
G0 X-0.002 Y2.169 Z2.000
G0 X-0.002 Y2.169 Z1.000
G1 X-0.002 Y2.169 Z-2.000 F60.000
G3 X-0.500 Y2.168 Z-2.000 I-0.248 J-1.757 K0.000 F138.000
G1 X-0.500 Y3.007 Z-2.000 F138.000
G1 X-0.207 Y3.007 Z-2.000 F138.000
G1 X2.646 Y0.153 Z-2.000 F138.000
G1 X2.809 Y0.045 Z-2.000 F138.000
G3 X3.500 Y0.007 Z-2.000 I0.441 J1.719 K0.000 F138.000
G1 X3.500 Y-0.832 Z-2.000 F138.000
G1 X3.207 Y-0.832 Z-2.000 F138.000
G1 X0.354 Y2.022 Z-2.000 F138.000
G1 X0.191 Y2.130 Z-2.000 F138.000
G3 X-0.002 Y2.169 Z-2.000 I-0.441 J-1.719 K0.000 F138.000
G0 Z2.000
G0 X2.967 Y-0.238 Z2.000
G0 X2.967 Y-0.238 Z1.000
G1 X2.967 Y-0.238 Z-2.000 F60.000
G3 X3.250 Y-0.243 Z-2.000 I0.158 J0.891 K0.000 F138.000
G1 X3.250 Y-0.521 Z-2.000 F138.000
G1 X2.967 Y-0.238 Z-2.000 F138.000
G1 X2.967 Y-0.238 Z-2.200 F60.000
G3 X3.250 Y-0.243 Z-2.200 I0.158 J0.891 K0.000 F138.000
G1 X3.250 Y-0.521 Z-2.200 F138.000
G1 X2.967 Y-0.238 Z-2.200 F138.000
G0 Z2.000
G0 X3.002 Y0.007 Z2.000
G0 X3.002 Y0.007 Z1.000
G1 X3.002 Y0.007 Z-2.200 F60.000
G3 X3.500 Y0.007 Z-2.200 I0.248 J1.757 K0.000 F138.000
G1 X3.500 Y-0.832 Z-2.200 F138.000
G1 X3.207 Y-0.832 Z-2.200 F138.000
G1 X0.354 Y2.022 Z-2.200 F138.000
G1 X0.191 Y2.130 Z-2.200 F138.000
G3 X-0.500 Y2.168 Z-2.200 I-0.441 J-1.719 K0.000 F138.000
G1 X-0.500 Y3.007 Z-2.200 F138.000
G1 X-0.207 Y3.007 Z-2.200 F138.000
G1 X2.646 Y0.153 Z-2.200 F138.000
G1 X2.809 Y0.045 Z-2.200 F138.000
G3 X3.002 Y0.007 Z-2.200 I0.441 J1.719 K0.000 F138.000
G0 Z2.000
G0 X0.033 Y2.413 Z2.000
G0 X0.033 Y2.413 Z1.000
G1 X0.033 Y2.413 Z-2.200 F60.000
G3 X-0.250 Y2.418 Z-2.200 I-0.158 J-0.891 K0.000 F138.000
G1 X-0.250 Y2.696 Z-2.200 F138.000
G1 X0.033 Y2.413 Z-2.200 F138.000
G0 Z2.000
G0 Z2.000
G0 X3.207 Y-9.168
G0 X3.207 Y-9.168 Z1.000
G1 X3.207 Y-9.168 Z-0.333 F60.000
G1 X3.500 Y-9.168 Z-0.333 F138.000
G1 X3.500 Y-10.007 Z-0.333 F138.000
G1 X3.000 Y-10.007 Z-0.333 F138.000
G3 X2.646 Y-10.153 Z-0.333 I-0.000 J-0.500 K0.000 F138.000
G1 X-0.207 Y-13.007 Z-0.333 F138.000
G1 X-0.500 Y-13.007 Z-0.333 F138.000
G1 X-0.500 Y-12.168 Z-0.333 F138.000
G1 X0.000 Y-12.168 Z-0.333 F138.000
G3 X0.354 Y-12.022 Z-0.333 I0.000 J0.500 K0.000 F138.000
G1 X3.207 Y-9.168 Z-0.333 F138.000
G0 Z2.000
G0 X3.250 Y-9.479 Z2.000
G0 X3.250 Y-9.479 Z1.000
G1 X3.250 Y-9.479 Z-0.333 F60.000
G1 X3.250 Y-9.757 Z-0.333 F138.000
G3 X2.970 Y-9.759 Z-0.333 I-0.125 J-1.781 K0.000 F138.000
G1 X3.250 Y-9.479 Z-0.333 F138.000
G0 Z2.000
G0 X0.030 Y-12.416 Z2.000
G0 X0.030 Y-12.416 Z1.000
G1 X0.030 Y-12.416 Z-0.333 F60.000
G1 X-0.250 Y-12.696 Z-0.333 F138.000
G1 X-0.250 Y-12.418 Z-0.333 F138.000
G3 X0.030 Y-12.416 Z-0.333 I0.125 J1.781 K0.000 F138.000
G1 X0.030 Y-12.416 Z-0.667 F60.000
G1 X-0.250 Y-12.696 Z-0.667 F138.000
G1 X-0.250 Y-12.418 Z-0.667 F138.000
G3 X0.030 Y-12.416 Z-0.667 I0.125 J1.781 K0.000 F138.000
G0 Z2.000
G0 X0.020 Y-12.168 Z2.000
G0 X0.020 Y-12.168 Z1.000
G1 X0.020 Y-12.168 Z-0.667 F60.000
G3 X0.354 Y-12.022 Z-0.667 I-0.020 J0.500 K0.000 F138.000
G1 X3.207 Y-9.168 Z-0.667 F138.000
G1 X3.500 Y-9.168 Z-0.667 F138.000
G1 X3.500 Y-10.007 Z-0.667 F138.000
G1 X3.000 Y-10.007 Z-0.667 F138.000
G3 X2.646 Y-10.153 Z-0.667 I-0.000 J-0.500 K0.000 F138.000
G1 X-0.207 Y-13.007 Z-0.667 F138.000
G1 X-0.500 Y-13.007 Z-0.667 F138.000
G1 X-0.500 Y-12.168 Z-0.667 F138.000
G1 X0.000 Y-12.168 Z-0.667 F138.000
G3 X0.020 Y-12.168 Z-0.667 I0.000 J0.500 K0.000 F138.000
G0 Z2.000
G0 X2.970 Y-9.759 Z2.000
G0 X2.970 Y-9.759 Z1.000
G1 X2.970 Y-9.759 Z-0.667 F60.000
G1 X3.250 Y-9.479 Z-0.667 F138.000
G1 X3.250 Y-9.757 Z-0.667 F138.000
G3 X2.970 Y-9.759 Z-0.667 I-0.125 J-1.781 K0.000 F138.000
G1 X2.970 Y-9.759 Z-1.000 F60.000
G1 X3.250 Y-9.479 Z-1.000 F138.000
G1 X3.250 Y-9.757 Z-1.000 F138.000
G3 X2.970 Y-9.759 Z-1.000 I-0.125 J-1.781 K0.000 F138.000
G0 Z2.000
G0 X2.980 Y-10.007 Z2.000
G0 X2.980 Y-10.007 Z1.000
G1 X2.980 Y-10.007 Z-1.000 F60.000
G3 X2.646 Y-10.153 Z-1.000 I0.020 J-0.500 K0.000 F138.000
G1 X-0.207 Y-13.007 Z-1.000 F138.000
G1 X-0.500 Y-13.007 Z-1.000 F138.000
G1 X-0.500 Y-12.168 Z-1.000 F138.000
G1 X0.000 Y-12.168 Z-1.000 F138.000
G3 X0.354 Y-12.022 Z-1.000 I0.000 J0.500 K0.000 F138.000
G1 X3.207 Y-9.168 Z-1.000 F138.000
G1 X3.500 Y-9.168 Z-1.000 F138.000
G1 X3.500 Y-10.007 Z-1.000 F138.000
G1 X3.000 Y-10.007 Z-1.000 F138.000
G3 X2.980 Y-10.007 Z-1.000 I-0.000 J-0.500 K0.000 F138.000
G0 Z2.000
G0 X0.030 Y-12.416 Z2.000
G0 X0.030 Y-12.416 Z1.000
G1 X0.030 Y-12.416 Z-1.000 F60.000
G1 X-0.250 Y-12.696 Z-1.000 F138.000
G1 X-0.250 Y-12.418 Z-1.000 F138.000
G3 X0.030 Y-12.416 Z-1.000 I0.125 J1.781 K0.000 F138.000
G1 X0.030 Y-12.416 Z-1.333 F60.000
G1 X-0.250 Y-12.696 Z-1.333 F138.000
G1 X-0.250 Y-12.418 Z-1.333 F138.000
G3 X0.030 Y-12.416 Z-1.333 I0.125 J1.781 K0.000 F138.000
G0 Z2.000
G0 X0.020 Y-12.168 Z2.000
G0 X0.020 Y-12.168 Z1.000
G1 X0.020 Y-12.168 Z-1.333 F60.000
G3 X0.354 Y-12.022 Z-1.333 I-0.020 J0.500 K0.000 F138.000
G1 X3.207 Y-9.168 Z-1.333 F138.000
G1 X3.500 Y-9.168 Z-1.333 F138.000
G1 X3.500 Y-10.007 Z-1.333 F138.000
G1 X3.000 Y-10.007 Z-1.333 F138.000
G3 X2.646 Y-10.153 Z-1.333 I-0.000 J-0.500 K0.000 F138.000
G1 X-0.207 Y-13.007 Z-1.333 F138.000
G1 X-0.500 Y-13.007 Z-1.333 F138.000
G1 X-0.500 Y-12.168 Z-1.333 F138.000
G1 X0.000 Y-12.168 Z-1.333 F138.000
G3 X0.020 Y-12.168 Z-1.333 I0.000 J0.500 K0.000 F138.000
G0 Z2.000
G0 X2.970 Y-9.759 Z2.000
G0 X2.970 Y-9.759 Z1.000
G1 X2.970 Y-9.759 Z-1.333 F60.000
G1 X3.250 Y-9.479 Z-1.333 F138.000
G1 X3.250 Y-9.757 Z-1.333 F138.000
G3 X2.970 Y-9.759 Z-1.333 I-0.125 J-1.781 K0.000 F138.000
G1 X2.970 Y-9.759 Z-1.667 F60.000
G1 X3.250 Y-9.479 Z-1.667 F138.000
G1 X3.250 Y-9.757 Z-1.667 F138.000
G3 X2.970 Y-9.759 Z-1.667 I-0.125 J-1.781 K0.000 F138.000
G0 Z2.000
G0 X2.980 Y-10.007 Z2.000
G0 X2.980 Y-10.007 Z1.000
G1 X2.980 Y-10.007 Z-1.667 F60.000
G3 X2.646 Y-10.153 Z-1.667 I0.020 J-0.500 K0.000 F138.000
G1 X-0.207 Y-13.007 Z-1.667 F138.000
G1 X-0.500 Y-13.007 Z-1.667 F138.000
G1 X-0.500 Y-12.168 Z-1.667 F138.000
G1 X0.000 Y-12.168 Z-1.667 F138.000
G3 X0.354 Y-12.022 Z-1.667 I0.000 J0.500 K0.000 F138.000
G1 X3.207 Y-9.168 Z-1.667 F138.000
G1 X3.500 Y-9.168 Z-1.667 F138.000
G1 X3.500 Y-10.007 Z-1.667 F138.000
G1 X3.000 Y-10.007 Z-1.667 F138.000
G3 X2.980 Y-10.007 Z-1.667 I-0.000 J-0.500 K0.000 F138.000
G0 Z2.000
G0 X0.030 Y-12.416 Z2.000
G0 X0.030 Y-12.416 Z1.000
G1 X0.030 Y-12.416 Z-1.667 F60.000
G1 X-0.250 Y-12.696 Z-1.667 F138.000
G1 X-0.250 Y-12.418 Z-1.667 F138.000
G3 X0.030 Y-12.416 Z-1.667 I0.125 J1.781 K0.000 F138.000
G1 X0.030 Y-12.416 Z-2.000 F60.000
G1 X-0.250 Y-12.696 Z-2.000 F138.000
G1 X-0.250 Y-12.418 Z-2.000 F138.000
G3 X0.030 Y-12.416 Z-2.000 I0.125 J1.781 K0.000 F138.000
G0 Z2.000
G0 X0.020 Y-12.168 Z2.000
G0 X0.020 Y-12.168 Z1.000
G1 X0.020 Y-12.168 Z-2.000 F60.000
G3 X0.354 Y-12.022 Z-2.000 I-0.020 J0.500 K0.000 F138.000
G1 X3.207 Y-9.168 Z-2.000 F138.000
G1 X3.500 Y-9.168 Z-2.000 F138.000
G1 X3.500 Y-10.007 Z-2.000 F138.000
G1 X3.000 Y-10.007 Z-2.000 F138.000
G3 X2.646 Y-10.153 Z-2.000 I-0.000 J-0.500 K0.000 F138.000
G1 X-0.207 Y-13.007 Z-2.000 F138.000
G1 X-0.500 Y-13.007 Z-2.000 F138.000
G1 X-0.500 Y-12.168 Z-2.000 F138.000
G1 X0.000 Y-12.168 Z-2.000 F138.000
G3 X0.020 Y-12.168 Z-2.000 I0.000 J0.500 K0.000 F138.000
G0 Z2.000
G0 X2.970 Y-9.759 Z2.000
G0 X2.970 Y-9.759 Z1.000
G1 X2.970 Y-9.759 Z-2.000 F60.000
G1 X3.250 Y-9.479 Z-2.000 F138.000
G1 X3.250 Y-9.757 Z-2.000 F138.000
G3 X2.970 Y-9.759 Z-2.000 I-0.125 J-1.781 K0.000 F138.000
G1 X2.970 Y-9.759 Z-2.200 F60.000
G1 X3.250 Y-9.479 Z-2.200 F138.000
G1 X3.250 Y-9.757 Z-2.200 F138.000
G3 X2.970 Y-9.759 Z-2.200 I-0.125 J-1.781 K0.000 F138.000
G0 Z2.000
G0 X2.980 Y-10.007 Z2.000
G0 X2.980 Y-10.007 Z1.000
G1 X2.980 Y-10.007 Z-2.200 F60.000
G3 X2.646 Y-10.153 Z-2.200 I0.020 J-0.500 K0.000 F138.000
G1 X-0.207 Y-13.007 Z-2.200 F138.000
G1 X-0.500 Y-13.007 Z-2.200 F138.000
G1 X-0.500 Y-12.168 Z-2.200 F138.000
G1 X0.000 Y-12.168 Z-2.200 F138.000
G3 X0.354 Y-12.022 Z-2.200 I0.000 J0.500 K0.000 F138.000
G1 X3.207 Y-9.168 Z-2.200 F138.000
G1 X3.500 Y-9.168 Z-2.200 F138.000
G1 X3.500 Y-10.007 Z-2.200 F138.000
G1 X3.000 Y-10.007 Z-2.200 F138.000
G3 X2.980 Y-10.007 Z-2.200 I-0.000 J-0.500 K0.000 F138.000
G0 Z2.000
G0 X0.030 Y-12.416 Z2.000
G0 X0.030 Y-12.416 Z1.000
G1 X0.030 Y-12.416 Z-2.200 F60.000
G1 X-0.250 Y-12.696 Z-2.200 F138.000
G1 X-0.250 Y-12.418 Z-2.200 F138.000
G3 X0.030 Y-12.416 Z-2.200 I0.125 J1.781 K0.000 F138.000
G0 Z2.000
G0 Z2.000
(Finish operation: Pocket_Shape003)
(Begin postamble)
M5
G17 G90
M2
