(Exported by FreeCAD)
(Post Processor: grbl_post)
(Output Time:2020-08-19 12:57:54.749012)
(Begin preamble)
G17 G90
G21
(Begin operation: Fixture)
(Path: Fixture)
G54
(Finish operation: Fixture)
(Begin operation: T37: Two-flute 1mm x 7mm004)
(Path: T37: Two-flute 1mm x 7mm004)
(T37: Two-flute 1mm x 7mm004)
(Begin toolchange)
(M6 T37.0)
M3 S7400.0
(Finish operation: T37: Two-flute 1mm x 7mm004)
(Begin operation: DressupPathBoundary002)
(Path: DressupPathBoundary002)
(Profile006)
(Compensated Tool Path. Diameter: 1.0)
G1 X0.000 Y0.000 Z1.000 F60.000
G1 Z1.000 F60.000
G0 Z6.000
G0 X-54.556 Y0.000
G0 Z1.000
G1 Z-0.333 F60.000
G3 X-54.410 Y-0.354 Z-0.333 I0.500 J-0.000 K0.000 F139.800
G1 X-40.898 Y-13.865 Z-0.333 F139.800
G2 X-40.500 Y-14.826 Z-0.333 I-0.932 J-0.949 K0.000 F139.800
G1 X-40.498 Y-52.305 Z-0.333 F139.800
G3 X-38.200 Y-54.556 Z-0.333 I2.301 J0.050 K0.000 F139.800
G1 X38.249 Y-54.554 Z-0.333 F139.800
G3 X40.500 Y-52.256 Z-0.333 I-0.050 J2.301 K0.000 F139.800
G1 X40.500 Y-14.826 Z-0.333 F139.800
G2 X40.898 Y-13.865 Z-0.333 I1.330 J0.012 K0.000 F139.800
G1 X54.409 Y-0.354 Z-0.333 F139.800
G3 X54.556 Y0.000 Z-0.333 I-0.354 J0.354 K0.000 F139.800
G1 Z1.000 F60.000
G0 Z6.000
G0 X-54.556 Y0.000
G0 Z1.000
G1 Z-0.667 F60.000
G3 X-54.410 Y-0.354 Z-0.667 I0.500 J-0.000 K0.000 F139.800
G1 X-40.898 Y-13.865 Z-0.667 F139.800
G2 X-40.500 Y-14.826 Z-0.667 I-0.932 J-0.949 K0.000 F139.800
G1 X-40.498 Y-52.305 Z-0.667 F139.800
G3 X-38.200 Y-54.556 Z-0.667 I2.301 J0.050 K0.000 F139.800
G1 X38.249 Y-54.554 Z-0.667 F139.800
G3 X40.500 Y-52.256 Z-0.667 I-0.050 J2.301 K0.000 F139.800
G1 X40.500 Y-14.826 Z-0.667 F139.800
G2 X40.898 Y-13.865 Z-0.667 I1.330 J0.012 K0.000 F139.800
G1 X54.409 Y-0.354 Z-0.667 F139.800
G3 X54.556 Y0.000 Z-0.667 I-0.354 J0.354 K0.000 F139.800
G1 Z1.000 F60.000
G0 Z6.000
G0 X-54.556 Y0.000
G0 Z1.000
G1 Z-1.000 F60.000
G3 X-54.410 Y-0.354 Z-1.000 I0.500 J-0.000 K0.000 F139.800
G1 X-40.898 Y-13.865 Z-1.000 F139.800
G2 X-40.500 Y-14.826 Z-1.000 I-0.932 J-0.949 K0.000 F139.800
G1 X-40.498 Y-52.305 Z-1.000 F139.800
G3 X-38.200 Y-54.556 Z-1.000 I2.301 J0.050 K0.000 F139.800
G1 X38.249 Y-54.554 Z-1.000 F139.800
G3 X40.500 Y-52.256 Z-1.000 I-0.050 J2.301 K0.000 F139.800
G1 X40.500 Y-14.826 Z-1.000 F139.800
G2 X40.898 Y-13.865 Z-1.000 I1.330 J0.012 K0.000 F139.800
G1 X54.409 Y-0.354 Z-1.000 F139.800
G3 X54.556 Y0.000 Z-1.000 I-0.354 J0.354 K0.000 F139.800
G1 Z1.000 F60.000
G0 Z6.000
G0 X-54.556 Y0.000
G0 Z1.000
G1 Z-1.333 F60.000
G3 X-54.410 Y-0.354 Z-1.333 I0.500 J-0.000 K0.000 F139.800
G1 X-40.898 Y-13.865 Z-1.333 F139.800
G2 X-40.500 Y-14.826 Z-1.333 I-0.932 J-0.949 K0.000 F139.800
G1 X-40.498 Y-52.305 Z-1.333 F139.800
G3 X-38.200 Y-54.556 Z-1.333 I2.301 J0.050 K0.000 F139.800
G1 X38.249 Y-54.554 Z-1.333 F139.800
G3 X40.500 Y-52.256 Z-1.333 I-0.050 J2.301 K0.000 F139.800
G1 X40.500 Y-14.826 Z-1.333 F139.800
G2 X40.898 Y-13.865 Z-1.333 I1.330 J0.012 K0.000 F139.800
G1 X54.409 Y-0.354 Z-1.333 F139.800
G3 X54.556 Y0.000 Z-1.333 I-0.354 J0.354 K0.000 F139.800
G1 Z1.000 F60.000
G0 Z6.000
G0 X-54.556 Y0.000
G0 Z1.000
G1 Z-1.667 F60.000
G3 X-54.410 Y-0.354 Z-1.667 I0.500 J-0.000 K0.000 F139.800
G1 X-40.898 Y-13.865 Z-1.667 F139.800
G2 X-40.500 Y-14.826 Z-1.667 I-0.932 J-0.949 K0.000 F139.800
G1 X-40.498 Y-52.305 Z-1.667 F139.800
G3 X-38.200 Y-54.556 Z-1.667 I2.301 J0.050 K0.000 F139.800
G1 X38.249 Y-54.554 Z-1.667 F139.800
G3 X40.500 Y-52.256 Z-1.667 I-0.050 J2.301 K0.000 F139.800
G1 X40.500 Y-14.826 Z-1.667 F139.800
G2 X40.898 Y-13.865 Z-1.667 I1.330 J0.012 K0.000 F139.800
G1 X54.409 Y-0.354 Z-1.667 F139.800
G3 X54.556 Y0.000 Z-1.667 I-0.354 J0.354 K0.000 F139.800
G1 Z1.000 F60.000
G0 Z6.000
G0 X-54.556 Y0.000
G0 Z1.000
G1 Z-2.000 F60.000
G3 X-54.410 Y-0.354 Z-2.000 I0.500 J-0.000 K0.000 F139.800
G1 X-40.898 Y-13.865 Z-2.000 F139.800
G2 X-40.500 Y-14.826 Z-2.000 I-0.932 J-0.949 K0.000 F139.800
G1 X-40.498 Y-52.305 Z-2.000 F139.800
G3 X-38.200 Y-54.556 Z-2.000 I2.301 J0.050 K0.000 F139.800
G1 X38.249 Y-54.554 Z-2.000 F139.800
G3 X40.500 Y-52.256 Z-2.000 I-0.050 J2.301 K0.000 F139.800
G1 X40.500 Y-14.826 Z-2.000 F139.800
G2 X40.898 Y-13.865 Z-2.000 I1.330 J0.012 K0.000 F139.800
G1 X54.409 Y-0.354 Z-2.000 F139.800
G3 X54.556 Y0.000 Z-2.000 I-0.354 J0.354 K0.000 F139.800
G1 Z1.000 F60.000
G0 Z6.000
G0 X-54.556 Y0.000
G0 Z1.000
G1 Z-2.333 F60.000
G3 X-54.410 Y-0.354 Z-2.333 I0.500 J-0.000 K0.000 F139.800
G1 X-40.898 Y-13.865 Z-2.333 F139.800
G2 X-40.500 Y-14.826 Z-2.333 I-0.932 J-0.949 K0.000 F139.800
G1 X-40.498 Y-52.305 Z-2.333 F139.800
G3 X-38.200 Y-54.556 Z-2.333 I2.301 J0.050 K0.000 F139.800
G1 X38.249 Y-54.554 Z-2.333 F139.800
G3 X40.500 Y-52.256 Z-2.333 I-0.050 J2.301 K0.000 F139.800
G1 X40.500 Y-14.826 Z-2.333 F139.800
G2 X40.898 Y-13.865 Z-2.333 I1.330 J0.012 K0.000 F139.800
G1 X54.409 Y-0.354 Z-2.333 F139.800
G3 X54.556 Y0.000 Z-2.333 I-0.354 J0.354 K0.000 F139.800
G1 Z1.000 F60.000
G0 Z6.000
G0 X-54.556 Y0.000
G0 Z1.000
G1 Z-2.667 F60.000
G3 X-54.410 Y-0.354 Z-2.667 I0.500 J-0.000 K0.000 F139.800
G1 X-40.898 Y-13.865 Z-2.667 F139.800
G2 X-40.500 Y-14.826 Z-2.667 I-0.932 J-0.949 K0.000 F139.800
G1 X-40.498 Y-52.305 Z-2.667 F139.800
G3 X-38.200 Y-54.556 Z-2.667 I2.301 J0.050 K0.000 F139.800
G1 X38.249 Y-54.554 Z-2.667 F139.800
G3 X40.500 Y-52.256 Z-2.667 I-0.050 J2.301 K0.000 F139.800
G1 X40.500 Y-14.826 Z-2.667 F139.800
G2 X40.898 Y-13.865 Z-2.667 I1.330 J0.012 K0.000 F139.800
G1 X54.409 Y-0.354 Z-2.667 F139.800
G3 X54.556 Y0.000 Z-2.667 I-0.354 J0.354 K0.000 F139.800
G1 Z1.000 F60.000
G0 Z6.000
G0 X-54.556 Y0.000
G0 Z1.000
G1 Z-3.000 F60.000
G3 X-54.410 Y-0.354 Z-3.000 I0.500 J-0.000 K0.000 F139.800
G1 X-40.898 Y-13.865 Z-3.000 F139.800
G2 X-40.500 Y-14.826 Z-3.000 I-0.932 J-0.949 K0.000 F139.800
G1 X-40.498 Y-52.305 Z-3.000 F139.800
G3 X-38.200 Y-54.556 Z-3.000 I2.301 J0.050 K0.000 F139.800
G1 X38.249 Y-54.554 Z-3.000 F139.800
G3 X40.500 Y-52.256 Z-3.000 I-0.050 J2.301 K0.000 F139.800
G1 X40.500 Y-14.826 Z-3.000 F139.800
G2 X40.898 Y-13.865 Z-3.000 I1.330 J0.012 K0.000 F139.800
G1 X54.409 Y-0.354 Z-3.000 F139.800
G3 X54.556 Y0.000 Z-3.000 I-0.354 J0.354 K0.000 F139.800
G1 Z1.000 F60.000
G0 Z6.000
G0 X-54.556 Y0.000
G0 Z1.000
G1 Z-3.000 F60.000
G3 X-54.410 Y-0.354 Z-3.000 I0.500 J-0.000 K0.000 F139.800
G1 X-40.898 Y-13.865 Z-3.000 F139.800
G2 X-40.500 Y-14.826 Z-3.000 I-0.932 J-0.949 K0.000 F139.800
G1 X-40.498 Y-52.305 Z-3.000 F139.800
G3 X-38.200 Y-54.556 Z-3.000 I2.301 J0.050 K0.000 F139.800
G1 X38.249 Y-54.554 Z-3.000 F139.800
G3 X40.500 Y-52.256 Z-3.000 I-0.050 J2.301 K0.000 F139.800
G1 X40.500 Y-14.826 Z-3.000 F139.800
G2 X40.898 Y-13.865 Z-3.000 I1.330 J0.012 K0.000 F139.800
G1 X54.409 Y-0.354 Z-3.000 F139.800
G3 X54.556 Y0.000 Z-3.000 I-0.354 J0.354 K0.000 F139.800
G1 Z1.000 F60.000
G0 Z6.000
(Finish operation: DressupPathBoundary002)
(Begin postamble)
M5
G17 G90
M2
