(Exported by FreeCAD)
(Post Processor: grbl_post)
(Output Time:2020-08-19 12:58:10.474387)
(Begin preamble)
G17 G90
G21
(Begin operation: Fixture)
(Path: Fixture)
G54
(Finish operation: Fixture)
(Begin operation: T37: Two-flute 1mm x 7mm)
(Path: T37: Two-flute 1mm x 7mm)
(T37: Two-flute 1mm x 7mm)
(Begin toolchange)
(M6 T37.0)
M3 S7400.0
(Finish operation: T37: Two-flute 1mm x 7mm)
(Begin operation: DogboneDressup)
(Path: DogboneDressup)
(Pocket_Shape)
G0 Z6.000
G0 X-15.500 Y-10.500
G0 Z1.000
G1 X-15.500 Y-10.500 Z-0.400 F60.000
G1 X-15.500 Y-24.500 Z-0.400 F139.800
G1 X-15.354 Y-24.646 Z-0.400 F139.800
G1 X-15.500 Y-24.500 Z-0.400 F139.800
G1 X-17.500 Y-24.500 Z-0.400 F139.800
G1 X-17.500 Y-24.500 Z-0.400 F139.800
G1 X-17.646 Y-24.646 Z-0.400 F139.800
G1 X-17.500 Y-24.500 Z-0.400 F139.800
G1 X-17.500 Y-10.500 Z-0.400 F139.800
G1 X-17.500 Y-10.500 Z-0.400 F139.800
G1 X-17.646 Y-10.354 Z-0.400 F139.800
G1 X-17.500 Y-10.500 Z-0.400 F139.800
G1 X-15.500 Y-10.500 Z-0.400 F139.800
G1 X-15.500 Y-10.500 Z-0.400 F139.800
G1 X-15.354 Y-10.354 Z-0.400 F139.800
G1 X-15.500 Y-10.500 Z-0.400 F139.800
G0 Z6.000
G0 X-16.400 Y-11.400 Z6.000
G0 X-16.400 Y-11.400 Z1.000
G1 X-16.400 Y-11.400 Z-0.400 F60.000
G1 X-16.400 Y-23.600 Z-0.400 F139.800
G1 X-16.254 Y-23.746 Z-0.400 F139.800
G1 X-16.400 Y-23.600 Z-0.400 F139.800
G1 X-16.600 Y-23.600 Z-0.400 F139.800
G1 X-16.600 Y-23.600 Z-0.400 F139.800
G1 X-16.746 Y-23.746 Z-0.400 F139.800
G1 X-16.600 Y-23.600 Z-0.400 F139.800
G1 X-16.600 Y-11.400 Z-0.400 F139.800
G1 X-16.600 Y-11.400 Z-0.400 F139.800
G1 X-16.746 Y-11.254 Z-0.400 F139.800
G1 X-16.600 Y-11.400 Z-0.400 F139.800
G1 X-16.400 Y-11.400 Z-0.400 F139.800
G1 X-16.400 Y-11.400 Z-0.400 F139.800
G1 X-16.254 Y-11.254 Z-0.400 F139.800
G1 X-16.400 Y-11.400 Z-0.400 F139.800
G1 X-16.400 Y-11.400 Z-0.800 F60.000
G1 X-16.400 Y-23.600 Z-0.800 F139.800
G1 X-16.254 Y-23.746 Z-0.800 F139.800
G1 X-16.400 Y-23.600 Z-0.800 F139.800
G1 X-16.600 Y-23.600 Z-0.800 F139.800
G1 X-16.600 Y-23.600 Z-0.800 F139.800
G1 X-16.746 Y-23.746 Z-0.800 F139.800
G1 X-16.600 Y-23.600 Z-0.800 F139.800
G1 X-16.600 Y-11.400 Z-0.800 F139.800
G1 X-16.600 Y-11.400 Z-0.800 F139.800
G1 X-16.746 Y-11.254 Z-0.800 F139.800
G1 X-16.600 Y-11.400 Z-0.800 F139.800
G1 X-16.400 Y-11.400 Z-0.800 F139.800
G1 X-16.400 Y-11.400 Z-0.800 F139.800
G1 X-16.254 Y-11.254 Z-0.800 F139.800
G1 X-16.400 Y-11.400 Z-0.800 F139.800
G0 Z6.000
G0 X-15.500 Y-11.400 Z6.000
G0 X-15.500 Y-11.400 Z1.000
G1 X-15.500 Y-11.400 Z-0.800 F60.000
G1 X-15.500 Y-24.500 Z-0.800 F139.800
G1 X-15.354 Y-24.646 Z-0.800 F139.800
G1 X-15.500 Y-24.500 Z-0.800 F139.800
G1 X-17.500 Y-24.500 Z-0.800 F139.800
G1 X-17.500 Y-24.500 Z-0.800 F139.800
G1 X-17.646 Y-24.646 Z-0.800 F139.800
G1 X-17.500 Y-24.500 Z-0.800 F139.800
G1 X-17.500 Y-10.500 Z-0.800 F139.800
G1 X-17.500 Y-10.500 Z-0.800 F139.800
G1 X-17.646 Y-10.354 Z-0.800 F139.800
G1 X-17.500 Y-10.500 Z-0.800 F139.800
G1 X-15.500 Y-10.500 Z-0.800 F139.800
G1 X-15.500 Y-10.500 Z-0.800 F139.800
G1 X-15.354 Y-10.354 Z-0.800 F139.800
G1 X-15.500 Y-10.500 Z-0.800 F139.800
G1 X-15.500 Y-11.400 Z-0.800 F139.800
G1 X-15.500 Y-11.400 Z-0.800 F139.800
G1 X-15.500 Y-11.400 Z-1.200 F60.000
G1 X-15.500 Y-24.500 Z-1.200 F139.800
G1 X-15.354 Y-24.646 Z-1.200 F139.800
G1 X-15.500 Y-24.500 Z-1.200 F139.800
G1 X-17.500 Y-24.500 Z-1.200 F139.800
G1 X-17.500 Y-24.500 Z-1.200 F139.800
G1 X-17.646 Y-24.646 Z-1.200 F139.800
G1 X-17.500 Y-24.500 Z-1.200 F139.800
G1 X-17.500 Y-10.500 Z-1.200 F139.800
G1 X-17.500 Y-10.500 Z-1.200 F139.800
G1 X-17.646 Y-10.354 Z-1.200 F139.800
G1 X-17.500 Y-10.500 Z-1.200 F139.800
G1 X-15.500 Y-10.500 Z-1.200 F139.800
G1 X-15.500 Y-10.500 Z-1.200 F139.800
G1 X-15.354 Y-10.354 Z-1.200 F139.800
G1 X-15.500 Y-10.500 Z-1.200 F139.800
G1 X-15.500 Y-11.400 Z-1.200 F139.800
G0 Z6.000
G0 X-16.400 Y-11.400 Z6.000
G0 X-16.400 Y-11.400 Z1.000
G1 X-16.400 Y-11.400 Z-1.200 F60.000
G1 X-16.400 Y-23.600 Z-1.200 F139.800
G1 X-16.254 Y-23.746 Z-1.200 F139.800
G1 X-16.400 Y-23.600 Z-1.200 F139.800
G1 X-16.600 Y-23.600 Z-1.200 F139.800
G1 X-16.600 Y-23.600 Z-1.200 F139.800
G1 X-16.746 Y-23.746 Z-1.200 F139.800
G1 X-16.600 Y-23.600 Z-1.200 F139.800
G1 X-16.600 Y-11.400 Z-1.200 F139.800
G1 X-16.600 Y-11.400 Z-1.200 F139.800
G1 X-16.746 Y-11.254 Z-1.200 F139.800
G1 X-16.600 Y-11.400 Z-1.200 F139.800
G1 X-16.400 Y-11.400 Z-1.200 F139.800
G1 X-16.400 Y-11.400 Z-1.200 F139.800
G1 X-16.254 Y-11.254 Z-1.200 F139.800
G1 X-16.400 Y-11.400 Z-1.200 F139.800
G1 X-16.400 Y-11.400 Z-1.600 F60.000
G1 X-16.400 Y-23.600 Z-1.600 F139.800
G1 X-16.254 Y-23.746 Z-1.600 F139.800
G1 X-16.400 Y-23.600 Z-1.600 F139.800
G1 X-16.600 Y-23.600 Z-1.600 F139.800
G1 X-16.600 Y-23.600 Z-1.600 F139.800
G1 X-16.746 Y-23.746 Z-1.600 F139.800
G1 X-16.600 Y-23.600 Z-1.600 F139.800
G1 X-16.600 Y-11.400 Z-1.600 F139.800
G1 X-16.600 Y-11.400 Z-1.600 F139.800
G1 X-16.746 Y-11.254 Z-1.600 F139.800
G1 X-16.600 Y-11.400 Z-1.600 F139.800
G1 X-16.400 Y-11.400 Z-1.600 F139.800
G1 X-16.400 Y-11.400 Z-1.600 F139.800
G1 X-16.254 Y-11.254 Z-1.600 F139.800
G1 X-16.400 Y-11.400 Z-1.600 F139.800
G0 Z6.000
G0 X-15.500 Y-11.400 Z6.000
G0 X-15.500 Y-11.400 Z1.000
G1 X-15.500 Y-11.400 Z-1.600 F60.000
G1 X-15.500 Y-24.500 Z-1.600 F139.800
G1 X-15.354 Y-24.646 Z-1.600 F139.800
G1 X-15.500 Y-24.500 Z-1.600 F139.800
G1 X-17.500 Y-24.500 Z-1.600 F139.800
G1 X-17.500 Y-24.500 Z-1.600 F139.800
G1 X-17.646 Y-24.646 Z-1.600 F139.800
G1 X-17.500 Y-24.500 Z-1.600 F139.800
G1 X-17.500 Y-10.500 Z-1.600 F139.800
G1 X-17.500 Y-10.500 Z-1.600 F139.800
G1 X-17.646 Y-10.354 Z-1.600 F139.800
G1 X-17.500 Y-10.500 Z-1.600 F139.800
G1 X-15.500 Y-10.500 Z-1.600 F139.800
G1 X-15.500 Y-10.500 Z-1.600 F139.800
G1 X-15.354 Y-10.354 Z-1.600 F139.800
G1 X-15.500 Y-10.500 Z-1.600 F139.800
G1 X-15.500 Y-11.400 Z-1.600 F139.800
G1 X-15.500 Y-11.400 Z-2.000 F60.000
G1 X-15.500 Y-24.500 Z-2.000 F139.800
G1 X-15.354 Y-24.646 Z-2.000 F139.800
G1 X-15.500 Y-24.500 Z-2.000 F139.800
G1 X-17.500 Y-24.500 Z-2.000 F139.800
G1 X-17.500 Y-24.500 Z-2.000 F139.800
G1 X-17.646 Y-24.646 Z-2.000 F139.800
G1 X-17.500 Y-24.500 Z-2.000 F139.800
G1 X-17.500 Y-10.500 Z-2.000 F139.800
G1 X-17.500 Y-10.500 Z-2.000 F139.800
G1 X-17.646 Y-10.354 Z-2.000 F139.800
G1 X-17.500 Y-10.500 Z-2.000 F139.800
G1 X-15.500 Y-10.500 Z-2.000 F139.800
G1 X-15.500 Y-10.500 Z-2.000 F139.800
G1 X-15.354 Y-10.354 Z-2.000 F139.800
G1 X-15.500 Y-10.500 Z-2.000 F139.800
G1 X-15.500 Y-11.400 Z-2.000 F139.800
G0 Z6.000
G0 X-16.400 Y-11.400 Z6.000
G0 X-16.400 Y-11.400 Z1.000
G1 X-16.400 Y-11.400 Z-2.000 F60.000
G1 X-16.400 Y-23.600 Z-2.000 F139.800
G1 X-16.254 Y-23.746 Z-2.000 F139.800
G1 X-16.400 Y-23.600 Z-2.000 F139.800
G1 X-16.600 Y-23.600 Z-2.000 F139.800
G1 X-16.600 Y-23.600 Z-2.000 F139.800
G1 X-16.746 Y-23.746 Z-2.000 F139.800
G1 X-16.600 Y-23.600 Z-2.000 F139.800
G1 X-16.600 Y-11.400 Z-2.000 F139.800
G1 X-16.600 Y-11.400 Z-2.000 F139.800
G1 X-16.746 Y-11.254 Z-2.000 F139.800
G1 X-16.600 Y-11.400 Z-2.000 F139.800
G1 X-16.400 Y-11.400 Z-2.000 F139.800
G1 X-16.400 Y-11.400 Z-2.000 F139.800
G1 X-16.254 Y-11.254 Z-2.000 F139.800
G1 X-16.400 Y-11.400 Z-2.000 F139.800
G1 X-16.400 Y-11.400 Z-2.000 F60.000
G1 X-16.400 Y-23.600 Z-2.000 F139.800
G1 X-16.254 Y-23.746 Z-2.000 F139.800
G1 X-16.400 Y-23.600 Z-2.000 F139.800
G1 X-16.600 Y-23.600 Z-2.000 F139.800
G1 X-16.600 Y-23.600 Z-2.000 F139.800
G1 X-16.746 Y-23.746 Z-2.000 F139.800
G1 X-16.600 Y-23.600 Z-2.000 F139.800
G1 X-16.600 Y-11.400 Z-2.000 F139.800
G1 X-16.600 Y-11.400 Z-2.000 F139.800
G1 X-16.746 Y-11.254 Z-2.000 F139.800
G1 X-16.600 Y-11.400 Z-2.000 F139.800
G1 X-16.400 Y-11.400 Z-2.000 F139.800
G1 X-16.400 Y-11.400 Z-2.000 F139.800
G1 X-16.254 Y-11.254 Z-2.000 F139.800
G1 X-16.400 Y-11.400 Z-2.000 F139.800
G0 Z6.000
G0 X-15.500 Y-11.400 Z6.000
G0 X-15.500 Y-11.400 Z1.000
G1 X-15.500 Y-11.400 Z-2.000 F60.000
G1 X-15.500 Y-24.500 Z-2.000 F139.800
G1 X-15.354 Y-24.646 Z-2.000 F139.800
G1 X-15.500 Y-24.500 Z-2.000 F139.800
G1 X-17.500 Y-24.500 Z-2.000 F139.800
G1 X-17.500 Y-24.500 Z-2.000 F139.800
G1 X-17.646 Y-24.646 Z-2.000 F139.800
G1 X-17.500 Y-24.500 Z-2.000 F139.800
G1 X-17.500 Y-10.500 Z-2.000 F139.800
G1 X-17.500 Y-10.500 Z-2.000 F139.800
G1 X-17.646 Y-10.354 Z-2.000 F139.800
G1 X-17.500 Y-10.500 Z-2.000 F139.800
G1 X-15.500 Y-10.500 Z-2.000 F139.800
G1 X-15.500 Y-10.500 Z-2.000 F139.800
G1 X-15.354 Y-10.354 Z-2.000 F139.800
G1 X-15.500 Y-10.500 Z-2.000 F139.800
G1 X-15.500 Y-11.400 Z-2.000 F139.800
G0 Z6.000
G0 Z6.000
G0 X15.500 Y-11.400
G0 X15.500 Y-11.400 Z1.000
G1 X15.500 Y-11.400 Z-0.400 F60.000
G1 X15.500 Y-10.500 Z-0.400 F139.800
G1 X15.354 Y-10.354 Z-0.400 F139.800
G1 X15.500 Y-10.500 Z-0.400 F139.800
G1 X17.500 Y-10.500 Z-0.400 F139.800
G1 X17.500 Y-10.500 Z-0.400 F139.800
G1 X17.646 Y-10.354 Z-0.400 F139.800
G1 X17.500 Y-10.500 Z-0.400 F139.800
G1 X17.500 Y-24.500 Z-0.400 F139.800
G1 X17.500 Y-24.500 Z-0.400 F139.800
G1 X17.646 Y-24.646 Z-0.400 F139.800
G1 X17.500 Y-24.500 Z-0.400 F139.800
G1 X15.500 Y-24.500 Z-0.400 F139.800
G1 X15.500 Y-24.500 Z-0.400 F139.800
G1 X15.354 Y-24.646 Z-0.400 F139.800
G1 X15.500 Y-24.500 Z-0.400 F139.800
G1 X15.500 Y-11.400 Z-0.400 F139.800
G1 X15.500 Y-11.400 Z-0.400 F139.800
G0 Z6.000
G0 X16.400 Y-11.400 Z6.000
G0 X16.400 Y-11.400 Z1.000
G1 X16.400 Y-11.400 Z-0.400 F60.000
G1 X16.600 Y-11.400 Z-0.400 F139.800
G1 X16.746 Y-11.254 Z-0.400 F139.800
G1 X16.600 Y-11.400 Z-0.400 F139.800
G1 X16.600 Y-23.600 Z-0.400 F139.800
G1 X16.600 Y-23.600 Z-0.400 F139.800
G1 X16.746 Y-23.746 Z-0.400 F139.800
G1 X16.600 Y-23.600 Z-0.400 F139.800
G1 X16.400 Y-23.600 Z-0.400 F139.800
G1 X16.400 Y-23.600 Z-0.400 F139.800
G1 X16.254 Y-23.746 Z-0.400 F139.800
G1 X16.400 Y-23.600 Z-0.400 F139.800
G1 X16.400 Y-11.400 Z-0.400 F139.800
G1 X16.400 Y-11.400 Z-0.400 F139.800
G1 X16.254 Y-11.254 Z-0.400 F139.800
G1 X16.400 Y-11.400 Z-0.400 F139.800
G1 X16.400 Y-11.400 Z-0.800 F60.000
G1 X16.600 Y-11.400 Z-0.800 F139.800
G1 X16.746 Y-11.254 Z-0.800 F139.800
G1 X16.600 Y-11.400 Z-0.800 F139.800
G1 X16.600 Y-23.600 Z-0.800 F139.800
G1 X16.600 Y-23.600 Z-0.800 F139.800
G1 X16.746 Y-23.746 Z-0.800 F139.800
G1 X16.600 Y-23.600 Z-0.800 F139.800
G1 X16.400 Y-23.600 Z-0.800 F139.800
G1 X16.400 Y-23.600 Z-0.800 F139.800
G1 X16.254 Y-23.746 Z-0.800 F139.800
G1 X16.400 Y-23.600 Z-0.800 F139.800
G1 X16.400 Y-11.400 Z-0.800 F139.800
G1 X16.400 Y-11.400 Z-0.800 F139.800
G1 X16.254 Y-11.254 Z-0.800 F139.800
G1 X16.400 Y-11.400 Z-0.800 F139.800
G0 Z6.000
G0 X15.500 Y-11.400 Z6.000
G0 X15.500 Y-11.400 Z1.000
G1 X15.500 Y-11.400 Z-0.800 F60.000
G1 X15.500 Y-10.500 Z-0.800 F139.800
G1 X15.354 Y-10.354 Z-0.800 F139.800
G1 X15.500 Y-10.500 Z-0.800 F139.800
G1 X17.500 Y-10.500 Z-0.800 F139.800
G1 X17.500 Y-10.500 Z-0.800 F139.800
G1 X17.646 Y-10.354 Z-0.800 F139.800
G1 X17.500 Y-10.500 Z-0.800 F139.800
G1 X17.500 Y-24.500 Z-0.800 F139.800
G1 X17.500 Y-24.500 Z-0.800 F139.800
G1 X17.646 Y-24.646 Z-0.800 F139.800
G1 X17.500 Y-24.500 Z-0.800 F139.800
G1 X15.500 Y-24.500 Z-0.800 F139.800
G1 X15.500 Y-24.500 Z-0.800 F139.800
G1 X15.354 Y-24.646 Z-0.800 F139.800
G1 X15.500 Y-24.500 Z-0.800 F139.800
G1 X15.500 Y-11.400 Z-0.800 F139.800
G1 X15.500 Y-11.400 Z-0.800 F139.800
G1 X15.500 Y-11.400 Z-1.200 F60.000
G1 X15.500 Y-10.500 Z-1.200 F139.800
G1 X15.354 Y-10.354 Z-1.200 F139.800
G1 X15.500 Y-10.500 Z-1.200 F139.800
G1 X17.500 Y-10.500 Z-1.200 F139.800
G1 X17.500 Y-10.500 Z-1.200 F139.800
G1 X17.646 Y-10.354 Z-1.200 F139.800
G1 X17.500 Y-10.500 Z-1.200 F139.800
G1 X17.500 Y-24.500 Z-1.200 F139.800
G1 X17.500 Y-24.500 Z-1.200 F139.800
G1 X17.646 Y-24.646 Z-1.200 F139.800
G1 X17.500 Y-24.500 Z-1.200 F139.800
G1 X15.500 Y-24.500 Z-1.200 F139.800
G1 X15.500 Y-24.500 Z-1.200 F139.800
G1 X15.354 Y-24.646 Z-1.200 F139.800
G1 X15.500 Y-24.500 Z-1.200 F139.800
G1 X15.500 Y-11.400 Z-1.200 F139.800
G1 X15.500 Y-11.400 Z-1.200 F139.800
G0 Z6.000
G0 X16.400 Z6.000
G0 X16.400 Z1.000
G1 X16.400 Y-11.400 Z-1.200 F60.000
G1 X16.600 Y-11.400 Z-1.200 F139.800
G1 X16.746 Y-11.254 Z-1.200 F139.800
G1 X16.600 Y-11.400 Z-1.200 F139.800
G1 X16.600 Y-23.600 Z-1.200 F139.800
G1 X16.600 Y-23.600 Z-1.200 F139.800
G1 X16.746 Y-23.746 Z-1.200 F139.800
G1 X16.600 Y-23.600 Z-1.200 F139.800
G1 X16.400 Y-23.600 Z-1.200 F139.800
G1 X16.400 Y-23.600 Z-1.200 F139.800
G1 X16.254 Y-23.746 Z-1.200 F139.800
G1 X16.400 Y-23.600 Z-1.200 F139.800
G1 X16.400 Y-11.400 Z-1.200 F139.800
G1 X16.400 Y-11.400 Z-1.200 F139.800
G1 X16.254 Y-11.254 Z-1.200 F139.800
G1 X16.400 Y-11.400 Z-1.200 F139.800
G1 X16.400 Y-11.400 Z-1.600 F60.000
G1 X16.600 Y-11.400 Z-1.600 F139.800
G1 X16.746 Y-11.254 Z-1.600 F139.800
G1 X16.600 Y-11.400 Z-1.600 F139.800
G1 X16.600 Y-23.600 Z-1.600 F139.800
G1 X16.600 Y-23.600 Z-1.600 F139.800
G1 X16.746 Y-23.746 Z-1.600 F139.800
G1 X16.600 Y-23.600 Z-1.600 F139.800
G1 X16.400 Y-23.600 Z-1.600 F139.800
G1 X16.400 Y-23.600 Z-1.600 F139.800
G1 X16.254 Y-23.746 Z-1.600 F139.800
G1 X16.400 Y-23.600 Z-1.600 F139.800
G1 X16.400 Y-11.400 Z-1.600 F139.800
G1 X16.400 Y-11.400 Z-1.600 F139.800
G1 X16.254 Y-11.254 Z-1.600 F139.800
G1 X16.400 Y-11.400 Z-1.600 F139.800
G0 Z6.000
G0 X16.400 Y-10.500 Z6.000
G0 X16.400 Y-10.500 Z1.000
G1 X16.400 Y-10.500 Z-1.600 F60.000
G1 X17.500 Y-10.500 Z-1.600 F139.800
G1 X17.646 Y-10.354 Z-1.600 F139.800
G1 X17.500 Y-10.500 Z-1.600 F139.800
G1 X17.500 Y-24.500 Z-1.600 F139.800
G1 X17.500 Y-24.500 Z-1.600 F139.800
G1 X17.646 Y-24.646 Z-1.600 F139.800
G1 X17.500 Y-24.500 Z-1.600 F139.800
G1 X15.500 Y-24.500 Z-1.600 F139.800
G1 X15.500 Y-24.500 Z-1.600 F139.800
G1 X15.354 Y-24.646 Z-1.600 F139.800
G1 X15.500 Y-24.500 Z-1.600 F139.800
G1 X15.500 Y-10.500 Z-1.600 F139.800
G1 X15.500 Y-10.500 Z-1.600 F139.800
G1 X15.354 Y-10.354 Z-1.600 F139.800
G1 X15.500 Y-10.500 Z-1.600 F139.800
G1 X16.400 Y-10.500 Z-1.600 F139.800
G1 X16.400 Y-10.500 Z-1.600 F139.800
G1 X16.400 Y-10.500 Z-2.000 F60.000
G1 X17.500 Y-10.500 Z-2.000 F139.800
G1 X17.646 Y-10.354 Z-2.000 F139.800
G1 X17.500 Y-10.500 Z-2.000 F139.800
G1 X17.500 Y-24.500 Z-2.000 F139.800
G1 X17.500 Y-24.500 Z-2.000 F139.800
G1 X17.646 Y-24.646 Z-2.000 F139.800
G1 X17.500 Y-24.500 Z-2.000 F139.800
G1 X15.500 Y-24.500 Z-2.000 F139.800
G1 X15.500 Y-24.500 Z-2.000 F139.800
G1 X15.354 Y-24.646 Z-2.000 F139.800
G1 X15.500 Y-24.500 Z-2.000 F139.800
G1 X15.500 Y-10.500 Z-2.000 F139.800
G1 X15.500 Y-10.500 Z-2.000 F139.800
G1 X15.354 Y-10.354 Z-2.000 F139.800
G1 X15.500 Y-10.500 Z-2.000 F139.800
G1 X16.400 Y-10.500 Z-2.000 F139.800
G1 X16.400 Y-10.500 Z-2.000 F139.800
G0 Z6.000
G0 X16.400 Y-11.400 Z6.000
G0 X16.400 Y-11.400 Z1.000
G1 X16.400 Y-11.400 Z-2.000 F60.000
G1 X16.600 Y-11.400 Z-2.000 F139.800
G1 X16.746 Y-11.254 Z-2.000 F139.800
G1 X16.600 Y-11.400 Z-2.000 F139.800
G1 X16.600 Y-23.600 Z-2.000 F139.800
G1 X16.600 Y-23.600 Z-2.000 F139.800
G1 X16.746 Y-23.746 Z-2.000 F139.800
G1 X16.600 Y-23.600 Z-2.000 F139.800
G1 X16.400 Y-23.600 Z-2.000 F139.800
G1 X16.400 Y-23.600 Z-2.000 F139.800
G1 X16.254 Y-23.746 Z-2.000 F139.800
G1 X16.400 Y-23.600 Z-2.000 F139.800
G1 X16.400 Y-11.400 Z-2.000 F139.800
G1 X16.400 Y-11.400 Z-2.000 F139.800
G1 X16.254 Y-11.254 Z-2.000 F139.800
G1 X16.400 Y-11.400 Z-2.000 F139.800
G1 X16.400 Y-11.400 Z-2.000 F60.000
G1 X16.600 Y-11.400 Z-2.000 F139.800
G1 X16.746 Y-11.254 Z-2.000 F139.800
G1 X16.600 Y-11.400 Z-2.000 F139.800
G1 X16.600 Y-23.600 Z-2.000 F139.800
G1 X16.600 Y-23.600 Z-2.000 F139.800
G1 X16.746 Y-23.746 Z-2.000 F139.800
G1 X16.600 Y-23.600 Z-2.000 F139.800
G1 X16.400 Y-23.600 Z-2.000 F139.800
G1 X16.400 Y-23.600 Z-2.000 F139.800
G1 X16.254 Y-23.746 Z-2.000 F139.800
G1 X16.400 Y-23.600 Z-2.000 F139.800
G1 X16.400 Y-11.400 Z-2.000 F139.800
G1 X16.400 Y-11.400 Z-2.000 F139.800
G1 X16.254 Y-11.254 Z-2.000 F139.800
G1 X16.400 Y-11.400 Z-2.000 F139.800
G0 Z6.000
G0 X16.400 Y-10.500 Z6.000
G0 X16.400 Y-10.500 Z1.000
G1 X16.400 Y-10.500 Z-2.000 F60.000
G1 X17.500 Y-10.500 Z-2.000 F139.800
G1 X17.646 Y-10.354 Z-2.000 F139.800
G1 X17.500 Y-10.500 Z-2.000 F139.800
G1 X17.500 Y-24.500 Z-2.000 F139.800
G1 X17.500 Y-24.500 Z-2.000 F139.800
G1 X17.646 Y-24.646 Z-2.000 F139.800
G1 X17.500 Y-24.500 Z-2.000 F139.800
G1 X15.500 Y-24.500 Z-2.000 F139.800
G1 X15.500 Y-24.500 Z-2.000 F139.800
G1 X15.354 Y-24.646 Z-2.000 F139.800
G1 X15.500 Y-24.500 Z-2.000 F139.800
G1 X15.500 Y-10.500 Z-2.000 F139.800
G1 X15.500 Y-10.500 Z-2.000 F139.800
G1 X15.354 Y-10.354 Z-2.000 F139.800
G1 X15.500 Y-10.500 Z-2.000 F139.800
G1 X16.400 Y-10.500 Z-2.000 F139.800
G1 X16.400 Y-10.500 Z-2.000 F139.800
G0 Z6.000
G0 Z6.000
(Finish operation: DogboneDressup)
(Begin operation: DogboneDressup001)
(Path: DogboneDressup001)
(Profile)
(Compensated Tool Path. Diameter: 1.0)
G0 Z6.000
G0 X-22.278 Y-58.622
G0 Z1.000
G1 X-22.278 Y-58.622 Z-0.400 F60.000
G1 X-21.570 Y-59.330 Z-0.400 F139.800
G1 X-21.363 Y-59.330 Z-0.400 F139.800
G1 X-21.570 Y-59.330 Z-0.400 F139.800
G1 X-27.934 Y-65.693 Z-0.400 F139.800
G1 X-27.934 Y-65.693 Z-0.400 F139.800
G1 X-27.934 Y-65.901 Z-0.400 F139.800
G1 X-27.934 Y-65.693 Z-0.400 F139.800
G1 X-29.349 Y-64.279 Z-0.400 F139.800
G1 X-29.349 Y-64.279 Z-0.400 F139.800
G1 X-29.556 Y-64.279 Z-0.400 F139.800
G1 X-29.349 Y-64.279 Z-0.400 F139.800
G1 X-22.985 Y-57.915 Z-0.400 F139.800
G1 X-22.985 Y-57.915 Z-0.400 F139.800
G1 X-22.985 Y-57.708 Z-0.400 F139.800
G1 X-22.985 Y-57.915 Z-0.400 F139.800
G1 X-22.278 Y-58.622 Z-0.400 F139.800
G1 X-22.278 Y-58.622 Z-0.800 F60.000
G1 X-21.570 Y-59.330 Z-0.800 F139.800
G1 X-21.363 Y-59.330 Z-0.800 F139.800
G1 X-21.570 Y-59.330 Z-0.800 F139.800
G1 X-27.934 Y-65.693 Z-0.800 F139.800
G1 X-27.934 Y-65.693 Z-0.800 F139.800
G1 X-27.934 Y-65.901 Z-0.800 F139.800
G1 X-27.934 Y-65.693 Z-0.800 F139.800
G1 X-29.349 Y-64.279 Z-0.800 F139.800
G1 X-29.349 Y-64.279 Z-0.800 F139.800
G1 X-29.556 Y-64.279 Z-0.800 F139.800
G1 X-29.349 Y-64.279 Z-0.800 F139.800
G1 X-22.985 Y-57.915 Z-0.800 F139.800
G1 X-22.985 Y-57.915 Z-0.800 F139.800
G1 X-22.985 Y-57.708 Z-0.800 F139.800
G1 X-22.985 Y-57.915 Z-0.800 F139.800
G1 X-22.278 Y-58.622 Z-0.800 F139.800
G1 X-22.278 Y-58.622 Z-1.200 F60.000
G1 X-21.570 Y-59.330 Z-1.200 F139.800
G1 X-21.363 Y-59.330 Z-1.200 F139.800
G1 X-21.570 Y-59.330 Z-1.200 F139.800
G1 X-27.934 Y-65.693 Z-1.200 F139.800
G1 X-27.934 Y-65.693 Z-1.200 F139.800
G1 X-27.934 Y-65.901 Z-1.200 F139.800
G1 X-27.934 Y-65.693 Z-1.200 F139.800
G1 X-29.349 Y-64.279 Z-1.200 F139.800
G1 X-29.349 Y-64.279 Z-1.200 F139.800
G1 X-29.556 Y-64.279 Z-1.200 F139.800
G1 X-29.349 Y-64.279 Z-1.200 F139.800
G1 X-22.985 Y-57.915 Z-1.200 F139.800
G1 X-22.985 Y-57.915 Z-1.200 F139.800
G1 X-22.985 Y-57.708 Z-1.200 F139.800
G1 X-22.985 Y-57.915 Z-1.200 F139.800
G1 X-22.278 Y-58.622 Z-1.200 F139.800
G1 X-22.278 Y-58.622 Z-1.600 F60.000
G1 X-21.570 Y-59.330 Z-1.600 F139.800
G1 X-21.363 Y-59.330 Z-1.600 F139.800
G1 X-21.570 Y-59.330 Z-1.600 F139.800
G1 X-27.934 Y-65.693 Z-1.600 F139.800
G1 X-27.934 Y-65.693 Z-1.600 F139.800
G1 X-27.934 Y-65.901 Z-1.600 F139.800
G1 X-27.934 Y-65.693 Z-1.600 F139.800
G1 X-29.349 Y-64.279 Z-1.600 F139.800
G1 X-29.349 Y-64.279 Z-1.600 F139.800
G1 X-29.556 Y-64.279 Z-1.600 F139.800
G1 X-29.349 Y-64.279 Z-1.600 F139.800
G1 X-22.985 Y-57.915 Z-1.600 F139.800
G1 X-22.985 Y-57.915 Z-1.600 F139.800
G1 X-22.985 Y-57.708 Z-1.600 F139.800
G1 X-22.985 Y-57.915 Z-1.600 F139.800
G1 X-22.278 Y-58.622 Z-1.600 F139.800
G1 X-22.278 Y-58.622 Z-2.000 F60.000
G1 X-21.570 Y-59.330 Z-2.000 F139.800
G1 X-21.363 Y-59.330 Z-2.000 F139.800
G1 X-21.570 Y-59.330 Z-2.000 F139.800
G1 X-27.934 Y-65.693 Z-2.000 F139.800
G1 X-27.934 Y-65.693 Z-2.000 F139.800
G1 X-27.934 Y-65.901 Z-2.000 F139.800
G1 X-27.934 Y-65.693 Z-2.000 F139.800
G1 X-29.349 Y-64.279 Z-2.000 F139.800
G1 X-29.349 Y-64.279 Z-2.000 F139.800
G1 X-29.556 Y-64.279 Z-2.000 F139.800
G1 X-29.349 Y-64.279 Z-2.000 F139.800
G1 X-22.985 Y-57.915 Z-2.000 F139.800
G1 X-22.985 Y-57.915 Z-2.000 F139.800
G1 X-22.985 Y-57.708 Z-2.000 F139.800
G1 X-22.985 Y-57.915 Z-2.000 F139.800
G1 X-22.278 Y-58.622 Z-2.000 F139.800
G1 X-22.278 Y-58.622 Z-2.400 F60.000
G1 X-21.570 Y-59.330 Z-2.400 F139.800
G1 X-21.363 Y-59.330 Z-2.400 F139.800
G1 X-21.570 Y-59.330 Z-2.400 F139.800
G1 X-27.934 Y-65.693 Z-2.400 F139.800
G1 X-27.934 Y-65.693 Z-2.400 F139.800
G1 X-27.934 Y-65.901 Z-2.400 F139.800
G1 X-27.934 Y-65.693 Z-2.400 F139.800
G1 X-29.349 Y-64.279 Z-2.400 F139.800
G1 X-29.349 Y-64.279 Z-2.400 F139.800
G1 X-29.556 Y-64.279 Z-2.400 F139.800
G1 X-29.349 Y-64.279 Z-2.400 F139.800
G1 X-22.985 Y-57.915 Z-2.400 F139.800
G1 X-22.985 Y-57.915 Z-2.400 F139.800
G1 X-22.985 Y-57.708 Z-2.400 F139.800
G1 X-22.985 Y-57.915 Z-2.400 F139.800
G1 X-22.278 Y-58.622 Z-2.400 F139.800
G1 X-22.278 Y-58.622 Z-2.800 F60.000
G1 X-21.570 Y-59.330 Z-2.800 F139.800
G1 X-21.363 Y-59.330 Z-2.800 F139.800
G1 X-21.570 Y-59.330 Z-2.800 F139.800
G1 X-27.934 Y-65.693 Z-2.800 F139.800
G1 X-27.934 Y-65.693 Z-2.800 F139.800
G1 X-27.934 Y-65.901 Z-2.800 F139.800
G1 X-27.934 Y-65.693 Z-2.800 F139.800
G1 X-29.349 Y-64.279 Z-2.800 F139.800
G1 X-29.349 Y-64.279 Z-2.800 F139.800
G1 X-29.556 Y-64.279 Z-2.800 F139.800
G1 X-29.349 Y-64.279 Z-2.800 F139.800
G1 X-22.985 Y-57.915 Z-2.800 F139.800
G1 X-22.985 Y-57.915 Z-2.800 F139.800
G1 X-22.985 Y-57.708 Z-2.800 F139.800
G1 X-22.985 Y-57.915 Z-2.800 F139.800
G1 X-22.278 Y-58.622 Z-2.800 F139.800
G1 X-22.278 Y-58.622 Z-3.000 F60.000
G1 X-21.570 Y-59.330 Z-3.000 F139.800
G1 X-21.363 Y-59.330 Z-3.000 F139.800
G1 X-21.570 Y-59.330 Z-3.000 F139.800
G1 X-27.934 Y-65.693 Z-3.000 F139.800
G1 X-27.934 Y-65.693 Z-3.000 F139.800
G1 X-27.934 Y-65.901 Z-3.000 F139.800
G1 X-27.934 Y-65.693 Z-3.000 F139.800
G1 X-29.349 Y-64.279 Z-3.000 F139.800
G1 X-29.349 Y-64.279 Z-3.000 F139.800
G1 X-29.556 Y-64.279 Z-3.000 F139.800
G1 X-29.349 Y-64.279 Z-3.000 F139.800
G1 X-22.985 Y-57.915 Z-3.000 F139.800
G1 X-22.985 Y-57.915 Z-3.000 F139.800
G1 X-22.985 Y-57.708 Z-3.000 F139.800
G1 X-22.985 Y-57.915 Z-3.000 F139.800
G1 X-22.278 Y-58.622 Z-3.000 F139.800
G0 Z6.000
G0 Z6.000
G0 X-2.121 Y-78.779
G0 X-2.121 Y-78.779 Z1.000
G1 X-2.121 Y-78.779 Z-0.400 F60.000
G1 X-0.707 Y-80.193 Z-0.400 F139.800
G1 X-0.500 Y-80.193 Z-0.400 F139.800
G1 X-0.707 Y-80.193 Z-0.400 F139.800
G1 X-7.071 Y-86.557 Z-0.400 F139.800
G1 X-7.071 Y-86.557 Z-0.400 F139.800
G1 X-7.071 Y-86.764 Z-0.400 F139.800
G1 X-7.071 Y-86.557 Z-0.400 F139.800
G1 X-8.485 Y-85.143 Z-0.400 F139.800
G1 X-8.485 Y-85.143 Z-0.400 F139.800
G1 X-8.692 Y-85.143 Z-0.400 F139.800
G1 X-8.485 Y-85.143 Z-0.400 F139.800
G1 X-2.121 Y-78.779 Z-0.400 F139.800
G1 X-2.121 Y-78.779 Z-0.400 F139.800
G1 X-2.121 Y-78.572 Z-0.400 F139.800
G1 X-2.121 Y-78.779 Z-0.400 F139.800
G1 X-2.121 Y-78.779 Z-0.800 F60.000
G1 X-0.707 Y-80.193 Z-0.800 F139.800
G1 X-0.500 Y-80.193 Z-0.800 F139.800
G1 X-0.707 Y-80.193 Z-0.800 F139.800
G1 X-7.071 Y-86.557 Z-0.800 F139.800
G1 X-7.071 Y-86.557 Z-0.800 F139.800
G1 X-7.071 Y-86.764 Z-0.800 F139.800
G1 X-7.071 Y-86.557 Z-0.800 F139.800
G1 X-8.485 Y-85.143 Z-0.800 F139.800
G1 X-8.485 Y-85.143 Z-0.800 F139.800
G1 X-8.692 Y-85.143 Z-0.800 F139.800
G1 X-8.485 Y-85.143 Z-0.800 F139.800
G1 X-2.121 Y-78.779 Z-0.800 F139.800
G1 X-2.121 Y-78.779 Z-0.800 F139.800
G1 X-2.121 Y-78.572 Z-0.800 F139.800
G1 X-2.121 Y-78.779 Z-0.800 F139.800
G1 X-2.121 Y-78.779 Z-1.200 F60.000
G1 X-0.707 Y-80.193 Z-1.200 F139.800
G1 X-0.500 Y-80.193 Z-1.200 F139.800
G1 X-0.707 Y-80.193 Z-1.200 F139.800
G1 X-7.071 Y-86.557 Z-1.200 F139.800
G1 X-7.071 Y-86.557 Z-1.200 F139.800
G1 X-7.071 Y-86.764 Z-1.200 F139.800
G1 X-7.071 Y-86.557 Z-1.200 F139.800
G1 X-8.485 Y-85.143 Z-1.200 F139.800
G1 X-8.485 Y-85.143 Z-1.200 F139.800
G1 X-8.692 Y-85.143 Z-1.200 F139.800
G1 X-8.485 Y-85.143 Z-1.200 F139.800
G1 X-2.121 Y-78.779 Z-1.200 F139.800
G1 X-2.121 Y-78.779 Z-1.200 F139.800
G1 X-2.121 Y-78.572 Z-1.200 F139.800
G1 X-2.121 Y-78.779 Z-1.200 F139.800
G1 X-2.121 Y-78.779 Z-1.600 F60.000
G1 X-0.707 Y-80.193 Z-1.600 F139.800
G1 X-0.500 Y-80.193 Z-1.600 F139.800
G1 X-0.707 Y-80.193 Z-1.600 F139.800
G1 X-7.071 Y-86.557 Z-1.600 F139.800
G1 X-7.071 Y-86.557 Z-1.600 F139.800
G1 X-7.071 Y-86.764 Z-1.600 F139.800
G1 X-7.071 Y-86.557 Z-1.600 F139.800
G1 X-8.485 Y-85.143 Z-1.600 F139.800
G1 X-8.485 Y-85.143 Z-1.600 F139.800
G1 X-8.692 Y-85.143 Z-1.600 F139.800
G1 X-8.485 Y-85.143 Z-1.600 F139.800
G1 X-2.121 Y-78.779 Z-1.600 F139.800
G1 X-2.121 Y-78.779 Z-1.600 F139.800
G1 X-2.121 Y-78.572 Z-1.600 F139.800
G1 X-2.121 Y-78.779 Z-1.600 F139.800
G1 X-2.121 Y-78.779 Z-2.000 F60.000
G1 X-0.707 Y-80.193 Z-2.000 F139.800
G1 X-0.500 Y-80.193 Z-2.000 F139.800
G1 X-0.707 Y-80.193 Z-2.000 F139.800
G1 X-7.071 Y-86.557 Z-2.000 F139.800
G1 X-7.071 Y-86.557 Z-2.000 F139.800
G1 X-7.071 Y-86.764 Z-2.000 F139.800
G1 X-7.071 Y-86.557 Z-2.000 F139.800
G1 X-8.485 Y-85.143 Z-2.000 F139.800
G1 X-8.485 Y-85.143 Z-2.000 F139.800
G1 X-8.692 Y-85.143 Z-2.000 F139.800
G1 X-8.485 Y-85.143 Z-2.000 F139.800
G1 X-2.121 Y-78.779 Z-2.000 F139.800
G1 X-2.121 Y-78.779 Z-2.000 F139.800
G1 X-2.121 Y-78.572 Z-2.000 F139.800
G1 X-2.121 Y-78.779 Z-2.000 F139.800
G1 X-2.121 Y-78.779 Z-2.400 F60.000
G1 X-0.707 Y-80.193 Z-2.400 F139.800
G1 X-0.500 Y-80.193 Z-2.400 F139.800
G1 X-0.707 Y-80.193 Z-2.400 F139.800
G1 X-7.071 Y-86.557 Z-2.400 F139.800
G1 X-7.071 Y-86.557 Z-2.400 F139.800
G1 X-7.071 Y-86.764 Z-2.400 F139.800
G1 X-7.071 Y-86.557 Z-2.400 F139.800
G1 X-8.485 Y-85.143 Z-2.400 F139.800
G1 X-8.485 Y-85.143 Z-2.400 F139.800
G1 X-8.692 Y-85.143 Z-2.400 F139.800
G1 X-8.485 Y-85.143 Z-2.400 F139.800
G1 X-2.121 Y-78.779 Z-2.400 F139.800
G1 X-2.121 Y-78.779 Z-2.400 F139.800
G1 X-2.121 Y-78.572 Z-2.400 F139.800
G1 X-2.121 Y-78.779 Z-2.400 F139.800
G1 X-2.121 Y-78.779 Z-2.800 F60.000
G1 X-0.707 Y-80.193 Z-2.800 F139.800
G1 X-0.500 Y-80.193 Z-2.800 F139.800
G1 X-0.707 Y-80.193 Z-2.800 F139.800
G1 X-7.071 Y-86.557 Z-2.800 F139.800
G1 X-7.071 Y-86.557 Z-2.800 F139.800
G1 X-7.071 Y-86.764 Z-2.800 F139.800
G1 X-7.071 Y-86.557 Z-2.800 F139.800
G1 X-8.485 Y-85.143 Z-2.800 F139.800
G1 X-8.485 Y-85.143 Z-2.800 F139.800
G1 X-8.692 Y-85.143 Z-2.800 F139.800
G1 X-8.485 Y-85.143 Z-2.800 F139.800
G1 X-2.121 Y-78.779 Z-2.800 F139.800
G1 X-2.121 Y-78.779 Z-2.800 F139.800
G1 X-2.121 Y-78.572 Z-2.800 F139.800
G1 X-2.121 Y-78.779 Z-2.800 F139.800
G1 X-2.121 Y-78.779 Z-3.000 F60.000
G1 X-0.707 Y-80.193 Z-3.000 F139.800
G1 X-0.500 Y-80.193 Z-3.000 F139.800
G1 X-0.707 Y-80.193 Z-3.000 F139.800
G1 X-7.071 Y-86.557 Z-3.000 F139.800
G1 X-7.071 Y-86.557 Z-3.000 F139.800
G1 X-7.071 Y-86.764 Z-3.000 F139.800
G1 X-7.071 Y-86.557 Z-3.000 F139.800
G1 X-8.485 Y-85.143 Z-3.000 F139.800
G1 X-8.485 Y-85.143 Z-3.000 F139.800
G1 X-8.692 Y-85.143 Z-3.000 F139.800
G1 X-8.485 Y-85.143 Z-3.000 F139.800
G1 X-2.121 Y-78.779 Z-3.000 F139.800
G1 X-2.121 Y-78.779 Z-3.000 F139.800
G1 X-2.121 Y-78.572 Z-3.000 F139.800
G1 X-2.121 Y-78.779 Z-3.000 F139.800
G0 Z6.000
G0 Z6.000
G0 X-0.216 Y-86.394
G0 X-0.216 Y-86.394 Z1.000
G1 X-0.216 Y-86.394 Z-0.400 F60.000
G2 X0.821 Y-86.895 Z-0.400 I0.218 J-0.872 K0.000 F139.800
G1 X1.649 Y-88.628 Z-0.400 F139.800
G2 X1.576 Y-88.920 Z-0.400 I-0.178 J-0.111 K0.000 F139.800
G2 X1.362 Y-88.912 Z-0.400 I-0.099 J0.195 K0.000 F139.800
G1 X-0.363 Y-88.088 Z-0.400 F139.800
G2 X-0.873 Y-87.467 Z-0.400 I0.378 J0.832 K0.000 F139.800
G2 X-0.216 Y-86.394 Z-0.400 I0.876 J0.202 K0.000 F139.800
G1 X-0.216 Y-86.394 Z-0.800 F60.000
G2 X0.821 Y-86.895 Z-0.800 I0.218 J-0.872 K0.000 F139.800
G1 X1.649 Y-88.628 Z-0.800 F139.800
G2 X1.576 Y-88.920 Z-0.800 I-0.178 J-0.111 K0.000 F139.800
G2 X1.362 Y-88.912 Z-0.800 I-0.099 J0.195 K0.000 F139.800
G1 X-0.363 Y-88.088 Z-0.800 F139.800
G2 X-0.873 Y-87.467 Z-0.800 I0.378 J0.832 K0.000 F139.800
G2 X-0.216 Y-86.394 Z-0.800 I0.876 J0.202 K0.000 F139.800
G1 X-0.216 Y-86.394 Z-1.200 F60.000
G2 X0.821 Y-86.895 Z-1.200 I0.218 J-0.872 K0.000 F139.800
G1 X1.649 Y-88.628 Z-1.200 F139.800
G2 X1.576 Y-88.920 Z-1.200 I-0.178 J-0.111 K0.000 F139.800
G2 X1.362 Y-88.912 Z-1.200 I-0.099 J0.195 K0.000 F139.800
G1 X-0.363 Y-88.088 Z-1.200 F139.800
G2 X-0.873 Y-87.467 Z-1.200 I0.378 J0.832 K0.000 F139.800
G2 X-0.216 Y-86.394 Z-1.200 I0.876 J0.202 K0.000 F139.800
G1 X-0.216 Y-86.394 Z-1.600 F60.000
G2 X0.821 Y-86.895 Z-1.600 I0.218 J-0.872 K0.000 F139.800
G1 X1.649 Y-88.628 Z-1.600 F139.800
G2 X1.576 Y-88.920 Z-1.600 I-0.178 J-0.111 K0.000 F139.800
G2 X1.362 Y-88.912 Z-1.600 I-0.099 J0.195 K0.000 F139.800
G1 X-0.363 Y-88.088 Z-1.600 F139.800
G2 X-0.873 Y-87.467 Z-1.600 I0.378 J0.832 K0.000 F139.800
G2 X-0.216 Y-86.394 Z-1.600 I0.876 J0.202 K0.000 F139.800
G1 X-0.216 Y-86.394 Z-2.000 F60.000
G2 X0.821 Y-86.895 Z-2.000 I0.218 J-0.872 K0.000 F139.800
G1 X1.649 Y-88.628 Z-2.000 F139.800
G2 X1.576 Y-88.920 Z-2.000 I-0.178 J-0.111 K0.000 F139.800
G2 X1.362 Y-88.912 Z-2.000 I-0.099 J0.195 K0.000 F139.800
G1 X-0.363 Y-88.088 Z-2.000 F139.800
G2 X-0.873 Y-87.467 Z-2.000 I0.378 J0.832 K0.000 F139.800
G2 X-0.216 Y-86.394 Z-2.000 I0.876 J0.202 K0.000 F139.800
G1 X-0.216 Y-86.394 Z-2.400 F60.000
G2 X0.821 Y-86.895 Z-2.400 I0.218 J-0.872 K0.000 F139.800
G1 X1.649 Y-88.628 Z-2.400 F139.800
G2 X1.576 Y-88.920 Z-2.400 I-0.178 J-0.111 K0.000 F139.800
G2 X1.362 Y-88.912 Z-2.400 I-0.099 J0.195 K0.000 F139.800
G1 X-0.363 Y-88.088 Z-2.400 F139.800
G2 X-0.873 Y-87.467 Z-2.400 I0.378 J0.832 K0.000 F139.800
G2 X-0.216 Y-86.394 Z-2.400 I0.876 J0.202 K0.000 F139.800
G1 X-0.216 Y-86.394 Z-2.800 F60.000
G2 X0.821 Y-86.895 Z-2.800 I0.218 J-0.872 K0.000 F139.800
G1 X1.649 Y-88.628 Z-2.800 F139.800
G2 X1.576 Y-88.920 Z-2.800 I-0.178 J-0.111 K0.000 F139.800
G2 X1.362 Y-88.912 Z-2.800 I-0.099 J0.195 K0.000 F139.800
G1 X-0.363 Y-88.088 Z-2.800 F139.800
G2 X-0.873 Y-87.467 Z-2.800 I0.378 J0.832 K0.000 F139.800
G2 X-0.216 Y-86.394 Z-2.800 I0.876 J0.202 K0.000 F139.800
G1 X-0.216 Y-86.394 Z-3.000 F60.000
G2 X0.821 Y-86.895 Z-3.000 I0.218 J-0.872 K0.000 F139.800
G1 X1.649 Y-88.628 Z-3.000 F139.800
G2 X1.576 Y-88.920 Z-3.000 I-0.178 J-0.111 K0.000 F139.800
G2 X1.362 Y-88.912 Z-3.000 I-0.099 J0.195 K0.000 F139.800
G1 X-0.363 Y-88.088 Z-3.000 F139.800
G2 X-0.873 Y-87.467 Z-3.000 I0.378 J0.832 K0.000 F139.800
G2 X-0.216 Y-86.394 Z-3.000 I0.876 J0.202 K0.000 F139.800
G0 Z6.000
G0 Z6.000
G0 X4.216 Y-90.826
G0 X4.216 Y-90.826 Z1.000
G1 X4.216 Y-90.826 Z-0.400 F60.000
G1 X7.071 Y-87.971 Z-0.400 F139.800
G1 X7.071 Y-87.764 Z-0.400 F139.800
G1 X7.071 Y-87.971 Z-0.400 F139.800
G1 X8.485 Y-89.385 Z-0.400 F139.800
G1 X8.485 Y-89.385 Z-0.400 F139.800
G1 X8.692 Y-89.385 Z-0.400 F139.800
G1 X8.485 Y-89.385 Z-0.400 F139.800
G1 X2.121 Y-95.749 Z-0.400 F139.800
G1 X2.121 Y-95.749 Z-0.400 F139.800
G1 X2.121 Y-95.956 Z-0.400 F139.800
G1 X2.121 Y-95.749 Z-0.400 F139.800
G1 X0.707 Y-94.335 Z-0.400 F139.800
G1 X0.707 Y-94.335 Z-0.400 F139.800
G1 X0.500 Y-94.335 Z-0.400 F139.800
G1 X0.707 Y-94.335 Z-0.400 F139.800
G1 X4.216 Y-90.826 Z-0.400 F139.800
G1 X4.216 Y-90.826 Z-0.800 F60.000
G1 X7.071 Y-87.971 Z-0.800 F139.800
G1 X7.071 Y-87.764 Z-0.800 F139.800
G1 X7.071 Y-87.971 Z-0.800 F139.800
G1 X8.485 Y-89.385 Z-0.800 F139.800
G1 X8.485 Y-89.385 Z-0.800 F139.800
G1 X8.692 Y-89.385 Z-0.800 F139.800
G1 X8.485 Y-89.385 Z-0.800 F139.800
G1 X2.121 Y-95.749 Z-0.800 F139.800
G1 X2.121 Y-95.749 Z-0.800 F139.800
G1 X2.121 Y-95.956 Z-0.800 F139.800
G1 X2.121 Y-95.749 Z-0.800 F139.800
G1 X0.707 Y-94.335 Z-0.800 F139.800
G1 X0.707 Y-94.335 Z-0.800 F139.800
G1 X0.500 Y-94.335 Z-0.800 F139.800
G1 X0.707 Y-94.335 Z-0.800 F139.800
G1 X4.216 Y-90.826 Z-0.800 F139.800
G1 X4.216 Y-90.826 Z-0.800 F139.800
G1 X4.216 Y-90.826 Z-0.800 F139.800
G1 X4.216 Y-90.826 Z-0.800 F139.800
G1 X4.216 Y-90.826 Z-1.200 F60.000
G1 X7.071 Y-87.971 Z-1.200 F139.800
G1 X7.071 Y-87.764 Z-1.200 F139.800
G1 X7.071 Y-87.971 Z-1.200 F139.800
G1 X8.485 Y-89.385 Z-1.200 F139.800
G1 X8.485 Y-89.385 Z-1.200 F139.800
G1 X8.692 Y-89.385 Z-1.200 F139.800
G1 X8.485 Y-89.385 Z-1.200 F139.800
G1 X2.121 Y-95.749 Z-1.200 F139.800
G1 X2.121 Y-95.749 Z-1.200 F139.800
G1 X2.121 Y-95.956 Z-1.200 F139.800
G1 X2.121 Y-95.749 Z-1.200 F139.800
G1 X0.707 Y-94.335 Z-1.200 F139.800
G1 X0.707 Y-94.335 Z-1.200 F139.800
G1 X0.500 Y-94.335 Z-1.200 F139.800
G1 X0.707 Y-94.335 Z-1.200 F139.800
G1 X4.216 Y-90.826 Z-1.200 F139.800
G1 X4.216 Y-90.826 Z-1.200 F139.800
G1 X4.216 Y-90.826 Z-1.200 F139.800
G1 X4.216 Y-90.826 Z-1.200 F139.800
G1 X4.216 Y-90.826 Z-1.600 F60.000
G1 X7.071 Y-87.971 Z-1.600 F139.800
G1 X7.071 Y-87.764 Z-1.600 F139.800
G1 X7.071 Y-87.971 Z-1.600 F139.800
G1 X8.485 Y-89.385 Z-1.600 F139.800
G1 X8.485 Y-89.385 Z-1.600 F139.800
G1 X8.692 Y-89.385 Z-1.600 F139.800
G1 X8.485 Y-89.385 Z-1.600 F139.800
G1 X2.121 Y-95.749 Z-1.600 F139.800
G1 X2.121 Y-95.749 Z-1.600 F139.800
G1 X2.121 Y-95.956 Z-1.600 F139.800
G1 X2.121 Y-95.749 Z-1.600 F139.800
G1 X0.707 Y-94.335 Z-1.600 F139.800
G1 X0.707 Y-94.335 Z-1.600 F139.800
G1 X0.500 Y-94.335 Z-1.600 F139.800
G1 X0.707 Y-94.335 Z-1.600 F139.800
G1 X4.216 Y-90.826 Z-1.600 F139.800
G1 X4.216 Y-90.826 Z-1.600 F139.800
G1 X4.216 Y-90.826 Z-1.600 F139.800
G1 X4.216 Y-90.826 Z-1.600 F139.800
G1 X4.216 Y-90.826 Z-2.000 F60.000
G1 X7.071 Y-87.971 Z-2.000 F139.800
G1 X7.071 Y-87.764 Z-2.000 F139.800
G1 X7.071 Y-87.971 Z-2.000 F139.800
G1 X8.485 Y-89.385 Z-2.000 F139.800
G1 X8.485 Y-89.385 Z-2.000 F139.800
G1 X8.692 Y-89.385 Z-2.000 F139.800
G1 X8.485 Y-89.385 Z-2.000 F139.800
G1 X2.121 Y-95.749 Z-2.000 F139.800
G1 X2.121 Y-95.749 Z-2.000 F139.800
G1 X2.121 Y-95.956 Z-2.000 F139.800
G1 X2.121 Y-95.749 Z-2.000 F139.800
G1 X0.707 Y-94.335 Z-2.000 F139.800
G1 X0.707 Y-94.335 Z-2.000 F139.800
G1 X0.500 Y-94.335 Z-2.000 F139.800
G1 X0.707 Y-94.335 Z-2.000 F139.800
G1 X4.216 Y-90.826 Z-2.000 F139.800
G1 X4.216 Y-90.826 Z-2.000 F139.800
G1 X4.216 Y-90.826 Z-2.000 F139.800
G1 X4.216 Y-90.826 Z-2.000 F139.800
G1 X4.216 Y-90.826 Z-2.400 F60.000
G1 X7.071 Y-87.971 Z-2.400 F139.800
G1 X7.071 Y-87.764 Z-2.400 F139.800
G1 X7.071 Y-87.971 Z-2.400 F139.800
G1 X8.485 Y-89.385 Z-2.400 F139.800
G1 X8.485 Y-89.385 Z-2.400 F139.800
G1 X8.692 Y-89.385 Z-2.400 F139.800
G1 X8.485 Y-89.385 Z-2.400 F139.800
G1 X2.121 Y-95.749 Z-2.400 F139.800
G1 X2.121 Y-95.749 Z-2.400 F139.800
G1 X2.121 Y-95.956 Z-2.400 F139.800
G1 X2.121 Y-95.749 Z-2.400 F139.800
G1 X0.707 Y-94.335 Z-2.400 F139.800
G1 X0.707 Y-94.335 Z-2.400 F139.800
G1 X0.500 Y-94.335 Z-2.400 F139.800
G1 X0.707 Y-94.335 Z-2.400 F139.800
G1 X4.216 Y-90.826 Z-2.400 F139.800
G1 X4.216 Y-90.826 Z-2.400 F139.800
G1 X4.216 Y-90.826 Z-2.400 F139.800
G1 X4.216 Y-90.826 Z-2.400 F139.800
G1 X4.216 Y-90.826 Z-2.800 F60.000
G1 X7.071 Y-87.971 Z-2.800 F139.800
G1 X7.071 Y-87.764 Z-2.800 F139.800
G1 X7.071 Y-87.971 Z-2.800 F139.800
G1 X8.485 Y-89.385 Z-2.800 F139.800
G1 X8.485 Y-89.385 Z-2.800 F139.800
G1 X8.692 Y-89.385 Z-2.800 F139.800
G1 X8.485 Y-89.385 Z-2.800 F139.800
G1 X2.121 Y-95.749 Z-2.800 F139.800
G1 X2.121 Y-95.749 Z-2.800 F139.800
G1 X2.121 Y-95.956 Z-2.800 F139.800
G1 X2.121 Y-95.749 Z-2.800 F139.800
G1 X0.707 Y-94.335 Z-2.800 F139.800
G1 X0.707 Y-94.335 Z-2.800 F139.800
G1 X0.500 Y-94.335 Z-2.800 F139.800
G1 X0.707 Y-94.335 Z-2.800 F139.800
G1 X4.216 Y-90.826 Z-2.800 F139.800
G1 X4.216 Y-90.826 Z-2.800 F139.800
G1 X4.216 Y-90.826 Z-2.800 F139.800
G1 X4.216 Y-90.826 Z-2.800 F139.800
G1 X4.216 Y-90.826 Z-3.000 F60.000
G1 X7.071 Y-87.971 Z-3.000 F139.800
G1 X7.071 Y-87.764 Z-3.000 F139.800
G1 X7.071 Y-87.971 Z-3.000 F139.800
G1 X8.485 Y-89.385 Z-3.000 F139.800
G1 X8.485 Y-89.385 Z-3.000 F139.800
G1 X8.692 Y-89.385 Z-3.000 F139.800
G1 X8.485 Y-89.385 Z-3.000 F139.800
G1 X2.121 Y-95.749 Z-3.000 F139.800
G1 X2.121 Y-95.749 Z-3.000 F139.800
G1 X2.121 Y-95.956 Z-3.000 F139.800
G1 X2.121 Y-95.749 Z-3.000 F139.800
G1 X0.707 Y-94.335 Z-3.000 F139.800
G1 X0.707 Y-94.335 Z-3.000 F139.800
G1 X0.500 Y-94.335 Z-3.000 F139.800
G1 X0.707 Y-94.335 Z-3.000 F139.800
G1 X4.216 Y-90.826 Z-3.000 F139.800
G1 X4.216 Y-90.826 Z-3.000 F139.800
G1 X4.216 Y-90.826 Z-3.000 F139.800
G1 X4.216 Y-90.826 Z-3.000 F139.800
G0 Z6.000
G0 Z6.000
G0 X25.080 Y-111.689
G0 X25.080 Y-111.689 Z1.000
G1 X25.080 Y-111.689 Z-0.400 F60.000
G1 X27.934 Y-108.835 Z-0.400 F139.800
G1 X27.934 Y-108.627 Z-0.400 F139.800
G1 X27.934 Y-108.835 Z-0.400 F139.800
G1 X29.349 Y-110.249 Z-0.400 F139.800
G1 X29.349 Y-110.249 Z-0.400 F139.800
G1 X29.556 Y-110.249 Z-0.400 F139.800
G1 X29.349 Y-110.249 Z-0.400 F139.800
G1 X22.985 Y-116.613 Z-0.400 F139.800
G1 X22.985 Y-116.613 Z-0.400 F139.800
G1 X22.985 Y-116.820 Z-0.400 F139.800
G1 X22.985 Y-116.613 Z-0.400 F139.800
G1 X21.571 Y-115.199 Z-0.400 F139.800
G1 X21.571 Y-115.199 Z-0.400 F139.800
G1 X21.363 Y-115.199 Z-0.400 F139.800
G1 X21.571 Y-115.199 Z-0.400 F139.800
G1 X25.080 Y-111.689 Z-0.400 F139.800
G1 X25.080 Y-111.689 Z-0.800 F60.000
G1 X27.934 Y-108.835 Z-0.800 F139.800
G1 X27.934 Y-108.627 Z-0.800 F139.800
G1 X27.934 Y-108.835 Z-0.800 F139.800
G1 X29.349 Y-110.249 Z-0.800 F139.800
G1 X29.349 Y-110.249 Z-0.800 F139.800
G1 X29.556 Y-110.249 Z-0.800 F139.800
G1 X29.349 Y-110.249 Z-0.800 F139.800
G1 X22.985 Y-116.613 Z-0.800 F139.800
G1 X22.985 Y-116.613 Z-0.800 F139.800
G1 X22.985 Y-116.820 Z-0.800 F139.800
G1 X22.985 Y-116.613 Z-0.800 F139.800
G1 X21.571 Y-115.199 Z-0.800 F139.800
G1 X21.571 Y-115.199 Z-0.800 F139.800
G1 X21.363 Y-115.199 Z-0.800 F139.800
G1 X21.571 Y-115.199 Z-0.800 F139.800
G1 X25.080 Y-111.689 Z-0.800 F139.800
G1 X25.080 Y-111.689 Z-1.200 F60.000
G1 X27.934 Y-108.835 Z-1.200 F139.800
G1 X27.934 Y-108.627 Z-1.200 F139.800
G1 X27.934 Y-108.835 Z-1.200 F139.800
G1 X29.349 Y-110.249 Z-1.200 F139.800
G1 X29.349 Y-110.249 Z-1.200 F139.800
G1 X29.556 Y-110.249 Z-1.200 F139.800
G1 X29.349 Y-110.249 Z-1.200 F139.800
G1 X22.985 Y-116.613 Z-1.200 F139.800
G1 X22.985 Y-116.613 Z-1.200 F139.800
G1 X22.985 Y-116.820 Z-1.200 F139.800
G1 X22.985 Y-116.613 Z-1.200 F139.800
G1 X21.571 Y-115.199 Z-1.200 F139.800
G1 X21.571 Y-115.199 Z-1.200 F139.800
G1 X21.363 Y-115.199 Z-1.200 F139.800
G1 X21.571 Y-115.199 Z-1.200 F139.800
G1 X25.080 Y-111.689 Z-1.200 F139.800
G1 X25.080 Y-111.689 Z-1.600 F60.000
G1 X27.934 Y-108.835 Z-1.600 F139.800
G1 X27.934 Y-108.627 Z-1.600 F139.800
G1 X27.934 Y-108.835 Z-1.600 F139.800
G1 X29.349 Y-110.249 Z-1.600 F139.800
G1 X29.349 Y-110.249 Z-1.600 F139.800
G1 X29.556 Y-110.249 Z-1.600 F139.800
G1 X29.349 Y-110.249 Z-1.600 F139.800
G1 X22.985 Y-116.613 Z-1.600 F139.800
G1 X22.985 Y-116.613 Z-1.600 F139.800
G1 X22.985 Y-116.820 Z-1.600 F139.800
G1 X22.985 Y-116.613 Z-1.600 F139.800
G1 X21.571 Y-115.199 Z-1.600 F139.800
G1 X21.571 Y-115.199 Z-1.600 F139.800
G1 X21.363 Y-115.199 Z-1.600 F139.800
G1 X21.571 Y-115.199 Z-1.600 F139.800
G1 X25.080 Y-111.689 Z-1.600 F139.800
G1 X25.080 Y-111.689 Z-2.000 F60.000
G1 X27.934 Y-108.835 Z-2.000 F139.800
G1 X27.934 Y-108.627 Z-2.000 F139.800
G1 X27.934 Y-108.835 Z-2.000 F139.800
G1 X29.349 Y-110.249 Z-2.000 F139.800
G1 X29.349 Y-110.249 Z-2.000 F139.800
G1 X29.556 Y-110.249 Z-2.000 F139.800
G1 X29.349 Y-110.249 Z-2.000 F139.800
G1 X22.985 Y-116.613 Z-2.000 F139.800
G1 X22.985 Y-116.613 Z-2.000 F139.800
G1 X22.985 Y-116.820 Z-2.000 F139.800
G1 X22.985 Y-116.613 Z-2.000 F139.800
G1 X21.571 Y-115.199 Z-2.000 F139.800
G1 X21.571 Y-115.199 Z-2.000 F139.800
G1 X21.363 Y-115.199 Z-2.000 F139.800
G1 X21.571 Y-115.199 Z-2.000 F139.800
G1 X25.080 Y-111.689 Z-2.000 F139.800
G1 X25.080 Y-111.689 Z-2.400 F60.000
G1 X27.934 Y-108.835 Z-2.400 F139.800
G1 X27.934 Y-108.627 Z-2.400 F139.800
G1 X27.934 Y-108.835 Z-2.400 F139.800
G1 X29.349 Y-110.249 Z-2.400 F139.800
G1 X29.349 Y-110.249 Z-2.400 F139.800
G1 X29.556 Y-110.249 Z-2.400 F139.800
G1 X29.349 Y-110.249 Z-2.400 F139.800
G1 X22.985 Y-116.613 Z-2.400 F139.800
G1 X22.985 Y-116.613 Z-2.400 F139.800
G1 X22.985 Y-116.820 Z-2.400 F139.800
G1 X22.985 Y-116.613 Z-2.400 F139.800
G1 X21.571 Y-115.199 Z-2.400 F139.800
G1 X21.571 Y-115.199 Z-2.400 F139.800
G1 X21.363 Y-115.199 Z-2.400 F139.800
G1 X21.571 Y-115.199 Z-2.400 F139.800
G1 X25.080 Y-111.689 Z-2.400 F139.800
G1 X25.080 Y-111.689 Z-2.800 F60.000
G1 X27.934 Y-108.835 Z-2.800 F139.800
G1 X27.934 Y-108.627 Z-2.800 F139.800
G1 X27.934 Y-108.835 Z-2.800 F139.800
G1 X29.349 Y-110.249 Z-2.800 F139.800
G1 X29.349 Y-110.249 Z-2.800 F139.800
G1 X29.556 Y-110.249 Z-2.800 F139.800
G1 X29.349 Y-110.249 Z-2.800 F139.800
G1 X22.985 Y-116.613 Z-2.800 F139.800
G1 X22.985 Y-116.613 Z-2.800 F139.800
G1 X22.985 Y-116.820 Z-2.800 F139.800
G1 X22.985 Y-116.613 Z-2.800 F139.800
G1 X21.571 Y-115.199 Z-2.800 F139.800
G1 X21.571 Y-115.199 Z-2.800 F139.800
G1 X21.363 Y-115.199 Z-2.800 F139.800
G1 X21.571 Y-115.199 Z-2.800 F139.800
G1 X25.080 Y-111.689 Z-2.800 F139.800
G1 X25.080 Y-111.689 Z-3.000 F60.000
G1 X27.934 Y-108.835 Z-3.000 F139.800
G1 X27.934 Y-108.627 Z-3.000 F139.800
G1 X27.934 Y-108.835 Z-3.000 F139.800
G1 X29.349 Y-110.249 Z-3.000 F139.800
G1 X29.349 Y-110.249 Z-3.000 F139.800
G1 X29.556 Y-110.249 Z-3.000 F139.800
G1 X29.349 Y-110.249 Z-3.000 F139.800
G1 X22.985 Y-116.613 Z-3.000 F139.800
G1 X22.985 Y-116.613 Z-3.000 F139.800
G1 X22.985 Y-116.820 Z-3.000 F139.800
G1 X22.985 Y-116.613 Z-3.000 F139.800
G1 X21.571 Y-115.199 Z-3.000 F139.800
G1 X21.571 Y-115.199 Z-3.000 F139.800
G1 X21.363 Y-115.199 Z-3.000 F139.800
G1 X21.571 Y-115.199 Z-3.000 F139.800
G1 X25.080 Y-111.689 Z-3.000 F139.800
G0 Z6.000
G0 Z6.000
(Finish operation: DogboneDressup001)
(Begin operation: DressupPathBoundary)
(Path: DressupPathBoundary)
G0 Z6.000
G0 X51.494 Y-1.662
G0 Z1.000
G1 X51.494 Y-1.662 Z-0.400 F60.000
G2 X51.498 Y-1.751 Z-0.400 I-2.297 J-0.140 K0.000 F139.800
G1 X51.500 Y-32.200 Z-0.400 F139.800
G2 X49.249 Y-34.498 Z-0.400 I-2.301 J0.003 K0.000 F139.800
G1 X45.800 Y-34.500 Z-0.400 F139.800
G2 X43.502 Y-32.249 Z-0.400 I0.003 J2.301 K0.000 F139.800
G1 X43.500 Y-18.825 Z-0.400 F139.800
G3 X42.921 Y-17.721 Z-0.400 I-1.311 J0.016 K0.000 F139.800
G3 X41.851 Y-17.485 Z-0.400 I-0.890 J-1.488 K0.000 F139.800
G3 X40.500 Y-18.824 Z-0.400 I-0.019 J-1.332 K0.000 F139.800
G1 X40.500 Y-39.230 Z-0.400 F139.800
G3 X40.898 Y-40.191 Z-0.400 I1.330 J-0.012 K0.000 F139.800
G1 X86.345 Y-85.638 Z-0.400 F139.800
G2 X86.378 Y-88.854 Z-0.400 I-1.630 J-1.625 K0.000 F139.800
G1 X40.898 Y-134.337 Z-0.400 F139.800
G3 X40.500 Y-135.298 Z-0.400 I0.932 J-0.949 K0.000 F139.800
G1 X40.500 Y-145.000 Z-0.400 F139.800
G2 X40.490 Y-145.100 Z-0.400 I-0.500 J0.000 K0.000 F139.800
G1 Z1.000 F60.000
G0 Z6.000
G0 X-40.490 Y-145.100
G0 Z1.000
G1 Z-0.400 F60.000
G2 X-40.500 Y-145.000 Z-0.400 I0.490 J0.100 K0.000 F139.800
G1 X-40.500 Y-135.298 Z-0.400 F139.800
G3 X-40.898 Y-134.337 Z-0.400 I-1.330 J0.012 K0.000 F139.800
G1 X-86.345 Y-88.890 Z-0.400 F139.800
G2 X-86.378 Y-85.674 Z-0.400 I1.630 J1.625 K0.000 F139.800
G1 X-40.898 Y-40.191 Z-0.400 F139.800
G3 X-40.500 Y-39.230 Z-0.400 I-0.932 J0.949 K0.000 F139.800
G1 X-40.500 Y-18.825 Z-0.400 F139.800
G3 X-41.842 Y-17.498 Z-0.400 I-1.309 J0.017 K0.000 F139.800
G3 X-43.500 Y-18.819 Z-0.400 I-0.286 J-1.343 K0.000 F139.800
G1 X-43.500 Y-32.200 Z-0.400 F139.800
G2 X-45.751 Y-34.498 Z-0.400 I-2.301 J0.003 K0.000 F139.800
G1 X-49.200 Y-34.500 Z-0.400 F139.800
G2 X-51.498 Y-32.249 Z-0.400 I0.003 J2.301 K0.000 F139.800
G1 X-51.500 Y-1.800 Z-0.400 F139.800
G2 X-49.249 Y0.498 Z-0.400 I2.301 J-0.003 K0.000 F139.800
G1 X49.200 Y0.500 Z-0.400 F139.800
G2 X51.494 Y-1.662 Z-0.400 I-0.003 J-2.301 K0.000 F139.800
G1 X51.494 Y-1.662 Z-0.800 F60.000
G2 X51.498 Y-1.751 Z-0.800 I-2.297 J-0.140 K0.000 F139.800
G1 X51.500 Y-32.200 Z-0.800 F139.800
G2 X49.249 Y-34.498 Z-0.800 I-2.301 J0.003 K0.000 F139.800
G1 X45.800 Y-34.500 Z-0.800 F139.800
G2 X43.502 Y-32.249 Z-0.800 I0.003 J2.301 K0.000 F139.800
G1 X43.500 Y-18.825 Z-0.800 F139.800
G3 X42.921 Y-17.721 Z-0.800 I-1.311 J0.016 K0.000 F139.800
G3 X41.851 Y-17.485 Z-0.800 I-0.890 J-1.488 K0.000 F139.800
G3 X40.500 Y-18.824 Z-0.800 I-0.019 J-1.332 K0.000 F139.800
G1 X40.500 Y-39.230 Z-0.800 F139.800
G3 X40.898 Y-40.191 Z-0.800 I1.330 J-0.012 K0.000 F139.800
G1 X86.345 Y-85.638 Z-0.800 F139.800
G2 X86.378 Y-88.854 Z-0.800 I-1.630 J-1.625 K0.000 F139.800
G1 X40.898 Y-134.337 Z-0.800 F139.800
G3 X40.500 Y-135.298 Z-0.800 I0.932 J-0.949 K0.000 F139.800
G1 X40.500 Y-145.000 Z-0.800 F139.800
G2 X40.490 Y-145.100 Z-0.800 I-0.500 J0.000 K0.000 F139.800
G1 Z1.000 F60.000
G0 Z6.000
G0 X-40.490 Y-145.100
G0 Z1.000
G1 Z-0.800 F60.000
G2 X-40.500 Y-145.000 Z-0.800 I0.490 J0.100 K0.000 F139.800
G1 X-40.500 Y-135.298 Z-0.800 F139.800
G3 X-40.898 Y-134.337 Z-0.800 I-1.330 J0.012 K0.000 F139.800
G1 X-86.345 Y-88.890 Z-0.800 F139.800
G2 X-86.378 Y-85.674 Z-0.800 I1.630 J1.625 K0.000 F139.800
G1 X-40.898 Y-40.191 Z-0.800 F139.800
G3 X-40.500 Y-39.230 Z-0.800 I-0.932 J0.949 K0.000 F139.800
G1 X-40.500 Y-18.825 Z-0.800 F139.800
G3 X-41.842 Y-17.498 Z-0.800 I-1.309 J0.017 K0.000 F139.800
G3 X-43.500 Y-18.819 Z-0.800 I-0.286 J-1.343 K0.000 F139.800
G1 X-43.500 Y-32.200 Z-0.800 F139.800
G2 X-45.751 Y-34.498 Z-0.800 I-2.301 J0.003 K0.000 F139.800
G1 X-49.200 Y-34.500 Z-0.800 F139.800
G2 X-51.498 Y-32.249 Z-0.800 I0.003 J2.301 K0.000 F139.800
G1 X-51.500 Y-1.800 Z-0.800 F139.800
G2 X-49.249 Y0.498 Z-0.800 I2.301 J-0.003 K0.000 F139.800
G1 X49.200 Y0.500 Z-0.800 F139.800
G2 X51.494 Y-1.662 Z-0.800 I-0.003 J-2.301 K0.000 F139.800
G1 X51.494 Y-1.662 Z-1.200 F60.000
G2 X51.498 Y-1.751 Z-1.200 I-2.297 J-0.140 K0.000 F139.800
G1 X51.500 Y-32.200 Z-1.200 F139.800
G2 X49.249 Y-34.498 Z-1.200 I-2.301 J0.003 K0.000 F139.800
G1 X45.800 Y-34.500 Z-1.200 F139.800
G2 X43.502 Y-32.249 Z-1.200 I0.003 J2.301 K0.000 F139.800
G1 X43.500 Y-18.825 Z-1.200 F139.800
G3 X42.921 Y-17.721 Z-1.200 I-1.311 J0.016 K0.000 F139.800
G3 X41.851 Y-17.485 Z-1.200 I-0.890 J-1.488 K0.000 F139.800
G3 X40.500 Y-18.824 Z-1.200 I-0.019 J-1.332 K0.000 F139.800
G1 X40.500 Y-39.230 Z-1.200 F139.800
G3 X40.898 Y-40.191 Z-1.200 I1.330 J-0.012 K0.000 F139.800
G1 X86.345 Y-85.638 Z-1.200 F139.800
G2 X86.378 Y-88.854 Z-1.200 I-1.630 J-1.625 K0.000 F139.800
G1 X40.898 Y-134.337 Z-1.200 F139.800
G3 X40.500 Y-135.298 Z-1.200 I0.932 J-0.949 K0.000 F139.800
G1 X40.500 Y-145.000 Z-1.200 F139.800
G2 X40.490 Y-145.100 Z-1.200 I-0.500 J0.000 K0.000 F139.800
G1 Z1.000 F60.000
G0 Z6.000
G0 X-40.490 Y-145.100
G0 Z1.000
G1 Z-1.200 F60.000
G2 X-40.500 Y-145.000 Z-1.200 I0.490 J0.100 K0.000 F139.800
G1 X-40.500 Y-135.298 Z-1.200 F139.800
G3 X-40.898 Y-134.337 Z-1.200 I-1.330 J0.012 K0.000 F139.800
G1 X-86.345 Y-88.890 Z-1.200 F139.800
G2 X-86.378 Y-85.674 Z-1.200 I1.630 J1.625 K0.000 F139.800
G1 X-40.898 Y-40.191 Z-1.200 F139.800
G3 X-40.500 Y-39.230 Z-1.200 I-0.932 J0.949 K0.000 F139.800
G1 X-40.500 Y-18.825 Z-1.200 F139.800
G3 X-41.842 Y-17.498 Z-1.200 I-1.309 J0.017 K0.000 F139.800
G3 X-43.500 Y-18.819 Z-1.200 I-0.286 J-1.343 K0.000 F139.800
G1 X-43.500 Y-32.200 Z-1.200 F139.800
G2 X-45.751 Y-34.498 Z-1.200 I-2.301 J0.003 K0.000 F139.800
G1 X-49.200 Y-34.500 Z-1.200 F139.800
G2 X-51.498 Y-32.249 Z-1.200 I0.003 J2.301 K0.000 F139.800
G1 X-51.500 Y-1.800 Z-1.200 F139.800
G2 X-49.249 Y0.498 Z-1.200 I2.301 J-0.003 K0.000 F139.800
G1 X49.200 Y0.500 Z-1.200 F139.800
G2 X51.494 Y-1.662 Z-1.200 I-0.003 J-2.301 K0.000 F139.800
G1 X51.494 Y-1.662 Z-1.600 F60.000
G2 X51.498 Y-1.751 Z-1.600 I-2.297 J-0.140 K0.000 F139.800
G1 X51.500 Y-32.200 Z-1.600 F139.800
G2 X49.249 Y-34.498 Z-1.600 I-2.301 J0.003 K0.000 F139.800
G1 X45.800 Y-34.500 Z-1.600 F139.800
G2 X43.502 Y-32.249 Z-1.600 I0.003 J2.301 K0.000 F139.800
G1 X43.500 Y-18.825 Z-1.600 F139.800
G3 X42.921 Y-17.721 Z-1.600 I-1.311 J0.016 K0.000 F139.800
G3 X41.851 Y-17.485 Z-1.600 I-0.890 J-1.488 K0.000 F139.800
G3 X40.500 Y-18.824 Z-1.600 I-0.019 J-1.332 K0.000 F139.800
G1 X40.500 Y-39.230 Z-1.600 F139.800
G3 X40.898 Y-40.191 Z-1.600 I1.330 J-0.012 K0.000 F139.800
G1 X63.208 Y-62.501 Z-1.600 F139.800
G1 X63.279 Y-62.571 Z-1.500 F99.900
G1 X63.964 Y-63.257 Z-1.500 F139.800
G1 X64.035 Y-63.328 Z-1.600 F99.900
G1 X86.345 Y-85.638 Z-1.600 F139.800
G2 X86.378 Y-88.854 Z-1.600 I-1.630 J-1.625 K0.000 F139.800
G1 X40.898 Y-134.337 Z-1.600 F139.800
G3 X40.500 Y-135.298 Z-1.600 I0.932 J-0.949 K0.000 F139.800
G1 X40.500 Y-145.000 Z-1.600 F139.800
G2 X40.490 Y-145.100 Z-1.600 I-0.500 J0.000 K0.000 F139.800
G1 Z1.000 F60.000
G0 Z6.000
G0 X-40.490 Y-145.100
G0 Z1.000
G1 Z-1.600 F60.000
G2 X-40.500 Y-145.000 Z-1.600 I0.490 J0.100 K0.000 F139.800
G1 X-40.500 Y-135.298 Z-1.600 F139.800
G3 X-40.898 Y-134.337 Z-1.600 I-1.330 J0.012 K0.000 F139.800
G1 X-86.345 Y-88.890 Z-1.600 F139.800
G2 X-86.378 Y-85.674 Z-1.600 I1.630 J1.625 K0.000 F139.800
G1 X-64.052 Y-63.346 Z-1.600 F139.800
G1 X-63.981 Y-63.276 Z-1.500 F99.900
G1 X-63.295 Y-62.590 Z-1.500 F139.800
G1 X-63.224 Y-62.519 Z-1.600 F99.900
G1 X-40.898 Y-40.191 Z-1.600 F139.800
G3 X-40.500 Y-39.230 Z-1.600 I-0.932 J0.949 K0.000 F139.800
G1 X-40.500 Y-18.825 Z-1.600 F139.800
G3 X-41.842 Y-17.498 Z-1.600 I-1.309 J0.017 K0.000 F139.800
G3 X-43.500 Y-18.819 Z-1.600 I-0.286 J-1.343 K0.000 F139.800
G1 X-43.500 Y-32.200 Z-1.600 F139.800
G2 X-45.751 Y-34.498 Z-1.600 I-2.301 J0.003 K0.000 F139.800
G1 X-49.200 Y-34.500 Z-1.600 F139.800
G2 X-51.498 Y-32.249 Z-1.600 I0.003 J2.301 K0.000 F139.800
G1 X-51.500 Y-1.800 Z-1.600 F139.800
G2 X-49.249 Y0.498 Z-1.600 I2.301 J-0.003 K0.000 F139.800
G1 X-0.609 Y0.499 Z-1.600 F139.800
G1 X-0.509 Y0.499 Z-1.500 F99.900
G1 X0.461 Y0.499 Z-1.500 F139.800
G1 X0.561 Y0.499 Z-1.600 F99.900
G1 X49.200 Y0.500 Z-1.600 F139.800
G2 X51.494 Y-1.662 Z-1.600 I-0.003 J-2.301 K0.000 F139.800
G1 X51.494 Y-1.662 Z-2.000 F60.000
G2 X51.498 Y-1.751 Z-2.000 I-2.297 J-0.140 K0.000 F139.800
G1 X51.500 Y-32.200 Z-2.000 F139.800
G2 X49.249 Y-34.498 Z-2.000 I-2.301 J0.003 K0.000 F139.800
G1 X45.800 Y-34.500 Z-2.000 F139.800
G2 X43.502 Y-32.249 Z-2.000 I0.003 J2.301 K0.000 F139.800
G1 X43.500 Y-18.825 Z-2.000 F139.800
G3 X42.921 Y-17.721 Z-2.000 I-1.311 J0.016 K0.000 F139.800
G3 X41.851 Y-17.485 Z-2.000 I-0.890 J-1.488 K0.000 F139.800
G3 X40.500 Y-18.824 Z-2.000 I-0.019 J-1.332 K0.000 F139.800
G1 X40.500 Y-39.230 Z-2.000 F139.800
G3 X40.898 Y-40.191 Z-2.000 I1.330 J-0.012 K0.000 F139.800
G1 X62.925 Y-62.218 Z-2.000 F139.800
G1 X63.279 Y-62.571 Z-1.500 F99.900
G1 X63.964 Y-63.257 Z-1.500 F139.800
G1 X64.318 Y-63.611 Z-2.000 F99.900
G1 X86.345 Y-85.638 Z-2.000 F139.800
G2 X86.378 Y-88.854 Z-2.000 I-1.630 J-1.625 K0.000 F139.800
G1 X40.898 Y-134.337 Z-2.000 F139.800
G3 X40.500 Y-135.298 Z-2.000 I0.932 J-0.949 K0.000 F139.800
G1 X40.500 Y-145.000 Z-2.000 F139.800
G2 X40.490 Y-145.100 Z-2.000 I-0.500 J0.000 K0.000 F139.800
G1 Z1.000 F60.000
G0 Z6.000
G0 X-40.490 Y-145.100
G0 Z1.000
G1 Z-2.000 F60.000
G2 X-40.500 Y-145.000 Z-2.000 I0.490 J0.100 K0.000 F139.800
G1 X-40.500 Y-135.298 Z-2.000 F139.800
G3 X-40.898 Y-134.337 Z-2.000 I-1.330 J0.012 K0.000 F139.800
G1 X-86.345 Y-88.890 Z-2.000 F139.800
G2 X-86.378 Y-85.674 Z-2.000 I1.630 J1.625 K0.000 F139.800
G1 X-64.334 Y-63.629 Z-2.000 F139.800
G1 X-63.981 Y-63.276 Z-1.500 F99.900
G1 X-63.295 Y-62.590 Z-1.500 F139.800
G1 X-62.941 Y-62.236 Z-2.000 F99.900
G1 X-40.898 Y-40.191 Z-2.000 F139.800
G3 X-40.500 Y-39.230 Z-2.000 I-0.932 J0.949 K0.000 F139.800
G1 X-40.500 Y-18.825 Z-2.000 F139.800
G3 X-41.842 Y-17.498 Z-2.000 I-1.309 J0.017 K0.000 F139.800
G3 X-43.500 Y-18.819 Z-2.000 I-0.286 J-1.343 K0.000 F139.800
G1 X-43.500 Y-32.200 Z-2.000 F139.800
G2 X-45.751 Y-34.498 Z-2.000 I-2.301 J0.003 K0.000 F139.800
G1 X-49.200 Y-34.500 Z-2.000 F139.800
G2 X-51.498 Y-32.249 Z-2.000 I0.003 J2.301 K0.000 F139.800
G1 X-51.500 Y-1.800 Z-2.000 F139.800
G2 X-49.249 Y0.498 Z-2.000 I2.301 J-0.003 K0.000 F139.800
G1 X-1.009 Y0.499 Z-2.000 F139.800
G1 X-0.509 Y0.499 Z-1.500 F99.900
G1 X0.461 Y0.499 Z-1.500 F139.800
G1 X0.961 Y0.499 Z-2.000 F99.900
G1 X49.200 Y0.500 Z-2.000 F139.800
G2 X51.494 Y-1.662 Z-2.000 I-0.003 J-2.301 K0.000 F139.800
G1 X51.494 Y-1.662 Z-2.400 F60.000
G2 X51.498 Y-1.751 Z-2.400 I-2.297 J-0.140 K0.000 F139.800
G1 X51.500 Y-32.200 Z-2.400 F139.800
G2 X49.249 Y-34.498 Z-2.400 I-2.301 J0.003 K0.000 F139.800
G1 X45.800 Y-34.500 Z-2.400 F139.800
G2 X43.502 Y-32.249 Z-2.400 I0.003 J2.301 K0.000 F139.800
G1 X43.500 Y-18.825 Z-2.400 F139.800
G3 X42.921 Y-17.721 Z-2.400 I-1.311 J0.016 K0.000 F139.800
G3 X41.851 Y-17.485 Z-2.400 I-0.890 J-1.488 K0.000 F139.800
G3 X40.500 Y-18.824 Z-2.400 I-0.019 J-1.332 K0.000 F139.800
G1 X40.500 Y-39.230 Z-2.400 F139.800
G3 X40.898 Y-40.191 Z-2.400 I1.330 J-0.012 K0.000 F139.800
G1 X62.642 Y-61.935 Z-2.400 F139.800
G1 X63.279 Y-62.571 Z-1.500 F99.900
G1 X63.964 Y-63.257 Z-1.500 F139.800
G1 X64.601 Y-63.894 Z-2.400 F99.900
G1 X86.345 Y-85.638 Z-2.400 F139.800
G2 X86.378 Y-88.854 Z-2.400 I-1.630 J-1.625 K0.000 F139.800
G1 X40.898 Y-134.337 Z-2.400 F139.800
G3 X40.500 Y-135.298 Z-2.400 I0.932 J-0.949 K0.000 F139.800
G1 X40.500 Y-145.000 Z-2.400 F139.800
G2 X40.490 Y-145.100 Z-2.400 I-0.500 J0.000 K0.000 F139.800
G1 Z1.000 F60.000
G0 Z6.000
G0 X-40.490 Y-145.100
G0 Z1.000
G1 Z-2.400 F60.000
G2 X-40.500 Y-145.000 Z-2.400 I0.490 J0.100 K0.000 F139.800
G1 X-40.500 Y-135.298 Z-2.400 F139.800
G3 X-40.898 Y-134.337 Z-2.400 I-1.330 J0.012 K0.000 F139.800
G1 X-86.345 Y-88.890 Z-2.400 F139.800
G2 X-86.378 Y-85.674 Z-2.400 I1.630 J1.625 K0.000 F139.800
G1 X-64.617 Y-63.912 Z-2.400 F139.800
G1 X-63.981 Y-63.276 Z-1.500 F99.900
G1 X-63.295 Y-62.590 Z-1.500 F139.800
G1 X-62.659 Y-61.953 Z-2.400 F99.900
G1 X-40.898 Y-40.191 Z-2.400 F139.800
G3 X-40.500 Y-39.230 Z-2.400 I-0.932 J0.949 K0.000 F139.800
G1 X-40.500 Y-18.825 Z-2.400 F139.800
G3 X-41.842 Y-17.498 Z-2.400 I-1.309 J0.017 K0.000 F139.800
G3 X-43.500 Y-18.819 Z-2.400 I-0.286 J-1.343 K0.000 F139.800
G1 X-43.500 Y-32.200 Z-2.400 F139.800
G2 X-45.751 Y-34.498 Z-2.400 I-2.301 J0.003 K0.000 F139.800
G1 X-49.200 Y-34.500 Z-2.400 F139.800
G2 X-51.498 Y-32.249 Z-2.400 I0.003 J2.301 K0.000 F139.800
G1 X-51.500 Y-1.800 Z-2.400 F139.800
G2 X-49.249 Y0.498 Z-2.400 I2.301 J-0.003 K0.000 F139.800
G1 X-1.409 Y0.499 Z-2.400 F139.800
G1 X-0.509 Y0.499 Z-1.500 F99.900
G1 X0.461 Y0.499 Z-1.500 F139.800
G1 X1.361 Y0.499 Z-2.400 F99.900
G1 X49.200 Y0.500 Z-2.400 F139.800
G2 X51.494 Y-1.662 Z-2.400 I-0.003 J-2.301 K0.000 F139.800
G1 X51.494 Y-1.662 Z-2.800 F60.000
G2 X51.498 Y-1.751 Z-2.800 I-2.297 J-0.140 K0.000 F139.800
G1 X51.500 Y-32.200 Z-2.800 F139.800
G2 X49.249 Y-34.498 Z-2.800 I-2.301 J0.003 K0.000 F139.800
G1 X45.800 Y-34.500 Z-2.800 F139.800
G2 X43.502 Y-32.249 Z-2.800 I0.003 J2.301 K0.000 F139.800
G1 X43.500 Y-18.825 Z-2.800 F139.800
G3 X42.921 Y-17.721 Z-2.800 I-1.311 J0.016 K0.000 F139.800
G3 X41.851 Y-17.485 Z-2.800 I-0.890 J-1.488 K0.000 F139.800
G3 X40.500 Y-18.824 Z-2.800 I-0.019 J-1.332 K0.000 F139.800
G1 X40.500 Y-39.230 Z-2.800 F139.800
G3 X40.898 Y-40.191 Z-2.800 I1.330 J-0.012 K0.000 F139.800
G1 X62.359 Y-61.652 Z-2.800 F139.800
G1 X63.279 Y-62.571 Z-1.500 F99.900
G1 X63.964 Y-63.257 Z-1.500 F139.800
G1 X64.884 Y-64.177 Z-2.800 F99.900
G1 X86.345 Y-85.638 Z-2.800 F139.800
G2 X86.378 Y-88.854 Z-2.800 I-1.630 J-1.625 K0.000 F139.800
G1 X40.898 Y-134.337 Z-2.800 F139.800
G3 X40.500 Y-135.298 Z-2.800 I0.932 J-0.949 K0.000 F139.800
G1 X40.500 Y-145.000 Z-2.800 F139.800
G2 X40.490 Y-145.100 Z-2.800 I-0.500 J0.000 K0.000 F139.800
G1 Z1.000 F60.000
G0 Z6.000
G0 X-40.490 Y-145.100
G0 Z1.000
G1 Z-2.800 F60.000
G2 X-40.500 Y-145.000 Z-2.800 I0.490 J0.100 K0.000 F139.800
G1 X-40.500 Y-135.298 Z-2.800 F139.800
G3 X-40.898 Y-134.337 Z-2.800 I-1.330 J0.012 K0.000 F139.800
G1 X-86.345 Y-88.890 Z-2.800 F139.800
G2 X-86.378 Y-85.674 Z-2.800 I1.630 J1.625 K0.000 F139.800
G1 X-64.900 Y-64.195 Z-2.800 F139.800
G1 X-63.981 Y-63.276 Z-1.500 F99.900
G1 X-63.295 Y-62.590 Z-1.500 F139.800
G1 X-62.376 Y-61.670 Z-2.800 F99.900
G1 X-40.898 Y-40.191 Z-2.800 F139.800
G3 X-40.500 Y-39.230 Z-2.800 I-0.932 J0.949 K0.000 F139.800
G1 X-40.500 Y-18.825 Z-2.800 F139.800
G3 X-41.842 Y-17.498 Z-2.800 I-1.309 J0.017 K0.000 F139.800
G3 X-43.500 Y-18.819 Z-2.800 I-0.286 J-1.343 K0.000 F139.800
G1 X-43.500 Y-32.200 Z-2.800 F139.800
G2 X-45.751 Y-34.498 Z-2.800 I-2.301 J0.003 K0.000 F139.800
G1 X-49.200 Y-34.500 Z-2.800 F139.800
G2 X-51.498 Y-32.249 Z-2.800 I0.003 J2.301 K0.000 F139.800
G1 X-51.500 Y-1.800 Z-2.800 F139.800
G2 X-49.249 Y0.498 Z-2.800 I2.301 J-0.003 K0.000 F139.800
G1 X-1.809 Y0.499 Z-2.800 F139.800
G1 X-0.509 Y0.499 Z-1.500 F99.900
G1 X0.461 Y0.499 Z-1.500 F139.800
G1 X1.761 Y0.499 Z-2.800 F99.900
G1 X49.200 Y0.500 Z-2.800 F139.800
G2 X51.494 Y-1.662 Z-2.800 I-0.003 J-2.301 K0.000 F139.800
G1 X51.494 Y-1.662 Z-3.000 F60.000
G2 X51.498 Y-1.751 Z-3.000 I-2.297 J-0.140 K0.000 F139.800
G1 X51.500 Y-32.200 Z-3.000 F139.800
G2 X49.249 Y-34.498 Z-3.000 I-2.301 J0.003 K0.000 F139.800
G1 X45.800 Y-34.500 Z-3.000 F139.800
G2 X43.502 Y-32.249 Z-3.000 I0.003 J2.301 K0.000 F139.800
G1 X43.500 Y-18.825 Z-3.000 F139.800
G3 X42.921 Y-17.721 Z-3.000 I-1.311 J0.016 K0.000 F139.800
G3 X41.851 Y-17.485 Z-3.000 I-0.890 J-1.488 K0.000 F139.800
G3 X40.500 Y-18.824 Z-3.000 I-0.019 J-1.332 K0.000 F139.800
G1 X40.500 Y-39.230 Z-3.000 F139.800
G3 X40.898 Y-40.191 Z-3.000 I1.330 J-0.012 K0.000 F139.800
G1 X62.218 Y-61.511 Z-3.000 F139.800
G1 X63.279 Y-62.571 Z-1.500 F99.900
G1 X63.964 Y-63.257 Z-1.500 F139.800
G1 X65.025 Y-64.318 Z-3.000 F99.900
G1 X86.345 Y-85.638 Z-3.000 F139.800
G2 X86.378 Y-88.854 Z-3.000 I-1.630 J-1.625 K0.000 F139.800
G1 X40.898 Y-134.337 Z-3.000 F139.800
G3 X40.500 Y-135.298 Z-3.000 I0.932 J-0.949 K0.000 F139.800
G1 X40.500 Y-145.000 Z-3.000 F139.800
G2 X40.490 Y-145.100 Z-3.000 I-0.500 J0.000 K0.000 F139.800
G1 Z1.000 F60.000
G0 Z6.000
G0 X-40.490 Y-145.100
G0 Z1.000
G1 Z-3.000 F60.000
G2 X-40.500 Y-145.000 Z-3.000 I0.490 J0.100 K0.000 F139.800
G1 X-40.500 Y-135.298 Z-3.000 F139.800
G3 X-40.898 Y-134.337 Z-3.000 I-1.330 J0.012 K0.000 F139.800
G1 X-86.345 Y-88.890 Z-3.000 F139.800
G2 X-86.378 Y-85.674 Z-3.000 I1.630 J1.625 K0.000 F139.800
G1 X-65.041 Y-64.336 Z-3.000 F139.800
G1 X-63.981 Y-63.276 Z-1.500 F99.900
G1 X-63.295 Y-62.590 Z-1.500 F139.800
G1 X-62.234 Y-61.529 Z-3.000 F99.900
G1 X-40.898 Y-40.191 Z-3.000 F139.800
G3 X-40.500 Y-39.230 Z-3.000 I-0.932 J0.949 K0.000 F139.800
G1 X-40.500 Y-18.825 Z-3.000 F139.800
G3 X-41.842 Y-17.498 Z-3.000 I-1.309 J0.017 K0.000 F139.800
G3 X-43.500 Y-18.819 Z-3.000 I-0.286 J-1.343 K0.000 F139.800
G1 X-43.500 Y-32.200 Z-3.000 F139.800
G2 X-45.751 Y-34.498 Z-3.000 I-2.301 J0.003 K0.000 F139.800
G1 X-49.200 Y-34.500 Z-3.000 F139.800
G2 X-51.498 Y-32.249 Z-3.000 I0.003 J2.301 K0.000 F139.800
G1 X-51.500 Y-1.800 Z-3.000 F139.800
G2 X-49.249 Y0.498 Z-3.000 I2.301 J-0.003 K0.000 F139.800
G1 X-2.009 Y0.499 Z-3.000 F139.800
G1 X-0.509 Y0.499 Z-1.500 F99.900
G1 X0.461 Y0.499 Z-1.500 F139.800
G1 X1.961 Y0.499 Z-3.000 F99.900
G1 X49.200 Y0.500 Z-3.000 F139.800
G2 X51.494 Y-1.662 Z-3.000 I-0.003 J-2.301 K0.000 F139.800
G1 X51.494 Y-1.662 Z1.000 F60.000
G1 Z1.000 F60.000
G0 Z6.000
(Finish operation: DressupPathBoundary)
(Begin postamble)
M5
G17 G90
M2
