(Exported by FreeCAD)
(Post Processor: grbl_post)
(Output Time:2020-08-19 12:57:21.153924)
(Begin preamble)
G17 G90
G21
(Begin operation: Fixture)
(Path: Fixture)
G54
(Finish operation: Fixture)
(Begin operation: T37: Two-flute 1mm x 7mm003)
(Path: T37: Two-flute 1mm x 7mm003)
(T37: Two-flute 1mm x 7mm003)
(Begin toolchange)
(M6 T37.0)
M3 S7400.0
(Finish operation: T37: Two-flute 1mm x 7mm003)
(Begin operation: DogboneDressup002)
(Path: DogboneDressup002)
(Pocket_Shape001)
G0 Z6.000
G0 X-23.000 Y-1.528
G0 Z1.000
G1 X-23.000 Y-1.528 Z-0.333 F60.000
G1 X-23.000 Y-6.528 Z-0.333 F139.800
G1 X-22.854 Y-6.674 Z-0.333 F139.800
G1 X-23.000 Y-6.528 Z-0.333 F139.800
G1 X-25.000 Y-6.528 Z-0.333 F139.800
G1 X-25.000 Y-6.528 Z-0.333 F139.800
G1 X-25.146 Y-6.674 Z-0.333 F139.800
G1 X-25.000 Y-6.528 Z-0.333 F139.800
G1 X-25.000 Y-1.528 Z-0.333 F139.800
G1 X-25.000 Y-1.528 Z-0.333 F139.800
G1 X-25.146 Y-1.382 Z-0.333 F139.800
G1 X-25.000 Y-1.528 Z-0.333 F139.800
G1 X-23.000 Y-1.528 Z-0.333 F139.800
G1 X-23.000 Y-1.528 Z-0.333 F139.800
G1 X-22.854 Y-1.382 Z-0.333 F139.800
G1 X-23.000 Y-1.528 Z-0.333 F139.800
G0 Z6.000
G0 X-23.900 Y-2.428 Z6.000
G0 X-23.900 Y-2.428 Z1.000
G1 X-23.900 Y-2.428 Z-0.333 F60.000
G1 X-23.900 Y-5.628 Z-0.333 F139.800
G1 X-23.754 Y-5.774 Z-0.333 F139.800
G1 X-23.900 Y-5.628 Z-0.333 F139.800
G1 X-24.100 Y-5.628 Z-0.333 F139.800
G1 X-24.100 Y-5.628 Z-0.333 F139.800
G1 X-24.246 Y-5.774 Z-0.333 F139.800
G1 X-24.100 Y-5.628 Z-0.333 F139.800
G1 X-24.100 Y-2.428 Z-0.333 F139.800
G1 X-24.100 Y-2.428 Z-0.333 F139.800
G1 X-24.246 Y-2.282 Z-0.333 F139.800
G1 X-24.100 Y-2.428 Z-0.333 F139.800
G1 X-23.900 Y-2.428 Z-0.333 F139.800
G1 X-23.900 Y-2.428 Z-0.333 F139.800
G1 X-23.754 Y-2.282 Z-0.333 F139.800
G1 X-23.900 Y-2.428 Z-0.333 F139.800
G1 X-23.900 Y-2.428 Z-0.667 F60.000
G1 X-23.900 Y-5.628 Z-0.667 F139.800
G1 X-23.754 Y-5.774 Z-0.667 F139.800
G1 X-23.900 Y-5.628 Z-0.667 F139.800
G1 X-24.100 Y-5.628 Z-0.667 F139.800
G1 X-24.100 Y-5.628 Z-0.667 F139.800
G1 X-24.246 Y-5.774 Z-0.667 F139.800
G1 X-24.100 Y-5.628 Z-0.667 F139.800
G1 X-24.100 Y-2.428 Z-0.667 F139.800
G1 X-24.100 Y-2.428 Z-0.667 F139.800
G1 X-24.246 Y-2.282 Z-0.667 F139.800
G1 X-24.100 Y-2.428 Z-0.667 F139.800
G1 X-23.900 Y-2.428 Z-0.667 F139.800
G1 X-23.900 Y-2.428 Z-0.667 F139.800
G1 X-23.754 Y-2.282 Z-0.667 F139.800
G1 X-23.900 Y-2.428 Z-0.667 F139.800
G0 Z6.000
G0 X-23.000 Y-2.428 Z6.000
G0 X-23.000 Y-2.428 Z1.000
G1 X-23.000 Y-2.428 Z-0.667 F60.000
G1 X-23.000 Y-6.528 Z-0.667 F139.800
G1 X-22.854 Y-6.674 Z-0.667 F139.800
G1 X-23.000 Y-6.528 Z-0.667 F139.800
G1 X-25.000 Y-6.528 Z-0.667 F139.800
G1 X-25.000 Y-6.528 Z-0.667 F139.800
G1 X-25.146 Y-6.674 Z-0.667 F139.800
G1 X-25.000 Y-6.528 Z-0.667 F139.800
G1 X-25.000 Y-1.528 Z-0.667 F139.800
G1 X-25.000 Y-1.528 Z-0.667 F139.800
G1 X-25.146 Y-1.382 Z-0.667 F139.800
G1 X-25.000 Y-1.528 Z-0.667 F139.800
G1 X-23.000 Y-1.528 Z-0.667 F139.800
G1 X-23.000 Y-1.528 Z-0.667 F139.800
G1 X-22.854 Y-1.382 Z-0.667 F139.800
G1 X-23.000 Y-1.528 Z-0.667 F139.800
G1 X-23.000 Y-2.428 Z-0.667 F139.800
G1 X-23.000 Y-2.428 Z-0.667 F139.800
G1 X-23.000 Y-2.428 Z-1.000 F60.000
G1 X-23.000 Y-6.528 Z-1.000 F139.800
G1 X-22.854 Y-6.674 Z-1.000 F139.800
G1 X-23.000 Y-6.528 Z-1.000 F139.800
G1 X-25.000 Y-6.528 Z-1.000 F139.800
G1 X-25.000 Y-6.528 Z-1.000 F139.800
G1 X-25.146 Y-6.674 Z-1.000 F139.800
G1 X-25.000 Y-6.528 Z-1.000 F139.800
G1 X-25.000 Y-1.528 Z-1.000 F139.800
G1 X-25.000 Y-1.528 Z-1.000 F139.800
G1 X-25.146 Y-1.382 Z-1.000 F139.800
G1 X-25.000 Y-1.528 Z-1.000 F139.800
G1 X-23.000 Y-1.528 Z-1.000 F139.800
G1 X-23.000 Y-1.528 Z-1.000 F139.800
G1 X-22.854 Y-1.382 Z-1.000 F139.800
G1 X-23.000 Y-1.528 Z-1.000 F139.800
G1 X-23.000 Y-2.428 Z-1.000 F139.800
G0 Z6.000
G0 X-23.900 Y-2.428 Z6.000
G0 X-23.900 Y-2.428 Z1.000
G1 X-23.900 Y-2.428 Z-1.000 F60.000
G1 X-23.900 Y-5.628 Z-1.000 F139.800
G1 X-23.754 Y-5.774 Z-1.000 F139.800
G1 X-23.900 Y-5.628 Z-1.000 F139.800
G1 X-24.100 Y-5.628 Z-1.000 F139.800
G1 X-24.100 Y-5.628 Z-1.000 F139.800
G1 X-24.246 Y-5.774 Z-1.000 F139.800
G1 X-24.100 Y-5.628 Z-1.000 F139.800
G1 X-24.100 Y-2.428 Z-1.000 F139.800
G1 X-24.100 Y-2.428 Z-1.000 F139.800
G1 X-24.246 Y-2.282 Z-1.000 F139.800
G1 X-24.100 Y-2.428 Z-1.000 F139.800
G1 X-23.900 Y-2.428 Z-1.000 F139.800
G1 X-23.900 Y-2.428 Z-1.000 F139.800
G1 X-23.754 Y-2.282 Z-1.000 F139.800
G1 X-23.900 Y-2.428 Z-1.000 F139.800
G1 X-23.900 Y-2.428 Z-1.333 F60.000
G1 X-23.900 Y-5.628 Z-1.333 F139.800
G1 X-23.754 Y-5.774 Z-1.333 F139.800
G1 X-23.900 Y-5.628 Z-1.333 F139.800
G1 X-24.100 Y-5.628 Z-1.333 F139.800
G1 X-24.100 Y-5.628 Z-1.333 F139.800
G1 X-24.246 Y-5.774 Z-1.333 F139.800
G1 X-24.100 Y-5.628 Z-1.333 F139.800
G1 X-24.100 Y-2.428 Z-1.333 F139.800
G1 X-24.100 Y-2.428 Z-1.333 F139.800
G1 X-24.246 Y-2.282 Z-1.333 F139.800
G1 X-24.100 Y-2.428 Z-1.333 F139.800
G1 X-23.900 Y-2.428 Z-1.333 F139.800
G1 X-23.900 Y-2.428 Z-1.333 F139.800
G1 X-23.754 Y-2.282 Z-1.333 F139.800
G1 X-23.900 Y-2.428 Z-1.333 F139.800
G0 Z6.000
G0 X-23.000 Y-2.428 Z6.000
G0 X-23.000 Y-2.428 Z1.000
G1 X-23.000 Y-2.428 Z-1.333 F60.000
G1 X-23.000 Y-6.528 Z-1.333 F139.800
G1 X-22.854 Y-6.674 Z-1.333 F139.800
G1 X-23.000 Y-6.528 Z-1.333 F139.800
G1 X-25.000 Y-6.528 Z-1.333 F139.800
G1 X-25.000 Y-6.528 Z-1.333 F139.800
G1 X-25.146 Y-6.674 Z-1.333 F139.800
G1 X-25.000 Y-6.528 Z-1.333 F139.800
G1 X-25.000 Y-1.528 Z-1.333 F139.800
G1 X-25.000 Y-1.528 Z-1.333 F139.800
G1 X-25.146 Y-1.382 Z-1.333 F139.800
G1 X-25.000 Y-1.528 Z-1.333 F139.800
G1 X-23.000 Y-1.528 Z-1.333 F139.800
G1 X-23.000 Y-1.528 Z-1.333 F139.800
G1 X-22.854 Y-1.382 Z-1.333 F139.800
G1 X-23.000 Y-1.528 Z-1.333 F139.800
G1 X-23.000 Y-2.428 Z-1.333 F139.800
G1 X-23.000 Y-2.428 Z-1.333 F139.800
G1 X-23.000 Y-2.428 Z-1.667 F60.000
G1 X-23.000 Y-6.528 Z-1.667 F139.800
G1 X-22.854 Y-6.674 Z-1.667 F139.800
G1 X-23.000 Y-6.528 Z-1.667 F139.800
G1 X-25.000 Y-6.528 Z-1.667 F139.800
G1 X-25.000 Y-6.528 Z-1.667 F139.800
G1 X-25.146 Y-6.674 Z-1.667 F139.800
G1 X-25.000 Y-6.528 Z-1.667 F139.800
G1 X-25.000 Y-1.528 Z-1.667 F139.800
G1 X-25.000 Y-1.528 Z-1.667 F139.800
G1 X-25.146 Y-1.382 Z-1.667 F139.800
G1 X-25.000 Y-1.528 Z-1.667 F139.800
G1 X-23.000 Y-1.528 Z-1.667 F139.800
G1 X-23.000 Y-1.528 Z-1.667 F139.800
G1 X-22.854 Y-1.382 Z-1.667 F139.800
G1 X-23.000 Y-1.528 Z-1.667 F139.800
G1 X-23.000 Y-2.428 Z-1.667 F139.800
G1 X-23.000 Y-2.428 Z-1.667 F139.800
G0 Z6.000
G0 X-23.900 Y-2.428 Z6.000
G0 X-23.900 Y-2.428 Z1.000
G1 X-23.900 Y-2.428 Z-1.667 F60.000
G1 X-23.900 Y-5.628 Z-1.667 F139.800
G1 X-23.754 Y-5.774 Z-1.667 F139.800
G1 X-23.900 Y-5.628 Z-1.667 F139.800
G1 X-24.100 Y-5.628 Z-1.667 F139.800
G1 X-24.100 Y-5.628 Z-1.667 F139.800
G1 X-24.246 Y-5.774 Z-1.667 F139.800
G1 X-24.100 Y-5.628 Z-1.667 F139.800
G1 X-24.100 Y-2.428 Z-1.667 F139.800
G1 X-24.100 Y-2.428 Z-1.667 F139.800
G1 X-24.246 Y-2.282 Z-1.667 F139.800
G1 X-24.100 Y-2.428 Z-1.667 F139.800
G1 X-23.900 Y-2.428 Z-1.667 F139.800
G1 X-23.900 Y-2.428 Z-1.667 F139.800
G1 X-23.754 Y-2.282 Z-1.667 F139.800
G1 X-23.900 Y-2.428 Z-1.667 F139.800
G1 X-23.900 Y-2.428 Z-2.000 F60.000
G1 X-23.900 Y-5.628 Z-2.000 F139.800
G1 X-23.754 Y-5.774 Z-2.000 F139.800
G1 X-23.900 Y-5.628 Z-2.000 F139.800
G1 X-24.100 Y-5.628 Z-2.000 F139.800
G1 X-24.100 Y-5.628 Z-2.000 F139.800
G1 X-24.246 Y-5.774 Z-2.000 F139.800
G1 X-24.100 Y-5.628 Z-2.000 F139.800
G1 X-24.100 Y-2.428 Z-2.000 F139.800
G1 X-24.100 Y-2.428 Z-2.000 F139.800
G1 X-24.246 Y-2.282 Z-2.000 F139.800
G1 X-24.100 Y-2.428 Z-2.000 F139.800
G1 X-23.900 Y-2.428 Z-2.000 F139.800
G1 X-23.900 Y-2.428 Z-2.000 F139.800
G1 X-23.754 Y-2.282 Z-2.000 F139.800
G1 X-23.900 Y-2.428 Z-2.000 F139.800
G0 Z6.000
G0 X-23.000 Y-2.428 Z6.000
G0 X-23.000 Y-2.428 Z1.000
G1 X-23.000 Y-2.428 Z-2.000 F60.000
G1 X-23.000 Y-6.528 Z-2.000 F139.800
G1 X-22.854 Y-6.674 Z-2.000 F139.800
G1 X-23.000 Y-6.528 Z-2.000 F139.800
G1 X-25.000 Y-6.528 Z-2.000 F139.800
G1 X-25.000 Y-6.528 Z-2.000 F139.800
G1 X-25.146 Y-6.674 Z-2.000 F139.800
G1 X-25.000 Y-6.528 Z-2.000 F139.800
G1 X-25.000 Y-1.528 Z-2.000 F139.800
G1 X-25.000 Y-1.528 Z-2.000 F139.800
G1 X-25.146 Y-1.382 Z-2.000 F139.800
G1 X-25.000 Y-1.528 Z-2.000 F139.800
G1 X-23.000 Y-1.528 Z-2.000 F139.800
G1 X-23.000 Y-1.528 Z-2.000 F139.800
G1 X-22.854 Y-1.382 Z-2.000 F139.800
G1 X-23.000 Y-1.528 Z-2.000 F139.800
G1 X-23.000 Y-2.428 Z-2.000 F139.800
G1 X-23.000 Y-2.428 Z-2.000 F139.800
G1 X-23.000 Y-2.428 Z-2.000 F60.000
G1 X-23.000 Y-6.528 Z-2.000 F139.800
G1 X-22.854 Y-6.674 Z-2.000 F139.800
G1 X-23.000 Y-6.528 Z-2.000 F139.800
G1 X-25.000 Y-6.528 Z-2.000 F139.800
G1 X-25.000 Y-6.528 Z-2.000 F139.800
G1 X-25.146 Y-6.674 Z-2.000 F139.800
G1 X-25.000 Y-6.528 Z-2.000 F139.800
G1 X-25.000 Y-1.528 Z-2.000 F139.800
G1 X-25.000 Y-1.528 Z-2.000 F139.800
G1 X-25.146 Y-1.382 Z-2.000 F139.800
G1 X-25.000 Y-1.528 Z-2.000 F139.800
G1 X-23.000 Y-1.528 Z-2.000 F139.800
G1 X-23.000 Y-1.528 Z-2.000 F139.800
G1 X-22.854 Y-1.382 Z-2.000 F139.800
G1 X-23.000 Y-1.528 Z-2.000 F139.800
G1 X-23.000 Y-2.428 Z-2.000 F139.800
G1 X-23.000 Y-2.428 Z-2.000 F139.800
G0 Z6.000
G0 X-23.900 Y-2.428 Z6.000
G0 X-23.900 Y-2.428 Z1.000
G1 X-23.900 Y-2.428 Z-2.000 F60.000
G1 X-23.900 Y-5.628 Z-2.000 F139.800
G1 X-23.754 Y-5.774 Z-2.000 F139.800
G1 X-23.900 Y-5.628 Z-2.000 F139.800
G1 X-24.100 Y-5.628 Z-2.000 F139.800
G1 X-24.100 Y-5.628 Z-2.000 F139.800
G1 X-24.246 Y-5.774 Z-2.000 F139.800
G1 X-24.100 Y-5.628 Z-2.000 F139.800
G1 X-24.100 Y-2.428 Z-2.000 F139.800
G1 X-24.100 Y-2.428 Z-2.000 F139.800
G1 X-24.246 Y-2.282 Z-2.000 F139.800
G1 X-24.100 Y-2.428 Z-2.000 F139.800
G1 X-23.900 Y-2.428 Z-2.000 F139.800
G1 X-23.900 Y-2.428 Z-2.000 F139.800
G1 X-23.754 Y-2.282 Z-2.000 F139.800
G1 X-23.900 Y-2.428 Z-2.000 F139.800
G0 Z6.000
G0 Z6.000
G0 X23.000 Y-2.428
G0 X23.000 Y-2.428 Z1.000
G1 X23.000 Y-2.428 Z-0.333 F60.000
G1 X23.000 Y-1.528 Z-0.333 F139.800
G1 X22.854 Y-1.382 Z-0.333 F139.800
G1 X23.000 Y-1.528 Z-0.333 F139.800
G1 X25.000 Y-1.528 Z-0.333 F139.800
G1 X25.000 Y-1.528 Z-0.333 F139.800
G1 X25.146 Y-1.382 Z-0.333 F139.800
G1 X25.000 Y-1.528 Z-0.333 F139.800
G1 X25.000 Y-6.528 Z-0.333 F139.800
G1 X25.000 Y-6.528 Z-0.333 F139.800
G1 X25.146 Y-6.674 Z-0.333 F139.800
G1 X25.000 Y-6.528 Z-0.333 F139.800
G1 X23.000 Y-6.528 Z-0.333 F139.800
G1 X23.000 Y-6.528 Z-0.333 F139.800
G1 X22.854 Y-6.674 Z-0.333 F139.800
G1 X23.000 Y-6.528 Z-0.333 F139.800
G1 X23.000 Y-2.428 Z-0.333 F139.800
G0 Z6.000
G0 X23.900 Y-2.428 Z6.000
G0 X23.900 Y-2.428 Z1.000
G1 X23.900 Y-2.428 Z-0.333 F60.000
G1 X24.100 Y-2.428 Z-0.333 F139.800
G1 X24.246 Y-2.282 Z-0.333 F139.800
G1 X24.100 Y-2.428 Z-0.333 F139.800
G1 X24.100 Y-5.628 Z-0.333 F139.800
G1 X24.100 Y-5.628 Z-0.333 F139.800
G1 X24.246 Y-5.774 Z-0.333 F139.800
G1 X24.100 Y-5.628 Z-0.333 F139.800
G1 X23.900 Y-5.628 Z-0.333 F139.800
G1 X23.900 Y-5.628 Z-0.333 F139.800
G1 X23.754 Y-5.774 Z-0.333 F139.800
G1 X23.900 Y-5.628 Z-0.333 F139.800
G1 X23.900 Y-2.428 Z-0.333 F139.800
G1 X23.900 Y-2.428 Z-0.333 F139.800
G1 X23.754 Y-2.282 Z-0.333 F139.800
G1 X23.900 Y-2.428 Z-0.333 F139.800
G1 X23.900 Y-2.428 Z-0.667 F60.000
G1 X24.100 Y-2.428 Z-0.667 F139.800
G1 X24.246 Y-2.282 Z-0.667 F139.800
G1 X24.100 Y-2.428 Z-0.667 F139.800
G1 X24.100 Y-5.628 Z-0.667 F139.800
G1 X24.100 Y-5.628 Z-0.667 F139.800
G1 X24.246 Y-5.774 Z-0.667 F139.800
G1 X24.100 Y-5.628 Z-0.667 F139.800
G1 X23.900 Y-5.628 Z-0.667 F139.800
G1 X23.900 Y-5.628 Z-0.667 F139.800
G1 X23.754 Y-5.774 Z-0.667 F139.800
G1 X23.900 Y-5.628 Z-0.667 F139.800
G1 X23.900 Y-2.428 Z-0.667 F139.800
G1 X23.900 Y-2.428 Z-0.667 F139.800
G1 X23.754 Y-2.282 Z-0.667 F139.800
G1 X23.900 Y-2.428 Z-0.667 F139.800
G0 Z6.000
G0 X23.000 Y-2.428 Z6.000
G0 X23.000 Y-2.428 Z1.000
G1 X23.000 Y-2.428 Z-0.667 F60.000
G1 X23.000 Y-1.528 Z-0.667 F139.800
G1 X22.854 Y-1.382 Z-0.667 F139.800
G1 X23.000 Y-1.528 Z-0.667 F139.800
G1 X25.000 Y-1.528 Z-0.667 F139.800
G1 X25.000 Y-1.528 Z-0.667 F139.800
G1 X25.146 Y-1.382 Z-0.667 F139.800
G1 X25.000 Y-1.528 Z-0.667 F139.800
G1 X25.000 Y-6.528 Z-0.667 F139.800
G1 X25.000 Y-6.528 Z-0.667 F139.800
G1 X25.146 Y-6.674 Z-0.667 F139.800
G1 X25.000 Y-6.528 Z-0.667 F139.800
G1 X23.000 Y-6.528 Z-0.667 F139.800
G1 X23.000 Y-6.528 Z-0.667 F139.800
G1 X22.854 Y-6.674 Z-0.667 F139.800
G1 X23.000 Y-6.528 Z-0.667 F139.800
G1 X23.000 Y-2.428 Z-0.667 F139.800
G1 X23.000 Y-2.428 Z-0.667 F139.800
G1 X23.000 Y-2.428 Z-1.000 F60.000
G1 X23.000 Y-1.528 Z-1.000 F139.800
G1 X22.854 Y-1.382 Z-1.000 F139.800
G1 X23.000 Y-1.528 Z-1.000 F139.800
G1 X25.000 Y-1.528 Z-1.000 F139.800
G1 X25.000 Y-1.528 Z-1.000 F139.800
G1 X25.146 Y-1.382 Z-1.000 F139.800
G1 X25.000 Y-1.528 Z-1.000 F139.800
G1 X25.000 Y-6.528 Z-1.000 F139.800
G1 X25.000 Y-6.528 Z-1.000 F139.800
G1 X25.146 Y-6.674 Z-1.000 F139.800
G1 X25.000 Y-6.528 Z-1.000 F139.800
G1 X23.000 Y-6.528 Z-1.000 F139.800
G1 X23.000 Y-6.528 Z-1.000 F139.800
G1 X22.854 Y-6.674 Z-1.000 F139.800
G1 X23.000 Y-6.528 Z-1.000 F139.800
G1 X23.000 Y-2.428 Z-1.000 F139.800
G1 X23.000 Y-2.428 Z-1.000 F139.800
G0 Z6.000
G0 X23.900 Z6.000
G0 X23.900 Z1.000
G1 X23.900 Y-2.428 Z-1.000 F60.000
G1 X24.100 Y-2.428 Z-1.000 F139.800
G1 X24.246 Y-2.282 Z-1.000 F139.800
G1 X24.100 Y-2.428 Z-1.000 F139.800
G1 X24.100 Y-5.628 Z-1.000 F139.800
G1 X24.100 Y-5.628 Z-1.000 F139.800
G1 X24.246 Y-5.774 Z-1.000 F139.800
G1 X24.100 Y-5.628 Z-1.000 F139.800
G1 X23.900 Y-5.628 Z-1.000 F139.800
G1 X23.900 Y-5.628 Z-1.000 F139.800
G1 X23.754 Y-5.774 Z-1.000 F139.800
G1 X23.900 Y-5.628 Z-1.000 F139.800
G1 X23.900 Y-2.428 Z-1.000 F139.800
G1 X23.900 Y-2.428 Z-1.000 F139.800
G1 X23.754 Y-2.282 Z-1.000 F139.800
G1 X23.900 Y-2.428 Z-1.000 F139.800
G1 X23.900 Y-2.428 Z-1.333 F60.000
G1 X24.100 Y-2.428 Z-1.333 F139.800
G1 X24.246 Y-2.282 Z-1.333 F139.800
G1 X24.100 Y-2.428 Z-1.333 F139.800
G1 X24.100 Y-5.628 Z-1.333 F139.800
G1 X24.100 Y-5.628 Z-1.333 F139.800
G1 X24.246 Y-5.774 Z-1.333 F139.800
G1 X24.100 Y-5.628 Z-1.333 F139.800
G1 X23.900 Y-5.628 Z-1.333 F139.800
G1 X23.900 Y-5.628 Z-1.333 F139.800
G1 X23.754 Y-5.774 Z-1.333 F139.800
G1 X23.900 Y-5.628 Z-1.333 F139.800
G1 X23.900 Y-2.428 Z-1.333 F139.800
G1 X23.900 Y-2.428 Z-1.333 F139.800
G1 X23.754 Y-2.282 Z-1.333 F139.800
G1 X23.900 Y-2.428 Z-1.333 F139.800
G0 Z6.000
G0 X23.000 Y-2.428 Z6.000
G0 X23.000 Y-2.428 Z1.000
G1 X23.000 Y-2.428 Z-1.333 F60.000
G1 X23.000 Y-1.528 Z-1.333 F139.800
G1 X22.854 Y-1.382 Z-1.333 F139.800
G1 X23.000 Y-1.528 Z-1.333 F139.800
G1 X25.000 Y-1.528 Z-1.333 F139.800
G1 X25.000 Y-1.528 Z-1.333 F139.800
G1 X25.146 Y-1.382 Z-1.333 F139.800
G1 X25.000 Y-1.528 Z-1.333 F139.800
G1 X25.000 Y-6.528 Z-1.333 F139.800
G1 X25.000 Y-6.528 Z-1.333 F139.800
G1 X25.146 Y-6.674 Z-1.333 F139.800
G1 X25.000 Y-6.528 Z-1.333 F139.800
G1 X23.000 Y-6.528 Z-1.333 F139.800
G1 X23.000 Y-6.528 Z-1.333 F139.800
G1 X22.854 Y-6.674 Z-1.333 F139.800
G1 X23.000 Y-6.528 Z-1.333 F139.800
G1 X23.000 Y-2.428 Z-1.333 F139.800
G1 X23.000 Y-2.428 Z-1.333 F139.800
G1 X23.000 Y-2.428 Z-1.667 F60.000
G1 X23.000 Y-1.528 Z-1.667 F139.800
G1 X22.854 Y-1.382 Z-1.667 F139.800
G1 X23.000 Y-1.528 Z-1.667 F139.800
G1 X25.000 Y-1.528 Z-1.667 F139.800
G1 X25.000 Y-1.528 Z-1.667 F139.800
G1 X25.146 Y-1.382 Z-1.667 F139.800
G1 X25.000 Y-1.528 Z-1.667 F139.800
G1 X25.000 Y-6.528 Z-1.667 F139.800
G1 X25.000 Y-6.528 Z-1.667 F139.800
G1 X25.146 Y-6.674 Z-1.667 F139.800
G1 X25.000 Y-6.528 Z-1.667 F139.800
G1 X23.000 Y-6.528 Z-1.667 F139.800
G1 X23.000 Y-6.528 Z-1.667 F139.800
G1 X22.854 Y-6.674 Z-1.667 F139.800
G1 X23.000 Y-6.528 Z-1.667 F139.800
G1 X23.000 Y-2.428 Z-1.667 F139.800
G1 X23.000 Y-2.428 Z-1.667 F139.800
G0 Z6.000
G0 X23.900 Y-2.428 Z6.000
G0 X23.900 Y-2.428 Z1.000
G1 X23.900 Y-2.428 Z-1.667 F60.000
G1 X24.100 Y-2.428 Z-1.667 F139.800
G1 X24.246 Y-2.282 Z-1.667 F139.800
G1 X24.100 Y-2.428 Z-1.667 F139.800
G1 X24.100 Y-5.628 Z-1.667 F139.800
G1 X24.100 Y-5.628 Z-1.667 F139.800
G1 X24.246 Y-5.774 Z-1.667 F139.800
G1 X24.100 Y-5.628 Z-1.667 F139.800
G1 X23.900 Y-5.628 Z-1.667 F139.800
G1 X23.900 Y-5.628 Z-1.667 F139.800
G1 X23.754 Y-5.774 Z-1.667 F139.800
G1 X23.900 Y-5.628 Z-1.667 F139.800
G1 X23.900 Y-2.428 Z-1.667 F139.800
G1 X23.900 Y-2.428 Z-1.667 F139.800
G1 X23.754 Y-2.282 Z-1.667 F139.800
G1 X23.900 Y-2.428 Z-1.667 F139.800
G1 X23.900 Y-2.428 Z-2.000 F60.000
G1 X24.100 Y-2.428 Z-2.000 F139.800
G1 X24.246 Y-2.282 Z-2.000 F139.800
G1 X24.100 Y-2.428 Z-2.000 F139.800
G1 X24.100 Y-5.628 Z-2.000 F139.800
G1 X24.100 Y-5.628 Z-2.000 F139.800
G1 X24.246 Y-5.774 Z-2.000 F139.800
G1 X24.100 Y-5.628 Z-2.000 F139.800
G1 X23.900 Y-5.628 Z-2.000 F139.800
G1 X23.900 Y-5.628 Z-2.000 F139.800
G1 X23.754 Y-5.774 Z-2.000 F139.800
G1 X23.900 Y-5.628 Z-2.000 F139.800
G1 X23.900 Y-2.428 Z-2.000 F139.800
G1 X23.900 Y-2.428 Z-2.000 F139.800
G1 X23.754 Y-2.282 Z-2.000 F139.800
G1 X23.900 Y-2.428 Z-2.000 F139.800
G0 Z6.000
G0 X23.000 Y-2.428 Z6.000
G0 X23.000 Y-2.428 Z1.000
G1 X23.000 Y-2.428 Z-2.000 F60.000
G1 X23.000 Y-1.528 Z-2.000 F139.800
G1 X22.854 Y-1.382 Z-2.000 F139.800
G1 X23.000 Y-1.528 Z-2.000 F139.800
G1 X25.000 Y-1.528 Z-2.000 F139.800
G1 X25.000 Y-1.528 Z-2.000 F139.800
G1 X25.146 Y-1.382 Z-2.000 F139.800
G1 X25.000 Y-1.528 Z-2.000 F139.800
G1 X25.000 Y-6.528 Z-2.000 F139.800
G1 X25.000 Y-6.528 Z-2.000 F139.800
G1 X25.146 Y-6.674 Z-2.000 F139.800
G1 X25.000 Y-6.528 Z-2.000 F139.800
G1 X23.000 Y-6.528 Z-2.000 F139.800
G1 X23.000 Y-6.528 Z-2.000 F139.800
G1 X22.854 Y-6.674 Z-2.000 F139.800
G1 X23.000 Y-6.528 Z-2.000 F139.800
G1 X23.000 Y-2.428 Z-2.000 F139.800
G1 X23.000 Y-2.428 Z-2.000 F60.000
G1 X23.000 Y-1.528 Z-2.000 F139.800
G1 X22.854 Y-1.382 Z-2.000 F139.800
G1 X23.000 Y-1.528 Z-2.000 F139.800
G1 X25.000 Y-1.528 Z-2.000 F139.800
G1 X25.000 Y-1.528 Z-2.000 F139.800
G1 X25.146 Y-1.382 Z-2.000 F139.800
G1 X25.000 Y-1.528 Z-2.000 F139.800
G1 X25.000 Y-6.528 Z-2.000 F139.800
G1 X25.000 Y-6.528 Z-2.000 F139.800
G1 X25.146 Y-6.674 Z-2.000 F139.800
G1 X25.000 Y-6.528 Z-2.000 F139.800
G1 X23.000 Y-6.528 Z-2.000 F139.800
G1 X23.000 Y-6.528 Z-2.000 F139.800
G1 X22.854 Y-6.674 Z-2.000 F139.800
G1 X23.000 Y-6.528 Z-2.000 F139.800
G1 X23.000 Y-2.428 Z-2.000 F139.800
G0 Z6.000
G0 X23.900 Y-2.428 Z6.000
G0 X23.900 Y-2.428 Z1.000
G1 X23.900 Y-2.428 Z-2.000 F60.000
G1 X24.100 Y-2.428 Z-2.000 F139.800
G1 X24.246 Y-2.282 Z-2.000 F139.800
G1 X24.100 Y-2.428 Z-2.000 F139.800
G1 X24.100 Y-5.628 Z-2.000 F139.800
G1 X24.100 Y-5.628 Z-2.000 F139.800
G1 X24.246 Y-5.774 Z-2.000 F139.800
G1 X24.100 Y-5.628 Z-2.000 F139.800
G1 X23.900 Y-5.628 Z-2.000 F139.800
G1 X23.900 Y-5.628 Z-2.000 F139.800
G1 X23.754 Y-5.774 Z-2.000 F139.800
G1 X23.900 Y-5.628 Z-2.000 F139.800
G1 X23.900 Y-2.428 Z-2.000 F139.800
G1 X23.900 Y-2.428 Z-2.000 F139.800
G1 X23.754 Y-2.282 Z-2.000 F139.800
G1 X23.900 Y-2.428 Z-2.000 F139.800
G0 Z6.000
G0 Z6.000
G0 X7.000 Y-62.528
G0 X7.000 Y-62.528 Z1.000
G1 X7.000 Y-62.528 Z-0.333 F60.000
G1 X7.000 Y-64.528 Z-0.333 F139.800
G1 X7.146 Y-64.674 Z-0.333 F139.800
G1 X7.000 Y-64.528 Z-0.333 F139.800
G1 X-7.000 Y-64.528 Z-0.333 F139.800
G1 X-7.000 Y-64.528 Z-0.333 F139.800
G1 X-7.146 Y-64.674 Z-0.333 F139.800
G1 X-7.000 Y-64.528 Z-0.333 F139.800
G1 X-7.000 Y-62.528 Z-0.333 F139.800
G1 X-7.000 Y-62.528 Z-0.333 F139.800
G1 X-7.146 Y-62.382 Z-0.333 F139.800
G1 X-7.000 Y-62.528 Z-0.333 F139.800
G1 X7.000 Y-62.528 Z-0.333 F139.800
G1 X7.000 Y-62.528 Z-0.333 F139.800
G1 X7.146 Y-62.382 Z-0.333 F139.800
G1 X7.000 Y-62.528 Z-0.333 F139.800
G0 Z6.000
G0 X6.100 Y-63.428 Z6.000
G0 X6.100 Y-63.428 Z1.000
G1 X6.100 Y-63.428 Z-0.333 F60.000
G1 X6.100 Y-63.628 Z-0.333 F139.800
G1 X6.246 Y-63.774 Z-0.333 F139.800
G1 X6.100 Y-63.628 Z-0.333 F139.800
G1 X-6.100 Y-63.628 Z-0.333 F139.800
G1 X-6.100 Y-63.628 Z-0.333 F139.800
G1 X-6.246 Y-63.774 Z-0.333 F139.800
G1 X-6.100 Y-63.628 Z-0.333 F139.800
G1 X-6.100 Y-63.428 Z-0.333 F139.800
G1 X-6.100 Y-63.428 Z-0.333 F139.800
G1 X-6.246 Y-63.282 Z-0.333 F139.800
G1 X-6.100 Y-63.428 Z-0.333 F139.800
G1 X6.100 Y-63.428 Z-0.333 F139.800
G1 X6.100 Y-63.428 Z-0.333 F139.800
G1 X6.246 Y-63.282 Z-0.333 F139.800
G1 X6.100 Y-63.428 Z-0.333 F139.800
G1 X6.100 Y-63.428 Z-0.667 F60.000
G1 X6.100 Y-63.628 Z-0.667 F139.800
G1 X6.246 Y-63.774 Z-0.667 F139.800
G1 X6.100 Y-63.628 Z-0.667 F139.800
G1 X-6.100 Y-63.628 Z-0.667 F139.800
G1 X-6.100 Y-63.628 Z-0.667 F139.800
G1 X-6.246 Y-63.774 Z-0.667 F139.800
G1 X-6.100 Y-63.628 Z-0.667 F139.800
G1 X-6.100 Y-63.428 Z-0.667 F139.800
G1 X-6.100 Y-63.428 Z-0.667 F139.800
G1 X-6.246 Y-63.282 Z-0.667 F139.800
G1 X-6.100 Y-63.428 Z-0.667 F139.800
G1 X6.100 Y-63.428 Z-0.667 F139.800
G1 X6.100 Y-63.428 Z-0.667 F139.800
G1 X6.246 Y-63.282 Z-0.667 F139.800
G1 X6.100 Y-63.428 Z-0.667 F139.800
G0 Z6.000
G0 X7.000 Y-63.428 Z6.000
G0 X7.000 Y-63.428 Z1.000
G1 X7.000 Y-63.428 Z-0.667 F60.000
G1 X7.000 Y-64.528 Z-0.667 F139.800
G1 X7.146 Y-64.674 Z-0.667 F139.800
G1 X7.000 Y-64.528 Z-0.667 F139.800
G1 X-7.000 Y-64.528 Z-0.667 F139.800
G1 X-7.000 Y-64.528 Z-0.667 F139.800
G1 X-7.146 Y-64.674 Z-0.667 F139.800
G1 X-7.000 Y-64.528 Z-0.667 F139.800
G1 X-7.000 Y-62.528 Z-0.667 F139.800
G1 X-7.000 Y-62.528 Z-0.667 F139.800
G1 X-7.146 Y-62.382 Z-0.667 F139.800
G1 X-7.000 Y-62.528 Z-0.667 F139.800
G1 X7.000 Y-62.528 Z-0.667 F139.800
G1 X7.000 Y-62.528 Z-0.667 F139.800
G1 X7.146 Y-62.382 Z-0.667 F139.800
G1 X7.000 Y-62.528 Z-0.667 F139.800
G1 X7.000 Y-63.428 Z-0.667 F139.800
G1 X7.000 Y-63.428 Z-0.667 F139.800
G1 X7.000 Y-63.428 Z-1.000 F60.000
G1 X7.000 Y-64.528 Z-1.000 F139.800
G1 X7.146 Y-64.674 Z-1.000 F139.800
G1 X7.000 Y-64.528 Z-1.000 F139.800
G1 X-7.000 Y-64.528 Z-1.000 F139.800
G1 X-7.000 Y-64.528 Z-1.000 F139.800
G1 X-7.146 Y-64.674 Z-1.000 F139.800
G1 X-7.000 Y-64.528 Z-1.000 F139.800
G1 X-7.000 Y-62.528 Z-1.000 F139.800
G1 X-7.000 Y-62.528 Z-1.000 F139.800
G1 X-7.146 Y-62.382 Z-1.000 F139.800
G1 X-7.000 Y-62.528 Z-1.000 F139.800
G1 X7.000 Y-62.528 Z-1.000 F139.800
G1 X7.000 Y-62.528 Z-1.000 F139.800
G1 X7.146 Y-62.382 Z-1.000 F139.800
G1 X7.000 Y-62.528 Z-1.000 F139.800
G1 X7.000 Y-63.428 Z-1.000 F139.800
G1 X7.000 Y-63.428 Z-1.000 F139.800
G0 Z6.000
G0 X6.100 Y-63.428 Z6.000
G0 X6.100 Y-63.428 Z1.000
G1 X6.100 Y-63.428 Z-1.000 F60.000
G1 X6.100 Y-63.628 Z-1.000 F139.800
G1 X6.246 Y-63.774 Z-1.000 F139.800
G1 X6.100 Y-63.628 Z-1.000 F139.800
G1 X-6.100 Y-63.628 Z-1.000 F139.800
G1 X-6.100 Y-63.628 Z-1.000 F139.800
G1 X-6.246 Y-63.774 Z-1.000 F139.800
G1 X-6.100 Y-63.628 Z-1.000 F139.800
G1 X-6.100 Y-63.428 Z-1.000 F139.800
G1 X-6.100 Y-63.428 Z-1.000 F139.800
G1 X-6.246 Y-63.282 Z-1.000 F139.800
G1 X-6.100 Y-63.428 Z-1.000 F139.800
G1 X6.100 Y-63.428 Z-1.000 F139.800
G1 X6.100 Y-63.428 Z-1.000 F139.800
G1 X6.246 Y-63.282 Z-1.000 F139.800
G1 X6.100 Y-63.428 Z-1.000 F139.800
G1 X6.100 Y-63.428 Z-1.333 F60.000
G1 X6.100 Y-63.628 Z-1.333 F139.800
G1 X6.246 Y-63.774 Z-1.333 F139.800
G1 X6.100 Y-63.628 Z-1.333 F139.800
G1 X-6.100 Y-63.628 Z-1.333 F139.800
G1 X-6.100 Y-63.628 Z-1.333 F139.800
G1 X-6.246 Y-63.774 Z-1.333 F139.800
G1 X-6.100 Y-63.628 Z-1.333 F139.800
G1 X-6.100 Y-63.428 Z-1.333 F139.800
G1 X-6.100 Y-63.428 Z-1.333 F139.800
G1 X-6.246 Y-63.282 Z-1.333 F139.800
G1 X-6.100 Y-63.428 Z-1.333 F139.800
G1 X6.100 Y-63.428 Z-1.333 F139.800
G1 X6.100 Y-63.428 Z-1.333 F139.800
G1 X6.246 Y-63.282 Z-1.333 F139.800
G1 X6.100 Y-63.428 Z-1.333 F139.800
G0 Z6.000
G0 X7.000 Y-63.428 Z6.000
G0 X7.000 Y-63.428 Z1.000
G1 X7.000 Y-63.428 Z-1.333 F60.000
G1 X7.000 Y-64.528 Z-1.333 F139.800
G1 X7.146 Y-64.674 Z-1.333 F139.800
G1 X7.000 Y-64.528 Z-1.333 F139.800
G1 X-7.000 Y-64.528 Z-1.333 F139.800
G1 X-7.000 Y-64.528 Z-1.333 F139.800
G1 X-7.146 Y-64.674 Z-1.333 F139.800
G1 X-7.000 Y-64.528 Z-1.333 F139.800
G1 X-7.000 Y-62.528 Z-1.333 F139.800
G1 X-7.000 Y-62.528 Z-1.333 F139.800
G1 X-7.146 Y-62.382 Z-1.333 F139.800
G1 X-7.000 Y-62.528 Z-1.333 F139.800
G1 X7.000 Y-62.528 Z-1.333 F139.800
G1 X7.000 Y-62.528 Z-1.333 F139.800
G1 X7.146 Y-62.382 Z-1.333 F139.800
G1 X7.000 Y-62.528 Z-1.333 F139.800
G1 X7.000 Y-63.428 Z-1.333 F139.800
G1 X7.000 Y-63.428 Z-1.667 F60.000
G1 X7.000 Y-64.528 Z-1.667 F139.800
G1 X7.146 Y-64.674 Z-1.667 F139.800
G1 X7.000 Y-64.528 Z-1.667 F139.800
G1 X-7.000 Y-64.528 Z-1.667 F139.800
G1 X-7.000 Y-64.528 Z-1.667 F139.800
G1 X-7.146 Y-64.674 Z-1.667 F139.800
G1 X-7.000 Y-64.528 Z-1.667 F139.800
G1 X-7.000 Y-62.528 Z-1.667 F139.800
G1 X-7.000 Y-62.528 Z-1.667 F139.800
G1 X-7.146 Y-62.382 Z-1.667 F139.800
G1 X-7.000 Y-62.528 Z-1.667 F139.800
G1 X7.000 Y-62.528 Z-1.667 F139.800
G1 X7.000 Y-62.528 Z-1.667 F139.800
G1 X7.146 Y-62.382 Z-1.667 F139.800
G1 X7.000 Y-62.528 Z-1.667 F139.800
G1 X7.000 Y-63.428 Z-1.667 F139.800
G0 Z6.000
G0 X6.100 Y-63.428 Z6.000
G0 X6.100 Y-63.428 Z1.000
G1 X6.100 Y-63.428 Z-1.667 F60.000
G1 X6.100 Y-63.628 Z-1.667 F139.800
G1 X6.246 Y-63.774 Z-1.667 F139.800
G1 X6.100 Y-63.628 Z-1.667 F139.800
G1 X-6.100 Y-63.628 Z-1.667 F139.800
G1 X-6.100 Y-63.628 Z-1.667 F139.800
G1 X-6.246 Y-63.774 Z-1.667 F139.800
G1 X-6.100 Y-63.628 Z-1.667 F139.800
G1 X-6.100 Y-63.428 Z-1.667 F139.800
G1 X-6.100 Y-63.428 Z-1.667 F139.800
G1 X-6.246 Y-63.282 Z-1.667 F139.800
G1 X-6.100 Y-63.428 Z-1.667 F139.800
G1 X6.100 Y-63.428 Z-1.667 F139.800
G1 X6.100 Y-63.428 Z-1.667 F139.800
G1 X6.246 Y-63.282 Z-1.667 F139.800
G1 X6.100 Y-63.428 Z-1.667 F139.800
G1 X6.100 Y-63.428 Z-2.000 F60.000
G1 X6.100 Y-63.628 Z-2.000 F139.800
G1 X6.246 Y-63.774 Z-2.000 F139.800
G1 X6.100 Y-63.628 Z-2.000 F139.800
G1 X-6.100 Y-63.628 Z-2.000 F139.800
G1 X-6.100 Y-63.628 Z-2.000 F139.800
G1 X-6.246 Y-63.774 Z-2.000 F139.800
G1 X-6.100 Y-63.628 Z-2.000 F139.800
G1 X-6.100 Y-63.428 Z-2.000 F139.800
G1 X-6.100 Y-63.428 Z-2.000 F139.800
G1 X-6.246 Y-63.282 Z-2.000 F139.800
G1 X-6.100 Y-63.428 Z-2.000 F139.800
G1 X6.100 Y-63.428 Z-2.000 F139.800
G1 X6.100 Y-63.428 Z-2.000 F139.800
G1 X6.246 Y-63.282 Z-2.000 F139.800
G1 X6.100 Y-63.428 Z-2.000 F139.800
G0 Z6.000
G0 X7.000 Y-63.428 Z6.000
G0 X7.000 Y-63.428 Z1.000
G1 X7.000 Y-63.428 Z-2.000 F60.000
G1 X7.000 Y-64.528 Z-2.000 F139.800
G1 X7.146 Y-64.674 Z-2.000 F139.800
G1 X7.000 Y-64.528 Z-2.000 F139.800
G1 X-7.000 Y-64.528 Z-2.000 F139.800
G1 X-7.000 Y-64.528 Z-2.000 F139.800
G1 X-7.146 Y-64.674 Z-2.000 F139.800
G1 X-7.000 Y-64.528 Z-2.000 F139.800
G1 X-7.000 Y-62.528 Z-2.000 F139.800
G1 X-7.000 Y-62.528 Z-2.000 F139.800
G1 X-7.146 Y-62.382 Z-2.000 F139.800
G1 X-7.000 Y-62.528 Z-2.000 F139.800
G1 X7.000 Y-62.528 Z-2.000 F139.800
G1 X7.000 Y-62.528 Z-2.000 F139.800
G1 X7.146 Y-62.382 Z-2.000 F139.800
G1 X7.000 Y-62.528 Z-2.000 F139.800
G1 X7.000 Y-63.428 Z-2.000 F139.800
G1 X7.000 Y-63.428 Z-2.000 F60.000
G1 X7.000 Y-64.528 Z-2.000 F139.800
G1 X7.146 Y-64.674 Z-2.000 F139.800
G1 X7.000 Y-64.528 Z-2.000 F139.800
G1 X-7.000 Y-64.528 Z-2.000 F139.800
G1 X-7.000 Y-64.528 Z-2.000 F139.800
G1 X-7.146 Y-64.674 Z-2.000 F139.800
G1 X-7.000 Y-64.528 Z-2.000 F139.800
G1 X-7.000 Y-62.528 Z-2.000 F139.800
G1 X-7.000 Y-62.528 Z-2.000 F139.800
G1 X-7.146 Y-62.382 Z-2.000 F139.800
G1 X-7.000 Y-62.528 Z-2.000 F139.800
G1 X7.000 Y-62.528 Z-2.000 F139.800
G1 X7.000 Y-62.528 Z-2.000 F139.800
G1 X7.146 Y-62.382 Z-2.000 F139.800
G1 X7.000 Y-62.528 Z-2.000 F139.800
G1 X7.000 Y-63.428 Z-2.000 F139.800
G0 Z6.000
G0 X6.100 Y-63.428 Z6.000
G0 X6.100 Y-63.428 Z1.000
G1 X6.100 Y-63.428 Z-2.000 F60.000
G1 X6.100 Y-63.628 Z-2.000 F139.800
G1 X6.246 Y-63.774 Z-2.000 F139.800
G1 X6.100 Y-63.628 Z-2.000 F139.800
G1 X-6.100 Y-63.628 Z-2.000 F139.800
G1 X-6.100 Y-63.628 Z-2.000 F139.800
G1 X-6.246 Y-63.774 Z-2.000 F139.800
G1 X-6.100 Y-63.628 Z-2.000 F139.800
G1 X-6.100 Y-63.428 Z-2.000 F139.800
G1 X-6.100 Y-63.428 Z-2.000 F139.800
G1 X-6.246 Y-63.282 Z-2.000 F139.800
G1 X-6.100 Y-63.428 Z-2.000 F139.800
G1 X6.100 Y-63.428 Z-2.000 F139.800
G1 X6.100 Y-63.428 Z-2.000 F139.800
G1 X6.246 Y-63.282 Z-2.000 F139.800
G1 X6.100 Y-63.428 Z-2.000 F139.800
G0 Z6.000
G0 Z6.000
G0 X12.000 Y-70.528
G0 X12.000 Y-70.528 Z1.000
G1 X12.000 Y-70.528 Z-0.333 F60.000
G1 X14.000 Y-70.528 Z-0.333 F139.800
G1 X14.146 Y-70.382 Z-0.333 F139.800
G1 X14.000 Y-70.528 Z-0.333 F139.800
G1 X14.000 Y-75.528 Z-0.333 F139.800
G1 X14.000 Y-75.528 Z-0.333 F139.800
G1 X14.146 Y-75.674 Z-0.333 F139.800
G1 X14.000 Y-75.528 Z-0.333 F139.800
G1 X12.000 Y-75.528 Z-0.333 F139.800
G1 X12.000 Y-75.528 Z-0.333 F139.800
G1 X11.854 Y-75.674 Z-0.333 F139.800
G1 X12.000 Y-75.528 Z-0.333 F139.800
G1 X12.000 Y-70.528 Z-0.333 F139.800
G1 X12.000 Y-70.528 Z-0.333 F139.800
G1 X11.854 Y-70.382 Z-0.333 F139.800
G1 X12.000 Y-70.528 Z-0.333 F139.800
G0 Z6.000
G0 X12.900 Y-71.428 Z6.000
G0 X12.900 Y-71.428 Z1.000
G1 X12.900 Y-71.428 Z-0.333 F60.000
G1 X13.100 Y-71.428 Z-0.333 F139.800
G1 X13.246 Y-71.282 Z-0.333 F139.800
G1 X13.100 Y-71.428 Z-0.333 F139.800
G1 X13.100 Y-74.628 Z-0.333 F139.800
G1 X13.100 Y-74.628 Z-0.333 F139.800
G1 X13.246 Y-74.774 Z-0.333 F139.800
G1 X13.100 Y-74.628 Z-0.333 F139.800
G1 X12.900 Y-74.628 Z-0.333 F139.800
G1 X12.900 Y-74.628 Z-0.333 F139.800
G1 X12.754 Y-74.774 Z-0.333 F139.800
G1 X12.900 Y-74.628 Z-0.333 F139.800
G1 X12.900 Y-71.428 Z-0.333 F139.800
G1 X12.900 Y-71.428 Z-0.333 F139.800
G1 X12.754 Y-71.282 Z-0.333 F139.800
G1 X12.900 Y-71.428 Z-0.333 F139.800
G1 X12.900 Y-71.428 Z-0.667 F60.000
G1 X13.100 Y-71.428 Z-0.667 F139.800
G1 X13.246 Y-71.282 Z-0.667 F139.800
G1 X13.100 Y-71.428 Z-0.667 F139.800
G1 X13.100 Y-74.628 Z-0.667 F139.800
G1 X13.100 Y-74.628 Z-0.667 F139.800
G1 X13.246 Y-74.774 Z-0.667 F139.800
G1 X13.100 Y-74.628 Z-0.667 F139.800
G1 X12.900 Y-74.628 Z-0.667 F139.800
G1 X12.900 Y-74.628 Z-0.667 F139.800
G1 X12.754 Y-74.774 Z-0.667 F139.800
G1 X12.900 Y-74.628 Z-0.667 F139.800
G1 X12.900 Y-71.428 Z-0.667 F139.800
G1 X12.900 Y-71.428 Z-0.667 F139.800
G1 X12.754 Y-71.282 Z-0.667 F139.800
G1 X12.900 Y-71.428 Z-0.667 F139.800
G0 Z6.000
G0 X12.000 Y-71.428 Z6.000
G0 X12.000 Y-71.428 Z1.000
G1 X12.000 Y-71.428 Z-0.667 F60.000
G1 X12.000 Y-70.528 Z-0.667 F139.800
G1 X11.854 Y-70.382 Z-0.667 F139.800
G1 X12.000 Y-70.528 Z-0.667 F139.800
G1 X14.000 Y-70.528 Z-0.667 F139.800
G1 X14.000 Y-70.528 Z-0.667 F139.800
G1 X14.146 Y-70.382 Z-0.667 F139.800
G1 X14.000 Y-70.528 Z-0.667 F139.800
G1 X14.000 Y-75.528 Z-0.667 F139.800
G1 X14.000 Y-75.528 Z-0.667 F139.800
G1 X14.146 Y-75.674 Z-0.667 F139.800
G1 X14.000 Y-75.528 Z-0.667 F139.800
G1 X12.000 Y-75.528 Z-0.667 F139.800
G1 X12.000 Y-75.528 Z-0.667 F139.800
G1 X11.854 Y-75.674 Z-0.667 F139.800
G1 X12.000 Y-75.528 Z-0.667 F139.800
G1 X12.000 Y-71.428 Z-0.667 F139.800
G1 X12.000 Y-71.428 Z-0.667 F139.800
G1 X12.000 Y-71.428 Z-1.000 F60.000
G1 X12.000 Y-70.528 Z-1.000 F139.800
G1 X11.854 Y-70.382 Z-1.000 F139.800
G1 X12.000 Y-70.528 Z-1.000 F139.800
G1 X14.000 Y-70.528 Z-1.000 F139.800
G1 X14.000 Y-70.528 Z-1.000 F139.800
G1 X14.146 Y-70.382 Z-1.000 F139.800
G1 X14.000 Y-70.528 Z-1.000 F139.800
G1 X14.000 Y-75.528 Z-1.000 F139.800
G1 X14.000 Y-75.528 Z-1.000 F139.800
G1 X14.146 Y-75.674 Z-1.000 F139.800
G1 X14.000 Y-75.528 Z-1.000 F139.800
G1 X12.000 Y-75.528 Z-1.000 F139.800
G1 X12.000 Y-75.528 Z-1.000 F139.800
G1 X11.854 Y-75.674 Z-1.000 F139.800
G1 X12.000 Y-75.528 Z-1.000 F139.800
G1 X12.000 Y-71.428 Z-1.000 F139.800
G1 X12.000 Y-71.428 Z-1.000 F139.800
G0 Z6.000
G0 X12.900 Z6.000
G0 X12.900 Z1.000
G1 X12.900 Y-71.428 Z-1.000 F60.000
G1 X13.100 Y-71.428 Z-1.000 F139.800
G1 X13.246 Y-71.282 Z-1.000 F139.800
G1 X13.100 Y-71.428 Z-1.000 F139.800
G1 X13.100 Y-74.628 Z-1.000 F139.800
G1 X13.100 Y-74.628 Z-1.000 F139.800
G1 X13.246 Y-74.774 Z-1.000 F139.800
G1 X13.100 Y-74.628 Z-1.000 F139.800
G1 X12.900 Y-74.628 Z-1.000 F139.800
G1 X12.900 Y-74.628 Z-1.000 F139.800
G1 X12.754 Y-74.774 Z-1.000 F139.800
G1 X12.900 Y-74.628 Z-1.000 F139.800
G1 X12.900 Y-71.428 Z-1.000 F139.800
G1 X12.900 Y-71.428 Z-1.000 F139.800
G1 X12.754 Y-71.282 Z-1.000 F139.800
G1 X12.900 Y-71.428 Z-1.000 F139.800
G0 Z6.000
G0 Y-71.428 Z6.000
G0 Y-71.428 Z1.000
G1 X12.900 Y-71.428 Z-1.333 F60.000
G1 X13.100 Y-71.428 Z-1.333 F139.800
G1 X13.246 Y-71.282 Z-1.333 F139.800
G1 X13.100 Y-71.428 Z-1.333 F139.800
G1 X13.100 Y-74.628 Z-1.333 F139.800
G1 X13.100 Y-74.628 Z-1.333 F139.800
G1 X13.246 Y-74.774 Z-1.333 F139.800
G1 X13.100 Y-74.628 Z-1.333 F139.800
G1 X12.900 Y-74.628 Z-1.333 F139.800
G1 X12.900 Y-74.628 Z-1.333 F139.800
G1 X12.754 Y-74.774 Z-1.333 F139.800
G1 X12.900 Y-74.628 Z-1.333 F139.800
G1 X12.900 Y-71.428 Z-1.333 F139.800
G1 X12.900 Y-71.428 Z-1.333 F139.800
G1 X12.754 Y-71.282 Z-1.333 F139.800
G1 X12.900 Y-71.428 Z-1.333 F139.800
G0 Z6.000
G0 X12.000 Y-71.428 Z6.000
G0 X12.000 Y-71.428 Z1.000
G1 X12.000 Y-71.428 Z-1.333 F60.000
G1 X12.000 Y-70.528 Z-1.333 F139.800
G1 X11.854 Y-70.382 Z-1.333 F139.800
G1 X12.000 Y-70.528 Z-1.333 F139.800
G1 X14.000 Y-70.528 Z-1.333 F139.800
G1 X14.000 Y-70.528 Z-1.333 F139.800
G1 X14.146 Y-70.382 Z-1.333 F139.800
G1 X14.000 Y-70.528 Z-1.333 F139.800
G1 X14.000 Y-75.528 Z-1.333 F139.800
G1 X14.000 Y-75.528 Z-1.333 F139.800
G1 X14.146 Y-75.674 Z-1.333 F139.800
G1 X14.000 Y-75.528 Z-1.333 F139.800
G1 X12.000 Y-75.528 Z-1.333 F139.800
G1 X12.000 Y-75.528 Z-1.333 F139.800
G1 X11.854 Y-75.674 Z-1.333 F139.800
G1 X12.000 Y-75.528 Z-1.333 F139.800
G1 X12.000 Y-71.428 Z-1.333 F139.800
G1 X12.000 Y-71.428 Z-1.333 F139.800
G1 X12.000 Y-71.428 Z-1.667 F60.000
G1 X12.000 Y-70.528 Z-1.667 F139.800
G1 X11.854 Y-70.382 Z-1.667 F139.800
G1 X12.000 Y-70.528 Z-1.667 F139.800
G1 X14.000 Y-70.528 Z-1.667 F139.800
G1 X14.000 Y-70.528 Z-1.667 F139.800
G1 X14.146 Y-70.382 Z-1.667 F139.800
G1 X14.000 Y-70.528 Z-1.667 F139.800
G1 X14.000 Y-75.528 Z-1.667 F139.800
G1 X14.000 Y-75.528 Z-1.667 F139.800
G1 X14.146 Y-75.674 Z-1.667 F139.800
G1 X14.000 Y-75.528 Z-1.667 F139.800
G1 X12.000 Y-75.528 Z-1.667 F139.800
G1 X12.000 Y-75.528 Z-1.667 F139.800
G1 X11.854 Y-75.674 Z-1.667 F139.800
G1 X12.000 Y-75.528 Z-1.667 F139.800
G1 X12.000 Y-71.428 Z-1.667 F139.800
G1 X12.000 Y-71.428 Z-1.667 F139.800
G0 Z6.000
G0 X12.900 Y-71.428 Z6.000
G0 X12.900 Y-71.428 Z1.000
G1 X12.900 Y-71.428 Z-1.667 F60.000
G1 X13.100 Y-71.428 Z-1.667 F139.800
G1 X13.246 Y-71.282 Z-1.667 F139.800
G1 X13.100 Y-71.428 Z-1.667 F139.800
G1 X13.100 Y-74.628 Z-1.667 F139.800
G1 X13.100 Y-74.628 Z-1.667 F139.800
G1 X13.246 Y-74.774 Z-1.667 F139.800
G1 X13.100 Y-74.628 Z-1.667 F139.800
G1 X12.900 Y-74.628 Z-1.667 F139.800
G1 X12.900 Y-74.628 Z-1.667 F139.800
G1 X12.754 Y-74.774 Z-1.667 F139.800
G1 X12.900 Y-74.628 Z-1.667 F139.800
G1 X12.900 Y-71.428 Z-1.667 F139.800
G1 X12.900 Y-71.428 Z-1.667 F139.800
G1 X12.754 Y-71.282 Z-1.667 F139.800
G1 X12.900 Y-71.428 Z-1.667 F139.800
G1 X12.900 Y-71.428 Z-2.000 F60.000
G1 X13.100 Y-71.428 Z-2.000 F139.800
G1 X13.246 Y-71.282 Z-2.000 F139.800
G1 X13.100 Y-71.428 Z-2.000 F139.800
G1 X13.100 Y-74.628 Z-2.000 F139.800
G1 X13.100 Y-74.628 Z-2.000 F139.800
G1 X13.246 Y-74.774 Z-2.000 F139.800
G1 X13.100 Y-74.628 Z-2.000 F139.800
G1 X12.900 Y-74.628 Z-2.000 F139.800
G1 X12.900 Y-74.628 Z-2.000 F139.800
G1 X12.754 Y-74.774 Z-2.000 F139.800
G1 X12.900 Y-74.628 Z-2.000 F139.800
G1 X12.900 Y-71.428 Z-2.000 F139.800
G1 X12.900 Y-71.428 Z-2.000 F139.800
G1 X12.754 Y-71.282 Z-2.000 F139.800
G1 X12.900 Y-71.428 Z-2.000 F139.800
G0 Z6.000
G0 X12.000 Y-71.428 Z6.000
G0 X12.000 Y-71.428 Z1.000
G1 X12.000 Y-71.428 Z-2.000 F60.000
G1 X12.000 Y-70.528 Z-2.000 F139.800
G1 X11.854 Y-70.382 Z-2.000 F139.800
G1 X12.000 Y-70.528 Z-2.000 F139.800
G1 X14.000 Y-70.528 Z-2.000 F139.800
G1 X14.000 Y-70.528 Z-2.000 F139.800
G1 X14.146 Y-70.382 Z-2.000 F139.800
G1 X14.000 Y-70.528 Z-2.000 F139.800
G1 X14.000 Y-75.528 Z-2.000 F139.800
G1 X14.000 Y-75.528 Z-2.000 F139.800
G1 X14.146 Y-75.674 Z-2.000 F139.800
G1 X14.000 Y-75.528 Z-2.000 F139.800
G1 X12.000 Y-75.528 Z-2.000 F139.800
G1 X12.000 Y-75.528 Z-2.000 F139.800
G1 X11.854 Y-75.674 Z-2.000 F139.800
G1 X12.000 Y-75.528 Z-2.000 F139.800
G1 X12.000 Y-71.428 Z-2.000 F139.800
G1 X12.000 Y-71.428 Z-2.000 F60.000
G1 X12.000 Y-70.528 Z-2.000 F139.800
G1 X11.854 Y-70.382 Z-2.000 F139.800
G1 X12.000 Y-70.528 Z-2.000 F139.800
G1 X14.000 Y-70.528 Z-2.000 F139.800
G1 X14.000 Y-70.528 Z-2.000 F139.800
G1 X14.146 Y-70.382 Z-2.000 F139.800
G1 X14.000 Y-70.528 Z-2.000 F139.800
G1 X14.000 Y-75.528 Z-2.000 F139.800
G1 X14.000 Y-75.528 Z-2.000 F139.800
G1 X14.146 Y-75.674 Z-2.000 F139.800
G1 X14.000 Y-75.528 Z-2.000 F139.800
G1 X12.000 Y-75.528 Z-2.000 F139.800
G1 X12.000 Y-75.528 Z-2.000 F139.800
G1 X11.854 Y-75.674 Z-2.000 F139.800
G1 X12.000 Y-75.528 Z-2.000 F139.800
G1 X12.000 Y-71.428 Z-2.000 F139.800
G0 Z6.000
G0 X12.900 Y-71.428 Z6.000
G0 X12.900 Y-71.428 Z1.000
G1 X12.900 Y-71.428 Z-2.000 F60.000
G1 X13.100 Y-71.428 Z-2.000 F139.800
G1 X13.246 Y-71.282 Z-2.000 F139.800
G1 X13.100 Y-71.428 Z-2.000 F139.800
G1 X13.100 Y-74.628 Z-2.000 F139.800
G1 X13.100 Y-74.628 Z-2.000 F139.800
G1 X13.246 Y-74.774 Z-2.000 F139.800
G1 X13.100 Y-74.628 Z-2.000 F139.800
G1 X12.900 Y-74.628 Z-2.000 F139.800
G1 X12.900 Y-74.628 Z-2.000 F139.800
G1 X12.754 Y-74.774 Z-2.000 F139.800
G1 X12.900 Y-74.628 Z-2.000 F139.800
G1 X12.900 Y-71.428 Z-2.000 F139.800
G1 X12.900 Y-71.428 Z-2.000 F139.800
G1 X12.754 Y-71.282 Z-2.000 F139.800
G1 X12.900 Y-71.428 Z-2.000 F139.800
G0 Z6.000
G0 Z6.000
G0 X-12.000 Y-71.428
G0 X-12.000 Y-71.428 Z1.000
G1 X-12.000 Y-71.428 Z-0.333 F60.000
G1 X-12.000 Y-75.528 Z-0.333 F139.800
G1 X-11.854 Y-75.674 Z-0.333 F139.800
G1 X-12.000 Y-75.528 Z-0.333 F139.800
G1 X-14.000 Y-75.528 Z-0.333 F139.800
G1 X-14.000 Y-75.528 Z-0.333 F139.800
G1 X-14.146 Y-75.674 Z-0.333 F139.800
G1 X-14.000 Y-75.528 Z-0.333 F139.800
G1 X-14.000 Y-70.528 Z-0.333 F139.800
G1 X-14.000 Y-70.528 Z-0.333 F139.800
G1 X-14.146 Y-70.382 Z-0.333 F139.800
G1 X-14.000 Y-70.528 Z-0.333 F139.800
G1 X-12.000 Y-70.528 Z-0.333 F139.800
G1 X-12.000 Y-70.528 Z-0.333 F139.800
G1 X-11.854 Y-70.382 Z-0.333 F139.800
G1 X-12.000 Y-70.528 Z-0.333 F139.800
G1 X-12.000 Y-71.428 Z-0.333 F139.800
G0 Z6.000
G0 X-12.900 Z6.000
G0 X-12.900 Z1.000
G1 X-12.900 Y-71.428 Z-0.333 F60.000
G1 X-12.900 Y-74.628 Z-0.333 F139.800
G1 X-12.754 Y-74.774 Z-0.333 F139.800
G1 X-12.900 Y-74.628 Z-0.333 F139.800
G1 X-13.100 Y-74.628 Z-0.333 F139.800
G1 X-13.100 Y-74.628 Z-0.333 F139.800
G1 X-13.246 Y-74.774 Z-0.333 F139.800
G1 X-13.100 Y-74.628 Z-0.333 F139.800
G1 X-13.100 Y-71.428 Z-0.333 F139.800
G1 X-13.100 Y-71.428 Z-0.333 F139.800
G1 X-13.246 Y-71.282 Z-0.333 F139.800
G1 X-13.100 Y-71.428 Z-0.333 F139.800
G1 X-12.900 Y-71.428 Z-0.333 F139.800
G1 X-12.900 Y-71.428 Z-0.333 F139.800
G1 X-12.754 Y-71.282 Z-0.333 F139.800
G1 X-12.900 Y-71.428 Z-0.333 F139.800
G1 X-12.900 Y-71.428 Z-0.667 F60.000
G1 X-12.900 Y-74.628 Z-0.667 F139.800
G1 X-12.754 Y-74.774 Z-0.667 F139.800
G1 X-12.900 Y-74.628 Z-0.667 F139.800
G1 X-13.100 Y-74.628 Z-0.667 F139.800
G1 X-13.100 Y-74.628 Z-0.667 F139.800
G1 X-13.246 Y-74.774 Z-0.667 F139.800
G1 X-13.100 Y-74.628 Z-0.667 F139.800
G1 X-13.100 Y-71.428 Z-0.667 F139.800
G1 X-13.100 Y-71.428 Z-0.667 F139.800
G1 X-13.246 Y-71.282 Z-0.667 F139.800
G1 X-13.100 Y-71.428 Z-0.667 F139.800
G1 X-12.900 Y-71.428 Z-0.667 F139.800
G1 X-12.900 Y-71.428 Z-0.667 F139.800
G1 X-12.754 Y-71.282 Z-0.667 F139.800
G1 X-12.900 Y-71.428 Z-0.667 F139.800
G0 Z6.000
G0 X-12.000 Y-71.428 Z6.000
G0 X-12.000 Y-71.428 Z1.000
G1 X-12.000 Y-71.428 Z-0.667 F60.000
G1 X-12.000 Y-75.528 Z-0.667 F139.800
G1 X-11.854 Y-75.674 Z-0.667 F139.800
G1 X-12.000 Y-75.528 Z-0.667 F139.800
G1 X-14.000 Y-75.528 Z-0.667 F139.800
G1 X-14.000 Y-75.528 Z-0.667 F139.800
G1 X-14.146 Y-75.674 Z-0.667 F139.800
G1 X-14.000 Y-75.528 Z-0.667 F139.800
G1 X-14.000 Y-70.528 Z-0.667 F139.800
G1 X-14.000 Y-70.528 Z-0.667 F139.800
G1 X-14.146 Y-70.382 Z-0.667 F139.800
G1 X-14.000 Y-70.528 Z-0.667 F139.800
G1 X-12.000 Y-70.528 Z-0.667 F139.800
G1 X-12.000 Y-70.528 Z-0.667 F139.800
G1 X-11.854 Y-70.382 Z-0.667 F139.800
G1 X-12.000 Y-70.528 Z-0.667 F139.800
G1 X-12.000 Y-71.428 Z-0.667 F139.800
G1 X-12.000 Y-71.428 Z-1.000 F60.000
G1 X-12.000 Y-75.528 Z-1.000 F139.800
G1 X-11.854 Y-75.674 Z-1.000 F139.800
G1 X-12.000 Y-75.528 Z-1.000 F139.800
G1 X-14.000 Y-75.528 Z-1.000 F139.800
G1 X-14.000 Y-75.528 Z-1.000 F139.800
G1 X-14.146 Y-75.674 Z-1.000 F139.800
G1 X-14.000 Y-75.528 Z-1.000 F139.800
G1 X-14.000 Y-70.528 Z-1.000 F139.800
G1 X-14.000 Y-70.528 Z-1.000 F139.800
G1 X-14.146 Y-70.382 Z-1.000 F139.800
G1 X-14.000 Y-70.528 Z-1.000 F139.800
G1 X-12.000 Y-70.528 Z-1.000 F139.800
G1 X-12.000 Y-70.528 Z-1.000 F139.800
G1 X-11.854 Y-70.382 Z-1.000 F139.800
G1 X-12.000 Y-70.528 Z-1.000 F139.800
G1 X-12.000 Y-71.428 Z-1.000 F139.800
G1 X-12.000 Y-71.428 Z-1.000 F139.800
G0 Z6.000
G0 X-12.900 Y-71.428 Z6.000
G0 X-12.900 Y-71.428 Z1.000
G1 X-12.900 Y-71.428 Z-1.000 F60.000
G1 X-12.900 Y-74.628 Z-1.000 F139.800
G1 X-12.754 Y-74.774 Z-1.000 F139.800
G1 X-12.900 Y-74.628 Z-1.000 F139.800
G1 X-13.100 Y-74.628 Z-1.000 F139.800
G1 X-13.100 Y-74.628 Z-1.000 F139.800
G1 X-13.246 Y-74.774 Z-1.000 F139.800
G1 X-13.100 Y-74.628 Z-1.000 F139.800
G1 X-13.100 Y-71.428 Z-1.000 F139.800
G1 X-13.100 Y-71.428 Z-1.000 F139.800
G1 X-13.246 Y-71.282 Z-1.000 F139.800
G1 X-13.100 Y-71.428 Z-1.000 F139.800
G1 X-12.900 Y-71.428 Z-1.000 F139.800
G1 X-12.900 Y-71.428 Z-1.000 F139.800
G1 X-12.754 Y-71.282 Z-1.000 F139.800
G1 X-12.900 Y-71.428 Z-1.000 F139.800
G1 X-12.900 Y-71.428 Z-1.333 F60.000
G1 X-12.900 Y-74.628 Z-1.333 F139.800
G1 X-12.754 Y-74.774 Z-1.333 F139.800
G1 X-12.900 Y-74.628 Z-1.333 F139.800
G1 X-13.100 Y-74.628 Z-1.333 F139.800
G1 X-13.100 Y-74.628 Z-1.333 F139.800
G1 X-13.246 Y-74.774 Z-1.333 F139.800
G1 X-13.100 Y-74.628 Z-1.333 F139.800
G1 X-13.100 Y-71.428 Z-1.333 F139.800
G1 X-13.100 Y-71.428 Z-1.333 F139.800
G1 X-13.246 Y-71.282 Z-1.333 F139.800
G1 X-13.100 Y-71.428 Z-1.333 F139.800
G1 X-12.900 Y-71.428 Z-1.333 F139.800
G1 X-12.900 Y-71.428 Z-1.333 F139.800
G1 X-12.754 Y-71.282 Z-1.333 F139.800
G1 X-12.900 Y-71.428 Z-1.333 F139.800
G0 Z6.000
G0 X-12.000 Y-71.428 Z6.000
G0 X-12.000 Y-71.428 Z1.000
G1 X-12.000 Y-71.428 Z-1.333 F60.000
G1 X-12.000 Y-75.528 Z-1.333 F139.800
G1 X-11.854 Y-75.674 Z-1.333 F139.800
G1 X-12.000 Y-75.528 Z-1.333 F139.800
G1 X-14.000 Y-75.528 Z-1.333 F139.800
G1 X-14.000 Y-75.528 Z-1.333 F139.800
G1 X-14.146 Y-75.674 Z-1.333 F139.800
G1 X-14.000 Y-75.528 Z-1.333 F139.800
G1 X-14.000 Y-70.528 Z-1.333 F139.800
G1 X-14.000 Y-70.528 Z-1.333 F139.800
G1 X-14.146 Y-70.382 Z-1.333 F139.800
G1 X-14.000 Y-70.528 Z-1.333 F139.800
G1 X-12.000 Y-70.528 Z-1.333 F139.800
G1 X-12.000 Y-70.528 Z-1.333 F139.800
G1 X-11.854 Y-70.382 Z-1.333 F139.800
G1 X-12.000 Y-70.528 Z-1.333 F139.800
G1 X-12.000 Y-71.428 Z-1.333 F139.800
G1 X-12.000 Y-71.428 Z-1.667 F60.000
G1 X-12.000 Y-75.528 Z-1.667 F139.800
G1 X-11.854 Y-75.674 Z-1.667 F139.800
G1 X-12.000 Y-75.528 Z-1.667 F139.800
G1 X-14.000 Y-75.528 Z-1.667 F139.800
G1 X-14.000 Y-75.528 Z-1.667 F139.800
G1 X-14.146 Y-75.674 Z-1.667 F139.800
G1 X-14.000 Y-75.528 Z-1.667 F139.800
G1 X-14.000 Y-70.528 Z-1.667 F139.800
G1 X-14.000 Y-70.528 Z-1.667 F139.800
G1 X-14.146 Y-70.382 Z-1.667 F139.800
G1 X-14.000 Y-70.528 Z-1.667 F139.800
G1 X-12.000 Y-70.528 Z-1.667 F139.800
G1 X-12.000 Y-70.528 Z-1.667 F139.800
G1 X-11.854 Y-70.382 Z-1.667 F139.800
G1 X-12.000 Y-70.528 Z-1.667 F139.800
G1 X-12.000 Y-71.428 Z-1.667 F139.800
G0 Z6.000
G0 X-12.900 Y-71.428 Z6.000
G0 X-12.900 Y-71.428 Z1.000
G1 X-12.900 Y-71.428 Z-1.667 F60.000
G1 X-12.900 Y-74.628 Z-1.667 F139.800
G1 X-12.754 Y-74.774 Z-1.667 F139.800
G1 X-12.900 Y-74.628 Z-1.667 F139.800
G1 X-13.100 Y-74.628 Z-1.667 F139.800
G1 X-13.100 Y-74.628 Z-1.667 F139.800
G1 X-13.246 Y-74.774 Z-1.667 F139.800
G1 X-13.100 Y-74.628 Z-1.667 F139.800
G1 X-13.100 Y-71.428 Z-1.667 F139.800
G1 X-13.100 Y-71.428 Z-1.667 F139.800
G1 X-13.246 Y-71.282 Z-1.667 F139.800
G1 X-13.100 Y-71.428 Z-1.667 F139.800
G1 X-12.900 Y-71.428 Z-1.667 F139.800
G1 X-12.900 Y-71.428 Z-1.667 F139.800
G1 X-12.754 Y-71.282 Z-1.667 F139.800
G1 X-12.900 Y-71.428 Z-1.667 F139.800
G1 X-12.900 Y-71.428 Z-2.000 F60.000
G1 X-12.900 Y-74.628 Z-2.000 F139.800
G1 X-12.754 Y-74.774 Z-2.000 F139.800
G1 X-12.900 Y-74.628 Z-2.000 F139.800
G1 X-13.100 Y-74.628 Z-2.000 F139.800
G1 X-13.100 Y-74.628 Z-2.000 F139.800
G1 X-13.246 Y-74.774 Z-2.000 F139.800
G1 X-13.100 Y-74.628 Z-2.000 F139.800
G1 X-13.100 Y-71.428 Z-2.000 F139.800
G1 X-13.100 Y-71.428 Z-2.000 F139.800
G1 X-13.246 Y-71.282 Z-2.000 F139.800
G1 X-13.100 Y-71.428 Z-2.000 F139.800
G1 X-12.900 Y-71.428 Z-2.000 F139.800
G1 X-12.900 Y-71.428 Z-2.000 F139.800
G1 X-12.754 Y-71.282 Z-2.000 F139.800
G1 X-12.900 Y-71.428 Z-2.000 F139.800
G0 Z6.000
G0 X-12.000 Y-71.428 Z6.000
G0 X-12.000 Y-71.428 Z1.000
G1 X-12.000 Y-71.428 Z-2.000 F60.000
G1 X-12.000 Y-75.528 Z-2.000 F139.800
G1 X-11.854 Y-75.674 Z-2.000 F139.800
G1 X-12.000 Y-75.528 Z-2.000 F139.800
G1 X-14.000 Y-75.528 Z-2.000 F139.800
G1 X-14.000 Y-75.528 Z-2.000 F139.800
G1 X-14.146 Y-75.674 Z-2.000 F139.800
G1 X-14.000 Y-75.528 Z-2.000 F139.800
G1 X-14.000 Y-70.528 Z-2.000 F139.800
G1 X-14.000 Y-70.528 Z-2.000 F139.800
G1 X-14.146 Y-70.382 Z-2.000 F139.800
G1 X-14.000 Y-70.528 Z-2.000 F139.800
G1 X-12.000 Y-70.528 Z-2.000 F139.800
G1 X-12.000 Y-70.528 Z-2.000 F139.800
G1 X-11.854 Y-70.382 Z-2.000 F139.800
G1 X-12.000 Y-70.528 Z-2.000 F139.800
G1 X-12.000 Y-71.428 Z-2.000 F139.800
G1 X-12.000 Y-71.428 Z-2.000 F60.000
G1 X-12.000 Y-75.528 Z-2.000 F139.800
G1 X-11.854 Y-75.674 Z-2.000 F139.800
G1 X-12.000 Y-75.528 Z-2.000 F139.800
G1 X-14.000 Y-75.528 Z-2.000 F139.800
G1 X-14.000 Y-75.528 Z-2.000 F139.800
G1 X-14.146 Y-75.674 Z-2.000 F139.800
G1 X-14.000 Y-75.528 Z-2.000 F139.800
G1 X-14.000 Y-70.528 Z-2.000 F139.800
G1 X-14.000 Y-70.528 Z-2.000 F139.800
G1 X-14.146 Y-70.382 Z-2.000 F139.800
G1 X-14.000 Y-70.528 Z-2.000 F139.800
G1 X-12.000 Y-70.528 Z-2.000 F139.800
G1 X-12.000 Y-70.528 Z-2.000 F139.800
G1 X-11.854 Y-70.382 Z-2.000 F139.800
G1 X-12.000 Y-70.528 Z-2.000 F139.800
G1 X-12.000 Y-71.428 Z-2.000 F139.800
G0 Z6.000
G0 X-12.900 Y-71.428 Z6.000
G0 X-12.900 Y-71.428 Z1.000
G1 X-12.900 Y-71.428 Z-2.000 F60.000
G1 X-12.900 Y-74.628 Z-2.000 F139.800
G1 X-12.754 Y-74.774 Z-2.000 F139.800
G1 X-12.900 Y-74.628 Z-2.000 F139.800
G1 X-13.100 Y-74.628 Z-2.000 F139.800
G1 X-13.100 Y-74.628 Z-2.000 F139.800
G1 X-13.246 Y-74.774 Z-2.000 F139.800
G1 X-13.100 Y-74.628 Z-2.000 F139.800
G1 X-13.100 Y-71.428 Z-2.000 F139.800
G1 X-13.100 Y-71.428 Z-2.000 F139.800
G1 X-13.246 Y-71.282 Z-2.000 F139.800
G1 X-13.100 Y-71.428 Z-2.000 F139.800
G1 X-12.900 Y-71.428 Z-2.000 F139.800
G1 X-12.900 Y-71.428 Z-2.000 F139.800
G1 X-12.754 Y-71.282 Z-2.000 F139.800
G1 X-12.900 Y-71.428 Z-2.000 F139.800
G0 Z6.000
G0 Z6.000
(Finish operation: DogboneDressup002)
(Begin operation: DogboneDressup003)
(Path: DogboneDressup003)
(Profile004)
(Compensated Tool Path. Diameter: 1.0)
G0 Z6.000
G0 X26.167 Y-90.625
G0 Z1.000
G1 X26.167 Y-90.625 Z-0.333 F60.000
G1 X29.349 Y-93.807 Z-0.333 F139.800
G1 X29.556 Y-93.807 Z-0.333 F139.800
G1 X29.349 Y-93.807 Z-0.333 F139.800
G1 X27.934 Y-95.221 Z-0.333 F139.800
G1 X27.934 Y-95.221 Z-0.333 F139.800
G1 X27.934 Y-95.429 Z-0.333 F139.800
G1 X27.934 Y-95.221 Z-0.333 F139.800
G1 X21.571 Y-88.858 Z-0.333 F139.800
G1 X21.571 Y-88.858 Z-0.333 F139.800
G1 X21.363 Y-88.858 Z-0.333 F139.800
G1 X21.571 Y-88.858 Z-0.333 F139.800
G1 X22.985 Y-87.443 Z-0.333 F139.800
G1 X22.985 Y-87.443 Z-0.333 F139.800
G1 X22.985 Y-87.236 Z-0.333 F139.800
G1 X22.985 Y-87.443 Z-0.333 F139.800
G1 X26.167 Y-90.625 Z-0.333 F139.800
G1 X26.167 Y-90.625 Z-0.333 F139.800
G1 X26.167 Y-90.625 Z-0.667 F60.000
G1 X29.349 Y-93.807 Z-0.667 F139.800
G1 X29.556 Y-93.807 Z-0.667 F139.800
G1 X29.349 Y-93.807 Z-0.667 F139.800
G1 X27.934 Y-95.221 Z-0.667 F139.800
G1 X27.934 Y-95.221 Z-0.667 F139.800
G1 X27.934 Y-95.429 Z-0.667 F139.800
G1 X27.934 Y-95.221 Z-0.667 F139.800
G1 X21.571 Y-88.858 Z-0.667 F139.800
G1 X21.571 Y-88.858 Z-0.667 F139.800
G1 X21.363 Y-88.858 Z-0.667 F139.800
G1 X21.571 Y-88.858 Z-0.667 F139.800
G1 X22.985 Y-87.443 Z-0.667 F139.800
G1 X22.985 Y-87.443 Z-0.667 F139.800
G1 X22.985 Y-87.236 Z-0.667 F139.800
G1 X22.985 Y-87.443 Z-0.667 F139.800
G1 X26.167 Y-90.625 Z-0.667 F139.800
G1 X26.167 Y-90.625 Z-0.667 F139.800
G1 X26.167 Y-90.625 Z-1.000 F60.000
G1 X29.349 Y-93.807 Z-1.000 F139.800
G1 X29.556 Y-93.807 Z-1.000 F139.800
G1 X29.349 Y-93.807 Z-1.000 F139.800
G1 X27.934 Y-95.221 Z-1.000 F139.800
G1 X27.934 Y-95.221 Z-1.000 F139.800
G1 X27.934 Y-95.429 Z-1.000 F139.800
G1 X27.934 Y-95.221 Z-1.000 F139.800
G1 X21.571 Y-88.858 Z-1.000 F139.800
G1 X21.571 Y-88.858 Z-1.000 F139.800
G1 X21.363 Y-88.858 Z-1.000 F139.800
G1 X21.571 Y-88.858 Z-1.000 F139.800
G1 X22.985 Y-87.443 Z-1.000 F139.800
G1 X22.985 Y-87.443 Z-1.000 F139.800
G1 X22.985 Y-87.236 Z-1.000 F139.800
G1 X22.985 Y-87.443 Z-1.000 F139.800
G1 X26.167 Y-90.625 Z-1.000 F139.800
G1 X26.167 Y-90.625 Z-1.000 F139.800
G1 X26.167 Y-90.625 Z-1.333 F60.000
G1 X29.349 Y-93.807 Z-1.333 F139.800
G1 X29.556 Y-93.807 Z-1.333 F139.800
G1 X29.349 Y-93.807 Z-1.333 F139.800
G1 X27.934 Y-95.221 Z-1.333 F139.800
G1 X27.934 Y-95.221 Z-1.333 F139.800
G1 X27.934 Y-95.429 Z-1.333 F139.800
G1 X27.934 Y-95.221 Z-1.333 F139.800
G1 X21.571 Y-88.858 Z-1.333 F139.800
G1 X21.571 Y-88.858 Z-1.333 F139.800
G1 X21.363 Y-88.858 Z-1.333 F139.800
G1 X21.571 Y-88.858 Z-1.333 F139.800
G1 X22.985 Y-87.443 Z-1.333 F139.800
G1 X22.985 Y-87.443 Z-1.333 F139.800
G1 X22.985 Y-87.236 Z-1.333 F139.800
G1 X22.985 Y-87.443 Z-1.333 F139.800
G1 X26.167 Y-90.625 Z-1.333 F139.800
G1 X26.167 Y-90.625 Z-1.333 F139.800
G1 X26.167 Y-90.625 Z-1.667 F60.000
G1 X29.349 Y-93.807 Z-1.667 F139.800
G1 X29.556 Y-93.807 Z-1.667 F139.800
G1 X29.349 Y-93.807 Z-1.667 F139.800
G1 X27.934 Y-95.221 Z-1.667 F139.800
G1 X27.934 Y-95.221 Z-1.667 F139.800
G1 X27.934 Y-95.429 Z-1.667 F139.800
G1 X27.934 Y-95.221 Z-1.667 F139.800
G1 X21.571 Y-88.858 Z-1.667 F139.800
G1 X21.571 Y-88.858 Z-1.667 F139.800
G1 X21.363 Y-88.858 Z-1.667 F139.800
G1 X21.571 Y-88.858 Z-1.667 F139.800
G1 X22.985 Y-87.443 Z-1.667 F139.800
G1 X22.985 Y-87.443 Z-1.667 F139.800
G1 X22.985 Y-87.236 Z-1.667 F139.800
G1 X22.985 Y-87.443 Z-1.667 F139.800
G1 X26.167 Y-90.625 Z-1.667 F139.800
G1 X26.167 Y-90.625 Z-1.667 F139.800
G1 X26.167 Y-90.625 Z-2.000 F60.000
G1 X29.349 Y-93.807 Z-2.000 F139.800
G1 X29.556 Y-93.807 Z-2.000 F139.800
G1 X29.349 Y-93.807 Z-2.000 F139.800
G1 X27.934 Y-95.221 Z-2.000 F139.800
G1 X27.934 Y-95.221 Z-2.000 F139.800
G1 X27.934 Y-95.429 Z-2.000 F139.800
G1 X27.934 Y-95.221 Z-2.000 F139.800
G1 X21.571 Y-88.858 Z-2.000 F139.800
G1 X21.571 Y-88.858 Z-2.000 F139.800
G1 X21.363 Y-88.858 Z-2.000 F139.800
G1 X21.571 Y-88.858 Z-2.000 F139.800
G1 X22.985 Y-87.443 Z-2.000 F139.800
G1 X22.985 Y-87.443 Z-2.000 F139.800
G1 X22.985 Y-87.236 Z-2.000 F139.800
G1 X22.985 Y-87.443 Z-2.000 F139.800
G1 X26.167 Y-90.625 Z-2.000 F139.800
G1 X26.167 Y-90.625 Z-2.000 F139.800
G1 X26.167 Y-90.625 Z-2.333 F60.000
G1 X29.349 Y-93.807 Z-2.333 F139.800
G1 X29.556 Y-93.807 Z-2.333 F139.800
G1 X29.349 Y-93.807 Z-2.333 F139.800
G1 X27.934 Y-95.221 Z-2.333 F139.800
G1 X27.934 Y-95.221 Z-2.333 F139.800
G1 X27.934 Y-95.429 Z-2.333 F139.800
G1 X27.934 Y-95.221 Z-2.333 F139.800
G1 X21.571 Y-88.858 Z-2.333 F139.800
G1 X21.571 Y-88.858 Z-2.333 F139.800
G1 X21.363 Y-88.858 Z-2.333 F139.800
G1 X21.571 Y-88.858 Z-2.333 F139.800
G1 X22.985 Y-87.443 Z-2.333 F139.800
G1 X22.985 Y-87.443 Z-2.333 F139.800
G1 X22.985 Y-87.236 Z-2.333 F139.800
G1 X22.985 Y-87.443 Z-2.333 F139.800
G1 X26.167 Y-90.625 Z-2.333 F139.800
G1 X26.167 Y-90.625 Z-2.333 F139.800
G1 X26.167 Y-90.625 Z-2.667 F60.000
G1 X29.349 Y-93.807 Z-2.667 F139.800
G1 X29.556 Y-93.807 Z-2.667 F139.800
G1 X29.349 Y-93.807 Z-2.667 F139.800
G1 X27.934 Y-95.221 Z-2.667 F139.800
G1 X27.934 Y-95.221 Z-2.667 F139.800
G1 X27.934 Y-95.429 Z-2.667 F139.800
G1 X27.934 Y-95.221 Z-2.667 F139.800
G1 X21.571 Y-88.858 Z-2.667 F139.800
G1 X21.571 Y-88.858 Z-2.667 F139.800
G1 X21.363 Y-88.858 Z-2.667 F139.800
G1 X21.571 Y-88.858 Z-2.667 F139.800
G1 X22.985 Y-87.443 Z-2.667 F139.800
G1 X22.985 Y-87.443 Z-2.667 F139.800
G1 X22.985 Y-87.236 Z-2.667 F139.800
G1 X22.985 Y-87.443 Z-2.667 F139.800
G1 X26.167 Y-90.625 Z-2.667 F139.800
G1 X26.167 Y-90.625 Z-2.667 F139.800
G1 X26.167 Y-90.625 Z-3.000 F60.000
G1 X29.349 Y-93.807 Z-3.000 F139.800
G1 X29.556 Y-93.807 Z-3.000 F139.800
G1 X29.349 Y-93.807 Z-3.000 F139.800
G1 X27.934 Y-95.221 Z-3.000 F139.800
G1 X27.934 Y-95.221 Z-3.000 F139.800
G1 X27.934 Y-95.429 Z-3.000 F139.800
G1 X27.934 Y-95.221 Z-3.000 F139.800
G1 X21.571 Y-88.858 Z-3.000 F139.800
G1 X21.571 Y-88.858 Z-3.000 F139.800
G1 X21.363 Y-88.858 Z-3.000 F139.800
G1 X21.571 Y-88.858 Z-3.000 F139.800
G1 X22.985 Y-87.443 Z-3.000 F139.800
G1 X22.985 Y-87.443 Z-3.000 F139.800
G1 X22.985 Y-87.236 Z-3.000 F139.800
G1 X22.985 Y-87.443 Z-3.000 F139.800
G1 X26.167 Y-90.625 Z-3.000 F139.800
G1 X26.167 Y-90.625 Z-3.000 F139.800
G1 X26.167 Y-90.625 Z-3.000 F60.000
G1 X29.349 Y-93.807 Z-3.000 F139.800
G1 X29.556 Y-93.807 Z-3.000 F139.800
G1 X29.349 Y-93.807 Z-3.000 F139.800
G1 X27.934 Y-95.221 Z-3.000 F139.800
G1 X27.934 Y-95.221 Z-3.000 F139.800
G1 X27.934 Y-95.429 Z-3.000 F139.800
G1 X27.934 Y-95.221 Z-3.000 F139.800
G1 X21.571 Y-88.858 Z-3.000 F139.800
G1 X21.571 Y-88.858 Z-3.000 F139.800
G1 X21.363 Y-88.858 Z-3.000 F139.800
G1 X21.571 Y-88.858 Z-3.000 F139.800
G1 X22.985 Y-87.443 Z-3.000 F139.800
G1 X22.985 Y-87.443 Z-3.000 F139.800
G1 X22.985 Y-87.236 Z-3.000 F139.800
G1 X22.985 Y-87.443 Z-3.000 F139.800
G1 X26.167 Y-90.625 Z-3.000 F139.800
G1 X26.167 Y-90.625 Z-3.000 F139.800
G0 Z6.000
G0 Z6.000
G0 X5.303 Y-111.489
G0 X5.303 Y-111.489 Z1.000
G1 X5.303 Y-111.489 Z-0.333 F60.000
G1 X8.485 Y-114.671 Z-0.333 F139.800
G1 X8.692 Y-114.671 Z-0.333 F139.800
G1 X8.485 Y-114.671 Z-0.333 F139.800
G1 X7.071 Y-116.085 Z-0.333 F139.800
G1 X7.071 Y-116.085 Z-0.333 F139.800
G1 X7.071 Y-116.292 Z-0.333 F139.800
G1 X7.071 Y-116.085 Z-0.333 F139.800
G1 X0.707 Y-109.721 Z-0.333 F139.800
G1 X0.707 Y-109.721 Z-0.333 F139.800
G1 X0.500 Y-109.721 Z-0.333 F139.800
G1 X0.707 Y-109.721 Z-0.333 F139.800
G1 X2.121 Y-108.307 Z-0.333 F139.800
G1 X2.121 Y-108.307 Z-0.333 F139.800
G1 X2.121 Y-108.100 Z-0.333 F139.800
G1 X2.121 Y-108.307 Z-0.333 F139.800
G1 X5.303 Y-111.489 Z-0.333 F139.800
G1 X5.303 Y-111.489 Z-0.333 F139.800
G1 X5.303 Y-111.489 Z-0.667 F60.000
G1 X8.485 Y-114.671 Z-0.667 F139.800
G1 X8.692 Y-114.671 Z-0.667 F139.800
G1 X8.485 Y-114.671 Z-0.667 F139.800
G1 X7.071 Y-116.085 Z-0.667 F139.800
G1 X7.071 Y-116.085 Z-0.667 F139.800
G1 X7.071 Y-116.292 Z-0.667 F139.800
G1 X7.071 Y-116.085 Z-0.667 F139.800
G1 X0.707 Y-109.721 Z-0.667 F139.800
G1 X0.707 Y-109.721 Z-0.667 F139.800
G1 X0.500 Y-109.721 Z-0.667 F139.800
G1 X0.707 Y-109.721 Z-0.667 F139.800
G1 X2.121 Y-108.307 Z-0.667 F139.800
G1 X2.121 Y-108.307 Z-0.667 F139.800
G1 X2.121 Y-108.100 Z-0.667 F139.800
G1 X2.121 Y-108.307 Z-0.667 F139.800
G1 X5.303 Y-111.489 Z-0.667 F139.800
G1 X5.303 Y-111.489 Z-0.667 F139.800
G1 X5.303 Y-111.489 Z-1.000 F60.000
G1 X8.485 Y-114.671 Z-1.000 F139.800
G1 X8.692 Y-114.671 Z-1.000 F139.800
G1 X8.485 Y-114.671 Z-1.000 F139.800
G1 X7.071 Y-116.085 Z-1.000 F139.800
G1 X7.071 Y-116.085 Z-1.000 F139.800
G1 X7.071 Y-116.292 Z-1.000 F139.800
G1 X7.071 Y-116.085 Z-1.000 F139.800
G1 X0.707 Y-109.721 Z-1.000 F139.800
G1 X0.707 Y-109.721 Z-1.000 F139.800
G1 X0.500 Y-109.721 Z-1.000 F139.800
G1 X0.707 Y-109.721 Z-1.000 F139.800
G1 X2.121 Y-108.307 Z-1.000 F139.800
G1 X2.121 Y-108.307 Z-1.000 F139.800
G1 X2.121 Y-108.100 Z-1.000 F139.800
G1 X2.121 Y-108.307 Z-1.000 F139.800
G1 X5.303 Y-111.489 Z-1.000 F139.800
G1 X5.303 Y-111.489 Z-1.000 F139.800
G1 X5.303 Y-111.489 Z-1.333 F60.000
G1 X8.485 Y-114.671 Z-1.333 F139.800
G1 X8.692 Y-114.671 Z-1.333 F139.800
G1 X8.485 Y-114.671 Z-1.333 F139.800
G1 X7.071 Y-116.085 Z-1.333 F139.800
G1 X7.071 Y-116.085 Z-1.333 F139.800
G1 X7.071 Y-116.292 Z-1.333 F139.800
G1 X7.071 Y-116.085 Z-1.333 F139.800
G1 X0.707 Y-109.721 Z-1.333 F139.800
G1 X0.707 Y-109.721 Z-1.333 F139.800
G1 X0.500 Y-109.721 Z-1.333 F139.800
G1 X0.707 Y-109.721 Z-1.333 F139.800
G1 X2.121 Y-108.307 Z-1.333 F139.800
G1 X2.121 Y-108.307 Z-1.333 F139.800
G1 X2.121 Y-108.100 Z-1.333 F139.800
G1 X2.121 Y-108.307 Z-1.333 F139.800
G1 X5.303 Y-111.489 Z-1.333 F139.800
G1 X5.303 Y-111.489 Z-1.333 F139.800
G1 X5.303 Y-111.489 Z-1.333 F139.800
G1 X5.303 Y-111.489 Z-1.333 F139.800
G1 X5.303 Y-111.489 Z-1.667 F60.000
G1 X8.485 Y-114.671 Z-1.667 F139.800
G1 X8.692 Y-114.671 Z-1.667 F139.800
G1 X8.485 Y-114.671 Z-1.667 F139.800
G1 X7.071 Y-116.085 Z-1.667 F139.800
G1 X7.071 Y-116.085 Z-1.667 F139.800
G1 X7.071 Y-116.292 Z-1.667 F139.800
G1 X7.071 Y-116.085 Z-1.667 F139.800
G1 X0.707 Y-109.721 Z-1.667 F139.800
G1 X0.707 Y-109.721 Z-1.667 F139.800
G1 X0.500 Y-109.721 Z-1.667 F139.800
G1 X0.707 Y-109.721 Z-1.667 F139.800
G1 X2.121 Y-108.307 Z-1.667 F139.800
G1 X2.121 Y-108.307 Z-1.667 F139.800
G1 X2.121 Y-108.100 Z-1.667 F139.800
G1 X2.121 Y-108.307 Z-1.667 F139.800
G1 X5.303 Y-111.489 Z-1.667 F139.800
G1 X5.303 Y-111.489 Z-1.667 F139.800
G1 X5.303 Y-111.489 Z-1.667 F139.800
G1 X5.303 Y-111.489 Z-1.667 F139.800
G1 X5.303 Y-111.489 Z-2.000 F60.000
G1 X8.485 Y-114.671 Z-2.000 F139.800
G1 X8.692 Y-114.671 Z-2.000 F139.800
G1 X8.485 Y-114.671 Z-2.000 F139.800
G1 X7.071 Y-116.085 Z-2.000 F139.800
G1 X7.071 Y-116.085 Z-2.000 F139.800
G1 X7.071 Y-116.292 Z-2.000 F139.800
G1 X7.071 Y-116.085 Z-2.000 F139.800
G1 X0.707 Y-109.721 Z-2.000 F139.800
G1 X0.707 Y-109.721 Z-2.000 F139.800
G1 X0.500 Y-109.721 Z-2.000 F139.800
G1 X0.707 Y-109.721 Z-2.000 F139.800
G1 X2.121 Y-108.307 Z-2.000 F139.800
G1 X2.121 Y-108.307 Z-2.000 F139.800
G1 X2.121 Y-108.100 Z-2.000 F139.800
G1 X2.121 Y-108.307 Z-2.000 F139.800
G1 X5.303 Y-111.489 Z-2.000 F139.800
G1 X5.303 Y-111.489 Z-2.000 F139.800
G1 X5.303 Y-111.489 Z-2.000 F139.800
G1 X5.303 Y-111.489 Z-2.000 F139.800
G1 X5.303 Y-111.489 Z-2.333 F60.000
G1 X8.485 Y-114.671 Z-2.333 F139.800
G1 X8.692 Y-114.671 Z-2.333 F139.800
G1 X8.485 Y-114.671 Z-2.333 F139.800
G1 X7.071 Y-116.085 Z-2.333 F139.800
G1 X7.071 Y-116.085 Z-2.333 F139.800
G1 X7.071 Y-116.292 Z-2.333 F139.800
G1 X7.071 Y-116.085 Z-2.333 F139.800
G1 X0.707 Y-109.721 Z-2.333 F139.800
G1 X0.707 Y-109.721 Z-2.333 F139.800
G1 X0.500 Y-109.721 Z-2.333 F139.800
G1 X0.707 Y-109.721 Z-2.333 F139.800
G1 X2.121 Y-108.307 Z-2.333 F139.800
G1 X2.121 Y-108.307 Z-2.333 F139.800
G1 X2.121 Y-108.100 Z-2.333 F139.800
G1 X2.121 Y-108.307 Z-2.333 F139.800
G1 X5.303 Y-111.489 Z-2.333 F139.800
G1 X5.303 Y-111.489 Z-2.333 F139.800
G1 X5.303 Y-111.489 Z-2.333 F139.800
G1 X5.303 Y-111.489 Z-2.333 F139.800
G1 X5.303 Y-111.489 Z-2.667 F60.000
G1 X8.485 Y-114.671 Z-2.667 F139.800
G1 X8.692 Y-114.671 Z-2.667 F139.800
G1 X8.485 Y-114.671 Z-2.667 F139.800
G1 X7.071 Y-116.085 Z-2.667 F139.800
G1 X7.071 Y-116.085 Z-2.667 F139.800
G1 X7.071 Y-116.292 Z-2.667 F139.800
G1 X7.071 Y-116.085 Z-2.667 F139.800
G1 X0.707 Y-109.721 Z-2.667 F139.800
G1 X0.707 Y-109.721 Z-2.667 F139.800
G1 X0.500 Y-109.721 Z-2.667 F139.800
G1 X0.707 Y-109.721 Z-2.667 F139.800
G1 X2.121 Y-108.307 Z-2.667 F139.800
G1 X2.121 Y-108.307 Z-2.667 F139.800
G1 X2.121 Y-108.100 Z-2.667 F139.800
G1 X2.121 Y-108.307 Z-2.667 F139.800
G1 X5.303 Y-111.489 Z-2.667 F139.800
G1 X5.303 Y-111.489 Z-2.667 F139.800
G1 X5.303 Y-111.489 Z-2.667 F139.800
G1 X5.303 Y-111.489 Z-2.667 F139.800
G1 X5.303 Y-111.489 Z-3.000 F60.000
G1 X8.485 Y-114.671 Z-3.000 F139.800
G1 X8.692 Y-114.671 Z-3.000 F139.800
G1 X8.485 Y-114.671 Z-3.000 F139.800
G1 X7.071 Y-116.085 Z-3.000 F139.800
G1 X7.071 Y-116.085 Z-3.000 F139.800
G1 X7.071 Y-116.292 Z-3.000 F139.800
G1 X7.071 Y-116.085 Z-3.000 F139.800
G1 X0.707 Y-109.721 Z-3.000 F139.800
G1 X0.707 Y-109.721 Z-3.000 F139.800
G1 X0.500 Y-109.721 Z-3.000 F139.800
G1 X0.707 Y-109.721 Z-3.000 F139.800
G1 X2.121 Y-108.307 Z-3.000 F139.800
G1 X2.121 Y-108.307 Z-3.000 F139.800
G1 X2.121 Y-108.100 Z-3.000 F139.800
G1 X2.121 Y-108.307 Z-3.000 F139.800
G1 X5.303 Y-111.489 Z-3.000 F139.800
G1 X5.303 Y-111.489 Z-3.000 F139.800
G1 X5.303 Y-111.489 Z-3.000 F139.800
G1 X5.303 Y-111.489 Z-3.000 F139.800
G1 X5.303 Y-111.489 Z-3.000 F60.000
G1 X8.485 Y-114.671 Z-3.000 F139.800
G1 X8.692 Y-114.671 Z-3.000 F139.800
G1 X8.485 Y-114.671 Z-3.000 F139.800
G1 X7.071 Y-116.085 Z-3.000 F139.800
G1 X7.071 Y-116.085 Z-3.000 F139.800
G1 X7.071 Y-116.292 Z-3.000 F139.800
G1 X7.071 Y-116.085 Z-3.000 F139.800
G1 X0.707 Y-109.721 Z-3.000 F139.800
G1 X0.707 Y-109.721 Z-3.000 F139.800
G1 X0.500 Y-109.721 Z-3.000 F139.800
G1 X0.707 Y-109.721 Z-3.000 F139.800
G1 X2.121 Y-108.307 Z-3.000 F139.800
G1 X2.121 Y-108.307 Z-3.000 F139.800
G1 X2.121 Y-108.100 Z-3.000 F139.800
G1 X2.121 Y-108.307 Z-3.000 F139.800
G1 X5.303 Y-111.489 Z-3.000 F139.800
G1 X5.303 Y-111.489 Z-3.000 F139.800
G1 X5.303 Y-111.489 Z-3.000 F139.800
G1 X5.303 Y-111.489 Z-3.000 F139.800
G0 Z6.000
G0 Z6.000
G0 X0.634 Y-116.159
G0 X0.634 Y-116.159 Z1.000
G1 X0.634 Y-116.159 Z-0.333 F60.000
G2 X0.803 Y-116.393 Z-0.333 I-0.636 J-0.636 K0.000 F139.800
G2 X0.362 Y-117.616 Z-0.333 I-0.809 J-0.400 K0.000 F139.800
G1 X-1.364 Y-118.441 Z-0.333 F139.800
G2 X-1.649 Y-118.156 Z-0.333 I-0.113 J0.172 K0.000 F139.800
G1 X-0.824 Y-116.429 Z-0.333 F139.800
G2 X0.634 Y-116.159 Z-0.333 I0.822 J-0.366 K0.000 F139.800
G1 X0.634 Y-116.159 Z-0.667 F60.000
G2 X0.803 Y-116.393 Z-0.667 I-0.636 J-0.636 K0.000 F139.800
G2 X0.362 Y-117.616 Z-0.667 I-0.809 J-0.400 K0.000 F139.800
G1 X-1.364 Y-118.441 Z-0.667 F139.800
G2 X-1.649 Y-118.156 Z-0.667 I-0.113 J0.172 K0.000 F139.800
G1 X-0.824 Y-116.429 Z-0.667 F139.800
G2 X0.634 Y-116.159 Z-0.667 I0.822 J-0.366 K0.000 F139.800
G1 X0.634 Y-116.159 Z-1.000 F60.000
G2 X0.803 Y-116.393 Z-1.000 I-0.636 J-0.636 K0.000 F139.800
G2 X0.362 Y-117.616 Z-1.000 I-0.809 J-0.400 K0.000 F139.800
G1 X-1.364 Y-118.441 Z-1.000 F139.800
G2 X-1.649 Y-118.156 Z-1.000 I-0.113 J0.172 K0.000 F139.800
G1 X-0.824 Y-116.429 Z-1.000 F139.800
G2 X0.634 Y-116.159 Z-1.000 I0.822 J-0.366 K0.000 F139.800
G1 X0.634 Y-116.159 Z-1.333 F60.000
G2 X0.803 Y-116.393 Z-1.333 I-0.636 J-0.636 K0.000 F139.800
G2 X0.362 Y-117.616 Z-1.333 I-0.809 J-0.400 K0.000 F139.800
G1 X-1.364 Y-118.441 Z-1.333 F139.800
G2 X-1.649 Y-118.156 Z-1.333 I-0.113 J0.172 K0.000 F139.800
G1 X-0.824 Y-116.429 Z-1.333 F139.800
G2 X0.634 Y-116.159 Z-1.333 I0.822 J-0.366 K0.000 F139.800
G1 X0.634 Y-116.159 Z-1.667 F60.000
G2 X0.803 Y-116.393 Z-1.667 I-0.636 J-0.636 K0.000 F139.800
G2 X0.362 Y-117.616 Z-1.667 I-0.809 J-0.400 K0.000 F139.800
G1 X-1.364 Y-118.441 Z-1.667 F139.800
G2 X-1.649 Y-118.156 Z-1.667 I-0.113 J0.172 K0.000 F139.800
G1 X-0.824 Y-116.429 Z-1.667 F139.800
G2 X0.634 Y-116.159 Z-1.667 I0.822 J-0.366 K0.000 F139.800
G1 X0.634 Y-116.159 Z-2.000 F60.000
G2 X0.803 Y-116.393 Z-2.000 I-0.636 J-0.636 K0.000 F139.800
G2 X0.362 Y-117.616 Z-2.000 I-0.809 J-0.400 K0.000 F139.800
G1 X-1.364 Y-118.441 Z-2.000 F139.800
G2 X-1.649 Y-118.156 Z-2.000 I-0.113 J0.172 K0.000 F139.800
G1 X-0.824 Y-116.429 Z-2.000 F139.800
G2 X0.634 Y-116.159 Z-2.000 I0.822 J-0.366 K0.000 F139.800
G1 X0.634 Y-116.159 Z-2.333 F60.000
G2 X0.803 Y-116.393 Z-2.333 I-0.636 J-0.636 K0.000 F139.800
G2 X0.362 Y-117.616 Z-2.333 I-0.809 J-0.400 K0.000 F139.800
G1 X-1.364 Y-118.441 Z-2.333 F139.800
G2 X-1.649 Y-118.156 Z-2.333 I-0.113 J0.172 K0.000 F139.800
G1 X-0.824 Y-116.429 Z-2.333 F139.800
G2 X0.634 Y-116.159 Z-2.333 I0.822 J-0.366 K0.000 F139.800
G1 X0.634 Y-116.159 Z-2.667 F60.000
G2 X0.803 Y-116.393 Z-2.667 I-0.636 J-0.636 K0.000 F139.800
G2 X0.362 Y-117.616 Z-2.667 I-0.809 J-0.400 K0.000 F139.800
G1 X-1.364 Y-118.441 Z-2.667 F139.800
G2 X-1.649 Y-118.156 Z-2.667 I-0.113 J0.172 K0.000 F139.800
G1 X-0.824 Y-116.429 Z-2.667 F139.800
G2 X0.634 Y-116.159 Z-2.667 I0.822 J-0.366 K0.000 F139.800
G1 X0.634 Y-116.159 Z-3.000 F60.000
G2 X0.803 Y-116.393 Z-3.000 I-0.636 J-0.636 K0.000 F139.800
G2 X0.362 Y-117.616 Z-3.000 I-0.809 J-0.400 K0.000 F139.800
G1 X-1.364 Y-118.441 Z-3.000 F139.800
G2 X-1.649 Y-118.156 Z-3.000 I-0.113 J0.172 K0.000 F139.800
G1 X-0.824 Y-116.429 Z-3.000 F139.800
G2 X0.634 Y-116.159 Z-3.000 I0.822 J-0.366 K0.000 F139.800
G1 X0.634 Y-116.159 Z-3.000 F60.000
G2 X0.803 Y-116.393 Z-3.000 I-0.636 J-0.636 K0.000 F139.800
G2 X0.362 Y-117.616 Z-3.000 I-0.809 J-0.400 K0.000 F139.800
G1 X-1.364 Y-118.441 Z-3.000 F139.800
G2 X-1.649 Y-118.156 Z-3.000 I-0.113 J0.172 K0.000 F139.800
G1 X-0.824 Y-116.429 Z-3.000 F139.800
G2 X0.634 Y-116.159 Z-3.000 I0.822 J-0.366 K0.000 F139.800
G0 Z6.000
G0 Z6.000
G0 X-3.889 Y-120.682
G0 X-3.889 Y-120.682 Z1.000
G1 X-3.889 Y-120.682 Z-0.333 F60.000
G1 X-0.707 Y-123.863 Z-0.333 F139.800
G1 X-0.500 Y-123.863 Z-0.333 F139.800
G1 X-0.707 Y-123.863 Z-0.333 F139.800
G1 X-2.121 Y-125.277 Z-0.333 F139.800
G1 X-2.121 Y-125.277 Z-0.333 F139.800
G1 X-2.121 Y-125.484 Z-0.333 F139.800
G1 X-2.121 Y-125.277 Z-0.333 F139.800
G1 X-8.485 Y-118.913 Z-0.333 F139.800
G1 X-8.485 Y-118.913 Z-0.333 F139.800
G1 X-8.692 Y-118.913 Z-0.333 F139.800
G1 X-8.485 Y-118.913 Z-0.333 F139.800
G1 X-7.071 Y-117.499 Z-0.333 F139.800
G1 X-7.071 Y-117.499 Z-0.333 F139.800
G1 X-7.071 Y-117.292 Z-0.333 F139.800
G1 X-7.071 Y-117.499 Z-0.333 F139.800
G1 X-3.889 Y-120.682 Z-0.333 F139.800
G1 X-3.889 Y-120.682 Z-0.333 F139.800
G1 X-3.889 Y-120.682 Z-0.333 F139.800
G1 X-3.889 Y-120.682 Z-0.333 F139.800
G1 X-3.889 Y-120.682 Z-0.667 F60.000
G1 X-0.707 Y-123.863 Z-0.667 F139.800
G1 X-0.500 Y-123.863 Z-0.667 F139.800
G1 X-0.707 Y-123.863 Z-0.667 F139.800
G1 X-2.121 Y-125.277 Z-0.667 F139.800
G1 X-2.121 Y-125.277 Z-0.667 F139.800
G1 X-2.121 Y-125.484 Z-0.667 F139.800
G1 X-2.121 Y-125.277 Z-0.667 F139.800
G1 X-8.485 Y-118.913 Z-0.667 F139.800
G1 X-8.485 Y-118.913 Z-0.667 F139.800
G1 X-8.692 Y-118.913 Z-0.667 F139.800
G1 X-8.485 Y-118.913 Z-0.667 F139.800
G1 X-7.071 Y-117.499 Z-0.667 F139.800
G1 X-7.071 Y-117.499 Z-0.667 F139.800
G1 X-7.071 Y-117.292 Z-0.667 F139.800
G1 X-7.071 Y-117.499 Z-0.667 F139.800
G1 X-3.889 Y-120.682 Z-0.667 F139.800
G1 X-3.889 Y-120.682 Z-0.667 F139.800
G1 X-3.889 Y-120.682 Z-0.667 F139.800
G1 X-3.889 Y-120.682 Z-0.667 F139.800
G1 X-3.889 Y-120.682 Z-1.000 F60.000
G1 X-0.707 Y-123.863 Z-1.000 F139.800
G1 X-0.500 Y-123.863 Z-1.000 F139.800
G1 X-0.707 Y-123.863 Z-1.000 F139.800
G1 X-2.121 Y-125.277 Z-1.000 F139.800
G1 X-2.121 Y-125.277 Z-1.000 F139.800
G1 X-2.121 Y-125.484 Z-1.000 F139.800
G1 X-2.121 Y-125.277 Z-1.000 F139.800
G1 X-8.485 Y-118.913 Z-1.000 F139.800
G1 X-8.485 Y-118.913 Z-1.000 F139.800
G1 X-8.692 Y-118.913 Z-1.000 F139.800
G1 X-8.485 Y-118.913 Z-1.000 F139.800
G1 X-7.071 Y-117.499 Z-1.000 F139.800
G1 X-7.071 Y-117.499 Z-1.000 F139.800
G1 X-7.071 Y-117.292 Z-1.000 F139.800
G1 X-7.071 Y-117.499 Z-1.000 F139.800
G1 X-3.889 Y-120.682 Z-1.000 F139.800
G1 X-3.889 Y-120.682 Z-1.333 F60.000
G1 X-0.707 Y-123.863 Z-1.333 F139.800
G1 X-0.500 Y-123.863 Z-1.333 F139.800
G1 X-0.707 Y-123.863 Z-1.333 F139.800
G1 X-2.121 Y-125.277 Z-1.333 F139.800
G1 X-2.121 Y-125.277 Z-1.333 F139.800
G1 X-2.121 Y-125.484 Z-1.333 F139.800
G1 X-2.121 Y-125.277 Z-1.333 F139.800
G1 X-8.485 Y-118.913 Z-1.333 F139.800
G1 X-8.485 Y-118.913 Z-1.333 F139.800
G1 X-8.692 Y-118.913 Z-1.333 F139.800
G1 X-8.485 Y-118.913 Z-1.333 F139.800
G1 X-7.071 Y-117.499 Z-1.333 F139.800
G1 X-7.071 Y-117.499 Z-1.333 F139.800
G1 X-7.071 Y-117.292 Z-1.333 F139.800
G1 X-7.071 Y-117.499 Z-1.333 F139.800
G1 X-3.889 Y-120.682 Z-1.333 F139.800
G1 X-3.889 Y-120.682 Z-1.667 F60.000
G1 X-0.707 Y-123.863 Z-1.667 F139.800
G1 X-0.500 Y-123.863 Z-1.667 F139.800
G1 X-0.707 Y-123.863 Z-1.667 F139.800
G1 X-2.121 Y-125.277 Z-1.667 F139.800
G1 X-2.121 Y-125.277 Z-1.667 F139.800
G1 X-2.121 Y-125.484 Z-1.667 F139.800
G1 X-2.121 Y-125.277 Z-1.667 F139.800
G1 X-8.485 Y-118.913 Z-1.667 F139.800
G1 X-8.485 Y-118.913 Z-1.667 F139.800
G1 X-8.692 Y-118.913 Z-1.667 F139.800
G1 X-8.485 Y-118.913 Z-1.667 F139.800
G1 X-7.071 Y-117.499 Z-1.667 F139.800
G1 X-7.071 Y-117.499 Z-1.667 F139.800
G1 X-7.071 Y-117.292 Z-1.667 F139.800
G1 X-7.071 Y-117.499 Z-1.667 F139.800
G1 X-3.889 Y-120.682 Z-1.667 F139.800
G1 X-3.889 Y-120.682 Z-2.000 F60.000
G1 X-0.707 Y-123.863 Z-2.000 F139.800
G1 X-0.500 Y-123.863 Z-2.000 F139.800
G1 X-0.707 Y-123.863 Z-2.000 F139.800
G1 X-2.121 Y-125.277 Z-2.000 F139.800
G1 X-2.121 Y-125.277 Z-2.000 F139.800
G1 X-2.121 Y-125.484 Z-2.000 F139.800
G1 X-2.121 Y-125.277 Z-2.000 F139.800
G1 X-8.485 Y-118.913 Z-2.000 F139.800
G1 X-8.485 Y-118.913 Z-2.000 F139.800
G1 X-8.692 Y-118.913 Z-2.000 F139.800
G1 X-8.485 Y-118.913 Z-2.000 F139.800
G1 X-7.071 Y-117.499 Z-2.000 F139.800
G1 X-7.071 Y-117.499 Z-2.000 F139.800
G1 X-7.071 Y-117.292 Z-2.000 F139.800
G1 X-7.071 Y-117.499 Z-2.000 F139.800
G1 X-3.889 Y-120.682 Z-2.000 F139.800
G1 X-3.889 Y-120.682 Z-2.333 F60.000
G1 X-0.707 Y-123.863 Z-2.333 F139.800
G1 X-0.500 Y-123.863 Z-2.333 F139.800
G1 X-0.707 Y-123.863 Z-2.333 F139.800
G1 X-2.121 Y-125.277 Z-2.333 F139.800
G1 X-2.121 Y-125.277 Z-2.333 F139.800
G1 X-2.121 Y-125.484 Z-2.333 F139.800
G1 X-2.121 Y-125.277 Z-2.333 F139.800
G1 X-8.485 Y-118.913 Z-2.333 F139.800
G1 X-8.485 Y-118.913 Z-2.333 F139.800
G1 X-8.692 Y-118.913 Z-2.333 F139.800
G1 X-8.485 Y-118.913 Z-2.333 F139.800
G1 X-7.071 Y-117.499 Z-2.333 F139.800
G1 X-7.071 Y-117.499 Z-2.333 F139.800
G1 X-7.071 Y-117.292 Z-2.333 F139.800
G1 X-7.071 Y-117.499 Z-2.333 F139.800
G1 X-3.889 Y-120.682 Z-2.333 F139.800
G1 X-3.889 Y-120.682 Z-2.667 F60.000
G1 X-0.707 Y-123.863 Z-2.667 F139.800
G1 X-0.500 Y-123.863 Z-2.667 F139.800
G1 X-0.707 Y-123.863 Z-2.667 F139.800
G1 X-2.121 Y-125.277 Z-2.667 F139.800
G1 X-2.121 Y-125.277 Z-2.667 F139.800
G1 X-2.121 Y-125.484 Z-2.667 F139.800
G1 X-2.121 Y-125.277 Z-2.667 F139.800
G1 X-8.485 Y-118.913 Z-2.667 F139.800
G1 X-8.485 Y-118.913 Z-2.667 F139.800
G1 X-8.692 Y-118.913 Z-2.667 F139.800
G1 X-8.485 Y-118.913 Z-2.667 F139.800
G1 X-7.071 Y-117.499 Z-2.667 F139.800
G1 X-7.071 Y-117.499 Z-2.667 F139.800
G1 X-7.071 Y-117.292 Z-2.667 F139.800
G1 X-7.071 Y-117.499 Z-2.667 F139.800
G1 X-3.889 Y-120.682 Z-2.667 F139.800
G1 X-3.889 Y-120.682 Z-3.000 F60.000
G1 X-0.707 Y-123.863 Z-3.000 F139.800
G1 X-0.500 Y-123.863 Z-3.000 F139.800
G1 X-0.707 Y-123.863 Z-3.000 F139.800
G1 X-2.121 Y-125.277 Z-3.000 F139.800
G1 X-2.121 Y-125.277 Z-3.000 F139.800
G1 X-2.121 Y-125.484 Z-3.000 F139.800
G1 X-2.121 Y-125.277 Z-3.000 F139.800
G1 X-8.485 Y-118.913 Z-3.000 F139.800
G1 X-8.485 Y-118.913 Z-3.000 F139.800
G1 X-8.692 Y-118.913 Z-3.000 F139.800
G1 X-8.485 Y-118.913 Z-3.000 F139.800
G1 X-7.071 Y-117.499 Z-3.000 F139.800
G1 X-7.071 Y-117.499 Z-3.000 F139.800
G1 X-7.071 Y-117.292 Z-3.000 F139.800
G1 X-7.071 Y-117.499 Z-3.000 F139.800
G1 X-3.889 Y-120.682 Z-3.000 F139.800
G1 X-3.889 Y-120.682 Z-3.000 F60.000
G1 X-0.707 Y-123.863 Z-3.000 F139.800
G1 X-0.500 Y-123.863 Z-3.000 F139.800
G1 X-0.707 Y-123.863 Z-3.000 F139.800
G1 X-2.121 Y-125.277 Z-3.000 F139.800
G1 X-2.121 Y-125.277 Z-3.000 F139.800
G1 X-2.121 Y-125.484 Z-3.000 F139.800
G1 X-2.121 Y-125.277 Z-3.000 F139.800
G1 X-8.485 Y-118.913 Z-3.000 F139.800
G1 X-8.485 Y-118.913 Z-3.000 F139.800
G1 X-8.692 Y-118.913 Z-3.000 F139.800
G1 X-8.485 Y-118.913 Z-3.000 F139.800
G1 X-7.071 Y-117.499 Z-3.000 F139.800
G1 X-7.071 Y-117.499 Z-3.000 F139.800
G1 X-7.071 Y-117.292 Z-3.000 F139.800
G1 X-7.071 Y-117.499 Z-3.000 F139.800
G1 X-3.889 Y-120.682 Z-3.000 F139.800
G0 Z6.000
G0 Z6.000
G0 X-24.752 Y-141.545
G0 X-24.752 Y-141.545 Z1.000
G1 X-24.752 Y-141.545 Z-0.333 F60.000
G1 X-21.571 Y-144.726 Z-0.333 F139.800
G1 X-21.363 Y-144.726 Z-0.333 F139.800
G1 X-21.571 Y-144.726 Z-0.333 F139.800
G1 X-22.985 Y-146.141 Z-0.333 F139.800
G1 X-22.985 Y-146.141 Z-0.333 F139.800
G1 X-22.985 Y-146.348 Z-0.333 F139.800
G1 X-22.985 Y-146.141 Z-0.333 F139.800
G1 X-29.349 Y-139.777 Z-0.333 F139.800
G1 X-29.349 Y-139.777 Z-0.333 F139.800
G1 X-29.556 Y-139.777 Z-0.333 F139.800
G1 X-29.349 Y-139.777 Z-0.333 F139.800
G1 X-27.934 Y-138.362 Z-0.333 F139.800
G1 X-27.934 Y-138.362 Z-0.333 F139.800
G1 X-27.934 Y-138.155 Z-0.333 F139.800
G1 X-27.934 Y-138.362 Z-0.333 F139.800
G1 X-24.752 Y-141.545 Z-0.333 F139.800
G1 X-24.752 Y-141.545 Z-0.333 F139.800
G1 X-24.752 Y-141.545 Z-0.333 F139.800
G1 X-24.752 Y-141.545 Z-0.333 F139.800
G1 X-24.752 Y-141.545 Z-0.667 F60.000
G1 X-21.571 Y-144.726 Z-0.667 F139.800
G1 X-21.363 Y-144.726 Z-0.667 F139.800
G1 X-21.571 Y-144.726 Z-0.667 F139.800
G1 X-22.985 Y-146.141 Z-0.667 F139.800
G1 X-22.985 Y-146.141 Z-0.667 F139.800
G1 X-22.985 Y-146.348 Z-0.667 F139.800
G1 X-22.985 Y-146.141 Z-0.667 F139.800
G1 X-29.349 Y-139.777 Z-0.667 F139.800
G1 X-29.349 Y-139.777 Z-0.667 F139.800
G1 X-29.556 Y-139.777 Z-0.667 F139.800
G1 X-29.349 Y-139.777 Z-0.667 F139.800
G1 X-27.934 Y-138.362 Z-0.667 F139.800
G1 X-27.934 Y-138.362 Z-0.667 F139.800
G1 X-27.934 Y-138.155 Z-0.667 F139.800
G1 X-27.934 Y-138.362 Z-0.667 F139.800
G1 X-24.752 Y-141.545 Z-0.667 F139.800
G1 X-24.752 Y-141.545 Z-0.667 F139.800
G1 X-24.752 Y-141.545 Z-0.667 F139.800
G1 X-24.752 Y-141.545 Z-0.667 F139.800
G1 X-24.752 Y-141.545 Z-1.000 F60.000
G1 X-21.571 Y-144.726 Z-1.000 F139.800
G1 X-21.363 Y-144.726 Z-1.000 F139.800
G1 X-21.571 Y-144.726 Z-1.000 F139.800
G1 X-22.985 Y-146.141 Z-1.000 F139.800
G1 X-22.985 Y-146.141 Z-1.000 F139.800
G1 X-22.985 Y-146.348 Z-1.000 F139.800
G1 X-22.985 Y-146.141 Z-1.000 F139.800
G1 X-29.349 Y-139.777 Z-1.000 F139.800
G1 X-29.349 Y-139.777 Z-1.000 F139.800
G1 X-29.556 Y-139.777 Z-1.000 F139.800
G1 X-29.349 Y-139.777 Z-1.000 F139.800
G1 X-27.934 Y-138.362 Z-1.000 F139.800
G1 X-27.934 Y-138.362 Z-1.000 F139.800
G1 X-27.934 Y-138.155 Z-1.000 F139.800
G1 X-27.934 Y-138.362 Z-1.000 F139.800
G1 X-24.752 Y-141.545 Z-1.000 F139.800
G1 X-24.752 Y-141.545 Z-1.000 F139.800
G1 X-24.752 Y-141.545 Z-1.000 F139.800
G1 X-24.752 Y-141.545 Z-1.000 F139.800
G1 X-24.752 Y-141.545 Z-1.333 F60.000
G1 X-21.571 Y-144.726 Z-1.333 F139.800
G1 X-21.363 Y-144.726 Z-1.333 F139.800
G1 X-21.571 Y-144.726 Z-1.333 F139.800
G1 X-22.985 Y-146.141 Z-1.333 F139.800
G1 X-22.985 Y-146.141 Z-1.333 F139.800
G1 X-22.985 Y-146.348 Z-1.333 F139.800
G1 X-22.985 Y-146.141 Z-1.333 F139.800
G1 X-29.349 Y-139.777 Z-1.333 F139.800
G1 X-29.349 Y-139.777 Z-1.333 F139.800
G1 X-29.556 Y-139.777 Z-1.333 F139.800
G1 X-29.349 Y-139.777 Z-1.333 F139.800
G1 X-27.934 Y-138.362 Z-1.333 F139.800
G1 X-27.934 Y-138.362 Z-1.333 F139.800
G1 X-27.934 Y-138.155 Z-1.333 F139.800
G1 X-27.934 Y-138.362 Z-1.333 F139.800
G1 X-24.752 Y-141.545 Z-1.333 F139.800
G1 X-24.752 Y-141.545 Z-1.333 F139.800
G1 X-24.752 Y-141.545 Z-1.333 F139.800
G1 X-24.752 Y-141.545 Z-1.333 F139.800
G1 X-24.752 Y-141.545 Z-1.667 F60.000
G1 X-21.571 Y-144.726 Z-1.667 F139.800
G1 X-21.363 Y-144.726 Z-1.667 F139.800
G1 X-21.571 Y-144.726 Z-1.667 F139.800
G1 X-22.985 Y-146.141 Z-1.667 F139.800
G1 X-22.985 Y-146.141 Z-1.667 F139.800
G1 X-22.985 Y-146.348 Z-1.667 F139.800
G1 X-22.985 Y-146.141 Z-1.667 F139.800
G1 X-29.349 Y-139.777 Z-1.667 F139.800
G1 X-29.349 Y-139.777 Z-1.667 F139.800
G1 X-29.556 Y-139.777 Z-1.667 F139.800
G1 X-29.349 Y-139.777 Z-1.667 F139.800
G1 X-27.934 Y-138.362 Z-1.667 F139.800
G1 X-27.934 Y-138.362 Z-1.667 F139.800
G1 X-27.934 Y-138.155 Z-1.667 F139.800
G1 X-27.934 Y-138.362 Z-1.667 F139.800
G1 X-24.752 Y-141.545 Z-1.667 F139.800
G1 X-24.752 Y-141.545 Z-1.667 F139.800
G1 X-24.752 Y-141.545 Z-1.667 F139.800
G1 X-24.752 Y-141.545 Z-1.667 F139.800
G1 X-24.752 Y-141.545 Z-2.000 F60.000
G1 X-21.571 Y-144.726 Z-2.000 F139.800
G1 X-21.363 Y-144.726 Z-2.000 F139.800
G1 X-21.571 Y-144.726 Z-2.000 F139.800
G1 X-22.985 Y-146.141 Z-2.000 F139.800
G1 X-22.985 Y-146.141 Z-2.000 F139.800
G1 X-22.985 Y-146.348 Z-2.000 F139.800
G1 X-22.985 Y-146.141 Z-2.000 F139.800
G1 X-29.349 Y-139.777 Z-2.000 F139.800
G1 X-29.349 Y-139.777 Z-2.000 F139.800
G1 X-29.556 Y-139.777 Z-2.000 F139.800
G1 X-29.349 Y-139.777 Z-2.000 F139.800
G1 X-27.934 Y-138.362 Z-2.000 F139.800
G1 X-27.934 Y-138.362 Z-2.000 F139.800
G1 X-27.934 Y-138.155 Z-2.000 F139.800
G1 X-27.934 Y-138.362 Z-2.000 F139.800
G1 X-24.752 Y-141.545 Z-2.000 F139.800
G1 X-24.752 Y-141.545 Z-2.000 F139.800
G1 X-24.752 Y-141.545 Z-2.000 F139.800
G1 X-24.752 Y-141.545 Z-2.000 F139.800
G1 X-24.752 Y-141.545 Z-2.333 F60.000
G1 X-21.571 Y-144.726 Z-2.333 F139.800
G1 X-21.363 Y-144.726 Z-2.333 F139.800
G1 X-21.571 Y-144.726 Z-2.333 F139.800
G1 X-22.985 Y-146.141 Z-2.333 F139.800
G1 X-22.985 Y-146.141 Z-2.333 F139.800
G1 X-22.985 Y-146.348 Z-2.333 F139.800
G1 X-22.985 Y-146.141 Z-2.333 F139.800
G1 X-29.349 Y-139.777 Z-2.333 F139.800
G1 X-29.349 Y-139.777 Z-2.333 F139.800
G1 X-29.556 Y-139.777 Z-2.333 F139.800
G1 X-29.349 Y-139.777 Z-2.333 F139.800
G1 X-27.934 Y-138.362 Z-2.333 F139.800
G1 X-27.934 Y-138.362 Z-2.333 F139.800
G1 X-27.934 Y-138.155 Z-2.333 F139.800
G1 X-27.934 Y-138.362 Z-2.333 F139.800
G1 X-24.752 Y-141.545 Z-2.333 F139.800
G1 X-24.752 Y-141.545 Z-2.333 F139.800
G1 X-24.752 Y-141.545 Z-2.333 F139.800
G1 X-24.752 Y-141.545 Z-2.333 F139.800
G1 X-24.752 Y-141.545 Z-2.667 F60.000
G1 X-21.571 Y-144.726 Z-2.667 F139.800
G1 X-21.363 Y-144.726 Z-2.667 F139.800
G1 X-21.571 Y-144.726 Z-2.667 F139.800
G1 X-22.985 Y-146.141 Z-2.667 F139.800
G1 X-22.985 Y-146.141 Z-2.667 F139.800
G1 X-22.985 Y-146.348 Z-2.667 F139.800
G1 X-22.985 Y-146.141 Z-2.667 F139.800
G1 X-29.349 Y-139.777 Z-2.667 F139.800
G1 X-29.349 Y-139.777 Z-2.667 F139.800
G1 X-29.556 Y-139.777 Z-2.667 F139.800
G1 X-29.349 Y-139.777 Z-2.667 F139.800
G1 X-27.934 Y-138.362 Z-2.667 F139.800
G1 X-27.934 Y-138.362 Z-2.667 F139.800
G1 X-27.934 Y-138.155 Z-2.667 F139.800
G1 X-27.934 Y-138.362 Z-2.667 F139.800
G1 X-24.752 Y-141.545 Z-2.667 F139.800
G1 X-24.752 Y-141.545 Z-2.667 F139.800
G1 X-24.752 Y-141.545 Z-2.667 F139.800
G1 X-24.752 Y-141.545 Z-2.667 F139.800
G1 X-24.752 Y-141.545 Z-3.000 F60.000
G1 X-21.571 Y-144.726 Z-3.000 F139.800
G1 X-21.363 Y-144.726 Z-3.000 F139.800
G1 X-21.571 Y-144.726 Z-3.000 F139.800
G1 X-22.985 Y-146.141 Z-3.000 F139.800
G1 X-22.985 Y-146.141 Z-3.000 F139.800
G1 X-22.985 Y-146.348 Z-3.000 F139.800
G1 X-22.985 Y-146.141 Z-3.000 F139.800
G1 X-29.349 Y-139.777 Z-3.000 F139.800
G1 X-29.349 Y-139.777 Z-3.000 F139.800
G1 X-29.556 Y-139.777 Z-3.000 F139.800
G1 X-29.349 Y-139.777 Z-3.000 F139.800
G1 X-27.934 Y-138.362 Z-3.000 F139.800
G1 X-27.934 Y-138.362 Z-3.000 F139.800
G1 X-27.934 Y-138.155 Z-3.000 F139.800
G1 X-27.934 Y-138.362 Z-3.000 F139.800
G1 X-24.752 Y-141.545 Z-3.000 F139.800
G1 X-24.752 Y-141.545 Z-3.000 F139.800
G1 X-24.752 Y-141.545 Z-3.000 F139.800
G1 X-24.752 Y-141.545 Z-3.000 F139.800
G1 X-24.752 Y-141.545 Z-3.000 F60.000
G1 X-21.571 Y-144.726 Z-3.000 F139.800
G1 X-21.363 Y-144.726 Z-3.000 F139.800
G1 X-21.571 Y-144.726 Z-3.000 F139.800
G1 X-22.985 Y-146.141 Z-3.000 F139.800
G1 X-22.985 Y-146.141 Z-3.000 F139.800
G1 X-22.985 Y-146.348 Z-3.000 F139.800
G1 X-22.985 Y-146.141 Z-3.000 F139.800
G1 X-29.349 Y-139.777 Z-3.000 F139.800
G1 X-29.349 Y-139.777 Z-3.000 F139.800
G1 X-29.556 Y-139.777 Z-3.000 F139.800
G1 X-29.349 Y-139.777 Z-3.000 F139.800
G1 X-27.934 Y-138.362 Z-3.000 F139.800
G1 X-27.934 Y-138.362 Z-3.000 F139.800
G1 X-27.934 Y-138.155 Z-3.000 F139.800
G1 X-27.934 Y-138.362 Z-3.000 F139.800
G1 X-24.752 Y-141.545 Z-3.000 F139.800
G1 X-24.752 Y-141.545 Z-3.000 F139.800
G1 X-24.752 Y-141.545 Z-3.000 F139.800
G1 X-24.752 Y-141.545 Z-3.000 F139.800
G0 Z6.000
G0 Z6.000
(Finish operation: DogboneDressup003)
(Begin operation: DressupPathBoundary001)
(Path: DressupPathBoundary001)
G0 Z6.000
G0 X40.500 Y-0.000
G0 Z1.000
G1 X40.500 Y-0.000 Z-0.333 F60.000
G1 Z1.000 F60.000
G0 Z6.000
G0 X-40.500 Y-0.000
G0 Z1.000
G1 Z-0.333 F60.000
G1 X-40.500 Y-68.758 Z-0.333 F139.800
G2 X-40.898 Y-69.719 Z-0.333 I-1.330 J-0.012 K0.000 F139.800
G1 X-86.378 Y-115.202 Z-0.333 F139.800
G3 X-86.345 Y-118.418 Z-0.333 I1.663 J-1.591 K0.000 F139.800
G1 X-54.763 Y-150.000 Z-0.333 F139.800
G1 Z1.000 F60.000
G0 Z6.000
G0 X54.763 Y-150.000
G0 Z1.000
G1 Z-0.333 F60.000
G1 X86.377 Y-118.383 Z-0.333 F139.800
G3 X86.345 Y-115.166 Z-0.333 I-1.664 J1.592 K0.000 F139.800
G1 X40.898 Y-69.719 Z-0.333 F139.800
G2 X40.500 Y-68.758 Z-0.333 I0.932 J0.949 K0.000 F139.800
G1 X40.500 Y-0.000 Z-0.333 F139.800
G1 X40.500 Y-0.000 Z-0.667 F60.000
G1 Z1.000 F60.000
G0 Z6.000
G0 X-40.500 Y-0.000
G0 Z1.000
G1 Z-0.667 F60.000
G1 X-40.500 Y-68.758 Z-0.667 F139.800
G2 X-40.898 Y-69.719 Z-0.667 I-1.330 J-0.012 K0.000 F139.800
G1 X-86.378 Y-115.202 Z-0.667 F139.800
G3 X-86.345 Y-118.418 Z-0.667 I1.663 J-1.591 K0.000 F139.800
G1 X-54.763 Y-150.000 Z-0.667 F139.800
G1 Z1.000 F60.000
G0 Z6.000
G0 X54.763 Y-150.000
G0 Z1.000
G1 Z-0.667 F60.000
G1 X86.377 Y-118.383 Z-0.667 F139.800
G3 X86.345 Y-115.166 Z-0.667 I-1.664 J1.592 K0.000 F139.800
G1 X40.898 Y-69.719 Z-0.667 F139.800
G2 X40.500 Y-68.758 Z-0.667 I0.932 J0.949 K0.000 F139.800
G1 X40.500 Y-0.000 Z-0.667 F139.800
G1 X40.500 Y-0.000 Z-1.000 F60.000
G1 Z1.000 F60.000
G0 Z6.000
G0 X-40.500 Y-0.000
G0 Z1.000
G1 Z-1.000 F60.000
G1 X-40.500 Y-68.758 Z-1.000 F139.800
G2 X-40.898 Y-69.719 Z-1.000 I-1.330 J-0.012 K0.000 F139.800
G1 X-86.378 Y-115.202 Z-1.000 F139.800
G3 X-86.345 Y-118.418 Z-1.000 I1.663 J-1.591 K0.000 F139.800
G1 X-54.763 Y-150.000 Z-1.000 F139.800
G1 Z1.000 F60.000
G0 Z6.000
G0 X54.763 Y-150.000
G0 Z1.000
G1 Z-1.000 F60.000
G1 X86.377 Y-118.383 Z-1.000 F139.800
G3 X86.345 Y-115.166 Z-1.000 I-1.664 J1.592 K0.000 F139.800
G1 X40.898 Y-69.719 Z-1.000 F139.800
G2 X40.500 Y-68.758 Z-1.000 I0.932 J0.949 K0.000 F139.800
G1 X40.500 Y-0.000 Z-1.000 F139.800
G1 X40.500 Y-0.000 Z-1.333 F60.000
G1 Z1.000 F60.000
G0 Z6.000
G0 X-40.500 Y-0.000
G0 Z1.000
G1 Z-1.333 F60.000
G1 X-40.500 Y-68.758 Z-1.333 F139.800
G2 X-40.898 Y-69.719 Z-1.333 I-1.330 J-0.012 K0.000 F139.800
G1 X-86.378 Y-115.202 Z-1.333 F139.800
G3 X-86.345 Y-118.418 Z-1.333 I1.663 J-1.591 K0.000 F139.800
G1 X-54.763 Y-150.000 Z-1.333 F139.800
G1 Z1.000 F60.000
G0 Z6.000
G0 X54.763 Y-150.000
G0 Z1.000
G1 Z-1.333 F60.000
G1 X86.377 Y-118.383 Z-1.333 F139.800
G3 X86.345 Y-115.166 Z-1.333 I-1.664 J1.592 K0.000 F139.800
G1 X40.898 Y-69.719 Z-1.333 F139.800
G2 X40.500 Y-68.758 Z-1.333 I0.932 J0.949 K0.000 F139.800
G1 X40.500 Y-0.000 Z-1.333 F139.800
G1 X40.500 Y-0.000 Z-1.667 F60.000
G1 Z1.000 F60.000
G0 Z6.000
G0 X-40.500 Y-0.000
G0 Z1.000
G1 Z-1.667 F60.000
G1 X-40.500 Y-68.758 Z-1.667 F139.800
G2 X-40.898 Y-69.719 Z-1.667 I-1.330 J-0.012 K0.000 F139.800
G1 X-63.177 Y-92.000 Z-1.667 F139.800
G1 X-63.295 Y-92.118 Z-1.500 F99.900
G1 X-63.981 Y-92.803 Z-1.500 F139.800
G1 X-64.099 Y-92.921 Z-1.667 F99.900
G1 X-86.378 Y-115.202 Z-1.667 F139.800
G3 X-86.345 Y-118.418 Z-1.667 I1.663 J-1.591 K0.000 F139.800
G1 X-54.763 Y-150.000 Z-1.667 F139.800
G1 Z1.000 F60.000
G0 Z6.000
G0 X54.763 Y-150.000
G0 Z1.000
G1 Z-1.667 F60.000
G1 X86.377 Y-118.383 Z-1.667 F139.800
G3 X86.345 Y-115.166 Z-1.667 I-1.664 J1.592 K0.000 F139.800
G1 X64.082 Y-92.903 Z-1.667 F139.800
G1 X63.964 Y-92.785 Z-1.500 F99.900
G1 X63.278 Y-92.099 Z-1.500 F139.800
G1 X63.161 Y-91.982 Z-1.667 F99.900
G1 X40.898 Y-69.719 Z-1.667 F139.800
G2 X40.500 Y-68.758 Z-1.667 I0.932 J0.949 K0.000 F139.800
G1 X40.500 Y-0.000 Z-1.667 F139.800
G1 X40.500 Y-0.000 Z-2.000 F60.000
G1 Z1.000 F60.000
G0 Z6.000
G0 X-40.500 Y-0.000
G0 Z1.000
G1 Z-2.000 F60.000
G1 X-40.500 Y-68.758 Z-2.000 F139.800
G2 X-40.898 Y-69.719 Z-2.000 I-1.330 J-0.012 K0.000 F139.800
G1 X-62.941 Y-91.764 Z-2.000 F139.800
G1 X-63.295 Y-92.118 Z-1.500 F99.900
G1 X-63.981 Y-92.803 Z-1.500 F139.800
G1 X-64.334 Y-93.157 Z-2.000 F99.900
G1 X-86.378 Y-115.202 Z-2.000 F139.800
G3 X-86.345 Y-118.418 Z-2.000 I1.663 J-1.591 K0.000 F139.800
G1 X-54.763 Y-150.000 Z-2.000 F139.800
G1 Z1.000 F60.000
G0 Z6.000
G0 X54.763 Y-150.000
G0 Z1.000
G1 Z-2.000 F60.000
G1 X86.377 Y-118.383 Z-2.000 F139.800
G3 X86.345 Y-115.166 Z-2.000 I-1.664 J1.592 K0.000 F139.800
G1 X64.318 Y-93.139 Z-2.000 F139.800
G1 X63.964 Y-92.785 Z-1.500 F99.900
G1 X63.278 Y-92.099 Z-1.500 F139.800
G1 X62.925 Y-91.746 Z-2.000 F99.900
G1 X40.898 Y-69.719 Z-2.000 F139.800
G2 X40.500 Y-68.758 Z-2.000 I0.932 J0.949 K0.000 F139.800
G1 X40.500 Y-0.000 Z-2.000 F139.800
G1 X40.500 Y-0.000 Z-2.333 F60.000
G1 Z1.000 F60.000
G0 Z6.000
G0 X-40.500 Y-0.000
G0 Z1.000
G1 Z-2.333 F60.000
G1 X-40.500 Y-68.758 Z-2.333 F139.800
G2 X-40.898 Y-69.719 Z-2.333 I-1.330 J-0.012 K0.000 F139.800
G1 X-62.706 Y-91.528 Z-2.333 F139.800
G1 X-63.295 Y-92.118 Z-1.500 F99.900
G1 X-63.981 Y-92.803 Z-1.500 F139.800
G1 X-64.570 Y-93.393 Z-2.333 F99.900
G1 X-86.378 Y-115.202 Z-2.333 F139.800
G3 X-86.345 Y-118.418 Z-2.333 I1.663 J-1.591 K0.000 F139.800
G1 X-54.763 Y-150.000 Z-2.333 F139.800
G1 Z1.000 F60.000
G0 Z6.000
G0 X54.763 Y-150.000
G0 Z1.000
G1 Z-2.333 F60.000
G1 X86.377 Y-118.383 Z-2.333 F139.800
G3 X86.345 Y-115.166 Z-2.333 I-1.664 J1.592 K0.000 F139.800
G1 X64.554 Y-93.375 Z-2.333 F139.800
G1 X63.964 Y-92.785 Z-1.500 F99.900
G1 X63.278 Y-92.099 Z-1.500 F139.800
G1 X62.689 Y-91.510 Z-2.333 F99.900
G1 X40.898 Y-69.719 Z-2.333 F139.800
G2 X40.500 Y-68.758 Z-2.333 I0.932 J0.949 K0.000 F139.800
G1 X40.500 Y-0.000 Z-2.333 F139.800
G1 X40.500 Y-0.000 Z-2.667 F60.000
G1 Z1.000 F60.000
G0 Z6.000
G0 X-40.500 Y-0.000
G0 Z1.000
G1 Z-2.667 F60.000
G1 X-40.500 Y-68.758 Z-2.667 F139.800
G2 X-40.898 Y-69.719 Z-2.667 I-1.330 J-0.012 K0.000 F139.800
G1 X-62.470 Y-91.293 Z-2.667 F139.800
G1 X-63.295 Y-92.118 Z-1.500 F99.900
G1 X-63.981 Y-92.803 Z-1.500 F139.800
G1 X-64.806 Y-93.628 Z-2.667 F99.900
G1 X-86.378 Y-115.202 Z-2.667 F139.800
G3 X-86.345 Y-118.418 Z-2.667 I1.663 J-1.591 K0.000 F139.800
G1 X-54.763 Y-150.000 Z-2.667 F139.800
G1 Z1.000 F60.000
G0 Z6.000
G0 X54.763 Y-150.000
G0 Z1.000
G1 Z-2.667 F60.000
G1 X86.377 Y-118.383 Z-2.667 F139.800
G3 X86.345 Y-115.166 Z-2.667 I-1.664 J1.592 K0.000 F139.800
G1 X64.789 Y-93.610 Z-2.667 F139.800
G1 X63.964 Y-92.785 Z-1.500 F99.900
G1 X63.278 Y-92.099 Z-1.500 F139.800
G1 X62.454 Y-91.274 Z-2.667 F99.900
G1 X40.898 Y-69.719 Z-2.667 F139.800
G2 X40.500 Y-68.758 Z-2.667 I0.932 J0.949 K0.000 F139.800
G1 X40.500 Y-0.000 Z-2.667 F139.800
G1 X40.500 Y-0.000 Z-3.000 F60.000
G1 Z1.000 F60.000
G0 Z6.000
G0 X-40.500 Y-0.000
G0 Z1.000
G1 Z-3.000 F60.000
G1 X-40.500 Y-68.758 Z-3.000 F139.800
G2 X-40.898 Y-69.719 Z-3.000 I-1.330 J-0.012 K0.000 F139.800
G1 X-62.234 Y-91.057 Z-3.000 F139.800
G1 X-63.295 Y-92.118 Z-1.500 F99.900
G1 X-63.981 Y-92.803 Z-1.500 F139.800
G1 X-65.041 Y-93.864 Z-3.000 F99.900
G1 X-86.378 Y-115.202 Z-3.000 F139.800
G3 X-86.345 Y-118.418 Z-3.000 I1.663 J-1.591 K0.000 F139.800
G1 X-54.763 Y-150.000 Z-3.000 F139.800
G1 Z1.000 F60.000
G0 Z6.000
G0 X54.763 Y-150.000
G0 Z1.000
G1 Z-3.000 F60.000
G1 X86.377 Y-118.383 Z-3.000 F139.800
G3 X86.345 Y-115.166 Z-3.000 I-1.664 J1.592 K0.000 F139.800
G1 X65.025 Y-93.846 Z-3.000 F139.800
G1 X63.964 Y-92.785 Z-1.500 F99.900
G1 X63.278 Y-92.099 Z-1.500 F139.800
G1 X62.218 Y-91.039 Z-3.000 F99.900
G1 X40.898 Y-69.719 Z-3.000 F139.800
G2 X40.500 Y-68.758 Z-3.000 I0.932 J0.949 K0.000 F139.800
G1 X40.500 Y-0.000 Z-3.000 F139.800
G1 X40.500 Y-0.000 Z-3.000 F60.000
G1 Z1.000 F60.000
G0 Z6.000
G0 X-40.500 Y-0.000
G0 Z1.000
G1 Z-3.000 F60.000
G1 X-40.500 Y-68.758 Z-3.000 F139.800
G2 X-40.898 Y-69.719 Z-3.000 I-1.330 J-0.012 K0.000 F139.800
G1 X-62.234 Y-91.057 Z-3.000 F139.800
G1 X-63.295 Y-92.118 Z-1.500 F99.900
G1 X-63.981 Y-92.803 Z-1.500 F139.800
G1 X-65.041 Y-93.864 Z-3.000 F99.900
G1 X-86.378 Y-115.202 Z-3.000 F139.800
G3 X-86.345 Y-118.418 Z-3.000 I1.663 J-1.591 K0.000 F139.800
G1 X-54.763 Y-150.000 Z-3.000 F139.800
G1 Z1.000 F60.000
G0 Z6.000
G0 X54.763 Y-150.000
G0 Z1.000
G1 Z-3.000 F60.000
G1 X86.377 Y-118.383 Z-3.000 F139.800
G3 X86.345 Y-115.166 Z-3.000 I-1.664 J1.592 K0.000 F139.800
G1 X65.025 Y-93.846 Z-3.000 F139.800
G1 X63.964 Y-92.785 Z-1.500 F99.900
G1 X63.278 Y-92.099 Z-1.500 F139.800
G1 X62.218 Y-91.039 Z-3.000 F99.900
G1 X40.898 Y-69.719 Z-3.000 F139.800
G2 X40.500 Y-68.758 Z-3.000 I0.932 J0.949 K0.000 F139.800
G1 X40.500 Y-0.000 Z-3.000 F139.800
G1 X40.500 Y-0.000 Z1.000 F60.000
G0 Z6.000
(Finish operation: DressupPathBoundary001)
(Begin postamble)
M5
G17 G90
M2
