(Exported by FreeCAD)
(Post Processor: grbl_post)
(Output Time:2020-08-19 12:33:30.334183)
(Begin preamble)
G17 G90
G21
(Begin operation: Fixture)
(Path: Fixture)
G54
(Finish operation: Fixture)
(Begin operation: T37: Two-flute 1mm x 7mm002)
(Path: T37: Two-flute 1mm x 7mm002)
(T37: Two-flute 1mm x 7mm002)
(Begin toolchange)
(M6 T37.0)
M3 S7400.0
(Finish operation: T37: Two-flute 1mm x 7mm002)
(Begin operation: Profile003)
(Path: Profile003)
(Profile003)
(Compensated Tool Path. Diameter: 1.0)
G0 Z6.000
G0 X-70.012 Y-153.587
G0 Z1.000
G1 X-70.012 Y-153.587 Z-0.333 F60.000
G2 X-70.742 Y-156.878 Z-0.333 I-1.413 J-1.413 K0.000 F139.800
G2 X-72.108 Y-153.122 Z-0.333 I-0.683 J1.878 K0.000 F139.800
G2 X-70.012 Y-153.587 Z-0.333 I0.683 J-1.878 K0.000 F139.800
G1 X-70.012 Y-153.587 Z-0.667 F60.000
G2 X-70.742 Y-156.878 Z-0.667 I-1.413 J-1.413 K0.000 F139.800
G2 X-72.108 Y-153.122 Z-0.667 I-0.683 J1.878 K0.000 F139.800
G2 X-70.012 Y-153.587 Z-0.667 I0.683 J-1.878 K0.000 F139.800
G1 X-70.012 Y-153.587 Z-1.000 F60.000
G2 X-70.742 Y-156.878 Z-1.000 I-1.413 J-1.413 K0.000 F139.800
G2 X-72.108 Y-153.122 Z-1.000 I-0.683 J1.878 K0.000 F139.800
G2 X-70.012 Y-153.587 Z-1.000 I0.683 J-1.878 K0.000 F139.800
G1 X-70.012 Y-153.587 Z-1.333 F60.000
G2 X-70.742 Y-156.878 Z-1.333 I-1.413 J-1.413 K0.000 F139.800
G2 X-72.108 Y-153.122 Z-1.333 I-0.683 J1.878 K0.000 F139.800
G2 X-70.012 Y-153.587 Z-1.333 I0.683 J-1.878 K0.000 F139.800
G1 X-70.012 Y-153.587 Z-1.667 F60.000
G2 X-70.742 Y-156.878 Z-1.667 I-1.413 J-1.413 K0.000 F139.800
G2 X-72.108 Y-153.122 Z-1.667 I-0.683 J1.878 K0.000 F139.800
G2 X-70.012 Y-153.587 Z-1.667 I0.683 J-1.878 K0.000 F139.800
G1 X-70.012 Y-153.587 Z-2.000 F60.000
G2 X-70.742 Y-156.878 Z-2.000 I-1.413 J-1.413 K0.000 F139.800
G2 X-72.108 Y-153.122 Z-2.000 I-0.683 J1.878 K0.000 F139.800
G2 X-70.012 Y-153.587 Z-2.000 I0.683 J-1.878 K0.000 F139.800
G1 X-70.012 Y-153.587 Z-2.333 F60.000
G2 X-70.742 Y-156.878 Z-2.333 I-1.413 J-1.413 K0.000 F139.800
G2 X-72.108 Y-153.122 Z-2.333 I-0.683 J1.878 K0.000 F139.800
G2 X-70.012 Y-153.587 Z-2.333 I0.683 J-1.878 K0.000 F139.800
G1 X-70.012 Y-153.587 Z-2.667 F60.000
G2 X-70.742 Y-156.878 Z-2.667 I-1.413 J-1.413 K0.000 F139.800
G2 X-72.108 Y-153.122 Z-2.667 I-0.683 J1.878 K0.000 F139.800
G2 X-70.012 Y-153.587 Z-2.667 I0.683 J-1.878 K0.000 F139.800
G1 X-70.012 Y-153.587 Z-3.000 F60.000
G2 X-70.742 Y-156.878 Z-3.000 I-1.413 J-1.413 K0.000 F139.800
G2 X-72.108 Y-153.122 Z-3.000 I-0.683 J1.878 K0.000 F139.800
G2 X-70.012 Y-153.587 Z-3.000 I0.683 J-1.878 K0.000 F139.800
G0 Z6.000
G0 Z6.000
G0 X69.427 Y-155.187
G0 X69.427 Y-155.187 Z1.000
G1 X69.427 Y-155.187 Z-0.333 F60.000
G2 X70.742 Y-153.332 Z-0.333 I1.998 J-0.023 K0.000 F139.800
G2 X73.303 Y-154.527 Z-0.333 I0.683 J-1.878 K0.000 F139.800
G2 X72.108 Y-157.088 Z-0.333 I-1.878 J-0.683 K0.000 F139.800
G2 X69.427 Y-155.187 Z-0.333 I-0.683 J1.878 K0.000 F139.800
G1 X69.427 Y-155.187 Z-0.667 F60.000
G2 X70.742 Y-153.332 Z-0.667 I1.998 J-0.023 K0.000 F139.800
G2 X73.303 Y-154.527 Z-0.667 I0.683 J-1.878 K0.000 F139.800
G2 X72.108 Y-157.088 Z-0.667 I-1.878 J-0.683 K0.000 F139.800
G2 X69.427 Y-155.187 Z-0.667 I-0.683 J1.878 K0.000 F139.800
G1 X69.427 Y-155.187 Z-1.000 F60.000
G2 X70.742 Y-153.332 Z-1.000 I1.998 J-0.023 K0.000 F139.800
G2 X73.303 Y-154.527 Z-1.000 I0.683 J-1.878 K0.000 F139.800
G2 X72.108 Y-157.088 Z-1.000 I-1.878 J-0.683 K0.000 F139.800
G2 X69.427 Y-155.187 Z-1.000 I-0.683 J1.878 K0.000 F139.800
G1 X69.427 Y-155.187 Z-1.333 F60.000
G2 X70.742 Y-153.332 Z-1.333 I1.998 J-0.023 K0.000 F139.800
G2 X73.303 Y-154.527 Z-1.333 I0.683 J-1.878 K0.000 F139.800
G2 X72.108 Y-157.088 Z-1.333 I-1.878 J-0.683 K0.000 F139.800
G2 X69.427 Y-155.187 Z-1.333 I-0.683 J1.878 K0.000 F139.800
G1 X69.427 Y-155.187 Z-1.667 F60.000
G2 X70.742 Y-153.332 Z-1.667 I1.998 J-0.023 K0.000 F139.800
G2 X73.303 Y-154.527 Z-1.667 I0.683 J-1.878 K0.000 F139.800
G2 X72.108 Y-157.088 Z-1.667 I-1.878 J-0.683 K0.000 F139.800
G2 X69.427 Y-155.187 Z-1.667 I-0.683 J1.878 K0.000 F139.800
G1 X69.427 Y-155.187 Z-2.000 F60.000
G2 X70.742 Y-153.332 Z-2.000 I1.998 J-0.023 K0.000 F139.800
G2 X73.303 Y-154.527 Z-2.000 I0.683 J-1.878 K0.000 F139.800
G2 X72.108 Y-157.088 Z-2.000 I-1.878 J-0.683 K0.000 F139.800
G2 X69.427 Y-155.187 Z-2.000 I-0.683 J1.878 K0.000 F139.800
G1 X69.427 Y-155.187 Z-2.333 F60.000
G2 X70.742 Y-153.332 Z-2.333 I1.998 J-0.023 K0.000 F139.800
G2 X73.303 Y-154.527 Z-2.333 I0.683 J-1.878 K0.000 F139.800
G2 X72.108 Y-157.088 Z-2.333 I-1.878 J-0.683 K0.000 F139.800
G2 X69.427 Y-155.187 Z-2.333 I-0.683 J1.878 K0.000 F139.800
G1 X69.427 Y-155.187 Z-2.667 F60.000
G2 X70.742 Y-153.332 Z-2.667 I1.998 J-0.023 K0.000 F139.800
G2 X73.303 Y-154.527 Z-2.667 I0.683 J-1.878 K0.000 F139.800
G2 X72.108 Y-157.088 Z-2.667 I-1.878 J-0.683 K0.000 F139.800
G2 X69.427 Y-155.187 Z-2.667 I-0.683 J1.878 K0.000 F139.800
G1 X69.427 Y-155.187 Z-3.000 F60.000
G2 X70.742 Y-153.332 Z-3.000 I1.998 J-0.023 K0.000 F139.800
G2 X73.303 Y-154.527 Z-3.000 I0.683 J-1.878 K0.000 F139.800
G2 X72.108 Y-157.088 Z-3.000 I-1.878 J-0.683 K0.000 F139.800
G2 X69.427 Y-155.187 Z-3.000 I-0.683 J1.878 K0.000 F139.800
G0 Z6.000
G0 Z6.000
(Finish operation: Profile003)
(Begin postamble)
M5
G17 G90
M2
