(Exported by FreeCAD)
(Post Processor: grbl_post)
(Output Time:2020-08-24 07:59:57.917521)
(Begin preamble)
G17 G90
G21
(Begin operation: Fixture)
(Path: Fixture)
G54
(Finish operation: Fixture)
(Begin operation: T37: Two-flute 1mm x 7mm001)
(Path: T37: Two-flute 1mm x 7mm001)
(T37: Two-flute 1mm x 7mm001)
(Begin toolchange)
(M6 T37.0)
M3 S7400.0
(Finish operation: T37: Two-flute 1mm x 7mm001)
(Begin operation: DressupTag003)
(Path: DressupTag003)
G0 Z2.000
G0 X174.712 Y-1.821 Z2.000
G0 X174.712 Y-1.821 Z1.000
G1 X174.712 Y-1.821 Z-0.333 F60.000
G3 X171.713 Y-0.504 Z-0.333 I-3.185 J-3.180 K0.000 F150.000
G3 X168.521 Y-0.500 Z-0.333 I-1.684 J-73.013 K0.000 F150.000
G3 X168.029 Y-1.000 Z-0.333 I0.008 J-0.500 K0.000 F150.000
G1 X168.029 Y-6.500 Z-0.333 F150.000
G1 X168.176 Y-6.646 Z-0.333 F150.000
G1 X168.029 Y-6.500 Z-0.333 F150.000
G1 X161.786 Y-6.500 Z-0.333 F150.000
G1 X161.640 Y-6.646 Z-0.333 F150.000
G1 X161.786 Y-6.500 Z-0.333 F150.000
G1 X161.786 Y-1.000 Z-0.333 F150.000
G3 X161.286 Y-0.500 Z-0.333 I-0.500 J-0.000 K0.000 F150.000
G1 X15.243 Y-0.500 Z-0.333 F150.000
G3 X14.743 Y-1.000 Z-0.333 I0.000 J-0.500 K0.000 F150.000
G1 X14.743 Y-6.500 Z-0.333 F150.000
G1 X14.889 Y-6.646 Z-0.333 F150.000
G1 X14.743 Y-6.500 Z-0.333 F150.000
G1 X8.500 Y-6.500 Z-0.333 F150.000
G1 X8.354 Y-6.646 Z-0.333 F150.000
G1 X8.500 Y-6.500 Z-0.333 F150.000
G1 X8.500 Y-1.000 Z-0.333 F150.000
G3 X8.000 Y-0.500 Z-0.333 I-0.500 J-0.000 K0.000 F150.000
G1 X4.965 Y-0.501 Z-0.333 F150.000
G3 X0.504 Y-4.816 Z-0.333 I0.035 J-4.501 K0.000 F150.000
G3 X0.544 Y-9.620 Z-0.333 I56.425 J-1.933 K0.000 F150.000
G3 X5.000 Y-13.500 Z-0.333 I4.458 J0.621 K0.000 F150.000
G1 X171.564 Y-13.499 Z-0.333 F150.000
G3 X176.025 Y-9.184 Z-0.333 I-0.035 J4.501 K0.000 F150.000
G3 X176.028 Y-4.965 Z-0.333 I-94.683 J2.170 K0.000 F150.000
G3 X174.712 Y-1.821 Z-0.333 I-4.501 J-0.035 K0.000 F150.000
G1 X174.712 Y-1.821 Z-0.667 F60.000
G3 X171.713 Y-0.504 Z-0.667 I-3.185 J-3.180 K0.000 F150.000
G3 X168.521 Y-0.500 Z-0.667 I-1.684 J-73.013 K0.000 F150.000
G3 X168.029 Y-1.000 Z-0.667 I0.008 J-0.500 K0.000 F150.000
G1 X168.029 Y-6.500 Z-0.667 F150.000
G1 X168.176 Y-6.646 Z-0.667 F150.000
G1 X168.029 Y-6.500 Z-0.667 F150.000
G1 X161.786 Y-6.500 Z-0.667 F150.000
G1 X161.640 Y-6.646 Z-0.667 F150.000
G1 X161.786 Y-6.500 Z-0.667 F150.000
G1 X161.786 Y-1.000 Z-0.667 F150.000
G3 X161.286 Y-0.500 Z-0.667 I-0.500 J-0.000 K0.000 F150.000
G1 X15.243 Y-0.500 Z-0.667 F150.000
G3 X14.743 Y-1.000 Z-0.667 I0.000 J-0.500 K0.000 F150.000
G1 X14.743 Y-6.500 Z-0.667 F150.000
G1 X14.889 Y-6.646 Z-0.667 F150.000
G1 X14.743 Y-6.500 Z-0.667 F150.000
G1 X8.500 Y-6.500 Z-0.667 F150.000
G1 X8.354 Y-6.646 Z-0.667 F150.000
G1 X8.500 Y-6.500 Z-0.667 F150.000
G1 X8.500 Y-1.000 Z-0.667 F150.000
G3 X8.000 Y-0.500 Z-0.667 I-0.500 J-0.000 K0.000 F150.000
G1 X4.965 Y-0.501 Z-0.667 F150.000
G3 X0.504 Y-4.816 Z-0.667 I0.035 J-4.501 K0.000 F150.000
G3 X0.544 Y-9.620 Z-0.667 I56.425 J-1.933 K0.000 F150.000
G3 X5.000 Y-13.500 Z-0.667 I4.458 J0.621 K0.000 F150.000
G1 X171.564 Y-13.499 Z-0.667 F150.000
G3 X176.025 Y-9.184 Z-0.667 I-0.035 J4.501 K0.000 F150.000
G3 X176.028 Y-4.965 Z-0.667 I-94.683 J2.170 K0.000 F150.000
G3 X174.712 Y-1.821 Z-0.667 I-4.501 J-0.035 K0.000 F150.000
G1 X174.712 Y-1.821 Z-1.000 F60.000
G3 X171.713 Y-0.504 Z-1.000 I-3.185 J-3.180 K0.000 F150.000
G3 X168.521 Y-0.500 Z-1.000 I-1.684 J-73.013 K0.000 F150.000
G3 X168.029 Y-1.000 Z-1.000 I0.008 J-0.500 K0.000 F150.000
G1 X168.029 Y-6.500 Z-1.000 F150.000
G1 X168.176 Y-6.646 Z-1.000 F150.000
G1 X168.029 Y-6.500 Z-1.000 F150.000
G1 X161.786 Y-6.500 Z-1.000 F150.000
G1 X161.640 Y-6.646 Z-1.000 F150.000
G1 X161.786 Y-6.500 Z-1.000 F150.000
G1 X161.786 Y-1.000 Z-1.000 F150.000
G3 X161.286 Y-0.500 Z-1.000 I-0.500 J-0.000 K0.000 F150.000
G1 X15.243 Y-0.500 Z-1.000 F150.000
G3 X14.743 Y-1.000 Z-1.000 I0.000 J-0.500 K0.000 F150.000
G1 X14.743 Y-6.500 Z-1.000 F150.000
G1 X14.889 Y-6.646 Z-1.000 F150.000
G1 X14.743 Y-6.500 Z-1.000 F150.000
G1 X8.500 Y-6.500 Z-1.000 F150.000
G1 X8.354 Y-6.646 Z-1.000 F150.000
G1 X8.500 Y-6.500 Z-1.000 F150.000
G1 X8.500 Y-1.000 Z-1.000 F150.000
G3 X8.000 Y-0.500 Z-1.000 I-0.500 J-0.000 K0.000 F150.000
G1 X4.965 Y-0.501 Z-1.000 F150.000
G3 X0.504 Y-4.816 Z-1.000 I0.035 J-4.501 K0.000 F150.000
G3 X0.544 Y-9.620 Z-1.000 I56.425 J-1.933 K0.000 F150.000
G3 X5.000 Y-13.500 Z-1.000 I4.458 J0.621 K0.000 F150.000
G1 X171.564 Y-13.499 Z-1.000 F150.000
G3 X176.025 Y-9.184 Z-1.000 I-0.035 J4.501 K0.000 F150.000
G3 X176.028 Y-4.965 Z-1.000 I-94.683 J2.170 K0.000 F150.000
G3 X174.712 Y-1.821 Z-1.000 I-4.501 J-0.035 K0.000 F150.000
G1 X174.712 Y-1.821 Z-1.333 F60.000
G3 X171.713 Y-0.504 Z-1.333 I-3.185 J-3.180 K0.000 F150.000
G3 X168.521 Y-0.500 Z-1.333 I-1.684 J-73.013 K0.000 F150.000
G3 X168.029 Y-1.000 Z-1.333 I0.008 J-0.500 K0.000 F150.000
G1 X168.029 Y-6.500 Z-1.333 F150.000
G1 X168.176 Y-6.646 Z-1.333 F150.000
G1 X168.029 Y-6.500 Z-1.333 F150.000
G1 X161.786 Y-6.500 Z-1.333 F150.000
G1 X161.640 Y-6.646 Z-1.333 F150.000
G1 X161.786 Y-6.500 Z-1.333 F150.000
G1 X161.786 Y-1.000 Z-1.333 F150.000
G3 X161.286 Y-0.500 Z-1.333 I-0.500 J-0.000 K0.000 F150.000
G1 X151.399 Y-0.500 Z-1.333 F150.000
G1 X151.066 Y-0.500 Z-1.000 F105.000
G1 X150.106 Y-0.500 Z-1.000 F150.000
G1 X149.773 Y-0.500 Z-1.333 F105.000
G1 X52.567 Y-0.500 Z-1.333 F150.000
G1 X52.234 Y-0.500 Z-1.000 F105.000
G1 X51.274 Y-0.500 Z-1.000 F150.000
G1 X50.940 Y-0.500 Z-1.333 F105.000
G1 X15.243 Y-0.500 Z-1.333 F150.000
G3 X14.743 Y-1.000 Z-1.333 I0.000 J-0.500 K0.000 F150.000
G1 X14.743 Y-6.500 Z-1.333 F150.000
G1 X14.889 Y-6.646 Z-1.333 F150.000
G1 X14.743 Y-6.500 Z-1.333 F150.000
G1 X8.500 Y-6.500 Z-1.333 F150.000
G1 X8.354 Y-6.646 Z-1.333 F150.000
G1 X8.500 Y-6.500 Z-1.333 F150.000
G1 X8.500 Y-1.000 Z-1.333 F150.000
G3 X8.000 Y-0.500 Z-1.333 I-0.500 J-0.000 K0.000 F150.000
G1 X4.965 Y-0.501 Z-1.333 F150.000
G3 X0.504 Y-4.816 Z-1.333 I0.035 J-4.501 K0.000 F150.000
G3 X0.544 Y-9.620 Z-1.333 I56.425 J-1.933 K0.000 F150.000
G3 X5.000 Y-13.500 Z-1.333 I4.458 J0.621 K0.000 F150.000
G1 X45.828 Y-13.500 Z-1.333 F150.000
G1 X46.161 Y-13.500 Z-1.000 F105.000
G1 X47.121 Y-13.500 Z-1.000 F150.000
G1 X47.454 Y-13.500 Z-1.333 F105.000
G1 X77.422 Y-13.499 Z-1.333 F150.000
G1 X77.756 Y-13.499 Z-1.000 F105.000
G1 X78.716 Y-13.499 Z-1.000 F150.000
G1 X79.049 Y-13.499 Z-1.333 F105.000
G1 X129.109 Y-13.499 Z-1.333 F150.000
G1 X129.443 Y-13.499 Z-1.000 F105.000
G1 X130.403 Y-13.499 Z-1.000 F150.000
G1 X130.736 Y-13.499 Z-1.333 F105.000
G1 X171.564 Y-13.499 Z-1.333 F150.000
G3 X176.025 Y-9.184 Z-1.333 I-0.035 J4.501 K0.000 F150.000
G3 X176.028 Y-4.965 Z-1.333 I-94.683 J2.170 K0.000 F150.000
G3 X174.712 Y-1.821 Z-1.333 I-4.501 J-0.035 K0.000 F150.000
G1 X174.712 Y-1.821 Z-1.667 F60.000
G3 X171.713 Y-0.504 Z-1.667 I-3.185 J-3.180 K0.000 F150.000
G3 X168.521 Y-0.500 Z-1.667 I-1.684 J-73.013 K0.000 F150.000
G3 X168.029 Y-1.000 Z-1.667 I0.008 J-0.500 K0.000 F150.000
G1 X168.029 Y-6.500 Z-1.667 F150.000
G1 X168.176 Y-6.646 Z-1.667 F150.000
G1 X168.029 Y-6.500 Z-1.667 F150.000
G1 X161.786 Y-6.500 Z-1.667 F150.000
G1 X161.640 Y-6.646 Z-1.667 F150.000
G1 X161.786 Y-6.500 Z-1.667 F150.000
G1 X161.786 Y-1.000 Z-1.667 F150.000
G3 X161.286 Y-0.500 Z-1.667 I-0.500 J-0.000 K0.000 F150.000
G1 X151.733 Y-0.500 Z-1.667 F150.000
G1 X151.066 Y-0.500 Z-1.000 F105.000
G1 X150.106 Y-0.500 Z-1.000 F150.000
G1 X149.439 Y-0.500 Z-1.667 F105.000
G1 X52.900 Y-0.500 Z-1.667 F150.000
G1 X52.234 Y-0.500 Z-1.000 F105.000
G1 X51.274 Y-0.500 Z-1.000 F150.000
G1 X50.607 Y-0.500 Z-1.667 F105.000
G1 X15.243 Y-0.500 Z-1.667 F150.000
G3 X14.743 Y-1.000 Z-1.667 I0.000 J-0.500 K0.000 F150.000
G1 X14.743 Y-6.500 Z-1.667 F150.000
G1 X14.889 Y-6.646 Z-1.667 F150.000
G1 X14.743 Y-6.500 Z-1.667 F150.000
G1 X8.500 Y-6.500 Z-1.667 F150.000
G1 X8.354 Y-6.646 Z-1.667 F150.000
G1 X8.500 Y-6.500 Z-1.667 F150.000
G1 X8.500 Y-1.000 Z-1.667 F150.000
G3 X8.000 Y-0.500 Z-1.667 I-0.500 J-0.000 K0.000 F150.000
G1 X4.965 Y-0.501 Z-1.667 F150.000
G3 X0.504 Y-4.816 Z-1.667 I0.035 J-4.501 K0.000 F150.000
G3 X0.544 Y-9.620 Z-1.667 I56.425 J-1.933 K0.000 F150.000
G3 X5.000 Y-13.500 Z-1.667 I4.458 J0.621 K0.000 F150.000
G1 X45.494 Y-13.500 Z-1.667 F150.000
G1 X46.161 Y-13.500 Z-1.000 F105.000
G1 X47.121 Y-13.500 Z-1.000 F150.000
G1 X47.788 Y-13.500 Z-1.667 F105.000
G1 X77.089 Y-13.499 Z-1.667 F150.000
G1 X77.756 Y-13.499 Z-1.000 F105.000
G1 X78.716 Y-13.499 Z-1.000 F150.000
G1 X79.382 Y-13.499 Z-1.667 F105.000
G1 X128.776 Y-13.499 Z-1.667 F150.000
G1 X129.443 Y-13.499 Z-1.000 F105.000
G1 X130.403 Y-13.499 Z-1.000 F150.000
G1 X131.069 Y-13.499 Z-1.667 F105.000
G1 X171.564 Y-13.499 Z-1.667 F150.000
G3 X176.025 Y-9.184 Z-1.667 I-0.035 J4.501 K0.000 F150.000
G3 X176.028 Y-4.965 Z-1.667 I-94.683 J2.170 K0.000 F150.000
G3 X174.712 Y-1.821 Z-1.667 I-4.501 J-0.035 K0.000 F150.000
G1 X174.712 Y-1.821 Z-2.000 F60.000
G3 X171.713 Y-0.504 Z-2.000 I-3.185 J-3.180 K0.000 F150.000
G3 X168.521 Y-0.500 Z-2.000 I-1.684 J-73.013 K0.000 F150.000
G3 X168.029 Y-1.000 Z-2.000 I0.008 J-0.500 K0.000 F150.000
G1 X168.029 Y-6.500 Z-2.000 F150.000
G1 X168.176 Y-6.646 Z-2.000 F150.000
G1 X168.029 Y-6.500 Z-2.000 F150.000
G1 X161.786 Y-6.500 Z-2.000 F150.000
G1 X161.640 Y-6.646 Z-2.000 F150.000
G1 X161.786 Y-6.500 Z-2.000 F150.000
G1 X161.786 Y-1.000 Z-2.000 F150.000
G3 X161.286 Y-0.500 Z-2.000 I-0.500 J-0.000 K0.000 F150.000
G1 X152.066 Y-0.500 Z-2.000 F150.000
G1 X151.066 Y-0.500 Z-1.000 F105.000
G1 X150.106 Y-0.500 Z-1.000 F150.000
G1 X149.106 Y-0.500 Z-2.000 F105.000
G1 X53.234 Y-0.500 Z-2.000 F150.000
G1 X52.234 Y-0.500 Z-1.000 F105.000
G1 X51.274 Y-0.500 Z-1.000 F150.000
G1 X50.274 Y-0.500 Z-2.000 F105.000
G1 X15.243 Y-0.500 Z-2.000 F150.000
G3 X14.743 Y-1.000 Z-2.000 I0.000 J-0.500 K0.000 F150.000
G1 X14.743 Y-6.500 Z-2.000 F150.000
G1 X14.889 Y-6.646 Z-2.000 F150.000
G1 X14.743 Y-6.500 Z-2.000 F150.000
G1 X8.500 Y-6.500 Z-2.000 F150.000
G1 X8.354 Y-6.646 Z-2.000 F150.000
G1 X8.500 Y-6.500 Z-2.000 F150.000
G1 X8.500 Y-1.000 Z-2.000 F150.000
G3 X8.000 Y-0.500 Z-2.000 I-0.500 J-0.000 K0.000 F150.000
G1 X4.965 Y-0.501 Z-2.000 F150.000
G3 X0.504 Y-4.816 Z-2.000 I0.035 J-4.501 K0.000 F150.000
G3 X0.544 Y-9.620 Z-2.000 I56.425 J-1.933 K0.000 F150.000
G3 X5.000 Y-13.500 Z-2.000 I4.458 J0.621 K0.000 F150.000
G1 X45.161 Y-13.500 Z-2.000 F150.000
G1 X46.161 Y-13.500 Z-1.000 F105.000
G1 X47.121 Y-13.500 Z-1.000 F150.000
G1 X48.121 Y-13.500 Z-2.000 F105.000
G1 X76.756 Y-13.499 Z-2.000 F150.000
G1 X77.756 Y-13.499 Z-1.000 F105.000
G1 X78.716 Y-13.499 Z-1.000 F150.000
G1 X79.716 Y-13.499 Z-2.000 F105.000
G1 X128.443 Y-13.499 Z-2.000 F150.000
G1 X129.443 Y-13.499 Z-1.000 F105.000
G1 X130.403 Y-13.499 Z-1.000 F150.000
G1 X131.403 Y-13.499 Z-2.000 F105.000
G1 X171.564 Y-13.499 Z-2.000 F150.000
G3 X176.025 Y-9.184 Z-2.000 I-0.035 J4.501 K0.000 F150.000
G3 X176.028 Y-4.965 Z-2.000 I-94.683 J2.170 K0.000 F150.000
G3 X174.712 Y-1.821 Z-2.000 I-4.501 J-0.035 K0.000 F150.000
G1 X174.712 Y-1.821 Z-2.333 F60.000
G3 X171.713 Y-0.504 Z-2.333 I-3.185 J-3.180 K0.000 F150.000
G3 X168.521 Y-0.500 Z-2.333 I-1.684 J-73.013 K0.000 F150.000
G3 X168.029 Y-1.000 Z-2.333 I0.008 J-0.500 K0.000 F150.000
G1 X168.029 Y-6.500 Z-2.333 F150.000
G1 X168.176 Y-6.646 Z-2.333 F150.000
G1 X168.029 Y-6.500 Z-2.333 F150.000
G1 X161.786 Y-6.500 Z-2.333 F150.000
G1 X161.640 Y-6.646 Z-2.333 F150.000
G1 X161.786 Y-6.500 Z-2.333 F150.000
G1 X161.786 Y-1.000 Z-2.333 F150.000
G3 X161.286 Y-0.500 Z-2.333 I-0.500 J-0.000 K0.000 F150.000
G1 X152.399 Y-0.500 Z-2.333 F150.000
G1 X151.066 Y-0.500 Z-1.000 F105.000
G1 X150.106 Y-0.500 Z-1.000 F150.000
G1 X148.773 Y-0.500 Z-2.333 F105.000
G1 X53.567 Y-0.500 Z-2.333 F150.000
G1 X52.234 Y-0.500 Z-1.000 F105.000
G1 X51.274 Y-0.500 Z-1.000 F150.000
G1 X49.940 Y-0.500 Z-2.333 F105.000
G1 X15.243 Y-0.500 Z-2.333 F150.000
G3 X14.743 Y-1.000 Z-2.333 I0.000 J-0.500 K0.000 F150.000
G1 X14.743 Y-6.500 Z-2.333 F150.000
G1 X14.889 Y-6.646 Z-2.333 F150.000
G1 X14.743 Y-6.500 Z-2.333 F150.000
G1 X8.500 Y-6.500 Z-2.333 F150.000
G1 X8.354 Y-6.646 Z-2.333 F150.000
G1 X8.500 Y-6.500 Z-2.333 F150.000
G1 X8.500 Y-1.000 Z-2.333 F150.000
G3 X8.000 Y-0.500 Z-2.333 I-0.500 J-0.000 K0.000 F150.000
G1 X4.965 Y-0.501 Z-2.333 F150.000
G3 X0.504 Y-4.816 Z-2.333 I0.035 J-4.501 K0.000 F150.000
G3 X0.544 Y-9.620 Z-2.333 I56.425 J-1.933 K0.000 F150.000
G3 X5.000 Y-13.500 Z-2.333 I4.458 J0.621 K0.000 F150.000
G1 X44.828 Y-13.500 Z-2.333 F150.000
G1 X46.161 Y-13.500 Z-1.000 F105.000
G1 X47.121 Y-13.500 Z-1.000 F150.000
G1 X48.454 Y-13.500 Z-2.333 F105.000
G1 X76.422 Y-13.500 Z-2.333 F150.000
G1 X77.756 Y-13.499 Z-1.000 F105.000
G1 X78.716 Y-13.499 Z-1.000 F150.000
G1 X80.049 Y-13.499 Z-2.333 F105.000
G1 X128.109 Y-13.499 Z-2.333 F150.000
G1 X129.443 Y-13.499 Z-1.000 F105.000
G1 X130.403 Y-13.499 Z-1.000 F150.000
G1 X131.736 Y-13.499 Z-2.333 F105.000
G1 X171.564 Y-13.499 Z-2.333 F150.000
G3 X176.025 Y-9.184 Z-2.333 I-0.035 J4.501 K0.000 F150.000
G3 X176.028 Y-4.965 Z-2.333 I-94.683 J2.170 K0.000 F150.000
G3 X174.712 Y-1.821 Z-2.333 I-4.501 J-0.035 K0.000 F150.000
G1 X174.712 Y-1.821 Z-2.667 F60.000
G3 X171.713 Y-0.504 Z-2.667 I-3.185 J-3.180 K0.000 F150.000
G3 X168.521 Y-0.500 Z-2.667 I-1.684 J-73.013 K0.000 F150.000
G3 X168.029 Y-1.000 Z-2.667 I0.008 J-0.500 K0.000 F150.000
G1 X168.029 Y-6.500 Z-2.667 F150.000
G1 X168.176 Y-6.646 Z-2.667 F150.000
G1 X168.029 Y-6.500 Z-2.667 F150.000
G1 X161.786 Y-6.500 Z-2.667 F150.000
G1 X161.640 Y-6.646 Z-2.667 F150.000
G1 X161.786 Y-6.500 Z-2.667 F150.000
G1 X161.786 Y-1.000 Z-2.667 F150.000
G3 X161.286 Y-0.500 Z-2.667 I-0.500 J-0.000 K0.000 F150.000
G1 X152.733 Y-0.500 Z-2.667 F150.000
G1 X151.066 Y-0.500 Z-1.000 F105.000
G1 X150.106 Y-0.500 Z-1.000 F150.000
G1 X148.439 Y-0.500 Z-2.667 F105.000
G1 X53.900 Y-0.500 Z-2.667 F150.000
G1 X52.234 Y-0.500 Z-1.000 F105.000
G1 X51.274 Y-0.500 Z-1.000 F150.000
G1 X49.607 Y-0.500 Z-2.667 F105.000
G1 X15.243 Y-0.500 Z-2.667 F150.000
G3 X14.743 Y-1.000 Z-2.667 I0.000 J-0.500 K0.000 F150.000
G1 X14.743 Y-6.500 Z-2.667 F150.000
G1 X14.889 Y-6.646 Z-2.667 F150.000
G1 X14.743 Y-6.500 Z-2.667 F150.000
G1 X8.500 Y-6.500 Z-2.667 F150.000
G1 X8.354 Y-6.646 Z-2.667 F150.000
G1 X8.500 Y-6.500 Z-2.667 F150.000
G1 X8.500 Y-1.000 Z-2.667 F150.000
G3 X8.000 Y-0.500 Z-2.667 I-0.500 J-0.000 K0.000 F150.000
G1 X4.965 Y-0.501 Z-2.667 F150.000
G3 X0.504 Y-4.816 Z-2.667 I0.035 J-4.501 K0.000 F150.000
G3 X0.544 Y-9.620 Z-2.667 I56.425 J-1.933 K0.000 F150.000
G3 X5.000 Y-13.500 Z-2.667 I4.458 J0.621 K0.000 F150.000
G1 X44.494 Y-13.500 Z-2.667 F150.000
G1 X46.161 Y-13.500 Z-1.000 F105.000
G1 X47.121 Y-13.500 Z-1.000 F150.000
G1 X48.788 Y-13.500 Z-2.667 F105.000
G1 X76.089 Y-13.500 Z-2.667 F150.000
G1 X77.756 Y-13.499 Z-1.000 F105.000
G1 X78.716 Y-13.499 Z-1.000 F150.000
G1 X80.382 Y-13.499 Z-2.667 F105.000
G1 X127.776 Y-13.499 Z-2.667 F150.000
G1 X129.443 Y-13.499 Z-1.000 F105.000
G1 X130.403 Y-13.499 Z-1.000 F150.000
G1 X132.069 Y-13.499 Z-2.667 F105.000
G1 X171.564 Y-13.499 Z-2.667 F150.000
G3 X176.025 Y-9.184 Z-2.667 I-0.035 J4.501 K0.000 F150.000
G3 X176.028 Y-4.965 Z-2.667 I-94.683 J2.170 K0.000 F150.000
G3 X174.712 Y-1.821 Z-2.667 I-4.501 J-0.035 K0.000 F150.000
G1 X174.712 Y-1.821 Z-3.000 F60.000
G3 X171.713 Y-0.504 Z-3.000 I-3.185 J-3.180 K0.000 F150.000
G3 X168.521 Y-0.500 Z-3.000 I-1.684 J-73.013 K0.000 F150.000
G3 X168.029 Y-1.000 Z-3.000 I0.008 J-0.500 K0.000 F150.000
G1 X168.029 Y-6.500 Z-3.000 F150.000
G1 X168.176 Y-6.646 Z-3.000 F150.000
G1 X168.029 Y-6.500 Z-3.000 F150.000
G1 X161.786 Y-6.500 Z-3.000 F150.000
G1 X161.640 Y-6.646 Z-3.000 F150.000
G1 X161.786 Y-6.500 Z-3.000 F150.000
G1 X161.786 Y-1.000 Z-3.000 F150.000
G3 X161.286 Y-0.500 Z-3.000 I-0.500 J-0.000 K0.000 F150.000
G1 X153.066 Y-0.500 Z-3.000 F150.000
G1 X151.066 Y-0.500 Z-1.000 F105.000
G1 X150.106 Y-0.500 Z-1.000 F150.000
G1 X148.106 Y-0.500 Z-3.000 F105.000
G1 X54.234 Y-0.500 Z-3.000 F150.000
G1 X52.234 Y-0.500 Z-1.000 F105.000
G1 X51.274 Y-0.500 Z-1.000 F150.000
G1 X49.274 Y-0.500 Z-3.000 F105.000
G1 X15.243 Y-0.500 Z-3.000 F150.000
G3 X14.743 Y-1.000 Z-3.000 I0.000 J-0.500 K0.000 F150.000
G1 X14.743 Y-6.500 Z-3.000 F150.000
G1 X14.889 Y-6.646 Z-3.000 F150.000
G1 X14.743 Y-6.500 Z-3.000 F150.000
G1 X8.500 Y-6.500 Z-3.000 F150.000
G1 X8.354 Y-6.646 Z-3.000 F150.000
G1 X8.500 Y-6.500 Z-3.000 F150.000
G1 X8.500 Y-1.000 Z-3.000 F150.000
G3 X8.000 Y-0.500 Z-3.000 I-0.500 J-0.000 K0.000 F150.000
G1 X4.965 Y-0.501 Z-3.000 F150.000
G3 X0.504 Y-4.816 Z-3.000 I0.035 J-4.501 K0.000 F150.000
G3 X0.544 Y-9.620 Z-3.000 I56.425 J-1.933 K0.000 F150.000
G3 X5.000 Y-13.500 Z-3.000 I4.458 J0.621 K0.000 F150.000
G1 X44.161 Y-13.500 Z-3.000 F150.000
G1 X46.161 Y-13.500 Z-1.000 F105.000
G1 X47.121 Y-13.500 Z-1.000 F150.000
G1 X49.121 Y-13.500 Z-3.000 F105.000
G1 X75.756 Y-13.500 Z-3.000 F150.000
G1 X77.756 Y-13.499 Z-1.000 F105.000
G1 X78.716 Y-13.499 Z-1.000 F150.000
G1 X80.716 Y-13.499 Z-3.000 F105.000
G1 X127.443 Y-13.499 Z-3.000 F150.000
G1 X129.443 Y-13.499 Z-1.000 F105.000
G1 X130.403 Y-13.499 Z-1.000 F150.000
G1 X132.403 Y-13.499 Z-3.000 F105.000
G1 X171.564 Y-13.499 Z-3.000 F150.000
G3 X176.025 Y-9.184 Z-3.000 I-0.035 J4.501 K0.000 F150.000
G3 X176.028 Y-4.965 Z-3.000 I-94.683 J2.170 K0.000 F150.000
G3 X174.712 Y-1.821 Z-3.000 I-4.501 J-0.035 K0.000 F150.000
G1 X174.712 Y-1.821 Z-3.000 F60.000
G3 X171.713 Y-0.504 Z-3.000 I-3.185 J-3.180 K0.000 F150.000
G3 X168.521 Y-0.500 Z-3.000 I-1.684 J-73.013 K0.000 F150.000
G3 X168.029 Y-1.000 Z-3.000 I0.008 J-0.500 K0.000 F150.000
G1 X168.029 Y-6.500 Z-3.000 F150.000
G1 X168.176 Y-6.646 Z-3.000 F150.000
G1 X168.029 Y-6.500 Z-3.000 F150.000
G1 X161.786 Y-6.500 Z-3.000 F150.000
G1 X161.640 Y-6.646 Z-3.000 F150.000
G1 X161.786 Y-6.500 Z-3.000 F150.000
G1 X161.786 Y-1.000 Z-3.000 F150.000
G3 X161.286 Y-0.500 Z-3.000 I-0.500 J-0.000 K0.000 F150.000
G1 X153.066 Y-0.500 Z-3.000 F150.000
G1 X151.066 Y-0.500 Z-1.000 F105.000
G1 X150.106 Y-0.500 Z-1.000 F150.000
G1 X148.106 Y-0.500 Z-3.000 F105.000
G1 X54.234 Y-0.500 Z-3.000 F150.000
G1 X52.234 Y-0.500 Z-1.000 F105.000
G1 X51.274 Y-0.500 Z-1.000 F150.000
G1 X49.274 Y-0.500 Z-3.000 F105.000
G1 X15.243 Y-0.500 Z-3.000 F150.000
G3 X14.743 Y-1.000 Z-3.000 I0.000 J-0.500 K0.000 F150.000
G1 X14.743 Y-6.500 Z-3.000 F150.000
G1 X14.889 Y-6.646 Z-3.000 F150.000
G1 X14.743 Y-6.500 Z-3.000 F150.000
G1 X8.500 Y-6.500 Z-3.000 F150.000
G1 X8.354 Y-6.646 Z-3.000 F150.000
G1 X8.500 Y-6.500 Z-3.000 F150.000
G1 X8.500 Y-1.000 Z-3.000 F150.000
G3 X8.000 Y-0.500 Z-3.000 I-0.500 J-0.000 K0.000 F150.000
G1 X4.965 Y-0.501 Z-3.000 F150.000
G3 X0.504 Y-4.816 Z-3.000 I0.035 J-4.501 K0.000 F150.000
G3 X0.544 Y-9.620 Z-3.000 I56.425 J-1.933 K0.000 F150.000
G3 X5.000 Y-13.500 Z-3.000 I4.458 J0.621 K0.000 F150.000
G1 X44.161 Y-13.500 Z-3.000 F150.000
G1 X46.161 Y-13.500 Z-1.000 F105.000
G1 X47.121 Y-13.500 Z-1.000 F150.000
G1 X49.121 Y-13.500 Z-3.000 F105.000
G1 X75.756 Y-13.500 Z-3.000 F150.000
G1 X77.756 Y-13.499 Z-1.000 F105.000
G1 X78.716 Y-13.499 Z-1.000 F150.000
G1 X80.716 Y-13.499 Z-3.000 F105.000
G1 X127.443 Y-13.499 Z-3.000 F150.000
G1 X129.443 Y-13.499 Z-1.000 F105.000
G1 X130.403 Y-13.499 Z-1.000 F150.000
G1 X132.403 Y-13.499 Z-3.000 F105.000
G1 X171.564 Y-13.499 Z-3.000 F150.000
G3 X176.025 Y-9.184 Z-3.000 I-0.035 J4.501 K0.000 F150.000
G3 X176.028 Y-4.965 Z-3.000 I-94.683 J2.170 K0.000 F150.000
G3 X174.712 Y-1.821 Z-3.000 I-4.501 J-0.035 K0.000 F150.000
G0 X174.712 Y-1.821 Z2.000
(Finish operation: DressupTag003)
(Begin postamble)
M5
G17 G90
M2
