(Exported by FreeCAD)
(Post Processor: grbl_post)
(Output Time:2020-08-23 19:01:18.661378)
(Begin preamble)
G17 G90
G21
(Begin operation: Fixture)
(Path: Fixture)
G54
(Finish operation: Fixture)
(Begin operation: T37: Two-flute 1mm x 7mm)
(Path: T37: Two-flute 1mm x 7mm)
(T37: Two-flute 1mm x 7mm)
(Begin toolchange)
(M6 T37.0)
M3 S7400.0
(Finish operation: T37: Two-flute 1mm x 7mm)
(Begin operation: DogboneDressup)
(Path: DogboneDressup)
(Profile)
(Compensated Tool Path. Diameter: 1.0)
G0 Z2.000
G0 X37.333 Y24.453
G0 Z1.000
G1 X37.333 Y24.453 Z-0.333 F60.000
G1 X37.333 Y22.453 Z-0.333 F150.000
G1 X37.479 Y22.307 Z-0.333 F150.000
G1 X37.333 Y22.453 Z-0.333 F150.000
G1 X27.833 Y22.453 Z-0.333 F150.000
G3 X27.333 Y21.953 Z-0.333 I-0.000 J-0.500 K0.000 F150.000
G1 X27.333 Y20.332 Z-0.333 F150.000
G1 X27.479 Y20.186 Z-0.333 F150.000
G1 X27.333 Y20.332 Z-0.333 F150.000
G1 X18.333 Y20.332 Z-0.333 F150.000
G1 X18.333 Y20.332 Z-0.333 F150.000
G1 X18.186 Y20.186 Z-0.333 F150.000
G1 X18.333 Y20.332 Z-0.333 F150.000
G1 X18.333 Y26.575 Z-0.333 F150.000
G1 X18.333 Y26.575 Z-0.333 F150.000
G1 X18.186 Y26.721 Z-0.333 F150.000
G1 X18.333 Y26.575 Z-0.333 F150.000
G1 X27.333 Y26.575 Z-0.333 F150.000
G1 X27.333 Y26.575 Z-0.333 F150.000
G1 X27.479 Y26.721 Z-0.333 F150.000
G1 X27.333 Y26.575 Z-0.333 F150.000
G1 X27.333 Y24.953 Z-0.333 F150.000
G3 X27.833 Y24.453 Z-0.333 I0.500 J-0.000 K0.000 F150.000
G1 X37.333 Y24.453 Z-0.333 F150.000
G1 X37.479 Y24.600 Z-0.333 F150.000
G1 X37.333 Y24.453 Z-0.333 F150.000
G1 X37.333 Y24.453 Z-0.667 F60.000
G1 X37.333 Y22.453 Z-0.667 F150.000
G1 X37.479 Y22.307 Z-0.667 F150.000
G1 X37.333 Y22.453 Z-0.667 F150.000
G1 X27.833 Y22.453 Z-0.667 F150.000
G3 X27.333 Y21.953 Z-0.667 I-0.000 J-0.500 K0.000 F150.000
G1 X27.333 Y20.332 Z-0.667 F150.000
G1 X27.479 Y20.186 Z-0.667 F150.000
G1 X27.333 Y20.332 Z-0.667 F150.000
G1 X18.333 Y20.332 Z-0.667 F150.000
G1 X18.333 Y20.332 Z-0.667 F150.000
G1 X18.186 Y20.186 Z-0.667 F150.000
G1 X18.333 Y20.332 Z-0.667 F150.000
G1 X18.333 Y26.575 Z-0.667 F150.000
G1 X18.333 Y26.575 Z-0.667 F150.000
G1 X18.186 Y26.721 Z-0.667 F150.000
G1 X18.333 Y26.575 Z-0.667 F150.000
G1 X27.333 Y26.575 Z-0.667 F150.000
G1 X27.333 Y26.575 Z-0.667 F150.000
G1 X27.479 Y26.721 Z-0.667 F150.000
G1 X27.333 Y26.575 Z-0.667 F150.000
G1 X27.333 Y24.953 Z-0.667 F150.000
G3 X27.833 Y24.453 Z-0.667 I0.500 J-0.000 K0.000 F150.000
G1 X37.333 Y24.453 Z-0.667 F150.000
G1 X37.479 Y24.600 Z-0.667 F150.000
G1 X37.333 Y24.453 Z-0.667 F150.000
G1 X37.333 Y24.453 Z-1.000 F60.000
G1 X37.333 Y22.453 Z-1.000 F150.000
G1 X37.479 Y22.307 Z-1.000 F150.000
G1 X37.333 Y22.453 Z-1.000 F150.000
G1 X27.833 Y22.453 Z-1.000 F150.000
G3 X27.333 Y21.953 Z-1.000 I-0.000 J-0.500 K0.000 F150.000
G1 X27.333 Y20.332 Z-1.000 F150.000
G1 X27.479 Y20.186 Z-1.000 F150.000
G1 X27.333 Y20.332 Z-1.000 F150.000
G1 X18.333 Y20.332 Z-1.000 F150.000
G1 X18.333 Y20.332 Z-1.000 F150.000
G1 X18.186 Y20.186 Z-1.000 F150.000
G1 X18.333 Y20.332 Z-1.000 F150.000
G1 X18.333 Y26.575 Z-1.000 F150.000
G1 X18.333 Y26.575 Z-1.000 F150.000
G1 X18.186 Y26.721 Z-1.000 F150.000
G1 X18.333 Y26.575 Z-1.000 F150.000
G1 X27.333 Y26.575 Z-1.000 F150.000
G1 X27.333 Y26.575 Z-1.000 F150.000
G1 X27.479 Y26.721 Z-1.000 F150.000
G1 X27.333 Y26.575 Z-1.000 F150.000
G1 X27.333 Y24.953 Z-1.000 F150.000
G3 X27.833 Y24.453 Z-1.000 I0.500 J-0.000 K0.000 F150.000
G1 X37.333 Y24.453 Z-1.000 F150.000
G1 X37.479 Y24.600 Z-1.000 F150.000
G1 X37.333 Y24.453 Z-1.000 F150.000
G1 X37.333 Y24.453 Z-1.333 F60.000
G1 X37.333 Y22.453 Z-1.333 F150.000
G1 X37.479 Y22.307 Z-1.333 F150.000
G1 X37.333 Y22.453 Z-1.333 F150.000
G1 X27.833 Y22.453 Z-1.333 F150.000
G3 X27.333 Y21.953 Z-1.333 I-0.000 J-0.500 K0.000 F150.000
G1 X27.333 Y20.332 Z-1.333 F150.000
G1 X27.479 Y20.186 Z-1.333 F150.000
G1 X27.333 Y20.332 Z-1.333 F150.000
G1 X18.333 Y20.332 Z-1.333 F150.000
G1 X18.333 Y20.332 Z-1.333 F150.000
G1 X18.186 Y20.186 Z-1.333 F150.000
G1 X18.333 Y20.332 Z-1.333 F150.000
G1 X18.333 Y26.575 Z-1.333 F150.000
G1 X18.333 Y26.575 Z-1.333 F150.000
G1 X18.186 Y26.721 Z-1.333 F150.000
G1 X18.333 Y26.575 Z-1.333 F150.000
G1 X27.333 Y26.575 Z-1.333 F150.000
G1 X27.333 Y26.575 Z-1.333 F150.000
G1 X27.479 Y26.721 Z-1.333 F150.000
G1 X27.333 Y26.575 Z-1.333 F150.000
G1 X27.333 Y24.953 Z-1.333 F150.000
G3 X27.833 Y24.453 Z-1.333 I0.500 J-0.000 K0.000 F150.000
G1 X37.333 Y24.453 Z-1.333 F150.000
G1 X37.479 Y24.600 Z-1.333 F150.000
G1 X37.333 Y24.453 Z-1.333 F150.000
G1 X37.333 Y24.453 Z-1.667 F60.000
G1 X37.333 Y22.453 Z-1.667 F150.000
G1 X37.479 Y22.307 Z-1.667 F150.000
G1 X37.333 Y22.453 Z-1.667 F150.000
G1 X27.833 Y22.453 Z-1.667 F150.000
G3 X27.333 Y21.953 Z-1.667 I-0.000 J-0.500 K0.000 F150.000
G1 X27.333 Y20.332 Z-1.667 F150.000
G1 X27.479 Y20.186 Z-1.667 F150.000
G1 X27.333 Y20.332 Z-1.667 F150.000
G1 X18.333 Y20.332 Z-1.667 F150.000
G1 X18.333 Y20.332 Z-1.667 F150.000
G1 X18.186 Y20.186 Z-1.667 F150.000
G1 X18.333 Y20.332 Z-1.667 F150.000
G1 X18.333 Y26.575 Z-1.667 F150.000
G1 X18.333 Y26.575 Z-1.667 F150.000
G1 X18.186 Y26.721 Z-1.667 F150.000
G1 X18.333 Y26.575 Z-1.667 F150.000
G1 X27.333 Y26.575 Z-1.667 F150.000
G1 X27.333 Y26.575 Z-1.667 F150.000
G1 X27.479 Y26.721 Z-1.667 F150.000
G1 X27.333 Y26.575 Z-1.667 F150.000
G1 X27.333 Y24.953 Z-1.667 F150.000
G3 X27.833 Y24.453 Z-1.667 I0.500 J-0.000 K0.000 F150.000
G1 X37.333 Y24.453 Z-1.667 F150.000
G1 X37.479 Y24.600 Z-1.667 F150.000
G1 X37.333 Y24.453 Z-1.667 F150.000
G1 X37.333 Y24.453 Z-2.000 F60.000
G1 X37.333 Y22.453 Z-2.000 F150.000
G1 X37.479 Y22.307 Z-2.000 F150.000
G1 X37.333 Y22.453 Z-2.000 F150.000
G1 X27.833 Y22.453 Z-2.000 F150.000
G3 X27.333 Y21.953 Z-2.000 I-0.000 J-0.500 K0.000 F150.000
G1 X27.333 Y20.332 Z-2.000 F150.000
G1 X27.479 Y20.186 Z-2.000 F150.000
G1 X27.333 Y20.332 Z-2.000 F150.000
G1 X18.333 Y20.332 Z-2.000 F150.000
G1 X18.333 Y20.332 Z-2.000 F150.000
G1 X18.186 Y20.186 Z-2.000 F150.000
G1 X18.333 Y20.332 Z-2.000 F150.000
G1 X18.333 Y26.575 Z-2.000 F150.000
G1 X18.333 Y26.575 Z-2.000 F150.000
G1 X18.186 Y26.721 Z-2.000 F150.000
G1 X18.333 Y26.575 Z-2.000 F150.000
G1 X27.333 Y26.575 Z-2.000 F150.000
G1 X27.333 Y26.575 Z-2.000 F150.000
G1 X27.479 Y26.721 Z-2.000 F150.000
G1 X27.333 Y26.575 Z-2.000 F150.000
G1 X27.333 Y24.953 Z-2.000 F150.000
G3 X27.833 Y24.453 Z-2.000 I0.500 J-0.000 K0.000 F150.000
G1 X37.333 Y24.453 Z-2.000 F150.000
G1 X37.479 Y24.600 Z-2.000 F150.000
G1 X37.333 Y24.453 Z-2.000 F150.000
G1 X37.333 Y24.453 Z-2.333 F60.000
G1 X37.333 Y22.453 Z-2.333 F150.000
G1 X37.479 Y22.307 Z-2.333 F150.000
G1 X37.333 Y22.453 Z-2.333 F150.000
G1 X27.833 Y22.453 Z-2.333 F150.000
G3 X27.333 Y21.953 Z-2.333 I-0.000 J-0.500 K0.000 F150.000
G1 X27.333 Y20.332 Z-2.333 F150.000
G1 X27.479 Y20.186 Z-2.333 F150.000
G1 X27.333 Y20.332 Z-2.333 F150.000
G1 X18.333 Y20.332 Z-2.333 F150.000
G1 X18.333 Y20.332 Z-2.333 F150.000
G1 X18.186 Y20.186 Z-2.333 F150.000
G1 X18.333 Y20.332 Z-2.333 F150.000
G1 X18.333 Y26.575 Z-2.333 F150.000
G1 X18.333 Y26.575 Z-2.333 F150.000
G1 X18.186 Y26.721 Z-2.333 F150.000
G1 X18.333 Y26.575 Z-2.333 F150.000
G1 X27.333 Y26.575 Z-2.333 F150.000
G1 X27.333 Y26.575 Z-2.333 F150.000
G1 X27.479 Y26.721 Z-2.333 F150.000
G1 X27.333 Y26.575 Z-2.333 F150.000
G1 X27.333 Y24.953 Z-2.333 F150.000
G3 X27.833 Y24.453 Z-2.333 I0.500 J-0.000 K0.000 F150.000
G1 X37.333 Y24.453 Z-2.333 F150.000
G1 X37.479 Y24.600 Z-2.333 F150.000
G1 X37.333 Y24.453 Z-2.333 F150.000
G1 X37.333 Y24.453 Z-2.667 F60.000
G1 X37.333 Y22.453 Z-2.667 F150.000
G1 X37.479 Y22.307 Z-2.667 F150.000
G1 X37.333 Y22.453 Z-2.667 F150.000
G1 X27.833 Y22.453 Z-2.667 F150.000
G3 X27.333 Y21.953 Z-2.667 I-0.000 J-0.500 K0.000 F150.000
G1 X27.333 Y20.332 Z-2.667 F150.000
G1 X27.479 Y20.186 Z-2.667 F150.000
G1 X27.333 Y20.332 Z-2.667 F150.000
G1 X18.333 Y20.332 Z-2.667 F150.000
G1 X18.333 Y20.332 Z-2.667 F150.000
G1 X18.186 Y20.186 Z-2.667 F150.000
G1 X18.333 Y20.332 Z-2.667 F150.000
G1 X18.333 Y26.575 Z-2.667 F150.000
G1 X18.333 Y26.575 Z-2.667 F150.000
G1 X18.186 Y26.721 Z-2.667 F150.000
G1 X18.333 Y26.575 Z-2.667 F150.000
G1 X27.333 Y26.575 Z-2.667 F150.000
G1 X27.333 Y26.575 Z-2.667 F150.000
G1 X27.479 Y26.721 Z-2.667 F150.000
G1 X27.333 Y26.575 Z-2.667 F150.000
G1 X27.333 Y24.953 Z-2.667 F150.000
G3 X27.833 Y24.453 Z-2.667 I0.500 J-0.000 K0.000 F150.000
G1 X37.333 Y24.453 Z-2.667 F150.000
G1 X37.479 Y24.600 Z-2.667 F150.000
G1 X37.333 Y24.453 Z-2.667 F150.000
G1 X37.333 Y24.453 Z-3.000 F60.000
G1 X37.333 Y22.453 Z-3.000 F150.000
G1 X37.479 Y22.307 Z-3.000 F150.000
G1 X37.333 Y22.453 Z-3.000 F150.000
G1 X27.833 Y22.453 Z-3.000 F150.000
G3 X27.333 Y21.953 Z-3.000 I-0.000 J-0.500 K0.000 F150.000
G1 X27.333 Y20.332 Z-3.000 F150.000
G1 X27.479 Y20.186 Z-3.000 F150.000
G1 X27.333 Y20.332 Z-3.000 F150.000
G1 X18.333 Y20.332 Z-3.000 F150.000
G1 X18.333 Y20.332 Z-3.000 F150.000
G1 X18.186 Y20.186 Z-3.000 F150.000
G1 X18.333 Y20.332 Z-3.000 F150.000
G1 X18.333 Y26.575 Z-3.000 F150.000
G1 X18.333 Y26.575 Z-3.000 F150.000
G1 X18.186 Y26.721 Z-3.000 F150.000
G1 X18.333 Y26.575 Z-3.000 F150.000
G1 X27.333 Y26.575 Z-3.000 F150.000
G1 X27.333 Y26.575 Z-3.000 F150.000
G1 X27.479 Y26.721 Z-3.000 F150.000
G1 X27.333 Y26.575 Z-3.000 F150.000
G1 X27.333 Y24.953 Z-3.000 F150.000
G3 X27.833 Y24.453 Z-3.000 I0.500 J-0.000 K0.000 F150.000
G1 X37.333 Y24.453 Z-3.000 F150.000
G1 X37.479 Y24.600 Z-3.000 F150.000
G1 X37.333 Y24.453 Z-3.000 F150.000
G1 X37.333 Y24.453 Z-3.000 F60.000
G1 X37.333 Y22.453 Z-3.000 F150.000
G1 X37.479 Y22.307 Z-3.000 F150.000
G1 X37.333 Y22.453 Z-3.000 F150.000
G1 X27.833 Y22.453 Z-3.000 F150.000
G3 X27.333 Y21.953 Z-3.000 I-0.000 J-0.500 K0.000 F150.000
G1 X27.333 Y20.332 Z-3.000 F150.000
G1 X27.479 Y20.186 Z-3.000 F150.000
G1 X27.333 Y20.332 Z-3.000 F150.000
G1 X18.333 Y20.332 Z-3.000 F150.000
G1 X18.333 Y20.332 Z-3.000 F150.000
G1 X18.186 Y20.186 Z-3.000 F150.000
G1 X18.333 Y20.332 Z-3.000 F150.000
G1 X18.333 Y26.575 Z-3.000 F150.000
G1 X18.333 Y26.575 Z-3.000 F150.000
G1 X18.186 Y26.721 Z-3.000 F150.000
G1 X18.333 Y26.575 Z-3.000 F150.000
G1 X27.333 Y26.575 Z-3.000 F150.000
G1 X27.333 Y26.575 Z-3.000 F150.000
G1 X27.479 Y26.721 Z-3.000 F150.000
G1 X27.333 Y26.575 Z-3.000 F150.000
G1 X27.333 Y24.953 Z-3.000 F150.000
G3 X27.833 Y24.453 Z-3.000 I0.500 J-0.000 K0.000 F150.000
G1 X37.333 Y24.453 Z-3.000 F150.000
G1 X37.479 Y24.600 Z-3.000 F150.000
G1 X37.333 Y24.453 Z-3.000 F150.000
G0 Z2.000
G0 Z2.000
(Finish operation: DogboneDressup)
(Begin operation: DogboneDressup001)
(Path: DogboneDressup001)
(Profile001)
(Compensated Tool Path. Diameter: 1.0)
G0 Z2.000
G0 X20.333 Y76.284
G0 Z1.000
G1 X20.333 Y76.284 Z-0.333 F60.000
G1 X20.333 Y74.284 Z-0.333 F150.000
G1 X20.479 Y74.138 Z-0.333 F150.000
G1 X20.333 Y74.284 Z-0.333 F150.000
G1 X14.833 Y74.284 Z-0.333 F150.000
G3 X14.333 Y73.784 Z-0.333 I-0.000 J-0.500 K0.000 F150.000
G1 X14.333 Y72.163 Z-0.333 F150.000
G1 X14.479 Y72.016 Z-0.333 F150.000
G1 X14.333 Y72.163 Z-0.333 F150.000
G1 X9.333 Y72.163 Z-0.333 F150.000
G1 X9.333 Y72.163 Z-0.333 F150.000
G1 X9.186 Y72.016 Z-0.333 F150.000
G1 X9.333 Y72.163 Z-0.333 F150.000
G1 X9.333 Y78.405 Z-0.333 F150.000
G1 X9.333 Y78.405 Z-0.333 F150.000
G1 X9.186 Y78.552 Z-0.333 F150.000
G1 X9.333 Y78.405 Z-0.333 F150.000
G1 X14.333 Y78.405 Z-0.333 F150.000
G1 X14.333 Y78.405 Z-0.333 F150.000
G1 X14.479 Y78.552 Z-0.333 F150.000
G1 X14.333 Y78.405 Z-0.333 F150.000
G1 X14.333 Y76.784 Z-0.333 F150.000
G3 X14.833 Y76.284 Z-0.333 I0.500 J-0.000 K0.000 F150.000
G1 X20.333 Y76.284 Z-0.333 F150.000
G1 X20.479 Y76.431 Z-0.333 F150.000
G1 X20.333 Y76.284 Z-0.333 F150.000
G1 X20.333 Y76.284 Z-0.667 F60.000
G1 X20.333 Y74.284 Z-0.667 F150.000
G1 X20.479 Y74.138 Z-0.667 F150.000
G1 X20.333 Y74.284 Z-0.667 F150.000
G1 X14.833 Y74.284 Z-0.667 F150.000
G3 X14.333 Y73.784 Z-0.667 I-0.000 J-0.500 K0.000 F150.000
G1 X14.333 Y72.163 Z-0.667 F150.000
G1 X14.479 Y72.016 Z-0.667 F150.000
G1 X14.333 Y72.163 Z-0.667 F150.000
G1 X9.333 Y72.163 Z-0.667 F150.000
G1 X9.333 Y72.163 Z-0.667 F150.000
G1 X9.186 Y72.016 Z-0.667 F150.000
G1 X9.333 Y72.163 Z-0.667 F150.000
G1 X9.333 Y78.405 Z-0.667 F150.000
G1 X9.333 Y78.405 Z-0.667 F150.000
G1 X9.186 Y78.552 Z-0.667 F150.000
G1 X9.333 Y78.405 Z-0.667 F150.000
G1 X14.333 Y78.405 Z-0.667 F150.000
G1 X14.333 Y78.405 Z-0.667 F150.000
G1 X14.479 Y78.552 Z-0.667 F150.000
G1 X14.333 Y78.405 Z-0.667 F150.000
G1 X14.333 Y76.784 Z-0.667 F150.000
G3 X14.833 Y76.284 Z-0.667 I0.500 J-0.000 K0.000 F150.000
G1 X20.333 Y76.284 Z-0.667 F150.000
G1 X20.479 Y76.431 Z-0.667 F150.000
G1 X20.333 Y76.284 Z-0.667 F150.000
G1 X20.333 Y76.284 Z-1.000 F60.000
G1 X20.333 Y74.284 Z-1.000 F150.000
G1 X20.479 Y74.138 Z-1.000 F150.000
G1 X20.333 Y74.284 Z-1.000 F150.000
G1 X14.833 Y74.284 Z-1.000 F150.000
G3 X14.333 Y73.784 Z-1.000 I-0.000 J-0.500 K0.000 F150.000
G1 X14.333 Y72.163 Z-1.000 F150.000
G1 X14.479 Y72.016 Z-1.000 F150.000
G1 X14.333 Y72.163 Z-1.000 F150.000
G1 X9.333 Y72.163 Z-1.000 F150.000
G1 X9.333 Y72.163 Z-1.000 F150.000
G1 X9.186 Y72.016 Z-1.000 F150.000
G1 X9.333 Y72.163 Z-1.000 F150.000
G1 X9.333 Y78.405 Z-1.000 F150.000
G1 X9.333 Y78.405 Z-1.000 F150.000
G1 X9.186 Y78.552 Z-1.000 F150.000
G1 X9.333 Y78.405 Z-1.000 F150.000
G1 X14.333 Y78.405 Z-1.000 F150.000
G1 X14.333 Y78.405 Z-1.000 F150.000
G1 X14.479 Y78.552 Z-1.000 F150.000
G1 X14.333 Y78.405 Z-1.000 F150.000
G1 X14.333 Y76.784 Z-1.000 F150.000
G3 X14.833 Y76.284 Z-1.000 I0.500 J-0.000 K0.000 F150.000
G1 X20.333 Y76.284 Z-1.000 F150.000
G1 X20.479 Y76.431 Z-1.000 F150.000
G1 X20.333 Y76.284 Z-1.000 F150.000
G1 X20.333 Y76.284 Z-1.333 F60.000
G1 X20.333 Y74.284 Z-1.333 F150.000
G1 X20.479 Y74.138 Z-1.333 F150.000
G1 X20.333 Y74.284 Z-1.333 F150.000
G1 X14.833 Y74.284 Z-1.333 F150.000
G3 X14.333 Y73.784 Z-1.333 I-0.000 J-0.500 K0.000 F150.000
G1 X14.333 Y72.163 Z-1.333 F150.000
G1 X14.479 Y72.016 Z-1.333 F150.000
G1 X14.333 Y72.163 Z-1.333 F150.000
G1 X9.333 Y72.163 Z-1.333 F150.000
G1 X9.333 Y72.163 Z-1.333 F150.000
G1 X9.186 Y72.016 Z-1.333 F150.000
G1 X9.333 Y72.163 Z-1.333 F150.000
G1 X9.333 Y78.405 Z-1.333 F150.000
G1 X9.333 Y78.405 Z-1.333 F150.000
G1 X9.186 Y78.552 Z-1.333 F150.000
G1 X9.333 Y78.405 Z-1.333 F150.000
G1 X14.333 Y78.405 Z-1.333 F150.000
G1 X14.333 Y78.405 Z-1.333 F150.000
G1 X14.479 Y78.552 Z-1.333 F150.000
G1 X14.333 Y78.405 Z-1.333 F150.000
G1 X14.333 Y76.784 Z-1.333 F150.000
G3 X14.833 Y76.284 Z-1.333 I0.500 J-0.000 K0.000 F150.000
G1 X20.333 Y76.284 Z-1.333 F150.000
G1 X20.479 Y76.431 Z-1.333 F150.000
G1 X20.333 Y76.284 Z-1.333 F150.000
G1 X20.333 Y76.284 Z-1.667 F60.000
G1 X20.333 Y74.284 Z-1.667 F150.000
G1 X20.479 Y74.138 Z-1.667 F150.000
G1 X20.333 Y74.284 Z-1.667 F150.000
G1 X14.833 Y74.284 Z-1.667 F150.000
G3 X14.333 Y73.784 Z-1.667 I-0.000 J-0.500 K0.000 F150.000
G1 X14.333 Y72.163 Z-1.667 F150.000
G1 X14.479 Y72.016 Z-1.667 F150.000
G1 X14.333 Y72.163 Z-1.667 F150.000
G1 X9.333 Y72.163 Z-1.667 F150.000
G1 X9.333 Y72.163 Z-1.667 F150.000
G1 X9.186 Y72.016 Z-1.667 F150.000
G1 X9.333 Y72.163 Z-1.667 F150.000
G1 X9.333 Y78.405 Z-1.667 F150.000
G1 X9.333 Y78.405 Z-1.667 F150.000
G1 X9.186 Y78.552 Z-1.667 F150.000
G1 X9.333 Y78.405 Z-1.667 F150.000
G1 X14.333 Y78.405 Z-1.667 F150.000
G1 X14.333 Y78.405 Z-1.667 F150.000
G1 X14.479 Y78.552 Z-1.667 F150.000
G1 X14.333 Y78.405 Z-1.667 F150.000
G1 X14.333 Y76.784 Z-1.667 F150.000
G3 X14.833 Y76.284 Z-1.667 I0.500 J-0.000 K0.000 F150.000
G1 X20.333 Y76.284 Z-1.667 F150.000
G1 X20.479 Y76.431 Z-1.667 F150.000
G1 X20.333 Y76.284 Z-1.667 F150.000
G1 X20.333 Y76.284 Z-2.000 F60.000
G1 X20.333 Y74.284 Z-2.000 F150.000
G1 X20.479 Y74.138 Z-2.000 F150.000
G1 X20.333 Y74.284 Z-2.000 F150.000
G1 X14.833 Y74.284 Z-2.000 F150.000
G3 X14.333 Y73.784 Z-2.000 I-0.000 J-0.500 K0.000 F150.000
G1 X14.333 Y72.163 Z-2.000 F150.000
G1 X14.479 Y72.016 Z-2.000 F150.000
G1 X14.333 Y72.163 Z-2.000 F150.000
G1 X9.333 Y72.163 Z-2.000 F150.000
G1 X9.333 Y72.163 Z-2.000 F150.000
G1 X9.186 Y72.016 Z-2.000 F150.000
G1 X9.333 Y72.163 Z-2.000 F150.000
G1 X9.333 Y78.405 Z-2.000 F150.000
G1 X9.333 Y78.405 Z-2.000 F150.000
G1 X9.186 Y78.552 Z-2.000 F150.000
G1 X9.333 Y78.405 Z-2.000 F150.000
G1 X14.333 Y78.405 Z-2.000 F150.000
G1 X14.333 Y78.405 Z-2.000 F150.000
G1 X14.479 Y78.552 Z-2.000 F150.000
G1 X14.333 Y78.405 Z-2.000 F150.000
G1 X14.333 Y76.784 Z-2.000 F150.000
G3 X14.833 Y76.284 Z-2.000 I0.500 J-0.000 K0.000 F150.000
G1 X20.333 Y76.284 Z-2.000 F150.000
G1 X20.479 Y76.431 Z-2.000 F150.000
G1 X20.333 Y76.284 Z-2.000 F150.000
G1 X20.333 Y76.284 Z-2.333 F60.000
G1 X20.333 Y74.284 Z-2.333 F150.000
G1 X20.479 Y74.138 Z-2.333 F150.000
G1 X20.333 Y74.284 Z-2.333 F150.000
G1 X14.833 Y74.284 Z-2.333 F150.000
G3 X14.333 Y73.784 Z-2.333 I-0.000 J-0.500 K0.000 F150.000
G1 X14.333 Y72.163 Z-2.333 F150.000
G1 X14.479 Y72.016 Z-2.333 F150.000
G1 X14.333 Y72.163 Z-2.333 F150.000
G1 X9.333 Y72.163 Z-2.333 F150.000
G1 X9.333 Y72.163 Z-2.333 F150.000
G1 X9.186 Y72.016 Z-2.333 F150.000
G1 X9.333 Y72.163 Z-2.333 F150.000
G1 X9.333 Y78.405 Z-2.333 F150.000
G1 X9.333 Y78.405 Z-2.333 F150.000
G1 X9.186 Y78.552 Z-2.333 F150.000
G1 X9.333 Y78.405 Z-2.333 F150.000
G1 X14.333 Y78.405 Z-2.333 F150.000
G1 X14.333 Y78.405 Z-2.333 F150.000
G1 X14.479 Y78.552 Z-2.333 F150.000
G1 X14.333 Y78.405 Z-2.333 F150.000
G1 X14.333 Y76.784 Z-2.333 F150.000
G3 X14.833 Y76.284 Z-2.333 I0.500 J-0.000 K0.000 F150.000
G1 X20.333 Y76.284 Z-2.333 F150.000
G1 X20.479 Y76.431 Z-2.333 F150.000
G1 X20.333 Y76.284 Z-2.333 F150.000
G1 X20.333 Y76.284 Z-2.667 F60.000
G1 X20.333 Y74.284 Z-2.667 F150.000
G1 X20.479 Y74.138 Z-2.667 F150.000
G1 X20.333 Y74.284 Z-2.667 F150.000
G1 X14.833 Y74.284 Z-2.667 F150.000
G3 X14.333 Y73.784 Z-2.667 I-0.000 J-0.500 K0.000 F150.000
G1 X14.333 Y72.163 Z-2.667 F150.000
G1 X14.479 Y72.016 Z-2.667 F150.000
G1 X14.333 Y72.163 Z-2.667 F150.000
G1 X9.333 Y72.163 Z-2.667 F150.000
G1 X9.333 Y72.163 Z-2.667 F150.000
G1 X9.186 Y72.016 Z-2.667 F150.000
G1 X9.333 Y72.163 Z-2.667 F150.000
G1 X9.333 Y78.405 Z-2.667 F150.000
G1 X9.333 Y78.405 Z-2.667 F150.000
G1 X9.186 Y78.552 Z-2.667 F150.000
G1 X9.333 Y78.405 Z-2.667 F150.000
G1 X14.333 Y78.405 Z-2.667 F150.000
G1 X14.333 Y78.405 Z-2.667 F150.000
G1 X14.479 Y78.552 Z-2.667 F150.000
G1 X14.333 Y78.405 Z-2.667 F150.000
G1 X14.333 Y76.784 Z-2.667 F150.000
G3 X14.833 Y76.284 Z-2.667 I0.500 J-0.000 K0.000 F150.000
G1 X20.333 Y76.284 Z-2.667 F150.000
G1 X20.479 Y76.431 Z-2.667 F150.000
G1 X20.333 Y76.284 Z-2.667 F150.000
G1 X20.333 Y76.284 Z-3.000 F60.000
G1 X20.333 Y74.284 Z-3.000 F150.000
G1 X20.479 Y74.138 Z-3.000 F150.000
G1 X20.333 Y74.284 Z-3.000 F150.000
G1 X14.833 Y74.284 Z-3.000 F150.000
G3 X14.333 Y73.784 Z-3.000 I-0.000 J-0.500 K0.000 F150.000
G1 X14.333 Y72.163 Z-3.000 F150.000
G1 X14.479 Y72.016 Z-3.000 F150.000
G1 X14.333 Y72.163 Z-3.000 F150.000
G1 X9.333 Y72.163 Z-3.000 F150.000
G1 X9.333 Y72.163 Z-3.000 F150.000
G1 X9.186 Y72.016 Z-3.000 F150.000
G1 X9.333 Y72.163 Z-3.000 F150.000
G1 X9.333 Y78.405 Z-3.000 F150.000
G1 X9.333 Y78.405 Z-3.000 F150.000
G1 X9.186 Y78.552 Z-3.000 F150.000
G1 X9.333 Y78.405 Z-3.000 F150.000
G1 X14.333 Y78.405 Z-3.000 F150.000
G1 X14.333 Y78.405 Z-3.000 F150.000
G1 X14.479 Y78.552 Z-3.000 F150.000
G1 X14.333 Y78.405 Z-3.000 F150.000
G1 X14.333 Y76.784 Z-3.000 F150.000
G3 X14.833 Y76.284 Z-3.000 I0.500 J-0.000 K0.000 F150.000
G1 X20.333 Y76.284 Z-3.000 F150.000
G1 X20.186 Y76.431 Z-3.000 F60.000
G1 X20.333 Y76.284 Z-3.000 F60.000
G1 X20.333 Y76.284 Z-3.000 F60.000
G1 X20.333 Y76.284 Z-3.000 F60.000
G1 X20.186 Y76.138 Z-3.000 F150.000
G1 X20.333 Y76.284 Z-3.000 F150.000
G1 X20.333 Y74.284 Z-3.000 F150.000
G1 X20.333 Y74.284 Z-3.000 F150.000
G1 X20.479 Y74.138 Z-3.000 F150.000
G1 X20.333 Y74.284 Z-3.000 F150.000
G1 X14.833 Y74.284 Z-3.000 F150.000
G3 X14.333 Y73.784 Z-3.000 I-0.000 J-0.500 K0.000 F150.000
G1 X14.333 Y72.163 Z-3.000 F150.000
G1 X14.479 Y72.016 Z-3.000 F150.000
G1 X14.333 Y72.163 Z-3.000 F150.000
G1 X9.333 Y72.163 Z-3.000 F150.000
G1 X9.333 Y72.163 Z-3.000 F150.000
G1 X9.186 Y72.016 Z-3.000 F150.000
G1 X9.333 Y72.163 Z-3.000 F150.000
G1 X9.333 Y78.405 Z-3.000 F150.000
G1 X9.333 Y78.405 Z-3.000 F150.000
G1 X9.186 Y78.552 Z-3.000 F150.000
G1 X9.333 Y78.405 Z-3.000 F150.000
G1 X14.333 Y78.405 Z-3.000 F150.000
G1 X14.333 Y78.405 Z-3.000 F150.000
G1 X14.479 Y78.552 Z-3.000 F150.000
G1 X14.333 Y78.405 Z-3.000 F150.000
G1 X14.333 Y76.784 Z-3.000 F150.000
G3 X14.833 Y76.284 Z-3.000 I0.500 J-0.000 K0.000 F150.000
G1 X20.333 Y76.284 Z-3.000 F150.000
G1 X20.479 Y76.431 Z-3.000 F150.000
G1 X20.333 Y76.284 Z-3.000 F150.000
G0 Z2.000
G0 Z2.000
(Finish operation: DogboneDressup001)
(Begin operation: DressupTag)
(Path: DressupTag)
G0 Z2.000
G0 X23.955 Y82.311 Z2.000
G0 X23.955 Y82.311 Z1.000
G1 X23.955 Y82.311 Z-0.333 F60.000
G3 X23.743 Y82.626 Z-0.333 I-1.433 J-0.737 K0.000 F150.000
G1 X7.779 Y101.047 Z-0.333 F150.000
G3 X6.607 Y101.561 Z-0.333 I-1.179 J-1.097 K0.000 F150.000
G1 X1.035 Y101.557 Z-0.333 F150.000
G3 X-0.500 Y99.961 Z-0.333 I0.068 J-1.601 K0.000 F150.000
G1 X-0.496 Y87.096 Z-0.333 F150.000
G3 X1.272 Y85.550 Z-0.333 I1.631 J0.082 K0.000 F150.000
G2 X1.887 Y85.537 Z-0.333 I0.264 J-2.013 K0.000 F150.000
G2 X2.333 Y84.929 Z-0.333 I-0.163 J-0.587 K0.000 F150.000
G1 X2.333 Y15.133 Z-0.333 F150.000
G2 X1.734 Y14.503 Z-0.333 I-0.606 J-0.024 K0.000 F150.000
G3 X0.750 Y14.458 Z-0.333 I1.529 J-44.749 K0.000 F150.000
G3 X-0.500 Y12.900 Z-0.333 I0.353 J-1.564 K0.000 F150.000
G1 X-0.496 Y0.035 Z-0.333 F150.000
G3 X1.100 Y-1.500 Z-0.333 I1.601 J0.068 K0.000 F150.000
G1 X2.886 Y-1.497 Z-0.333 F150.000
G1 X52.390 Y3.833 Z-0.333 F150.000
G3 X53.652 Y4.824 Z-0.333 I-0.228 J1.590 K0.000 F150.000
G1 X58.853 Y17.916 Z-0.333 F150.000
G3 X56.778 Y19.942 Z-0.333 I-1.510 J0.529 K0.000 F150.000
G1 X48.859 Y16.932 Z-0.333 F150.000
G2 X48.066 Y17.243 Z-0.333 I-0.236 J0.565 K0.000 F150.000
G1 X46.122 Y21.161 Z-0.333 F150.000
G2 X46.408 Y22.009 Z-0.333 I0.538 J0.291 K0.000 F150.000
G1 X60.561 Y29.037 Z-0.333 F150.000
G3 X61.206 Y31.187 Z-0.333 I-0.773 J1.403 K0.000 F150.000
G1 X56.374 Y40.281 Z-0.333 F150.000
G3 X55.254 Y41.060 Z-0.333 I-1.393 J-0.808 K0.000 F150.000
G1 X27.218 Y45.732 Z-0.333 F150.000
G2 X26.683 Y46.320 Z-0.333 I0.083 J0.613 K0.000 F150.000
G1 X24.125 Y81.733 Z-0.333 F150.000
G3 X23.955 Y82.311 Z-0.333 I-1.603 J-0.158 K0.000 F150.000
G1 X23.955 Y82.311 Z-0.667 F60.000
G3 X23.743 Y82.626 Z-0.667 I-1.433 J-0.737 K0.000 F150.000
G1 X7.779 Y101.047 Z-0.667 F150.000
G3 X6.607 Y101.561 Z-0.667 I-1.179 J-1.097 K0.000 F150.000
G1 X1.035 Y101.557 Z-0.667 F150.000
G3 X-0.500 Y99.961 Z-0.667 I0.068 J-1.601 K0.000 F150.000
G1 X-0.496 Y87.096 Z-0.667 F150.000
G3 X1.272 Y85.550 Z-0.667 I1.631 J0.082 K0.000 F150.000
G2 X1.887 Y85.537 Z-0.667 I0.264 J-2.013 K0.000 F150.000
G2 X2.333 Y84.929 Z-0.667 I-0.163 J-0.587 K0.000 F150.000
G1 X2.333 Y15.133 Z-0.667 F150.000
G2 X1.734 Y14.503 Z-0.667 I-0.606 J-0.024 K0.000 F150.000
G3 X0.750 Y14.458 Z-0.667 I1.529 J-44.749 K0.000 F150.000
G3 X-0.500 Y12.900 Z-0.667 I0.353 J-1.564 K0.000 F150.000
G1 X-0.496 Y0.035 Z-0.667 F150.000
G3 X1.100 Y-1.500 Z-0.667 I1.601 J0.068 K0.000 F150.000
G1 X2.886 Y-1.497 Z-0.667 F150.000
G1 X52.390 Y3.833 Z-0.667 F150.000
G3 X53.652 Y4.824 Z-0.667 I-0.228 J1.590 K0.000 F150.000
G1 X58.853 Y17.916 Z-0.667 F150.000
G3 X56.778 Y19.942 Z-0.667 I-1.510 J0.529 K0.000 F150.000
G1 X48.859 Y16.932 Z-0.667 F150.000
G2 X48.066 Y17.243 Z-0.667 I-0.236 J0.565 K0.000 F150.000
G1 X46.122 Y21.161 Z-0.667 F150.000
G2 X46.408 Y22.009 Z-0.667 I0.538 J0.291 K0.000 F150.000
G1 X60.561 Y29.037 Z-0.667 F150.000
G3 X61.206 Y31.187 Z-0.667 I-0.773 J1.403 K0.000 F150.000
G1 X56.374 Y40.281 Z-0.667 F150.000
G3 X55.254 Y41.060 Z-0.667 I-1.393 J-0.808 K0.000 F150.000
G1 X27.218 Y45.732 Z-0.667 F150.000
G2 X26.683 Y46.320 Z-0.667 I0.083 J0.613 K0.000 F150.000
G1 X24.125 Y81.733 Z-0.667 F150.000
G3 X23.955 Y82.311 Z-0.667 I-1.603 J-0.158 K0.000 F150.000
G1 X23.955 Y82.311 Z-1.000 F60.000
G3 X23.743 Y82.626 Z-1.000 I-1.433 J-0.737 K0.000 F150.000
G1 X7.779 Y101.047 Z-1.000 F150.000
G3 X6.607 Y101.561 Z-1.000 I-1.179 J-1.097 K0.000 F150.000
G1 X1.035 Y101.557 Z-1.000 F150.000
G3 X-0.500 Y99.961 Z-1.000 I0.068 J-1.601 K0.000 F150.000
G1 X-0.496 Y87.096 Z-1.000 F150.000
G3 X1.272 Y85.550 Z-1.000 I1.631 J0.082 K0.000 F150.000
G2 X1.887 Y85.537 Z-1.000 I0.264 J-2.013 K0.000 F150.000
G2 X2.333 Y84.929 Z-1.000 I-0.163 J-0.587 K0.000 F150.000
G1 X2.333 Y15.133 Z-1.000 F150.000
G2 X1.734 Y14.503 Z-1.000 I-0.606 J-0.024 K0.000 F150.000
G3 X0.750 Y14.458 Z-1.000 I1.529 J-44.749 K0.000 F150.000
G3 X-0.500 Y12.900 Z-1.000 I0.353 J-1.564 K0.000 F150.000
G1 X-0.496 Y0.035 Z-1.000 F150.000
G3 X1.100 Y-1.500 Z-1.000 I1.601 J0.068 K0.000 F150.000
G1 X2.886 Y-1.497 Z-1.000 F150.000
G1 X52.390 Y3.833 Z-1.000 F150.000
G3 X53.652 Y4.824 Z-1.000 I-0.228 J1.590 K0.000 F150.000
G1 X58.853 Y17.916 Z-1.000 F150.000
G3 X56.778 Y19.942 Z-1.000 I-1.510 J0.529 K0.000 F150.000
G1 X48.859 Y16.932 Z-1.000 F150.000
G2 X48.066 Y17.243 Z-1.000 I-0.236 J0.565 K0.000 F150.000
G1 X46.122 Y21.161 Z-1.000 F150.000
G2 X46.408 Y22.009 Z-1.000 I0.538 J0.291 K0.000 F150.000
G1 X60.561 Y29.037 Z-1.000 F150.000
G3 X61.206 Y31.187 Z-1.000 I-0.773 J1.403 K0.000 F150.000
G1 X56.374 Y40.281 Z-1.000 F150.000
G3 X55.254 Y41.060 Z-1.000 I-1.393 J-0.808 K0.000 F150.000
G1 X27.218 Y45.732 Z-1.000 F150.000
G2 X26.683 Y46.320 Z-1.000 I0.083 J0.613 K0.000 F150.000
G1 X24.125 Y81.733 Z-1.000 F150.000
G3 X23.955 Y82.311 Z-1.000 I-1.603 J-0.158 K0.000 F150.000
G1 X23.955 Y82.311 Z-1.333 F60.000
G3 X23.743 Y82.626 Z-1.333 I-1.433 J-0.737 K0.000 F150.000
G1 X7.779 Y101.047 Z-1.333 F150.000
G3 X6.607 Y101.561 Z-1.333 I-1.179 J-1.097 K0.000 F150.000
G1 X1.035 Y101.557 Z-1.333 F150.000
G3 X-0.500 Y99.961 Z-1.333 I0.068 J-1.601 K0.000 F150.000
G1 X-0.496 Y87.096 Z-1.333 F150.000
G3 X1.272 Y85.550 Z-1.333 I1.631 J0.082 K0.000 F150.000
G2 X1.887 Y85.537 Z-1.333 I0.264 J-2.013 K0.000 F150.000
G2 X2.333 Y84.929 Z-1.333 I-0.163 J-0.587 K0.000 F150.000
G1 X2.333 Y15.133 Z-1.333 F150.000
G2 X1.734 Y14.503 Z-1.333 I-0.606 J-0.024 K0.000 F150.000
G3 X0.750 Y14.458 Z-1.333 I1.529 J-44.749 K0.000 F150.000
G3 X-0.500 Y12.900 Z-1.333 I0.353 J-1.564 K0.000 F150.000
G1 X-0.496 Y0.035 Z-1.333 F150.000
G3 X1.100 Y-1.500 Z-1.333 I1.601 J0.068 K0.000 F150.000
G1 X2.886 Y-1.497 Z-1.333 F150.000
G1 X52.390 Y3.833 Z-1.333 F150.000
G3 X53.652 Y4.824 Z-1.333 I-0.228 J1.590 K0.000 F150.000
G1 X58.853 Y17.916 Z-1.333 F150.000
G3 X56.778 Y19.942 Z-1.333 I-1.510 J0.529 K0.000 F150.000
G1 X48.859 Y16.932 Z-1.333 F150.000
G2 X48.066 Y17.243 Z-1.333 I-0.236 J0.565 K0.000 F150.000
G1 X46.122 Y21.161 Z-1.333 F150.000
G2 X46.408 Y22.009 Z-1.333 I0.538 J0.291 K0.000 F150.000
G1 X60.561 Y29.037 Z-1.333 F150.000
G3 X61.206 Y31.187 Z-1.333 I-0.773 J1.403 K0.000 F150.000
G1 X56.374 Y40.281 Z-1.333 F150.000
G3 X55.254 Y41.060 Z-1.333 I-1.393 J-0.808 K0.000 F150.000
G1 X27.218 Y45.732 Z-1.333 F150.000
G2 X26.683 Y46.320 Z-1.333 I0.083 J0.613 K0.000 F150.000
G1 X24.125 Y81.733 Z-1.333 F150.000
G3 X23.955 Y82.311 Z-1.333 I-1.603 J-0.158 K0.000 F150.000
G1 X23.955 Y82.311 Z-1.667 F60.000
G3 X23.743 Y82.626 Z-1.667 I-1.433 J-0.737 K0.000 F150.000
G1 X7.779 Y101.047 Z-1.667 F150.000
G3 X6.607 Y101.561 Z-1.667 I-1.179 J-1.097 K0.000 F150.000
G1 X1.035 Y101.557 Z-1.667 F150.000
G3 X-0.500 Y99.961 Z-1.667 I0.068 J-1.601 K0.000 F150.000
G1 X-0.496 Y87.096 Z-1.667 F150.000
G3 X1.272 Y85.550 Z-1.667 I1.631 J0.082 K0.000 F150.000
G2 X1.887 Y85.537 Z-1.667 I0.264 J-2.013 K0.000 F150.000
G2 X2.333 Y84.929 Z-1.667 I-0.163 J-0.587 K0.000 F150.000
G1 X2.333 Y15.133 Z-1.667 F150.000
G2 X1.734 Y14.503 Z-1.667 I-0.606 J-0.024 K0.000 F150.000
G3 X0.750 Y14.458 Z-1.667 I1.529 J-44.749 K0.000 F150.000
G3 X-0.500 Y12.900 Z-1.667 I0.353 J-1.564 K0.000 F150.000
G1 X-0.496 Y0.035 Z-1.667 F150.000
G3 X1.100 Y-1.500 Z-1.667 I1.601 J0.068 K0.000 F150.000
G1 X2.886 Y-1.497 Z-1.667 F150.000
G1 X52.390 Y3.833 Z-1.667 F150.000
G3 X53.652 Y4.824 Z-1.667 I-0.228 J1.590 K0.000 F150.000
G1 X58.853 Y17.916 Z-1.667 F150.000
G3 X56.778 Y19.942 Z-1.667 I-1.510 J0.529 K0.000 F150.000
G1 X48.859 Y16.932 Z-1.667 F150.000
G2 X48.066 Y17.243 Z-1.667 I-0.236 J0.565 K0.000 F150.000
G1 X46.122 Y21.161 Z-1.667 F150.000
G2 X46.408 Y22.009 Z-1.667 I0.538 J0.291 K0.000 F150.000
G1 X60.561 Y29.037 Z-1.667 F150.000
G3 X61.206 Y31.187 Z-1.667 I-0.773 J1.403 K0.000 F150.000
G1 X56.374 Y40.281 Z-1.667 F150.000
G3 X55.254 Y41.060 Z-1.667 I-1.393 J-0.808 K0.000 F150.000
G1 X27.218 Y45.732 Z-1.667 F150.000
G2 X26.683 Y46.320 Z-1.667 I0.083 J0.613 K0.000 F150.000
G1 X24.125 Y81.733 Z-1.667 F150.000
G3 X23.955 Y82.311 Z-1.667 I-1.603 J-0.158 K0.000 F150.000
G1 X23.955 Y82.311 Z-2.000 F60.000
G3 X23.743 Y82.626 Z-2.000 I-1.433 J-0.737 K0.000 F150.000
G1 X7.779 Y101.047 Z-2.000 F150.000
G3 X6.607 Y101.561 Z-2.000 I-1.179 J-1.097 K0.000 F150.000
G1 X1.035 Y101.557 Z-2.000 F150.000
G3 X-0.500 Y99.961 Z-2.000 I0.068 J-1.601 K0.000 F150.000
G1 X-0.496 Y87.096 Z-2.000 F150.000
G3 X1.272 Y85.550 Z-2.000 I1.631 J0.082 K0.000 F150.000
G2 X1.887 Y85.537 Z-2.000 I0.264 J-2.013 K0.000 F150.000
G2 X2.333 Y84.929 Z-2.000 I-0.163 J-0.587 K0.000 F150.000
G1 X2.333 Y15.133 Z-2.000 F150.000
G2 X1.734 Y14.503 Z-2.000 I-0.606 J-0.024 K0.000 F150.000
G3 X0.750 Y14.458 Z-2.000 I1.529 J-44.749 K0.000 F150.000
G3 X-0.500 Y12.900 Z-2.000 I0.353 J-1.564 K0.000 F150.000
G1 X-0.496 Y0.035 Z-2.000 F150.000
G3 X1.100 Y-1.500 Z-2.000 I1.601 J0.068 K0.000 F150.000
G1 X2.886 Y-1.497 Z-2.000 F150.000
G1 X52.390 Y3.833 Z-2.000 F150.000
G3 X53.652 Y4.824 Z-2.000 I-0.228 J1.590 K0.000 F150.000
G1 X58.853 Y17.916 Z-2.000 F150.000
G3 X56.778 Y19.942 Z-2.000 I-1.510 J0.529 K0.000 F150.000
G1 X48.859 Y16.932 Z-2.000 F150.000
G2 X48.066 Y17.243 Z-2.000 I-0.236 J0.565 K0.000 F150.000
G1 X46.122 Y21.161 Z-2.000 F150.000
G2 X46.408 Y22.009 Z-2.000 I0.538 J0.291 K0.000 F150.000
G1 X60.561 Y29.037 Z-2.000 F150.000
G3 X61.206 Y31.187 Z-2.000 I-0.773 J1.403 K0.000 F150.000
G1 X56.374 Y40.281 Z-2.000 F150.000
G3 X55.254 Y41.060 Z-2.000 I-1.393 J-0.808 K0.000 F150.000
G1 X27.218 Y45.732 Z-2.000 F150.000
G2 X26.683 Y46.320 Z-2.000 I0.083 J0.613 K0.000 F150.000
G1 X24.125 Y81.733 Z-2.000 F150.000
G3 X23.955 Y82.311 Z-2.000 I-1.603 J-0.158 K0.000 F150.000
G1 X23.955 Y82.311 Z-2.333 F60.000
G3 X23.743 Y82.626 Z-2.333 I-1.433 J-0.737 K0.000 F150.000
G1 X7.779 Y101.047 Z-2.333 F150.000
G3 X6.607 Y101.561 Z-2.333 I-1.179 J-1.097 K0.000 F150.000
G1 X1.035 Y101.557 Z-2.333 F150.000
G3 X-0.500 Y99.961 Z-2.333 I0.068 J-1.601 K0.000 F150.000
G1 X-0.496 Y87.096 Z-2.333 F150.000
G3 X1.272 Y85.550 Z-2.333 I1.631 J0.082 K0.000 F150.000
G2 X1.887 Y85.537 Z-2.333 I0.264 J-2.013 K0.000 F150.000
G2 X2.333 Y84.929 Z-2.333 I-0.163 J-0.587 K0.000 F150.000
G1 X2.333 Y15.133 Z-2.333 F150.000
G2 X1.734 Y14.503 Z-2.333 I-0.606 J-0.024 K0.000 F150.000
G3 X0.750 Y14.458 Z-2.333 I1.529 J-44.749 K0.000 F150.000
G3 X-0.500 Y12.900 Z-2.333 I0.353 J-1.564 K0.000 F150.000
G1 X-0.496 Y0.035 Z-2.333 F150.000
G3 X1.100 Y-1.500 Z-2.333 I1.601 J0.068 K0.000 F150.000
G1 X2.886 Y-1.497 Z-2.333 F150.000
G1 X52.390 Y3.833 Z-2.333 F150.000
G3 X53.652 Y4.824 Z-2.333 I-0.228 J1.590 K0.000 F150.000
G1 X58.853 Y17.916 Z-2.333 F150.000
G3 X56.778 Y19.942 Z-2.333 I-1.510 J0.529 K0.000 F150.000
G1 X48.859 Y16.932 Z-2.333 F150.000
G2 X48.066 Y17.243 Z-2.333 I-0.236 J0.565 K0.000 F150.000
G1 X46.122 Y21.161 Z-2.333 F150.000
G2 X46.408 Y22.009 Z-2.333 I0.538 J0.291 K0.000 F150.000
G1 X60.561 Y29.037 Z-2.333 F150.000
G3 X61.206 Y31.187 Z-2.333 I-0.773 J1.403 K0.000 F150.000
G1 X56.374 Y40.281 Z-2.333 F150.000
G3 X55.254 Y41.060 Z-2.333 I-1.393 J-0.808 K0.000 F150.000
G1 X27.218 Y45.732 Z-2.333 F150.000
G2 X26.683 Y46.320 Z-2.333 I0.083 J0.613 K0.000 F150.000
G1 X24.125 Y81.733 Z-2.333 F150.000
G3 X23.955 Y82.311 Z-2.333 I-1.603 J-0.158 K0.000 F150.000
G1 X23.955 Y82.311 Z-2.667 F60.000
G3 X23.743 Y82.626 Z-2.667 I-1.433 J-0.737 K0.000 F150.000
G1 X7.779 Y101.047 Z-2.667 F150.000
G3 X6.607 Y101.561 Z-2.667 I-1.179 J-1.097 K0.000 F150.000
G1 X1.035 Y101.557 Z-2.667 F150.000
G3 X-0.500 Y99.961 Z-2.667 I0.068 J-1.601 K0.000 F150.000
G1 X-0.496 Y87.096 Z-2.667 F150.000
G3 X1.272 Y85.550 Z-2.667 I1.631 J0.082 K0.000 F150.000
G2 X1.887 Y85.537 Z-2.667 I0.264 J-2.013 K0.000 F150.000
G2 X2.333 Y84.929 Z-2.667 I-0.163 J-0.587 K0.000 F150.000
G1 X2.333 Y15.133 Z-2.667 F150.000
G2 X1.734 Y14.503 Z-2.667 I-0.606 J-0.024 K0.000 F150.000
G3 X0.750 Y14.458 Z-2.667 I1.529 J-44.749 K0.000 F150.000
G3 X-0.500 Y12.900 Z-2.667 I0.353 J-1.564 K0.000 F150.000
G1 X-0.496 Y0.035 Z-2.667 F150.000
G3 X1.100 Y-1.500 Z-2.667 I1.601 J0.068 K0.000 F150.000
G1 X2.886 Y-1.497 Z-2.667 F150.000
G1 X52.390 Y3.833 Z-2.667 F150.000
G3 X53.652 Y4.824 Z-2.667 I-0.228 J1.590 K0.000 F150.000
G1 X58.853 Y17.916 Z-2.667 F150.000
G3 X56.778 Y19.942 Z-2.667 I-1.510 J0.529 K0.000 F150.000
G1 X48.859 Y16.932 Z-2.667 F150.000
G2 X48.066 Y17.243 Z-2.667 I-0.236 J0.565 K0.000 F150.000
G1 X46.122 Y21.161 Z-2.667 F150.000
G2 X46.408 Y22.009 Z-2.667 I0.538 J0.291 K0.000 F150.000
G1 X60.561 Y29.037 Z-2.667 F150.000
G3 X61.206 Y31.187 Z-2.667 I-0.773 J1.403 K0.000 F150.000
G1 X56.374 Y40.281 Z-2.667 F150.000
G3 X55.254 Y41.060 Z-2.667 I-1.393 J-0.808 K0.000 F150.000
G1 X27.218 Y45.732 Z-2.667 F150.000
G2 X26.683 Y46.320 Z-2.667 I0.083 J0.613 K0.000 F150.000
G1 X24.125 Y81.733 Z-2.667 F150.000
G3 X23.955 Y82.311 Z-2.667 I-1.603 J-0.158 K0.000 F150.000
G1 X23.955 Y82.311 Z-3.000 F60.000
G3 X23.743 Y82.626 Z-3.000 I-1.433 J-0.737 K0.000 F150.000
G1 X7.779 Y101.047 Z-3.000 F150.000
G3 X6.607 Y101.561 Z-3.000 I-1.179 J-1.097 K0.000 F150.000
G1 X1.035 Y101.557 Z-3.000 F150.000
G3 X-0.500 Y99.961 Z-3.000 I0.068 J-1.601 K0.000 F150.000
G1 X-0.496 Y87.096 Z-3.000 F150.000
G3 X1.272 Y85.550 Z-3.000 I1.631 J0.082 K0.000 F150.000
G2 X1.887 Y85.537 Z-3.000 I0.264 J-2.013 K0.000 F150.000
G2 X2.333 Y84.929 Z-3.000 I-0.163 J-0.587 K0.000 F150.000
G1 X2.333 Y15.133 Z-3.000 F150.000
G2 X1.734 Y14.503 Z-3.000 I-0.606 J-0.024 K0.000 F150.000
G3 X0.750 Y14.458 Z-3.000 I1.529 J-44.749 K0.000 F150.000
G3 X-0.500 Y12.900 Z-3.000 I0.353 J-1.564 K0.000 F150.000
G1 X-0.496 Y0.035 Z-3.000 F150.000
G3 X1.100 Y-1.500 Z-3.000 I1.601 J0.068 K0.000 F150.000
G1 X2.886 Y-1.497 Z-3.000 F150.000
G1 X52.390 Y3.833 Z-3.000 F150.000
G3 X53.652 Y4.824 Z-3.000 I-0.228 J1.590 K0.000 F150.000
G1 X58.853 Y17.916 Z-3.000 F150.000
G3 X56.778 Y19.942 Z-3.000 I-1.510 J0.529 K0.000 F150.000
G1 X48.859 Y16.932 Z-3.000 F150.000
G2 X48.066 Y17.243 Z-3.000 I-0.236 J0.565 K0.000 F150.000
G1 X46.122 Y21.161 Z-3.000 F150.000
G2 X46.408 Y22.009 Z-3.000 I0.538 J0.291 K0.000 F150.000
G1 X60.561 Y29.037 Z-3.000 F150.000
G3 X61.206 Y31.187 Z-3.000 I-0.773 J1.403 K0.000 F150.000
G1 X56.374 Y40.281 Z-3.000 F150.000
G3 X55.254 Y41.060 Z-3.000 I-1.393 J-0.808 K0.000 F150.000
G1 X27.218 Y45.732 Z-3.000 F150.000
G2 X26.683 Y46.320 Z-3.000 I0.083 J0.613 K0.000 F150.000
G1 X24.125 Y81.733 Z-3.000 F150.000
G3 X23.955 Y82.311 Z-3.000 I-1.603 J-0.158 K0.000 F150.000
G1 X23.955 Y82.311 Z-3.000 F60.000
G3 X23.743 Y82.626 Z-3.000 I-1.433 J-0.737 K0.000 F150.000
G1 X7.779 Y101.047 Z-3.000 F150.000
G3 X6.607 Y101.561 Z-3.000 I-1.179 J-1.097 K0.000 F150.000
G1 X1.035 Y101.557 Z-3.000 F150.000
G3 X-0.500 Y99.961 Z-3.000 I0.068 J-1.601 K0.000 F150.000
G1 X-0.496 Y87.096 Z-3.000 F150.000
G3 X1.272 Y85.550 Z-3.000 I1.631 J0.082 K0.000 F150.000
G2 X1.887 Y85.537 Z-3.000 I0.264 J-2.013 K0.000 F150.000
G2 X2.333 Y84.929 Z-3.000 I-0.163 J-0.587 K0.000 F150.000
G1 X2.333 Y15.133 Z-3.000 F150.000
G2 X1.734 Y14.503 Z-3.000 I-0.606 J-0.024 K0.000 F150.000
G3 X0.750 Y14.458 Z-3.000 I1.529 J-44.749 K0.000 F150.000
G3 X-0.500 Y12.900 Z-3.000 I0.353 J-1.564 K0.000 F150.000
G1 X-0.496 Y0.035 Z-3.000 F150.000
G3 X1.100 Y-1.500 Z-3.000 I1.601 J0.068 K0.000 F150.000
G1 X2.886 Y-1.497 Z-3.000 F150.000
G1 X52.390 Y3.833 Z-3.000 F150.000
G3 X53.652 Y4.824 Z-3.000 I-0.228 J1.590 K0.000 F150.000
G1 X58.853 Y17.916 Z-3.000 F150.000
G3 X56.778 Y19.942 Z-3.000 I-1.510 J0.529 K0.000 F150.000
G1 X48.859 Y16.932 Z-3.000 F150.000
G2 X48.066 Y17.243 Z-3.000 I-0.236 J0.565 K0.000 F150.000
G1 X46.122 Y21.161 Z-3.000 F150.000
G2 X46.408 Y22.009 Z-3.000 I0.538 J0.291 K0.000 F150.000
G1 X60.561 Y29.037 Z-3.000 F150.000
G3 X61.206 Y31.187 Z-3.000 I-0.773 J1.403 K0.000 F150.000
G1 X56.374 Y40.281 Z-3.000 F150.000
G3 X55.254 Y41.060 Z-3.000 I-1.393 J-0.808 K0.000 F150.000
G1 X27.218 Y45.732 Z-3.000 F150.000
G2 X26.683 Y46.320 Z-3.000 I0.083 J0.613 K0.000 F150.000
G1 X24.125 Y81.733 Z-3.000 F150.000
G3 X23.955 Y82.311 Z-3.000 I-1.603 J-0.158 K0.000 F150.000
G0 X23.955 Y82.311 Z2.000
(Finish operation: DressupTag)
(Begin postamble)
M5
G17 G90
M2
