(Exported by FreeCAD)
(Post Processor: grbl_post)
(Output Time:2020-08-24 09:50:57.000356)
(Begin preamble)
G17 G90
G21
(Begin operation: Fixture)
(Path: Fixture)
G54
(Finish operation: Fixture)
(Begin operation: T37: Two-flute 1mm x 7mm002)
(Path: T37: Two-flute 1mm x 7mm002)
(T37: Two-flute 1mm x 7mm002)
(Begin toolchange)
(M6 T37.0)
M3 S7400.0
(Finish operation: T37: Two-flute 1mm x 7mm002)
(Begin operation: DressupTag002)
(Path: DressupTag002)
G0 Z2.000
G0 X112.959 Y-1.526 Z2.000
G0 X112.959 Y-1.526 Z1.000
G1 X112.959 Y-1.526 Z-0.400 F60.000
G3 X110.485 Y-0.500 Z-0.400 I-2.476 J-2.475 K0.000 F139.800
G1 X3.961 Y-0.502 Z-0.400 F139.800
G3 X0.500 Y-4.000 Z-0.400 I0.040 J-3.501 K0.000 F139.800
G1 X0.502 Y-18.039 Z-0.400 F139.800
G3 X4.000 Y-21.500 Z-0.400 I3.501 J0.040 K0.000 F139.800
G1 X8.000 Y-21.500 Z-0.400 F139.800
G3 X8.500 Y-21.000 Z-0.400 I0.000 J0.500 K0.000 F139.800
G1 X8.500 Y-11.500 Z-0.400 F139.800
G1 X8.354 Y-11.354 Z-0.400 F139.800
G1 X8.500 Y-11.500 Z-0.400 F139.800
G1 X14.743 Y-11.500 Z-0.400 F139.800
G1 X14.889 Y-11.354 Z-0.400 F139.800
G1 X14.743 Y-11.500 Z-0.400 F139.800
G1 X14.743 Y-21.000 Z-0.400 F139.800
G3 X15.243 Y-21.500 Z-0.400 I0.500 J0.000 K0.000 F139.800
G1 X99.243 Y-21.500 Z-0.400 F139.800
G3 X99.743 Y-21.000 Z-0.400 I-0.000 J0.500 K0.000 F139.800
G1 X99.743 Y-11.500 Z-0.400 F139.800
G1 X99.596 Y-11.354 Z-0.400 F139.800
G1 X99.743 Y-11.500 Z-0.400 F139.800
G1 X105.985 Y-11.500 Z-0.400 F139.800
G1 X106.132 Y-11.354 Z-0.400 F139.800
G1 X105.985 Y-11.500 Z-0.400 F139.800
G1 X105.985 Y-21.000 Z-0.400 F139.800
G3 X106.485 Y-21.500 Z-0.400 I0.500 J0.000 K0.000 F139.800
G1 X110.525 Y-21.498 Z-0.400 F139.800
G3 X113.985 Y-18.000 Z-0.400 I-0.040 J3.501 K0.000 F139.800
G1 X113.984 Y-3.961 Z-0.400 F139.800
G3 X112.959 Y-1.526 Z-0.400 I-3.501 J-0.040 K0.000 F139.800
G1 X112.959 Y-1.526 Z-0.800 F60.000
G3 X110.485 Y-0.500 Z-0.800 I-2.476 J-2.475 K0.000 F139.800
G1 X3.961 Y-0.502 Z-0.800 F139.800
G3 X0.500 Y-4.000 Z-0.800 I0.040 J-3.501 K0.000 F139.800
G1 X0.502 Y-18.039 Z-0.800 F139.800
G3 X4.000 Y-21.500 Z-0.800 I3.501 J0.040 K0.000 F139.800
G1 X8.000 Y-21.500 Z-0.800 F139.800
G3 X8.500 Y-21.000 Z-0.800 I0.000 J0.500 K0.000 F139.800
G1 X8.500 Y-11.500 Z-0.800 F139.800
G1 X8.354 Y-11.354 Z-0.800 F139.800
G1 X8.500 Y-11.500 Z-0.800 F139.800
G1 X14.743 Y-11.500 Z-0.800 F139.800
G1 X14.889 Y-11.354 Z-0.800 F139.800
G1 X14.743 Y-11.500 Z-0.800 F139.800
G1 X14.743 Y-21.000 Z-0.800 F139.800
G3 X15.243 Y-21.500 Z-0.800 I0.500 J0.000 K0.000 F139.800
G1 X99.243 Y-21.500 Z-0.800 F139.800
G3 X99.743 Y-21.000 Z-0.800 I-0.000 J0.500 K0.000 F139.800
G1 X99.743 Y-11.500 Z-0.800 F139.800
G1 X99.596 Y-11.354 Z-0.800 F139.800
G1 X99.743 Y-11.500 Z-0.800 F139.800
G1 X105.985 Y-11.500 Z-0.800 F139.800
G1 X106.132 Y-11.354 Z-0.800 F139.800
G1 X105.985 Y-11.500 Z-0.800 F139.800
G1 X105.985 Y-21.000 Z-0.800 F139.800
G3 X106.485 Y-21.500 Z-0.800 I0.500 J0.000 K0.000 F139.800
G1 X110.525 Y-21.498 Z-0.800 F139.800
G3 X113.985 Y-18.000 Z-0.800 I-0.040 J3.501 K0.000 F139.800
G1 X113.984 Y-3.961 Z-0.800 F139.800
G3 X112.959 Y-1.526 Z-0.800 I-3.501 J-0.040 K0.000 F139.800
G1 X112.959 Y-1.526 Z-1.200 F60.000
G3 X110.485 Y-0.500 Z-1.200 I-2.476 J-2.475 K0.000 F139.800
G1 X74.688 Y-0.501 Z-1.200 F139.800
G1 X27.668 Y-0.501 Z-1.200 F139.800
G1 X3.961 Y-0.502 Z-1.200 F139.800
G3 X0.500 Y-4.000 Z-1.200 I0.040 J-3.501 K0.000 F139.800
G1 X0.502 Y-18.039 Z-1.200 F139.800
G3 X4.000 Y-21.500 Z-1.200 I3.501 J0.040 K0.000 F139.800
G1 X8.000 Y-21.500 Z-1.200 F139.800
G3 X8.500 Y-21.000 Z-1.200 I0.000 J0.500 K0.000 F139.800
G1 X8.500 Y-11.500 Z-1.200 F139.800
G1 X8.354 Y-11.354 Z-1.200 F139.800
G1 X8.500 Y-11.500 Z-1.200 F139.800
G1 X14.743 Y-11.500 Z-1.200 F139.800
G1 X14.889 Y-11.354 Z-1.200 F139.800
G1 X14.743 Y-11.500 Z-1.200 F139.800
G1 X14.743 Y-21.000 Z-1.200 F139.800
G3 X15.243 Y-21.500 Z-1.200 I0.500 J0.000 K0.000 F139.800
G1 X32.924 Y-21.500 Z-1.200 F139.800
G1 X33.121 Y-21.500 Z-1.000 F99.647
G1 X33.319 Y-21.500 Z-1.200 F99.647
G1 X68.681 Y-21.500 Z-1.200 F139.800
G1 X68.879 Y-21.500 Z-1.000 F99.647
G1 X69.076 Y-21.500 Z-1.200 F99.647
G1 X99.243 Y-21.500 Z-1.200 F139.800
G3 X99.743 Y-21.000 Z-1.200 I-0.000 J0.500 K0.000 F139.800
G1 X99.743 Y-11.500 Z-1.200 F139.800
G1 X99.596 Y-11.354 Z-1.200 F139.800
G1 X99.743 Y-11.500 Z-1.200 F139.800
G1 X105.985 Y-11.500 Z-1.200 F139.800
G1 X106.132 Y-11.354 Z-1.200 F139.800
G1 X105.985 Y-11.500 Z-1.200 F139.800
G1 X105.985 Y-21.000 Z-1.200 F139.800
G3 X106.485 Y-21.500 Z-1.200 I0.500 J0.000 K0.000 F139.800
G1 X110.525 Y-21.498 Z-1.200 F139.800
G3 X113.985 Y-18.000 Z-1.200 I-0.040 J3.501 K0.000 F139.800
G1 X113.984 Y-3.961 Z-1.200 F139.800
G3 X112.959 Y-1.526 Z-1.200 I-3.501 J-0.040 K0.000 F139.800
G1 X112.959 Y-1.526 Z-1.600 F60.000
G3 X110.485 Y-0.500 Z-1.600 I-2.476 J-2.475 K0.000 F139.800
G1 X75.084 Y-0.501 Z-1.600 F139.800
G1 X28.064 Y-0.501 Z-1.600 F139.800
G1 X3.961 Y-0.502 Z-1.600 F139.800
G3 X0.500 Y-4.000 Z-1.600 I0.040 J-3.501 K0.000 F139.800
G1 X0.502 Y-18.039 Z-1.600 F139.800
G3 X4.000 Y-21.500 Z-1.600 I3.501 J0.040 K0.000 F139.800
G1 X8.000 Y-21.500 Z-1.600 F139.800
G3 X8.500 Y-21.000 Z-1.600 I0.000 J0.500 K0.000 F139.800
G1 X8.500 Y-11.500 Z-1.600 F139.800
G1 X8.354 Y-11.354 Z-1.600 F139.800
G1 X8.500 Y-11.500 Z-1.600 F139.800
G1 X14.743 Y-11.500 Z-1.600 F139.800
G1 X14.889 Y-11.354 Z-1.600 F139.800
G1 X14.743 Y-11.500 Z-1.600 F139.800
G1 X14.743 Y-21.000 Z-1.600 F139.800
G3 X15.243 Y-21.500 Z-1.600 I0.500 J0.000 K0.000 F139.800
G1 X32.527 Y-21.500 Z-1.600 F139.800
G1 X33.121 Y-21.500 Z-1.000 F99.647
G1 X33.715 Y-21.500 Z-1.600 F99.647
G1 X68.285 Y-21.500 Z-1.600 F139.800
G1 X68.879 Y-21.500 Z-1.000 F99.647
G1 X69.473 Y-21.500 Z-1.600 F99.647
G1 X99.243 Y-21.500 Z-1.600 F139.800
G3 X99.743 Y-21.000 Z-1.600 I-0.000 J0.500 K0.000 F139.800
G1 X99.743 Y-11.500 Z-1.600 F139.800
G1 X99.596 Y-11.354 Z-1.600 F139.800
G1 X99.743 Y-11.500 Z-1.600 F139.800
G1 X105.985 Y-11.500 Z-1.600 F139.800
G1 X106.132 Y-11.354 Z-1.600 F139.800
G1 X105.985 Y-11.500 Z-1.600 F139.800
G1 X105.985 Y-21.000 Z-1.600 F139.800
G3 X106.485 Y-21.500 Z-1.600 I0.500 J0.000 K0.000 F139.800
G1 X110.525 Y-21.498 Z-1.600 F139.800
G3 X113.985 Y-18.000 Z-1.600 I-0.040 J3.501 K0.000 F139.800
G1 X113.984 Y-3.961 Z-1.600 F139.800
G3 X112.959 Y-1.526 Z-1.600 I-3.501 J-0.040 K0.000 F139.800
G1 X112.959 Y-1.526 Z-2.000 F60.000
G3 X110.485 Y-0.500 Z-2.000 I-2.476 J-2.475 K0.000 F139.800
G1 X75.480 Y-0.501 Z-2.000 F139.800
G1 X28.460 Y-0.501 Z-2.000 F139.800
G1 X3.961 Y-0.502 Z-2.000 F139.800
G3 X0.500 Y-4.000 Z-2.000 I0.040 J-3.501 K0.000 F139.800
G1 X0.502 Y-18.039 Z-2.000 F139.800
G3 X4.000 Y-21.500 Z-2.000 I3.501 J0.040 K0.000 F139.800
G1 X8.000 Y-21.500 Z-2.000 F139.800
G3 X8.500 Y-21.000 Z-2.000 I0.000 J0.500 K0.000 F139.800
G1 X8.500 Y-11.500 Z-2.000 F139.800
G1 X8.354 Y-11.354 Z-2.000 F139.800
G1 X8.500 Y-11.500 Z-2.000 F139.800
G1 X14.743 Y-11.500 Z-2.000 F139.800
G1 X14.889 Y-11.354 Z-2.000 F139.800
G1 X14.743 Y-11.500 Z-2.000 F139.800
G1 X14.743 Y-21.000 Z-2.000 F139.800
G3 X15.243 Y-21.500 Z-2.000 I0.500 J0.000 K0.000 F139.800
G1 X32.131 Y-21.500 Z-2.000 F139.800
G1 X33.121 Y-21.500 Z-1.000 F99.647
G1 X34.111 Y-21.500 Z-2.000 F99.647
G1 X67.889 Y-21.500 Z-2.000 F139.800
G1 X68.879 Y-21.500 Z-1.000 F99.647
G1 X69.869 Y-21.500 Z-2.000 F99.647
G1 X99.243 Y-21.500 Z-2.000 F139.800
G3 X99.743 Y-21.000 Z-2.000 I-0.000 J0.500 K0.000 F139.800
G1 X99.743 Y-11.500 Z-2.000 F139.800
G1 X99.596 Y-11.354 Z-2.000 F139.800
G1 X99.743 Y-11.500 Z-2.000 F139.800
G1 X105.985 Y-11.500 Z-2.000 F139.800
G1 X106.132 Y-11.354 Z-2.000 F139.800
G1 X105.985 Y-11.500 Z-2.000 F139.800
G1 X105.985 Y-21.000 Z-2.000 F139.800
G3 X106.485 Y-21.500 Z-2.000 I0.500 J0.000 K0.000 F139.800
G1 X110.525 Y-21.498 Z-2.000 F139.800
G3 X113.985 Y-18.000 Z-2.000 I-0.040 J3.501 K0.000 F139.800
G1 X113.984 Y-3.961 Z-2.000 F139.800
G3 X112.959 Y-1.526 Z-2.000 I-3.501 J-0.040 K0.000 F139.800
G1 X112.959 Y-1.526 Z-2.400 F60.000
G3 X110.485 Y-0.500 Z-2.400 I-2.476 J-2.475 K0.000 F139.800
G1 X75.876 Y-0.501 Z-2.400 F139.800
G1 X74.491 Y-0.501 Z-1.001 F99.647
G1 X73.104 Y-0.501 Z-2.400 F99.687
G1 X28.857 Y-0.501 Z-2.400 F139.800
G1 X3.961 Y-0.502 Z-2.400 F139.800
G3 X0.500 Y-4.000 Z-2.400 I0.040 J-3.501 K0.000 F139.800
G1 X0.502 Y-18.039 Z-2.400 F139.800
G3 X4.000 Y-21.500 Z-2.400 I3.501 J0.040 K0.000 F139.800
G1 X8.000 Y-21.500 Z-2.400 F139.800
G3 X8.500 Y-21.000 Z-2.400 I0.000 J0.500 K0.000 F139.800
G1 X8.500 Y-11.500 Z-2.400 F139.800
G1 X8.354 Y-11.354 Z-2.400 F139.800
G1 X8.500 Y-11.500 Z-2.400 F139.800
G1 X14.743 Y-11.500 Z-2.400 F139.800
G1 X14.889 Y-11.354 Z-2.400 F139.800
G1 X14.743 Y-11.500 Z-2.400 F139.800
G1 X14.743 Y-21.000 Z-2.400 F139.800
G3 X15.243 Y-21.500 Z-2.400 I0.500 J0.000 K0.000 F139.800
G1 X31.735 Y-21.500 Z-2.400 F139.800
G1 X33.121 Y-21.500 Z-1.000 F99.647
G1 X34.507 Y-21.500 Z-2.400 F99.647
G1 X67.493 Y-21.500 Z-2.400 F139.800
G1 X68.879 Y-21.500 Z-1.000 F99.647
G1 X70.265 Y-21.500 Z-2.400 F99.647
G1 X99.243 Y-21.500 Z-2.400 F139.800
G3 X99.743 Y-21.000 Z-2.400 I-0.000 J0.500 K0.000 F139.800
G1 X99.743 Y-11.500 Z-2.400 F139.800
G1 X99.596 Y-11.354 Z-2.400 F139.800
G1 X99.743 Y-11.500 Z-2.400 F139.800
G1 X105.985 Y-11.500 Z-2.400 F139.800
G1 X106.132 Y-11.354 Z-2.400 F139.800
G1 X105.985 Y-11.500 Z-2.400 F139.800
G1 X105.985 Y-21.000 Z-2.400 F139.800
G3 X106.485 Y-21.500 Z-2.400 I0.500 J0.000 K0.000 F139.800
G1 X110.525 Y-21.498 Z-2.400 F139.800
G3 X113.985 Y-18.000 Z-2.400 I-0.040 J3.501 K0.000 F139.800
G1 X113.984 Y-3.961 Z-2.400 F139.800
G3 X112.959 Y-1.526 Z-2.400 I-3.501 J-0.040 K0.000 F139.800
G1 X112.959 Y-1.526 Z-2.800 F60.000
G3 X110.485 Y-0.500 Z-2.800 I-2.476 J-2.475 K0.000 F139.800
G1 X76.272 Y-0.501 Z-2.800 F139.800
G1 X74.491 Y-0.501 Z-1.001 F99.648
G1 X72.708 Y-0.501 Z-2.800 F99.662
G1 X29.253 Y-0.501 Z-2.800 F139.800
G1 X3.961 Y-0.502 Z-2.800 F139.800
G3 X0.500 Y-4.000 Z-2.800 I0.040 J-3.501 K0.000 F139.800
G1 X0.502 Y-18.039 Z-2.800 F139.800
G3 X4.000 Y-21.500 Z-2.800 I3.501 J0.040 K0.000 F139.800
G1 X8.000 Y-21.500 Z-2.800 F139.800
G3 X8.500 Y-21.000 Z-2.800 I0.000 J0.500 K0.000 F139.800
G1 X8.500 Y-11.500 Z-2.800 F139.800
G1 X8.354 Y-11.354 Z-2.800 F139.800
G1 X8.500 Y-11.500 Z-2.800 F139.800
G1 X14.743 Y-11.500 Z-2.800 F139.800
G1 X14.889 Y-11.354 Z-2.800 F139.800
G1 X14.743 Y-11.500 Z-2.800 F139.800
G1 X14.743 Y-21.000 Z-2.800 F139.800
G3 X15.243 Y-21.500 Z-2.800 I0.500 J0.000 K0.000 F139.800
G1 X31.339 Y-21.500 Z-2.800 F139.800
G1 X33.121 Y-21.500 Z-1.000 F99.647
G1 X34.903 Y-21.500 Z-2.800 F99.647
G1 X67.097 Y-21.500 Z-2.800 F139.800
G1 X68.879 Y-21.500 Z-1.000 F99.647
G1 X70.661 Y-21.500 Z-2.800 F99.647
G1 X99.243 Y-21.500 Z-2.800 F139.800
G3 X99.743 Y-21.000 Z-2.800 I-0.000 J0.500 K0.000 F139.800
G1 X99.743 Y-11.500 Z-2.800 F139.800
G1 X99.596 Y-11.354 Z-2.800 F139.800
G1 X99.743 Y-11.500 Z-2.800 F139.800
G1 X105.985 Y-11.500 Z-2.800 F139.800
G1 X106.132 Y-11.354 Z-2.800 F139.800
G1 X105.985 Y-11.500 Z-2.800 F139.800
G1 X105.985 Y-21.000 Z-2.800 F139.800
G3 X106.485 Y-21.500 Z-2.800 I0.500 J0.000 K0.000 F139.800
G1 X110.525 Y-21.498 Z-2.800 F139.800
G3 X113.985 Y-18.000 Z-2.800 I-0.040 J3.501 K0.000 F139.800
G1 X113.984 Y-3.961 Z-2.800 F139.800
G3 X112.959 Y-1.526 Z-2.800 I-3.501 J-0.040 K0.000 F139.800
G1 X112.959 Y-1.526 Z-3.000 F60.000
G3 X110.485 Y-0.500 Z-3.000 I-2.476 J-2.475 K0.000 F139.800
G1 X76.470 Y-0.501 Z-3.000 F139.800
G1 X74.491 Y-0.501 Z-1.001 F99.648
G1 X72.510 Y-0.501 Z-3.000 F99.657
G1 X29.451 Y-0.501 Z-3.000 F139.800
G1 X3.961 Y-0.502 Z-3.000 F139.800
G3 X0.500 Y-4.000 Z-3.000 I0.040 J-3.501 K0.000 F139.800
G1 X0.502 Y-18.039 Z-3.000 F139.800
G3 X4.000 Y-21.500 Z-3.000 I3.501 J0.040 K0.000 F139.800
G1 X8.000 Y-21.500 Z-3.000 F139.800
G3 X8.500 Y-21.000 Z-3.000 I0.000 J0.500 K0.000 F139.800
G1 X8.500 Y-11.500 Z-3.000 F139.800
G1 X8.354 Y-11.354 Z-3.000 F139.800
G1 X8.500 Y-11.500 Z-3.000 F139.800
G1 X14.743 Y-11.500 Z-3.000 F139.800
G1 X14.889 Y-11.354 Z-3.000 F139.800
G1 X14.743 Y-11.500 Z-3.000 F139.800
G1 X14.743 Y-21.000 Z-3.000 F139.800
G3 X15.243 Y-21.500 Z-3.000 I0.500 J0.000 K0.000 F139.800
G1 X31.141 Y-21.500 Z-3.000 F139.800
G1 X33.121 Y-21.500 Z-1.000 F99.647
G1 X35.101 Y-21.500 Z-3.000 F99.647
G1 X66.899 Y-21.500 Z-3.000 F139.800
G1 X68.879 Y-21.500 Z-1.000 F99.647
G1 X70.859 Y-21.500 Z-3.000 F99.647
G1 X99.243 Y-21.500 Z-3.000 F139.800
G3 X99.743 Y-21.000 Z-3.000 I-0.000 J0.500 K0.000 F139.800
G1 X99.743 Y-11.500 Z-3.000 F139.800
G1 X99.596 Y-11.354 Z-3.000 F139.800
G1 X99.743 Y-11.500 Z-3.000 F139.800
G1 X105.985 Y-11.500 Z-3.000 F139.800
G1 X106.132 Y-11.354 Z-3.000 F139.800
G1 X105.985 Y-11.500 Z-3.000 F139.800
G1 X105.985 Y-21.000 Z-3.000 F139.800
G3 X106.485 Y-21.500 Z-3.000 I0.500 J0.000 K0.000 F139.800
G1 X110.525 Y-21.498 Z-3.000 F139.800
G3 X113.985 Y-18.000 Z-3.000 I-0.040 J3.501 K0.000 F139.800
G1 X113.984 Y-3.961 Z-3.000 F139.800
G3 X112.959 Y-1.526 Z-3.000 I-3.501 J-0.040 K0.000 F139.800
G0 X112.959 Y-1.526 Z2.000
(Finish operation: DressupTag002)
(Begin postamble)
M5
G17 G90
M2
