(Exported by FreeCAD)
(Post Processor: grbl_post)
(Output Time:2020-08-03 10:44:09.444708)
(Begin preamble)
G17 G90
G21
(Begin operation: Fixture)
(Path: Fixture)
G54
(Finish operation: Fixture)
(Begin operation: T37: Two-flute 1mm x 7mm001)
(Path: T37: Two-flute 1mm x 7mm001)
(T37: Two-flute 1mm x 7mm001)
(Begin toolchange)
(M6 T37.0)
M3 S7400.0
(Finish operation: T37: Two-flute 1mm x 7mm001)
(Begin operation: RampEntryDressup)
(Path: RampEntryDressup)
G0 X0.000 Y0.000 Z5.000
G0 X2.500 Y-0.500 Z5.000
G0 X2.500 Y-0.500 Z3.000
G1 X2.500 Y-3.531 Z1.250 F139.980
G1 X2.500 Y-0.500 Z-0.500 F139.980
G1 X2.500 Y-9.500 Z-0.500 F139.980
G1 X2.646 Y-9.646 Z-0.500 F139.980
G1 X2.500 Y-9.500 Z-0.500 F139.980
G1 X0.500 Y-9.500 Z-0.500 F139.980
G1 X0.354 Y-9.646 Z-0.500 F139.980
G1 X0.500 Y-9.500 Z-0.500 F139.980
G1 X0.500 Y-0.500 Z-0.500 F139.980
G1 X0.354 Y-0.354 Z-0.500 F139.980
G1 X0.500 Y-0.500 Z-0.500 F139.980
G1 X2.500 Y-0.500 Z-0.500 F139.980
G1 X2.646 Y-0.354 Z-0.500 F139.980
G1 X2.500 Y-0.500 Z-0.500 F139.980
G0 X2.500 Y-0.500 Z5.000
G0 X1.900 Y-1.100 Z5.000
G0 X1.900 Y-1.100 Z3.000
G1 X1.900 Y-4.131 Z1.250 F139.980
G1 X1.900 Y-1.100 Z-0.500 F139.980
G1 X1.900 Y-8.900 Z-0.500 F139.980
G1 X2.046 Y-9.046 Z-0.500 F139.980
G1 X1.900 Y-8.900 Z-0.500 F139.980
G1 X1.100 Y-8.900 Z-0.500 F139.980
G1 X0.954 Y-9.046 Z-0.500 F139.980
G1 X1.100 Y-8.900 Z-0.500 F139.980
G1 X1.100 Y-1.100 Z-0.500 F139.980
G1 X0.954 Y-0.954 Z-0.500 F139.980
G1 X1.100 Y-1.100 Z-0.500 F139.980
G1 X1.900 Y-1.100 Z-0.500 F139.980
G1 X2.046 Y-0.954 Z-0.500 F139.980
G1 X1.900 Y-1.100 Z-0.500 F139.980
G0 X1.900 Y-1.100 Z5.000
G0 X1.650 Y-1.350 Z5.000
G0 X1.650 Y-1.350 Z3.000
G1 X1.650 Y-4.381 Z1.250 F139.980
G1 X1.650 Y-1.350 Z-0.500 F139.980
G1 X1.650 Y-8.650 Z-0.500 F139.980
G1 X1.796 Y-8.796 Z-0.500 F139.980
G1 X1.650 Y-8.650 Z-0.500 F139.980
G1 X1.350 Y-8.650 Z-0.500 F139.980
G1 X1.204 Y-8.796 Z-0.500 F139.980
G1 X1.350 Y-8.650 Z-0.500 F139.980
G1 X1.350 Y-1.350 Z-0.500 F139.980
G1 X1.204 Y-1.204 Z-0.500 F139.980
G1 X1.350 Y-1.350 Z-0.500 F139.980
G1 X1.650 Y-1.350 Z-0.500 F139.980
G1 X1.796 Y-1.204 Z-0.500 F139.980
G1 X1.650 Y-1.350 Z-0.500 F139.980
G1 X1.650 Y-1.783 Z-0.750 F139.980
G1 X1.650 Y-1.350 Z-1.000 F139.980
G1 X1.650 Y-8.650 Z-1.000 F139.980
G1 X1.796 Y-8.796 Z-1.000 F139.980
G1 X1.650 Y-8.650 Z-1.000 F139.980
G1 X1.350 Y-8.650 Z-1.000 F139.980
G1 X1.204 Y-8.796 Z-1.000 F139.980
G1 X1.350 Y-8.650 Z-1.000 F139.980
G1 X1.350 Y-1.350 Z-1.000 F139.980
G1 X1.204 Y-1.204 Z-1.000 F139.980
G1 X1.350 Y-1.350 Z-1.000 F139.980
G1 X1.650 Y-1.350 Z-1.000 F139.980
G1 X1.796 Y-1.204 Z-1.000 F139.980
G1 X1.650 Y-1.350 Z-1.000 F139.980
G0 X1.650 Y-1.350 Z5.000
G0 X1.900 Y-1.350 Z5.000
G0 X1.900 Y-1.350 Z3.000
G1 X1.900 Y-4.814 Z1.000 F139.980
G1 X1.900 Y-1.350 Z-1.000 F139.980
G1 X1.900 Y-8.900 Z-1.000 F139.980
G1 X2.046 Y-9.046 Z-1.000 F139.980
G1 X1.900 Y-8.900 Z-1.000 F139.980
G1 X1.100 Y-8.900 Z-1.000 F139.980
G1 X0.954 Y-9.046 Z-1.000 F139.980
G1 X1.100 Y-8.900 Z-1.000 F139.980
G1 X1.100 Y-1.100 Z-1.000 F139.980
G1 X0.954 Y-0.954 Z-1.000 F139.980
G1 X1.100 Y-1.100 Z-1.000 F139.980
G1 X1.900 Y-1.100 Z-1.000 F139.980
G1 X2.046 Y-0.954 Z-1.000 F139.980
G1 X1.900 Y-1.100 Z-1.000 F139.980
G1 X1.900 Y-1.350 Z-1.000 F139.980
G0 X1.900 Y-1.350 Z5.000
G0 X2.500 Y-1.350 Z5.000
G0 X2.500 Y-1.350 Z3.000
G1 X2.500 Y-4.814 Z1.000 F139.980
G1 X2.500 Y-1.350 Z-1.000 F139.980
G1 X2.500 Y-9.500 Z-1.000 F139.980
G1 X2.646 Y-9.646 Z-1.000 F139.980
G1 X2.500 Y-9.500 Z-1.000 F139.980
G1 X0.500 Y-9.500 Z-1.000 F139.980
G1 X0.354 Y-9.646 Z-1.000 F139.980
G1 X0.500 Y-9.500 Z-1.000 F139.980
G1 X0.500 Y-0.500 Z-1.000 F139.980
G1 X0.354 Y-0.354 Z-1.000 F139.980
G1 X0.500 Y-0.500 Z-1.000 F139.980
G1 X2.500 Y-0.500 Z-1.000 F139.980
G1 X2.646 Y-0.354 Z-1.000 F139.980
G1 X2.500 Y-0.500 Z-1.000 F139.980
G1 X2.500 Y-1.350 Z-1.000 F139.980
G1 X2.500 Y-1.783 Z-1.250 F139.980
G1 X2.500 Y-1.350 Z-1.500 F139.980
G1 X2.500 Y-9.500 Z-1.500 F139.980
G1 X2.646 Y-9.646 Z-1.500 F139.980
G1 X2.500 Y-9.500 Z-1.500 F139.980
G1 X0.500 Y-9.500 Z-1.500 F139.980
G1 X0.354 Y-9.646 Z-1.500 F139.980
G1 X0.500 Y-9.500 Z-1.500 F139.980
G1 X0.500 Y-0.500 Z-1.500 F139.980
G1 X0.354 Y-0.354 Z-1.500 F139.980
G1 X0.500 Y-0.500 Z-1.500 F139.980
G1 X2.500 Y-0.500 Z-1.500 F139.980
G1 X2.646 Y-0.354 Z-1.500 F139.980
G1 X2.500 Y-0.500 Z-1.500 F139.980
G1 X2.500 Y-1.350 Z-1.500 F139.980
G0 X2.500 Y-1.350 Z5.000
G0 X1.900 Y-1.350 Z5.000
G0 X1.900 Y-1.350 Z3.000
G1 X1.900 Y-5.247 Z0.750 F139.980
G1 X1.900 Y-1.350 Z-1.500 F139.980
G1 X1.900 Y-8.900 Z-1.500 F139.980
G1 X2.046 Y-9.046 Z-1.500 F139.980
G1 X1.900 Y-8.900 Z-1.500 F139.980
G1 X1.100 Y-8.900 Z-1.500 F139.980
G1 X0.954 Y-9.046 Z-1.500 F139.980
G1 X1.100 Y-8.900 Z-1.500 F139.980
G1 X1.100 Y-1.100 Z-1.500 F139.980
G1 X0.954 Y-0.954 Z-1.500 F139.980
G1 X1.100 Y-1.100 Z-1.500 F139.980
G1 X1.900 Y-1.100 Z-1.500 F139.980
G1 X2.046 Y-0.954 Z-1.500 F139.980
G1 X1.900 Y-1.100 Z-1.500 F139.980
G1 X1.900 Y-1.350 Z-1.500 F139.980
G0 X1.900 Y-1.350 Z5.000
G0 X1.650 Y-1.350 Z5.000
G0 X1.650 Y-1.350 Z3.000
G1 X1.650 Y-5.247 Z0.750 F139.980
G1 X1.650 Y-1.350 Z-1.500 F139.980
G1 X1.650 Y-8.650 Z-1.500 F139.980
G1 X1.796 Y-8.796 Z-1.500 F139.980
G1 X1.650 Y-8.650 Z-1.500 F139.980
G1 X1.350 Y-8.650 Z-1.500 F139.980
G1 X1.204 Y-8.796 Z-1.500 F139.980
G1 X1.350 Y-8.650 Z-1.500 F139.980
G1 X1.350 Y-1.350 Z-1.500 F139.980
G1 X1.204 Y-1.204 Z-1.500 F139.980
G1 X1.350 Y-1.350 Z-1.500 F139.980
G1 X1.650 Y-1.350 Z-1.500 F139.980
G1 X1.796 Y-1.204 Z-1.500 F139.980
G1 X1.650 Y-1.350 Z-1.500 F139.980
G1 X1.650 Y-1.783 Z-1.750 F139.980
G1 X1.650 Y-1.350 Z-2.000 F139.980
G1 X1.650 Y-8.650 Z-2.000 F139.980
G1 X1.796 Y-8.796 Z-2.000 F139.980
G1 X1.650 Y-8.650 Z-2.000 F139.980
G1 X1.350 Y-8.650 Z-2.000 F139.980
G1 X1.204 Y-8.796 Z-2.000 F139.980
G1 X1.350 Y-8.650 Z-2.000 F139.980
G1 X1.350 Y-1.350 Z-2.000 F139.980
G1 X1.204 Y-1.204 Z-2.000 F139.980
G1 X1.350 Y-1.350 Z-2.000 F139.980
G1 X1.650 Y-1.350 Z-2.000 F139.980
G1 X1.796 Y-1.204 Z-2.000 F139.980
G1 X1.650 Y-1.350 Z-2.000 F139.980
G0 X1.650 Y-1.350 Z5.000
G0 X1.900 Y-1.350 Z5.000
G0 X1.900 Y-1.350 Z3.000
G1 X1.900 Y-5.680 Z0.500 F139.980
G1 X1.900 Y-1.350 Z-2.000 F139.980
G1 X1.900 Y-8.900 Z-2.000 F139.980
G1 X2.046 Y-9.046 Z-2.000 F139.980
G1 X1.900 Y-8.900 Z-2.000 F139.980
G1 X1.100 Y-8.900 Z-2.000 F139.980
G1 X0.954 Y-9.046 Z-2.000 F139.980
G1 X1.100 Y-8.900 Z-2.000 F139.980
G1 X1.100 Y-1.100 Z-2.000 F139.980
G1 X0.954 Y-0.954 Z-2.000 F139.980
G1 X1.100 Y-1.100 Z-2.000 F139.980
G1 X1.900 Y-1.100 Z-2.000 F139.980
G1 X2.046 Y-0.954 Z-2.000 F139.980
G1 X1.900 Y-1.100 Z-2.000 F139.980
G1 X1.900 Y-1.350 Z-2.000 F139.980
G0 X1.900 Y-1.350 Z5.000
G0 X2.500 Y-1.350 Z5.000
G0 X2.500 Y-1.350 Z3.000
G1 X2.500 Y-5.680 Z0.500 F139.980
G1 X2.500 Y-1.350 Z-2.000 F139.980
G1 X2.500 Y-9.500 Z-2.000 F139.980
G1 X2.646 Y-9.646 Z-2.000 F139.980
G1 X2.500 Y-9.500 Z-2.000 F139.980
G1 X0.500 Y-9.500 Z-2.000 F139.980
G1 X0.354 Y-9.646 Z-2.000 F139.980
G1 X0.500 Y-9.500 Z-2.000 F139.980
G1 X0.500 Y-0.500 Z-2.000 F139.980
G1 X0.354 Y-0.354 Z-2.000 F139.980
G1 X0.500 Y-0.500 Z-2.000 F139.980
G1 X2.500 Y-0.500 Z-2.000 F139.980
G1 X2.646 Y-0.354 Z-2.000 F139.980
G1 X2.500 Y-0.500 Z-2.000 F139.980
G1 X2.500 Y-1.350 Z-2.000 F139.980
G1 X2.500 Y-1.783 Z-2.250 F139.980
G1 X2.500 Y-1.350 Z-2.500 F139.980
G1 X2.500 Y-9.500 Z-2.500 F139.980
G1 X2.646 Y-9.646 Z-2.500 F139.980
G1 X2.500 Y-9.500 Z-2.500 F139.980
G1 X0.500 Y-9.500 Z-2.500 F139.980
G1 X0.354 Y-9.646 Z-2.500 F139.980
G1 X0.500 Y-9.500 Z-2.500 F139.980
G1 X0.500 Y-0.500 Z-2.500 F139.980
G1 X0.354 Y-0.354 Z-2.500 F139.980
G1 X0.500 Y-0.500 Z-2.500 F139.980
G1 X2.500 Y-0.500 Z-2.500 F139.980
G1 X2.646 Y-0.354 Z-2.500 F139.980
G1 X2.500 Y-0.500 Z-2.500 F139.980
G1 X2.500 Y-1.350 Z-2.500 F139.980
G0 X2.500 Y-1.350 Z5.000
G0 X1.900 Y-1.350 Z5.000
G0 X1.900 Y-1.350 Z3.000
G1 X1.900 Y-6.113 Z0.250 F139.980
G1 X1.900 Y-1.350 Z-2.500 F139.980
G1 X1.900 Y-8.900 Z-2.500 F139.980
G1 X2.046 Y-9.046 Z-2.500 F139.980
G1 X1.900 Y-8.900 Z-2.500 F139.980
G1 X1.100 Y-8.900 Z-2.500 F139.980
G1 X0.954 Y-9.046 Z-2.500 F139.980
G1 X1.100 Y-8.900 Z-2.500 F139.980
G1 X1.100 Y-1.100 Z-2.500 F139.980
G1 X0.954 Y-0.954 Z-2.500 F139.980
G1 X1.100 Y-1.100 Z-2.500 F139.980
G1 X1.900 Y-1.100 Z-2.500 F139.980
G1 X2.046 Y-0.954 Z-2.500 F139.980
G1 X1.900 Y-1.100 Z-2.500 F139.980
G1 X1.900 Y-1.350 Z-2.500 F139.980
G0 X1.900 Y-1.350 Z5.000
G0 X1.650 Y-1.350 Z5.000
G0 X1.650 Y-1.350 Z3.000
G1 X1.650 Y-6.113 Z0.250 F139.980
G1 X1.650 Y-1.350 Z-2.500 F139.980
G1 X1.650 Y-8.650 Z-2.500 F139.980
G1 X1.796 Y-8.796 Z-2.500 F139.980
G1 X1.650 Y-8.650 Z-2.500 F139.980
G1 X1.350 Y-8.650 Z-2.500 F139.980
G1 X1.204 Y-8.796 Z-2.500 F139.980
G1 X1.350 Y-8.650 Z-2.500 F139.980
G1 X1.350 Y-1.350 Z-2.500 F139.980
G1 X1.204 Y-1.204 Z-2.500 F139.980
G1 X1.350 Y-1.350 Z-2.500 F139.980
G1 X1.650 Y-1.350 Z-2.500 F139.980
G1 X1.796 Y-1.204 Z-2.500 F139.980
G1 X1.650 Y-1.350 Z-2.500 F139.980
G1 X1.650 Y-1.783 Z-2.750 F139.980
G1 X1.650 Y-1.350 Z-3.000 F139.980
G1 X1.650 Y-8.650 Z-3.000 F139.980
G1 X1.796 Y-8.796 Z-3.000 F139.980
G1 X1.650 Y-8.650 Z-3.000 F139.980
G1 X1.350 Y-8.650 Z-3.000 F139.980
G1 X1.204 Y-8.796 Z-3.000 F139.980
G1 X1.350 Y-8.650 Z-3.000 F139.980
G1 X1.350 Y-1.350 Z-3.000 F139.980
G1 X1.204 Y-1.204 Z-3.000 F139.980
G1 X1.350 Y-1.350 Z-3.000 F139.980
G1 X1.650 Y-1.350 Z-3.000 F139.980
G1 X1.796 Y-1.204 Z-3.000 F139.980
G1 X1.650 Y-1.350 Z-3.000 F139.980
G0 X1.650 Y-1.350 Z5.000
G0 X1.900 Y-1.350 Z5.000
G0 X1.900 Y-1.350 Z3.000
G1 X1.900 Y-6.546 Z0.000 F139.980
G1 X1.900 Y-1.350 Z-3.000 F139.980
G1 X1.900 Y-8.900 Z-3.000 F139.980
G1 X2.046 Y-9.046 Z-3.000 F139.980
G1 X1.900 Y-8.900 Z-3.000 F139.980
G1 X1.100 Y-8.900 Z-3.000 F139.980
G1 X0.954 Y-9.046 Z-3.000 F139.980
G1 X1.100 Y-8.900 Z-3.000 F139.980
G1 X1.100 Y-1.100 Z-3.000 F139.980
G1 X0.954 Y-0.954 Z-3.000 F139.980
G1 X1.100 Y-1.100 Z-3.000 F139.980
G1 X1.900 Y-1.100 Z-3.000 F139.980
G1 X2.046 Y-0.954 Z-3.000 F139.980
G1 X1.900 Y-1.100 Z-3.000 F139.980
G1 X1.900 Y-1.350 Z-3.000 F139.980
G0 X1.900 Y-1.350 Z5.000
G0 X2.500 Y-1.350 Z5.000
G0 X2.500 Y-1.350 Z3.000
G1 X2.500 Y-6.546 Z0.000 F139.980
G1 X2.500 Y-1.350 Z-3.000 F139.980
G1 X2.500 Y-9.500 Z-3.000 F139.980
G1 X2.646 Y-9.646 Z-3.000 F139.980
G1 X2.500 Y-9.500 Z-3.000 F139.980
G1 X0.500 Y-9.500 Z-3.000 F139.980
G1 X0.354 Y-9.646 Z-3.000 F139.980
G1 X0.500 Y-9.500 Z-3.000 F139.980
G1 X0.500 Y-0.500 Z-3.000 F139.980
G1 X0.354 Y-0.354 Z-3.000 F139.980
G1 X0.500 Y-0.500 Z-3.000 F139.980
G1 X2.500 Y-0.500 Z-3.000 F139.980
G1 X2.646 Y-0.354 Z-3.000 F139.980
G1 X2.500 Y-0.500 Z-3.000 F139.980
G1 X2.500 Y-1.350 Z-3.000 F139.980
G1 X2.500 Y-1.437 Z-3.050 F139.980
G1 X2.500 Y-1.350 Z-3.100 F139.980
G1 X2.500 Y-9.500 Z-3.100 F139.980
G1 X2.646 Y-9.646 Z-3.100 F139.980
G1 X2.500 Y-9.500 Z-3.100 F139.980
G1 X0.500 Y-9.500 Z-3.100 F139.980
G1 X0.354 Y-9.646 Z-3.100 F139.980
G1 X0.500 Y-9.500 Z-3.100 F139.980
G1 X0.500 Y-0.500 Z-3.100 F139.980
G1 X0.354 Y-0.354 Z-3.100 F139.980
G1 X0.500 Y-0.500 Z-3.100 F139.980
G1 X2.500 Y-0.500 Z-3.100 F139.980
G1 X2.646 Y-0.354 Z-3.100 F139.980
G1 X2.500 Y-0.500 Z-3.100 F139.980
G1 X2.500 Y-1.350 Z-3.100 F139.980
G0 X2.500 Y-1.350 Z5.000
G0 X1.900 Y-1.350 Z5.000
G0 X1.900 Y-1.350 Z3.000
G1 X1.900 Y-6.633 Z-0.050 F139.980
G1 X1.900 Y-1.350 Z-3.100 F139.980
G1 X1.900 Y-8.900 Z-3.100 F139.980
G1 X2.046 Y-9.046 Z-3.100 F139.980
G1 X1.900 Y-8.900 Z-3.100 F139.980
G1 X1.100 Y-8.900 Z-3.100 F139.980
G1 X0.954 Y-9.046 Z-3.100 F139.980
G1 X1.100 Y-8.900 Z-3.100 F139.980
G1 X1.100 Y-1.100 Z-3.100 F139.980
G1 X0.954 Y-0.954 Z-3.100 F139.980
G1 X1.100 Y-1.100 Z-3.100 F139.980
G1 X1.900 Y-1.100 Z-3.100 F139.980
G1 X2.046 Y-0.954 Z-3.100 F139.980
G1 X1.900 Y-1.100 Z-3.100 F139.980
G1 X1.900 Y-1.350 Z-3.100 F139.980
G0 X1.900 Y-1.350 Z5.000
G0 X1.650 Y-1.350 Z5.000
G0 X1.650 Y-1.350 Z3.000
G1 X1.650 Y-6.633 Z-0.050 F139.980
G1 X1.650 Y-1.350 Z-3.100 F139.980
G1 X1.650 Y-8.650 Z-3.100 F139.980
G1 X1.796 Y-8.796 Z-3.100 F139.980
G1 X1.650 Y-8.650 Z-3.100 F139.980
G1 X1.350 Y-8.650 Z-3.100 F139.980
G1 X1.204 Y-8.796 Z-3.100 F139.980
G1 X1.350 Y-8.650 Z-3.100 F139.980
G1 X1.350 Y-1.350 Z-3.100 F139.980
G1 X1.204 Y-1.204 Z-3.100 F139.980
G1 X1.350 Y-1.350 Z-3.100 F139.980
G1 X1.650 Y-1.350 Z-3.100 F139.980
G1 X1.796 Y-1.204 Z-3.100 F139.980
G1 X1.650 Y-1.350 Z-3.100 F139.980
G0 X1.650 Y-1.350 Z5.000
(Finish operation: RampEntryDressup)
(Begin postamble)
M5
G17 G90
M2
